<?xml version="1.0" encoding="UTF-8" standalone="no"?>
<!-- Created with Inkscape (http://www.inkscape.org/) -->

<svg
   xmlns:dc="http://purl.org/dc/elements/1.1/"
   xmlns:cc="http://creativecommons.org/ns#"
   xmlns:rdf="http://www.w3.org/1999/02/22-rdf-syntax-ns#"
   xmlns:svg="http://www.w3.org/2000/svg"
   xmlns="http://www.w3.org/2000/svg"
   xmlns:xlink="http://www.w3.org/1999/xlink"
   xmlns:sodipodi="http://sodipodi.sourceforge.net/DTD/sodipodi-0.dtd"
   xmlns:inkscape="http://www.inkscape.org/namespaces/inkscape"
   width="49.993649mm"
   height="33.745716mm"
   viewBox="0 0 177.14285 119.57143"
   id="svg2"
   version="1.1"
   inkscape:version="0.91 r13725"
   sodipodi:docname="MPI-star-structure.svg"
   inkscape:export-filename="/home/dabi/VC-Projects/Software/Mine/Current/transport-maps/Docs/source/Figures/working/MPI-star-structure.png"
   inkscape:export-xdpi="101.61"
   inkscape:export-ydpi="101.61">
  <defs
     id="defs4" />
  <sodipodi:namedview
     id="base"
     pagecolor="#ffffff"
     bordercolor="#666666"
     borderopacity="1.0"
     inkscape:pageopacity="0.0"
     inkscape:pageshadow="2"
     inkscape:zoom="1.979899"
     inkscape:cx="125.96177"
     inkscape:cy="-3.5093355"
     inkscape:document-units="px"
     inkscape:current-layer="layer1"
     showgrid="false"
     inkscape:window-width="1920"
     inkscape:window-height="1056"
     inkscape:window-x="0"
     inkscape:window-y="24"
     inkscape:window-maximized="1"
     fit-margin-top="0"
     fit-margin-left="0"
     fit-margin-right="0"
     fit-margin-bottom="0" />
  <metadata
     id="metadata7">
    <rdf:RDF>
      <cc:Work
         rdf:about="">
        <dc:format>image/svg+xml</dc:format>
        <dc:type
           rdf:resource="http://purl.org/dc/dcmitype/StillImage" />
        <dc:title></dc:title>
      </cc:Work>
    </rdf:RDF>
  </metadata>
  <g
     inkscape:label="Layer 1"
     inkscape:groupmode="layer"
     id="layer1"
     transform="translate(-107.21429,-110.79078)">
    <rect
       style="fill:#51c751;fill-opacity:0.19607843;stroke:#51c762;stroke-width:0.4479683;stroke-miterlimit:4;stroke-dasharray:none;stroke-dashoffset:0;stroke-opacity:1"
       id="rect4158-7"
       width="25.462818"
       height="16.980602"
       x="183.69716"
       y="162.44333"
       inkscape:connector-avoid="true" />
    <flowRoot
       transform="translate(-363.38594,-374.86333)"
       xml:space="preserve"
       style="font-style:normal;font-weight:normal;font-size:12px;line-height:125%;font-family:Sans;text-align:center;letter-spacing:0px;word-spacing:0px;text-anchor:middle;fill:#000000;fill-opacity:1;stroke:none;stroke-width:1px;stroke-linecap:butt;stroke-linejoin:miter;stroke-opacity:1"
       id="flowRoot4214-8"><flowRegion
         id="flowRegion4216-6"><use
           x="0"
           y="0"
           xlink:href="#rect4158-7"
           id="use4218-8"
           width="100%"
           height="100%"
           transform="translate(363.38594,374.86333)" /></flowRegion><flowPara
         id="flowPara4220-8">P<flowSpan
   style="font-size:64.99999762%;baseline-shift:sub"
   id="flowSpan7263">0</flowSpan></flowPara></flowRoot>    <rect
       style="fill:#ba51c7;fill-opacity:0.19607843;stroke:#ba51c7;stroke-width:0.93286395;stroke-miterlimit:4;stroke-dasharray:none;stroke-dashoffset:0;stroke-opacity:1"
       id="rect4451-2"
       width="28.638563"
       height="16.495707"
       x="134.96645"
       y="111.25721" />
    <flowRoot
       transform="translate(-518.27567,-78.595198)"
       xml:space="preserve"
       style="font-style:normal;font-weight:normal;font-size:12px;line-height:125%;font-family:Sans;text-align:center;letter-spacing:0px;word-spacing:0px;text-anchor:middle;fill:#000000;fill-opacity:1;stroke:none;stroke-width:1px;stroke-linecap:butt;stroke-linejoin:miter;stroke-opacity:1"
       id="flowRoot4457-8"><flowRegion
         id="flowRegion4459-9"><use
           height="100%"
           width="100%"
           x="0"
           y="0"
           xlink:href="#rect4451-2"
           id="use4461-7"
           transform="translate(518.27567,78.595198)" /></flowRegion><flowPara
         id="flowPara4463-3">P<flowSpan
   style="font-size:64.99999762%;baseline-shift:sub"
   id="flowSpan7265">n</flowSpan></flowPara></flowRoot>    <rect
       style="fill:#ba51c7;fill-opacity:0.19607843;stroke:#ba51c7;stroke-width:0.93286395;stroke-miterlimit:4;stroke-dasharray:none;stroke-dashoffset:0;stroke-opacity:1"
       id="rect4451-2-6"
       width="28.638563"
       height="16.495707"
       x="215.68071"
       y="111.25721" />
    <flowRoot
       transform="translate(-659.20425,-190.81455)"
       xml:space="preserve"
       style="font-style:normal;font-weight:normal;font-size:12px;line-height:125%;font-family:Sans;text-align:center;letter-spacing:0px;word-spacing:0px;text-anchor:middle;fill:#000000;fill-opacity:1;stroke:none;stroke-width:1px;stroke-linecap:butt;stroke-linejoin:miter;stroke-opacity:1"
       id="flowRoot4457-8-7"><flowRegion
         id="flowRegion4459-9-5"><use
           height="100%"
           width="100%"
           x="0"
           y="0"
           xlink:href="#rect4451-2-6"
           id="use4461-7-3"
           transform="translate(659.20425,190.81455)" /></flowRegion><flowPara
         id="flowPara4463-3-5">P<flowSpan
   style="font-size:64.99999762%;baseline-shift:sub"
   id="flowSpan7265-6">1</flowSpan></flowPara></flowRoot>    <rect
       style="fill:#ba51c7;fill-opacity:0.19607843;stroke:#ba51c7;stroke-width:0.93286395;stroke-miterlimit:4;stroke-dasharray:none;stroke-dashoffset:0;stroke-opacity:1"
       id="rect4451-2-6-2"
       width="28.638563"
       height="16.495707"
       x="255.25214"
       y="162.9715" />
    <flowRoot
       transform="translate(-874.41853,-301.60533)"
       xml:space="preserve"
       style="font-style:normal;font-weight:normal;font-size:12px;line-height:125%;font-family:Sans;text-align:center;letter-spacing:0px;word-spacing:0px;text-anchor:middle;fill:#000000;fill-opacity:1;stroke:none;stroke-width:1px;stroke-linecap:butt;stroke-linejoin:miter;stroke-opacity:1"
       id="flowRoot4457-8-7-9"><flowRegion
         id="flowRegion4459-9-5-1"><use
           height="100%"
           width="100%"
           x="0"
           y="0"
           xlink:href="#rect4451-2-6-2"
           id="use4461-7-3-2"
           transform="translate(874.41853,301.60533)" /></flowRegion><flowPara
         id="flowPara4463-3-5-7">P<flowSpan
   style="font-size:64.99999762%;baseline-shift:sub"
   id="flowSpan7265-6-0">2</flowSpan></flowPara></flowRoot>    <rect
       style="fill:#ba51c7;fill-opacity:0.19607843;stroke:#ba51c7;stroke-width:0.93286395;stroke-miterlimit:4;stroke-dasharray:none;stroke-dashoffset:0;stroke-opacity:1"
       id="rect4451-2-6-9"
       width="28.638563"
       height="16.495707"
       x="218.68073"
       y="213.40007" />
    <flowRoot
       transform="translate(-874.41853,-301.60533)"
       xml:space="preserve"
       style="font-style:normal;font-weight:normal;font-size:12px;line-height:125%;font-family:Sans;text-align:center;letter-spacing:0px;word-spacing:0px;text-anchor:middle;fill:#000000;fill-opacity:1;stroke:none;stroke-width:1px;stroke-linecap:butt;stroke-linejoin:miter;stroke-opacity:1"
       id="flowRoot4457-8-7-3"><flowRegion
         id="flowRegion4459-9-5-6"><use
           height="100%"
           width="100%"
           x="0"
           y="0"
           xlink:href="#rect4451-2-6-9"
           id="use4461-7-3-0"
           transform="translate(874.41853,301.60533)" /></flowRegion><flowPara
         id="flowPara4463-3-5-6">P<flowSpan
   style="font-size:64.99999762%;baseline-shift:sub"
   id="flowSpan7265-6-2">3</flowSpan></flowPara></flowRoot>    <rect
       style="fill:#ba51c7;fill-opacity:0.19607843;stroke:#ba51c7;stroke-width:0.93286395;stroke-miterlimit:4;stroke-dasharray:none;stroke-dashoffset:0;stroke-opacity:1"
       id="rect4451-2-6-6"
       width="28.638563"
       height="16.495707"
       x="107.68072"
       y="164.82864" />
    <flowRoot
       transform="translate(-874.41853,-301.60533)"
       xml:space="preserve"
       style="font-style:normal;font-weight:normal;font-size:12px;line-height:125%;font-family:Sans;text-align:center;letter-spacing:0px;word-spacing:0px;text-anchor:middle;fill:#000000;fill-opacity:1;stroke:none;stroke-width:1px;stroke-linecap:butt;stroke-linejoin:miter;stroke-opacity:1"
       id="flowRoot4457-8-7-1"><flowRegion
         id="flowRegion4459-9-5-8"><use
           height="100%"
           width="100%"
           x="0"
           y="0"
           xlink:href="#rect4451-2-6-6"
           id="use4461-7-3-7"
           transform="translate(874.41853,301.60533)" /></flowRegion><flowPara
         id="flowPara4463-3-5-9">P<flowSpan
   style="font-size:64.99999762%;baseline-shift:sub"
   id="flowSpan7265-6-20">n-1</flowSpan></flowPara></flowRoot>    <path
       style="fill:none;fill-rule:evenodd;stroke:#000000;stroke-width:1px;stroke-linecap:butt;stroke-linejoin:miter;stroke-opacity:1"
       d="m 183.69716,170.95807 -47.37788,0.0909"
       id="path6110"
       inkscape:connector-type="polyline"
       inkscape:connector-curvature="0"
       inkscape:connection-start="#rect4158-7"
       inkscape:connection-end="#rect4451-2-6-6" />
    <path
       style="fill:none;fill-rule:evenodd;stroke:#000000;stroke-width:1;stroke-linecap:butt;stroke-linejoin:miter;stroke-miterlimit:4;stroke-dasharray:6, 6;stroke-dashoffset:0;stroke-opacity:1"
       d="m 189.10715,179.50506 -26.07143,32.5"
       id="path6114"
       inkscape:connector-curvature="0" />
    <path
       style="fill:none;fill-rule:evenodd;stroke:#000000;stroke-width:1px;stroke-linecap:butt;stroke-linejoin:miter;stroke-opacity:1"
       d="M 188.64579,162.44333 156.84626,127.75292"
       id="path6135"
       inkscape:connector-type="polyline"
       inkscape:connector-curvature="0"
       inkscape:connection-start="#rect4158-7"
       inkscape:connection-end="#rect4451-2" />
    <path
       style="fill:none;fill-rule:evenodd;stroke:#000000;stroke-width:1px;stroke-linecap:butt;stroke-linejoin:miter;stroke-opacity:1"
       d="m 201.97085,162.44333 22.64513,-34.69041"
       id="path6137"
       inkscape:connector-type="polyline"
       inkscape:connector-curvature="0"
       inkscape:connection-start="#rect4158-7"
       inkscape:connection-end="#rect4451-2-6" />
    <path
       style="fill:none;fill-rule:evenodd;stroke:#000000;stroke-width:1px;stroke-linecap:butt;stroke-linejoin:miter;stroke-opacity:1"
       d="m 209.15998,170.98336 46.09216,0.18005"
       id="path6139"
       inkscape:connector-type="polyline"
       inkscape:connector-curvature="0"
       inkscape:connection-start="#rect4158-7"
       inkscape:connection-end="#rect4451-2-6-2" />
    <path
       style="fill:none;fill-rule:evenodd;stroke:#000000;stroke-width:1px;stroke-linecap:butt;stroke-linejoin:miter;stroke-opacity:1"
       d="m 202.55115,179.42393 24.50111,33.97614"
       id="path6141"
       inkscape:connector-type="polyline"
       inkscape:connector-curvature="0"
       inkscape:connection-start="#rect4158-7"
       inkscape:connection-end="#rect4451-2-6-9" />
  </g>
</svg>
