5.783761913808120880e+02
7.046564770556869917e+02
2.748653223359723370e+02
1.508889849150365023e+02
0.000000000000000000e+00
0.000000000000000000e+00
4.419450981047702953e+02
5.900530341197734288e+02
4.803977132914950516e+02
1.560805275195889976e+02
2.475936866678238459e+02
4.094949948004797307e+02
0.000000000000000000e+00
4.504017133309391170e+02
2.720273833947431967e+02
0.000000000000000000e+00
9.003226794802684196e+01
0.000000000000000000e+00
0.000000000000000000e+00
1.780797367613559743e+02
4.638703139746211264e+02
0.000000000000000000e+00
4.933512568375590490e+02
2.005038901748967470e-02
0.000000000000000000e+00
0.000000000000000000e+00
0.000000000000000000e+00
2.316290312091951265e+01
0.000000000000000000e+00
3.663762615109589547e+02
0.000000000000000000e+00
0.000000000000000000e+00
7.834411800740070930e-02
0.000000000000000000e+00
6.201192590189747307e+02
1.341176843938592810e+03
9.488663293450368883e+02
3.350831815896526678e+02
2.771541957812587498e+02
2.119545469768127788e+01
1.010436569896455472e+00
5.874677189560316037e+02
0.000000000000000000e+00
2.950504482923422015e-04
5.274842224789608736e+02
5.359945200427320060e+02
6.166600201227993239e+02
1.371591107725180905e+02
3.618416151572091621e+02
0.000000000000000000e+00
1.623113155368627645e+02
4.867892030641086194e+02
6.205507842452790328e+02
0.000000000000000000e+00
3.940828333914395216e+02
1.549065024378238654e-03
0.000000000000000000e+00
0.000000000000000000e+00
9.764479280609521084e+02
6.267821502013248391e+02
0.000000000000000000e+00
0.000000000000000000e+00
0.000000000000000000e+00
0.000000000000000000e+00
4.435337813474269850e-03
1.696541623729785897e+00
5.442341142406802419e+02
6.904045083712843507e+02
2.408779477889765985e+02
1.134480612288825512e+02
1.636510565670719721e-04
0.000000000000000000e+00
4.368666769762058948e+02
5.606413557128689718e+02
1.347855307134298479e-03
1.479520997727376823e+02
5.552504962950480376e+02
0.000000000000000000e+00
3.457816227466536247e+02
1.661752838884921868e+00
0.000000000000000000e+00
0.000000000000000000e+00
1.089180845664783348e-03
6.726368027045737108e+00
3.436355618439846467e+02
1.106363761960892589e+02
0.000000000000000000e+00
9.273964497307216059e-02
6.731008953363925684e+02
3.531217628027659430e+02
0.000000000000000000e+00
5.020695772240286487e+02
5.779125704860610391e-04
0.000000000000000000e+00
0.000000000000000000e+00
5.804238528296992854e+02
0.000000000000000000e+00
2.544121645605628146e+01
3.687399844806350870e+02
2.411313835604111944e-04
3.217554934969485316e+02
3.514575400666217320e+02
3.546005181033251574e+02
4.821588501214137068e+02
0.000000000000000000e+00
2.265551522061286960e+02
0.000000000000000000e+00
1.252579037411123579e+02
2.543223969019891797e+02
0.000000000000000000e+00
5.437211613134422805e+02
0.000000000000000000e+00
8.001230082686561218e+00
0.000000000000000000e+00
0.000000000000000000e+00
0.000000000000000000e+00
4.558548546145175351e+02
0.000000000000000000e+00
8.123808001164434245e+00
4.111513486779587083e+02
0.000000000000000000e+00
5.194983061155652422e+02
5.922011995513457805e+02
0.000000000000000000e+00
0.000000000000000000e+00
0.000000000000000000e+00
6.034511233650846407e+02
0.000000000000000000e+00
0.000000000000000000e+00
4.894140017652758717e-02
3.896788358872528280e-01
8.124690332973839304e+02
0.000000000000000000e+00
0.000000000000000000e+00
0.000000000000000000e+00
0.000000000000000000e+00
0.000000000000000000e+00
6.183622362383175641e+02
0.000000000000000000e+00
3.835981965959944660e+02
1.664753466425280948e+01
7.537334372322844478e-02
0.000000000000000000e+00
3.224647052171349060e+02
7.435649027283943724e+01
6.849404751646943623e+01
0.000000000000000000e+00
8.676802010813844390e+01
1.694567395679746251e-03
0.000000000000000000e+00
3.036771949475222527e+02
8.721138532621356632e+00
6.756849972589407116e+02
2.653889033135782825e+02
5.242666681122500449e+02
0.000000000000000000e+00
4.431511638231313555e+01
0.000000000000000000e+00
5.854328252215054817e+02
0.000000000000000000e+00
5.200139393593419754e+02
4.671531295316527803e+02
2.755302803307130830e+02
7.819979902531486005e+02
0.000000000000000000e+00
3.843414925420801183e+02
5.053199306916211526e+02
0.000000000000000000e+00
1.506602885914618071e+02
7.471958195557817817e+02
0.000000000000000000e+00
2.401965794775195572e-03
6.372679402750236477e+00
5.267636891461734194e+02
4.379104810064745834e+02
1.272536326588306565e+03
5.980122132859831936e+02
3.047935962618795429e+02
1.876853390816904437e+02
1.099732481734826933e+03
0.000000000000000000e+00
8.593970296649766638e-04
0.000000000000000000e+00
3.378441478344029747e+02
2.231767653830125113e-09
0.000000000000000000e+00
2.491245399488661416e+00
2.289449612955650082e+02
0.000000000000000000e+00
5.045515359975978527e+02
2.675982678720175159e+02
1.411332881162686605e-02
5.308209182781865820e+02
1.087927231899811460e+02
1.462941042193050976e+02
2.910851158925651134e+02
0.000000000000000000e+00
1.290460218995871352e-04
6.046994985102749354e-02
0.000000000000000000e+00
3.126556494473334169e+02
5.617626831306552049e+02
3.383840473361486829e+02
0.000000000000000000e+00
5.658377695668605156e+02
4.551596939410956111e+02
4.914710549404843505e+02
0.000000000000000000e+00
1.115121484721384348e+02
4.487771876745682675e+02
6.078656444997248798e+01
7.504495786315600014e+01
5.126802505626982338e+02
7.571198917570853837e-02
0.000000000000000000e+00
7.379637596430256963e+02
5.859442704706909311e+00
0.000000000000000000e+00
8.600644485226569599e-04
0.000000000000000000e+00
5.285622475115815178e+02
4.526389243561426383e+02
0.000000000000000000e+00
2.865935299210832454e+02
1.836454405838593473e+01
0.000000000000000000e+00
3.301194210755056702e+02
6.014663037945865653e+02
5.698076840533756240e+02
9.458312455217306081e+01
1.024445370215107687e+03
0.000000000000000000e+00
2.741091676107316744e+02
4.121625142255653600e+02
2.565509653763001552e+02
0.000000000000000000e+00
4.621297975842026062e+02
2.649930346149631077e+02
1.226931302477848331e-04
0.000000000000000000e+00
4.494472101625433424e+02
4.851885664997098502e+02
3.003948031644541743e+02
0.000000000000000000e+00
4.578473974834195133e+02
2.848336255133289185e+01
7.680541432433528826e+02
5.438082034816034138e+02
1.114132436356385369e+01
4.279048214999647826e+00
0.000000000000000000e+00
3.798918028292972622e+02
0.000000000000000000e+00
3.410788268167911155e-04
0.000000000000000000e+00
3.427115087350103408e+02
0.000000000000000000e+00
0.000000000000000000e+00
4.821955143334832883e-01
4.331608421017563160e+00
8.647511286721258628e-02
3.174604207799803568e+00
9.814351696681111434e+02
0.000000000000000000e+00
1.002472906775074080e+03
0.000000000000000000e+00
0.000000000000000000e+00
6.822176611249234668e+01
0.000000000000000000e+00
3.392683811369350906e+02
0.000000000000000000e+00
3.819124797338701027e-01
0.000000000000000000e+00
4.105439601251417798e+02
4.391629610880045220e+02
3.376559025640744949e+02
4.530641166355054565e+02
0.000000000000000000e+00
6.841881301028477083e+02
4.067182657418015879e+02
4.741774819784041028e+02
0.000000000000000000e+00
0.000000000000000000e+00
5.422209436721916020e+00
9.191662978528256644e+01
0.000000000000000000e+00
0.000000000000000000e+00
1.741448341785143725e+02
1.082771964274798826e+01
6.725550791102818948e-01
6.077466081143940073e+02
0.000000000000000000e+00
4.403505855579692430e-04
2.449840940719690842e-04
0.000000000000000000e+00
0.000000000000000000e+00
0.000000000000000000e+00
4.364483798075525556e+02
5.404149413872802370e+02
3.988739199980044532e+02
1.469232678399378343e-02
0.000000000000000000e+00
5.548507548330234158e+02
0.000000000000000000e+00
2.004574166652673171e+02
0.000000000000000000e+00
5.841588803792549243e+02
4.634294373551118597e-03
7.474037604112029332e-01
0.000000000000000000e+00
3.199374564079333254e+02
3.765577730056975270e+02
0.000000000000000000e+00
2.176048611072473307e+02
5.057452617193120403e+01
4.170760227483697236e+02
8.201834259947648889e+02
1.500135722373669864e+02
4.712541084853000939e+02
3.867080251205835761e+00
8.230297988266105449e+02
7.954270215243528560e-04
0.000000000000000000e+00
5.843702145186398411e+02
6.889447311172260697e+02
2.766120877789945212e+02
4.583090651565726148e+02
4.491966248645341137e-02
1.901130838283279445e+02
3.381259775971557247e+02
0.000000000000000000e+00
4.458429387505020713e+01
9.129351875235447267e+01
6.776125794692687165e+00
1.177335311364232062e+01
1.106330110292765767e+03
0.000000000000000000e+00
2.030558473104974269e+02
3.066285475608310662e+02
4.761907567874004599e+02
0.000000000000000000e+00
4.699120615179707556e+02
1.561578036159970928e+01
3.686543649309896296e+02
0.000000000000000000e+00
0.000000000000000000e+00
4.291261802329244119e+02
7.300569319777425790e+02
1.748623097338337191e-03
0.000000000000000000e+00
0.000000000000000000e+00
0.000000000000000000e+00
0.000000000000000000e+00
7.343504452101115021e+01
2.629847332344069741e+02
1.026110268946013377e+02
0.000000000000000000e+00
6.571689260439598002e+02
3.831308606771926293e+02
0.000000000000000000e+00
7.681978363179947564e+02
2.458169152070866642e-02
3.977013187988633263e+02
3.018909826736490345e+02
0.000000000000000000e+00
6.224113240343283451e+02
0.000000000000000000e+00
0.000000000000000000e+00
2.980835494704478350e+01
5.989052778342738748e+02
7.034289537470615414e+02
1.116697293581092254e+03
5.921442403152468614e+02
1.436008184768070350e+02
2.630332542776159244e+02
3.243772939138581251e+02
2.813681969000754179e+02
6.207473508300608955e+02
0.000000000000000000e+00
1.171405036923603833e-04
5.854261868131288793e+02
2.054396838296890238e-03
4.854013727337588762e+02
2.090434934030783154e+02
0.000000000000000000e+00
0.000000000000000000e+00
0.000000000000000000e+00
0.000000000000000000e+00
0.000000000000000000e+00
0.000000000000000000e+00
2.338110630640586294e+02
3.215576100578800833e+01
0.000000000000000000e+00
5.958256973863171879e+02
3.489855080726555343e+02
0.000000000000000000e+00
0.000000000000000000e+00
4.542432597065548805e-04
1.919166401158008161e-04
6.500934023533773143e+01
8.693635517265643387e+01
2.304126155347474558e-03
6.527120851231416054e-01
5.225953810426290147e+02
0.000000000000000000e+00
1.138363667453813378e+03
3.065570726548116465e+00
9.903110680006653865e+01
0.000000000000000000e+00
0.000000000000000000e+00
0.000000000000000000e+00
0.000000000000000000e+00
2.509967310570572607e+01
8.535681023636239928e+00
4.361224123014835641e+02
4.888245456691947766e+02
3.148579023472847211e+02
5.930092052796680946e+02
0.000000000000000000e+00
7.033909288176802193e+02
9.527630879689244239e+02
7.978902266135262380e+02
1.033294717065291707e+03
9.841179475458814493e-04
0.000000000000000000e+00
3.053422895327174702e-01
4.300226091592777493e+02
5.617939577925427557e+02
2.284851109745432041e+02
5.971536214230582118e+02
6.892898595164297149e+02
7.603437432543434012e-04
8.379404649804200744e+01
1.939782314959302596e+02
1.557950524761507971e+00
0.000000000000000000e+00
0.000000000000000000e+00
0.000000000000000000e+00
1.166986753818600054e-03
0.000000000000000000e+00
3.763660590159644825e-01
3.180691490989317159e-03
5.342481425213916282e+02
5.612547884225021733e+01
0.000000000000000000e+00
2.355877079715171783e-04
2.429525020339497132e+02
3.576047463779104305e+02
5.507722860926148769e+02
3.643788276738632703e+02
4.405121656047413126e+02
6.636668504611975550e-01
4.034670725465616670e+00
5.114583168865927121e-02
3.676711275933486149e+02
1.100038295956619095e+03
6.024836112818179271e-04
2.295798836832546499e+02
6.190726162050850689e+02
4.186840909528653754e+01
5.039951544851645622e+02
0.000000000000000000e+00
0.000000000000000000e+00
0.000000000000000000e+00
7.257149568584279677e+02
6.791317638635520098e+02
4.325920697272522375e+02
0.000000000000000000e+00
5.606494884443234241e+02
7.584290591519678628e+02
2.375617214911471251e+02
0.000000000000000000e+00
2.545077201889966556e+00
5.357852560140599962e+02
5.364093352378401960e+02
3.194299695194786182e+02
0.000000000000000000e+00
3.278476570558268577e+02
4.725889305009332020e+02
3.127039448004324385e+01
0.000000000000000000e+00
7.739929933057283051e+02
2.041424832543724754e+00
4.323706804570974782e+01
4.488063355791383628e+02
3.735181585296231788e+02
2.976220300464773914e+02
4.640551002168648438e+02
5.560763277775549795e+02
1.093723481665074587e+03
1.162491755751033935e+02
1.486950726897702282e+02
0.000000000000000000e+00
7.148922704502069791e-01
9.957075813232220298e+02
1.547266270710679237e+02
1.545013976630797856e+02
2.882769866890157573e+02
8.402880458190336412e+02
0.000000000000000000e+00
4.991931200260295327e+02
7.511756966741813812e+01
4.018783497624100391e+02
2.364814680599920749e+01
5.246345433497481281e+02
5.578271710590344128e+02
4.393252342488268596e+02
5.137878264795290306e+02
8.022105397845738253e+02
2.773803318934368463e+02
0.000000000000000000e+00
4.641456136028864421e+02
4.750089601951913210e+02
0.000000000000000000e+00
3.811923163630125373e+02
0.000000000000000000e+00
0.000000000000000000e+00
8.935475645630506278e+02
2.563671688362774148e+01
3.103602745493845987e+02
6.496183856211246166e+00
1.614385291284179402e+01
8.079329509925514685e-01
2.520529030487523414e+02
2.447830994318792932e+02
4.158217410897124182e+02
3.039504567321274635e+02
0.000000000000000000e+00
0.000000000000000000e+00
2.996041850754410234e+02
4.316478640510467812e+02
1.095227398964837562e-01
7.856692150831805748e+02
0.000000000000000000e+00
0.000000000000000000e+00
4.867452947753916419e+02
0.000000000000000000e+00
4.052908874771674164e+02
1.652702086019417891e+02
8.187540242273823878e+02
3.116992852318390739e+00
2.947201849070778756e+00
0.000000000000000000e+00
4.882379923110418645e+02
2.046855339027388538e+02
0.000000000000000000e+00
2.340572792430827519e-03
4.986543576690110768e+01
0.000000000000000000e+00
0.000000000000000000e+00
0.000000000000000000e+00
1.398245027949451696e+03
9.288575925029368463e+00
7.755835811927681789e+02
4.304061661845480558e+02
2.195721053377397425e-02
0.000000000000000000e+00
1.491746740324743712e+02
4.087026170815079240e+02
0.000000000000000000e+00
3.337505824154504808e+02
3.974352446795818423e+02
5.750167394216985883e+01
0.000000000000000000e+00
0.000000000000000000e+00
0.000000000000000000e+00
0.000000000000000000e+00
2.912875744412304471e+02
0.000000000000000000e+00
2.588866948848590823e+02
0.000000000000000000e+00
3.759732940605316571e+02
1.333023779938230746e+03
1.708860761631569303e-01
7.550418274113326333e+02
0.000000000000000000e+00
6.676557240149122663e+02
9.084234855709631684e-02
4.229359726956316763e+02
1.296554532374816649e-03
0.000000000000000000e+00
6.060306534047413152e+02
4.267871602020020987e+02
3.066861571573099354e+02
0.000000000000000000e+00
5.208079985502989757e+02
0.000000000000000000e+00
0.000000000000000000e+00
3.014240741140383761e+02
0.000000000000000000e+00
6.065432850955404547e+02
0.000000000000000000e+00
0.000000000000000000e+00
1.132778166718707809e+02
4.565653184756228029e+02
2.575315761758246254e+02
4.982299556635553017e+02
1.153807421680474142e-03
1.224774340346812807e+02
5.041689218873216305e+02
0.000000000000000000e+00
1.601155553057650494e+01
0.000000000000000000e+00
2.907359949833335122e+02
4.399011308749321643e+02
2.455701043279987061e+02
5.081769387441454455e+02
0.000000000000000000e+00
4.341491400336963125e+02
8.046303714615010705e-03
3.106174549725438538e+01
7.432927337213186547e+02
3.940240643321885727e+02
0.000000000000000000e+00
2.786992078899857006e+01
1.020163291350763984e+03
6.709426324683590792e+02
9.105073355785864351e+02
5.013549437426265172e+02
1.430324843705311003e-02
2.050091167302148677e-03
4.620289293423410300e+02
1.375057645966535880e+01
0.000000000000000000e+00
3.107284012010040897e+01
0.000000000000000000e+00
3.908389964344679584e+02
4.863472873089449422e+01
5.111714431630389299e+02
3.153990236947719268e+02
6.722669497656169142e+02
1.956321933092113454e+02
2.454253213440096317e+02
4.043124809949284987e-04
0.000000000000000000e+00
4.293655798965118038e+02
4.897747257807337218e-01
3.469501661846151137e+02
0.000000000000000000e+00
9.039420280945976657e-05
2.008410873422689633e+02
5.369766559982963372e+02
6.878774689394051620e+02
4.872066938253283297e+00
5.321266225051658694e+02
1.643441813229583659e+03
0.000000000000000000e+00
8.863548541063209996e+02
7.879247480581396985e+02
3.224947565991897136e+02
4.281659410860783055e-02
0.000000000000000000e+00
1.130118288131780218e+03
4.436556946910059196e+02
3.652154471077665221e+02
0.000000000000000000e+00
1.122487057018872747e+00
3.356860914755088743e+02
2.718035369885002339e+01
0.000000000000000000e+00
2.049228444539040197e+02
5.085084404083316372e+02
2.720075720263892549e-02
8.546401441883060670e+02
2.118336595703467200e-05
0.000000000000000000e+00
0.000000000000000000e+00
2.927770707266972181e+02
0.000000000000000000e+00
0.000000000000000000e+00
1.830288457002282876e-01
4.555043164646120246e+00
3.576874195870915969e+02
0.000000000000000000e+00
6.356552728502718708e+01
0.000000000000000000e+00
2.855463536252499921e+02
4.213144450070104767e+02
4.806284302496351302e+02
4.653959231593063350e-02
0.000000000000000000e+00
5.275929896954039577e+02
1.309232468151011681e-03
4.128500856881146319e+02
7.280163090486895499e+02
0.000000000000000000e+00
0.000000000000000000e+00
6.149741870656725951e+02
0.000000000000000000e+00
4.109919164518943262e+02
8.300949683783985620e+02
2.193405144942517495e+02
3.423028673027148443e+02
3.703855052328435136e+02
1.062238086151356606e-02
5.060716893305894359e-02
5.720820240594549411e+00
4.887376634022074313e+02
6.471268526751373429e+02
7.533214327551829683e+02
0.000000000000000000e+00
2.171762531922638573e-01
0.000000000000000000e+00
2.671283379491185689e-02
0.000000000000000000e+00
0.000000000000000000e+00
2.294674989716440905e+01
7.725970116007372326e+02
7.366016565511017689e+01
0.000000000000000000e+00
1.162655249323506013e+02
0.000000000000000000e+00
8.421443048457146006e+02
2.792693242159582923e-03
4.261385097966012125e+01
5.817154025760828517e+02
2.778593825451024486e+02
2.367667846456256598e-03
5.311457244028261471e-02
0.000000000000000000e+00
8.062227829082987682e+02
0.000000000000000000e+00
8.666563373728424722e+02
6.403493101999630426e+02
7.456529912094994188e+02
0.000000000000000000e+00
0.000000000000000000e+00
2.571837439768387412e+01
0.000000000000000000e+00
1.224051136198340828e+01
4.567081464325329883e-04
1.345161693409862380e+02
2.646373489737925411e+01
5.204218307619157713e+02
0.000000000000000000e+00
7.137009979880531318e+02
1.592924240378124239e+02
4.238277207481587538e+02
6.364146456762683783e+02
4.133567128388677929e+02
0.000000000000000000e+00
0.000000000000000000e+00
9.459636171854415299e-01
6.747047270560869947e+02
3.316675068002952003e+02
0.000000000000000000e+00
4.918726752300983662e-02
0.000000000000000000e+00
4.254819156012673602e+02
5.322241937712533399e+02
5.326329040399288033e+02
5.519127564773955328e+02
5.538259819106315263e+02
1.915370311262459824e-04
1.885910349446184159e-02
3.595431178182728615e-02
7.215017921051449738e-04
1.002269922631967489e+02
3.372667922221239678e+00
1.169720381521698771e+00
4.031695409859821666e+02
0.000000000000000000e+00
0.000000000000000000e+00
0.000000000000000000e+00
0.000000000000000000e+00
0.000000000000000000e+00
4.755051230814766328e-03
0.000000000000000000e+00
4.314586887725455426e+02
8.161126586828683571e+01
9.876507405431764255e+02
1.243775117193762725e+02
7.286251524870749563e+02
0.000000000000000000e+00
0.000000000000000000e+00
0.000000000000000000e+00
6.870408430520910770e+02
2.390796948850038461e+02
0.000000000000000000e+00
8.752038166203417404e+02
0.000000000000000000e+00
6.304768697482359130e+02
4.741172290667615939e-03
4.315108853916170801e+02
5.074035921330504380e+02
5.620171812654007226e+02
5.183782098202981636e+00
8.237853010403345024e+02
3.580653506724047475e+02
6.048953823177726008e+02
4.734321187897877508e+02
3.005763433411628966e+02
6.956443292991025373e+02
2.868305873551435639e+02
3.949665605716290884e+02
2.331433408584416611e+02
0.000000000000000000e+00
0.000000000000000000e+00
0.000000000000000000e+00
6.689275793862182127e+02
5.435388847308786353e+01
3.567159568556235172e+02
6.717519410685781622e+01
0.000000000000000000e+00
2.037696615672756764e+02
1.887930824286740119e+02
4.471164325710559524e+02
9.197286722953333096e-04
2.025563455215760936e-02
0.000000000000000000e+00
4.149685442780537414e+01
4.398911051430332009e+02
0.000000000000000000e+00
4.468318013110547327e+02
4.585100646534168156e-04
5.460508059728454100e+02
4.416855648756609298e+02
0.000000000000000000e+00
2.038560599405057516e+00
6.285946124398833490e+00
3.979527400908410755e+02
0.000000000000000000e+00
0.000000000000000000e+00
8.045238264821811072e+02
0.000000000000000000e+00
2.877010943651839057e+02
3.573389949291593553e+02
3.791922825184883550e+02
0.000000000000000000e+00
0.000000000000000000e+00
0.000000000000000000e+00
8.903316335876301082e+02
8.524755067846854217e+02
0.000000000000000000e+00
0.000000000000000000e+00
7.281010925231387318e+02
6.208451644575688988e+02
3.207209583121085394e+00
0.000000000000000000e+00
0.000000000000000000e+00
7.138376840928685851e+02
2.967392264210503185e+02
1.264605519539496086e-03
1.435493993061365053e-03
5.521479761235241313e+02
4.134943464788598533e-02
6.697589679723023437e+02
1.127934878473752178e+03
4.945775202970255009e+02
4.143791367197992486e+02
0.000000000000000000e+00
2.745323571816699086e+02
4.116438895451768332e-03
2.429787405707202907e+01
0.000000000000000000e+00
6.223652151325949262e+02
9.734310019839539052e+01
6.992132044710159562e+02
5.092371745919081150e+02
0.000000000000000000e+00
3.034267489272223450e+00
3.392973676166093355e+01
3.084120737818010412e+02
4.696873037901561077e-02
0.000000000000000000e+00
7.284530613583228842e+00
3.654874533454859602e+02
8.353286427911367582e+02
1.799484135841339025e+02
2.393388853663055329e+02
5.298854734654014464e+02
1.070791963968077198e+03
4.231543008980225977e+02
1.746586013110572821e+02
1.155945789456323869e+00
0.000000000000000000e+00
5.469785920213325880e+02
0.000000000000000000e+00
5.912205265669323584e-05
0.000000000000000000e+00
0.000000000000000000e+00
4.037708045350882458e+02
2.401059714520670241e+02
5.601422571826333296e+01
3.018750857721896637e+02
0.000000000000000000e+00
3.278215910133440048e+02
9.560794915998084467e-05
8.782160759050756504e-04
6.996578200822114013e+02
7.447295110199772807e+02
6.864377194862671149e-05
1.708316160663344192e+02
7.297714026180983637e+01
4.842560501012484337e+02
2.877735005566136124e+02
0.000000000000000000e+00
0.000000000000000000e+00
3.089225536186859244e+02
5.295994281914315707e+02
3.643800717480190201e+02
0.000000000000000000e+00
1.643175009157857005e+02
5.911082355902181007e+02
1.309794434473586762e+02
9.796675432167834288e+02
2.868238098399161373e+01
4.692688013237783480e+02
3.770226738375639570e+02
3.294185405291499364e+02
5.073973681770438589e+02
3.522446496514021419e+02
4.981948261643992737e+02
0.000000000000000000e+00
1.933518057403489934e+02
5.218945693326531909e+02
0.000000000000000000e+00
1.564054267710889462e+03
3.792281907291909988e+02
6.757699198402406182e+02
0.000000000000000000e+00
9.115038547466980390e-02
3.387718851237877971e+02
3.916701168454892468e+02
9.198825966726869865e+02
0.000000000000000000e+00
8.620181578771737918e+01
0.000000000000000000e+00
5.539137873738583551e+01
4.983071585316790220e+02
4.217174074379727244e+02
0.000000000000000000e+00
5.650176385970553383e+02
1.002270793509784774e-03
4.484588767816603649e+02
4.041390698454052881e+02
3.512465049352613278e+01
6.122867344893165864e+02
2.624435222562169656e+02
5.367169191282300744e+02
1.973211587801416300e+01
7.727548916022897174e+00
1.078705985035048570e+03
3.948601208852779791e+02
8.614873060570969301e+02
0.000000000000000000e+00
0.000000000000000000e+00
2.080778808115011356e-04
0.000000000000000000e+00
9.974040170279698751e-04
4.507229722164980343e-05
2.859582841458177427e+02
0.000000000000000000e+00
3.340857669957044540e-05
0.000000000000000000e+00
4.425198553453810746e+02
4.637116464625419104e-05
0.000000000000000000e+00
2.918066688642285271e+02
7.851627542870121488e+02
0.000000000000000000e+00
0.000000000000000000e+00
5.790722261328484137e+02
0.000000000000000000e+00
1.066932425748381547e+03
4.947124955309845973e+02
6.997231572793679106e+02
0.000000000000000000e+00
1.008555383226848647e+02
0.000000000000000000e+00
5.154919370295829140e+02
0.000000000000000000e+00
7.504837892367504537e+02
0.000000000000000000e+00
0.000000000000000000e+00
4.212787203599873465e+02
6.848996896096650744e+01
7.868952340300891137e+02
0.000000000000000000e+00
2.358540805158514803e-02
5.571584786906896625e+02
6.906714830998680554e+02
8.974266666555195116e+02
4.492005808864631717e+02
8.162361859249355689e+01
8.789269053602760096e+02
6.564112884683706852e+02
3.856522038986440748e+02
2.954268084959039697e+02
0.000000000000000000e+00
9.942699889229518817e+01
0.000000000000000000e+00
0.000000000000000000e+00
2.223995825077053823e+01
0.000000000000000000e+00
2.995996519130129627e+02
3.981378755343031344e+02
4.526226173045870382e+02
4.823606661972008851e+02
0.000000000000000000e+00
6.550572205896969535e+01
1.401072835349737467e-03
1.385126443152403532e-04
6.540812318662575819e+01
2.204175716696842990e-03
1.790385219469499845e+01
9.158569673827511792e+01
0.000000000000000000e+00
8.162599014918666853e+02
0.000000000000000000e+00
0.000000000000000000e+00
1.024577303741534024e+03
0.000000000000000000e+00
2.343378113216659386e+01
8.071604892829782329e+01
9.274102574245259234e+01
3.988541037251707166e+01
5.022374144796231121e+01
5.842611802027022350e+01
0.000000000000000000e+00
0.000000000000000000e+00
0.000000000000000000e+00
2.077920980830816333e-03
4.703108557627273285e+02
4.769479325856082141e+02
7.556787337781314777e-03
4.057217774582067005e-03
0.000000000000000000e+00
5.433979616034774835e+02
7.126547828022465891e-01
0.000000000000000000e+00
0.000000000000000000e+00
0.000000000000000000e+00
6.882839750994662609e+00
4.152429816589573193e+02
4.754785612611158285e+02
2.281971501131918956e+02
8.018241228228364381e-01
1.090108516234613035e+03
4.117162449279021530e+00
5.115785113972377758e+02
0.000000000000000000e+00
0.000000000000000000e+00
5.041773800678583939e+00
2.847711061262089061e+02
5.340223590083459371e-04
1.946463001914366941e-01
6.944043423034599982e+02
1.628431520398406462e+01
2.669819542523327982e+02
2.808909947920256513e+02
3.880881771023269948e+02
3.008413871555148944e-01
0.000000000000000000e+00
3.599842644285672577e+02
2.926817620084421812e+00
8.889339539186045158e+02
2.769964102952827467e+00
1.069894839507469726e+02
1.950531567403231747e+02
6.227505052571359556e+02
7.606225872200408844e+01
4.292746287541377797e+02
4.806579696611153167e+02
0.000000000000000000e+00
1.707527336981001724e+02
1.180107741752256956e-03
4.235789123704308849e+02
5.962453784530226812e+02
1.850158979743355872e+02
8.750127513650754539e-05
6.857679547765656025e+01
4.295085756442857701e+02
4.743722150775284945e+02
5.335088527092010509e+02
1.011159467059770236e+03
0.000000000000000000e+00
8.678930699392854720e-02
5.115763602603691425e+02
3.682487055289840328e-01
1.693649980177723933e+02
6.192561655436293222e+02
7.550410996100252703e+01
2.072686408348545584e+01
2.327030257283694823e+02
0.000000000000000000e+00
0.000000000000000000e+00
0.000000000000000000e+00
0.000000000000000000e+00
8.227274304641041258e-04
0.000000000000000000e+00
1.036606289019982114e+03
2.680237114758710959e+02
1.671976573521532430e+02
9.830701069690752150e-03
0.000000000000000000e+00
8.090898898313755581e+02
3.394578217223169645e+02
0.000000000000000000e+00
4.267664053164480720e+02
0.000000000000000000e+00
0.000000000000000000e+00
2.573789654736628307e+01
3.076399848687287886e+02
0.000000000000000000e+00
3.636492588491818196e+02
8.637596422791830264e+02
1.744892491173232827e+02
1.926560493074880038e-04
0.000000000000000000e+00
0.000000000000000000e+00
5.557745193087271218e-01
1.846631138582779030e+01
0.000000000000000000e+00
0.000000000000000000e+00
8.429766258722278243e-05
0.000000000000000000e+00
6.814945682977848946e+02
0.000000000000000000e+00
3.660973630307125291e+02
0.000000000000000000e+00
0.000000000000000000e+00
3.149048164995464335e-04
6.933598319832526613e+02
3.737393857474670540e+02
0.000000000000000000e+00
5.016606970155407907e+02
0.000000000000000000e+00
5.000845568807562813e+02
4.658373428141972012e-04
0.000000000000000000e+00
6.707604569892282598e+02
0.000000000000000000e+00
2.875658104430841533e+01
3.227173515815594840e+01
0.000000000000000000e+00
0.000000000000000000e+00
5.404029136640020852e+02
5.584494103437463082e+02
0.000000000000000000e+00
3.753539449178334308e+01
2.066601298367459663e+02
2.877858548941729850e+02
5.374243130143452341e-04
0.000000000000000000e+00
8.031255803471140098e+01
4.446719884260152966e-03
3.721836842811172801e+02
3.976483757352980319e+02
3.588736123860144289e+02
4.050232594710045930e-02
2.959716075703910292e+02
1.919490841650259085e+02
5.736837286633088979e+02
1.781144569338977968e-01
2.167784431386654987e-03
9.113958282439853065e+02
0.000000000000000000e+00
2.123071688073796537e-02
1.538641960562471844e+01
2.288993438389752555e+01
0.000000000000000000e+00
0.000000000000000000e+00
5.879032768469186294e+02
5.898491895219196977e+02
5.412040902498118840e+02
6.304460095387184992e+02
0.000000000000000000e+00
5.527700074650053921e+02
5.283618476008996367e+02
4.531630072655387949e+02
6.024036745919147506e+02
0.000000000000000000e+00
0.000000000000000000e+00
5.897075314227549825e+02
2.162941554870484850e+01
0.000000000000000000e+00
5.810898878269654233e+02
5.310394651794922538e+02
4.676448536061799359e+02
5.041119655194052029e+02
0.000000000000000000e+00
3.437001583330130075e+02
4.429584327153861523e+02
6.695226383395494167e+02
6.489819285765405539e+02
5.015303775588109829e+02
1.794867983673498202e+00
0.000000000000000000e+00
4.815299363407633537e-01
0.000000000000000000e+00
1.164430934654791736e-02
6.380225401764620301e+02
0.000000000000000000e+00
6.454384153083084357e+02
5.325118479163393204e+00
6.208556591373053379e+02
6.984095784573582932e+02
1.141698094352105791e-03
0.000000000000000000e+00
6.021714651033108794e+02
1.993812569232865947e-04
0.000000000000000000e+00
3.293114246687764535e+02
4.112102840917941649e+02
2.077468542461247125e+00
2.543537418343476020e+02
7.209372538015401677e-05
4.251800135803934495e+02
7.199748044404259417e+02
0.000000000000000000e+00
3.528334789123620112e+02
3.336936927327769808e+02
8.042514323227808291e+02
3.563678563023132142e+02
7.798745571592010037e+02
9.202295868808512580e+01
9.626200524592839342e-03
0.000000000000000000e+00
8.857091487865545787e+02
1.549603315997955804e+02
2.328383892425337365e+02
9.561436167670765371e+02
0.000000000000000000e+00
0.000000000000000000e+00
4.878871684184559854e+02
2.897566232386452612e+02
3.656301298399000643e-01
2.386648316478386391e+02
3.430515289011965478e+02
2.598099449027358219e+02
0.000000000000000000e+00
5.567847537950001424e+01
3.784956153322127079e+02
2.417250120679455563e+02
0.000000000000000000e+00
2.091441332659088346e+02
0.000000000000000000e+00
5.375711169355781749e+02
0.000000000000000000e+00
0.000000000000000000e+00
4.567218509691883810e+02
4.136980394621787127e+02
0.000000000000000000e+00
9.590747931506479063e+02
0.000000000000000000e+00
2.867829547314614729e+02
4.082897736838729833e-04
0.000000000000000000e+00
1.551023030478973794e+02
0.000000000000000000e+00
0.000000000000000000e+00
3.282049685083165969e-01
4.855581949137558695e+02
0.000000000000000000e+00
0.000000000000000000e+00
1.119341748158149485e+01
1.614163670229027503e+03
1.246976989554226256e-01
3.972528189515287522e+02
3.601647656061685439e+02
0.000000000000000000e+00
0.000000000000000000e+00
4.996135496883651967e+02
4.601422847903451157e+02
0.000000000000000000e+00
4.189725567935965955e+02
0.000000000000000000e+00
0.000000000000000000e+00
7.691356516836093533e+02
0.000000000000000000e+00
6.638913227663414355e-04
5.052342699118526070e+01
5.682613636949099600e+02
3.533271279854943714e+00
0.000000000000000000e+00
7.768050540704280138e+02
3.031141814801231362e+02
0.000000000000000000e+00
5.069181551145447884e+02
4.077904733832838247e+02
1.862985599402236687e+02
4.217701246321666986e+02
4.788535752613826162e+02
5.625584979251920317e-03
5.867953610504628159e+02
4.627366103493841365e+02
8.007398118097626138e+02
0.000000000000000000e+00
1.158831987368990832e-02
5.297384102763317060e+02
7.843024519138541706e-03
0.000000000000000000e+00
0.000000000000000000e+00
6.402563825213292148e+01
0.000000000000000000e+00
2.283664635864624302e+02
4.788509644982696045e+02
0.000000000000000000e+00
1.003369385894621701e+03
0.000000000000000000e+00
5.154203744423284661e+02
0.000000000000000000e+00
0.000000000000000000e+00
3.708844850920285126e+02
0.000000000000000000e+00
0.000000000000000000e+00
0.000000000000000000e+00
2.392110473928287916e-03
2.751263929108972661e+02
0.000000000000000000e+00
0.000000000000000000e+00
1.150071964116069239e+03
0.000000000000000000e+00
0.000000000000000000e+00
4.832028979471944012e+02
3.689198352978563662e+02
3.707213064146231418e-01
0.000000000000000000e+00
3.332602056696485988e+02
9.104449339662099874e+02
0.000000000000000000e+00
4.297204812914399708e-01
0.000000000000000000e+00
8.077946429977604339e+02
0.000000000000000000e+00
4.384828261056100018e+02
0.000000000000000000e+00
1.034868931932577851e+02
0.000000000000000000e+00
1.613359448725259397e-03
1.087474941032269555e+02
8.365044130630391095e+00
1.578198941656894770e-04
1.038889272293999539e+02
4.985397652635584365e+01
3.152583171277532903e-02
0.000000000000000000e+00
7.741966256580780055e+02
0.000000000000000000e+00
7.541268026237955837e+02
4.223375909528840566e+02
0.000000000000000000e+00
6.791010398927028291e+02
1.164068964283796959e+03
6.413039660990764332e+02
0.000000000000000000e+00
8.974551620485729018e+02
0.000000000000000000e+00
0.000000000000000000e+00
0.000000000000000000e+00
0.000000000000000000e+00
8.941364513193047342e-03
5.219321640346606728e+02
2.128478749942042461e-02
3.849029680460523684e-02
5.218780460918424069e+01
0.000000000000000000e+00
6.622484628955133985e+02
0.000000000000000000e+00
0.000000000000000000e+00
8.281233808093026028e+01
7.535177885285520460e+02
4.474762596884830828e+02
2.402604833110672189e+02
3.036331213797893724e+00
3.931891378430008217e+02
0.000000000000000000e+00
5.100142519913788419e+02
4.358451895568578038e+02
7.503048347265570328e+02
0.000000000000000000e+00
2.207710965187289673e+02
0.000000000000000000e+00
1.143574824176151784e-02
5.156843949429456870e+02
7.813682693144073710e+02
5.414715984603388961e+02
5.438722069739014842e+02
6.327458272513467818e+02
1.257924766694487460e+02
3.378591287100791618e+01
4.211907101802353282e+02
0.000000000000000000e+00
3.439331888388553011e+02
0.000000000000000000e+00
3.839762789779343848e+02
4.499372972219134681e+02
7.242143725379719399e+02
4.285551000022678636e+02
4.319639420638849288e+02
0.000000000000000000e+00
2.882660711034986889e+02
1.444478453797728434e+01
0.000000000000000000e+00
6.557474218170682434e+02
9.287550553373878301e+02
1.439091281069977057e+01
7.724453693583201357e+02
0.000000000000000000e+00
5.083029199852262536e+00
1.898673142899497464e+02
2.618762249790052721e+01
3.922132645639067050e+01
5.210875316159217618e+02
2.280942784458602546e+02
1.635279453449765924e+03
4.223265247877861839e+02
3.303063907216709936e+02
2.717870010201294804e+02
2.713620991442438708e+02
0.000000000000000000e+00
4.988294316179235466e+02
4.946048992500436725e+02
0.000000000000000000e+00
3.961694612506108228e+02
7.652734646973840427e+02
5.293560600388445891e+02
3.554730514842958655e+02
8.520491026982199401e+02
3.421236955276982599e+02
6.405754477462323848e+02
2.275078960806808048e+00
9.241544958293879120e-04
4.918041900345995998e+01
0.000000000000000000e+00
2.819430616975295720e+02
0.000000000000000000e+00
6.273452953869939090e-04
0.000000000000000000e+00
2.764392260726822315e+00
0.000000000000000000e+00
5.980420825384501313e+02
1.679461260877702089e-01
0.000000000000000000e+00
1.736686322594778176e+01
2.988146796619731305e+01
2.607944770679182067e+00
9.999075979012552295e+01
0.000000000000000000e+00
0.000000000000000000e+00
0.000000000000000000e+00
2.266861442516527347e+02
5.215147215843896902e+02
6.968031112364769797e+01
2.530080981661739372e+02
3.880418229709904381e+02
5.138107375212712213e+02
1.241254261031415082e-04
7.559296165926543409e-03
7.384775629863725044e+02
5.815443348506960319e+02
0.000000000000000000e+00
4.649838313314832021e+02
1.506996726808210951e+02
6.157020127524447162e+02
0.000000000000000000e+00
3.478205928855459774e+02
6.988290071240042778e+01
7.278109930732171051e+02
0.000000000000000000e+00
4.412276538045261987e+02
6.988560583871731069e+02
9.739101560694512827e+00
9.233510524732986369e+02
5.709647332500026096e+02
0.000000000000000000e+00
1.866151997583073978e+02
1.212213961072165169e+01
3.370246041249629343e+02
4.003446282540608081e+01
6.608538779953960329e+02
5.634688845857453998e+02
6.560691099948599003e+02
3.932904385361978006e-02
4.671534837521902546e+02
5.747272087234023275e+00
0.000000000000000000e+00
3.915592644603747203e+02
0.000000000000000000e+00
2.741329663549549309e+02
7.380060997529650990e+01
8.190024816112781991e+01
0.000000000000000000e+00
4.387908889824757352e+02
8.695379709231932566e+02
6.837150477804244701e+02
3.242649159693656635e+00
4.576830129817608395e+01
4.704297820815553450e+02
0.000000000000000000e+00
5.769479284275291775e-01
3.262749228877510177e+02
8.915675205164006911e+02
1.475557308451697658e+01
0.000000000000000000e+00
4.758805083554761950e+02
0.000000000000000000e+00
0.000000000000000000e+00
5.820219998914060718e-05
0.000000000000000000e+00
0.000000000000000000e+00
5.555550384779053275e+02
3.610181517178717741e+02
0.000000000000000000e+00
4.503566154635336716e+02
7.000352858049155884e+02
4.837814333011920098e+02
4.918294070950651076e+02
1.624511960799282235e+02
6.434475524773006327e+02
0.000000000000000000e+00
8.011879667581523563e+02
0.000000000000000000e+00
5.841497767680267543e+02
2.270553198513880133e+01
2.952599971533346661e+02
2.437121541492161612e+02
1.182820226463082008e+03
0.000000000000000000e+00
0.000000000000000000e+00
0.000000000000000000e+00
0.000000000000000000e+00
5.328402567372769738e-03
4.501374103143461980e+02
0.000000000000000000e+00
5.789860481573150253e-02
0.000000000000000000e+00
0.000000000000000000e+00
0.000000000000000000e+00
0.000000000000000000e+00
7.274611723274574615e+02
8.962382696583523511e+02
5.584664319312651060e+01
5.933453872081217995e-03
8.411857841065380171e-05
5.618375419766380219e+02
4.341774389562489205e+02
0.000000000000000000e+00
6.657040807112936136e+02
3.866579700927104568e+02
3.667532977233349811e+02
7.453430544007713047e-04
5.295301896562213447e-04
7.049750085073469563e-01
0.000000000000000000e+00
0.000000000000000000e+00
3.964494109197402736e+02
7.696023336568027844e+02
0.000000000000000000e+00
6.181218854137114249e+02
2.545961692230776663e+01
6.120320499227091204e+02
0.000000000000000000e+00
2.859290250991762150e+02
5.634393265310792458e+02
2.687287609997035531e-02
5.848106934936367907e+02
6.011080832514892336e-01
0.000000000000000000e+00
1.362984082605933622e-01
0.000000000000000000e+00
6.686543448493464439e+02
0.000000000000000000e+00
8.652022290814778671e+02
1.374021918917424500e+03
0.000000000000000000e+00
6.733199513400905971e+02
3.938114925720584552e+02
2.082354425008816179e+02
1.325789004717079820e+02
1.931695076464166050e+01
2.404342546849846385e-01
3.495921136116521666e+02
2.887606265895215074e+00
4.496881023565947544e+02
2.590417287530726185e+02
0.000000000000000000e+00
1.042216867708702068e+02
0.000000000000000000e+00
0.000000000000000000e+00
7.049526412774866913e+02
1.396763553611891098e+02
0.000000000000000000e+00
4.677280782234447543e+02
4.078739567542344346e-03
1.157663432004019111e-03
3.117138344012346352e+02
0.000000000000000000e+00
3.263991854601046327e+01
0.000000000000000000e+00
5.452914854911797420e+02
4.850305082727130579e-05
3.823634071055493564e+02
6.450491943396630177e+02
3.087988073191809235e+02
0.000000000000000000e+00
2.728324071993650803e-04
6.126953730534298757e+02
8.156843117612879723e+02
3.447882471009506276e+02
4.918005474428355228e+02
1.698956921886463078e+00
0.000000000000000000e+00
2.687696111938749510e+01
0.000000000000000000e+00
4.938787335238885134e+02
1.058673206132175748e-01
6.063062656648980919e+02
5.136498294808689025e+00
7.838258071274145422e+00
9.577722138084933476e+02
4.827158131578472648e+02
0.000000000000000000e+00
3.015935076924506575e+02
8.091207543431665954e+02
0.000000000000000000e+00
6.065253603890598697e+02
4.150036562095920090e+02
3.330893967977316947e+02
4.348849622132548802e+02
0.000000000000000000e+00
9.760487561568723905e-05
8.601905075633633005e-03
4.138283234251504439e+01
4.682600902233390343e+02
3.739349201450751252e+02
4.329441188715463085e+01
3.820811732875882285e+02
0.000000000000000000e+00
0.000000000000000000e+00
6.866713695198998266e+02
0.000000000000000000e+00
0.000000000000000000e+00
0.000000000000000000e+00
0.000000000000000000e+00
4.727668072915548692e+02
0.000000000000000000e+00
5.745635149607552421e+02
2.047779985141496423e-02
4.515492731457925402e+02
1.737321313549956114e+00
1.524783380495137521e+02
0.000000000000000000e+00
5.806061229364444243e-01
0.000000000000000000e+00
0.000000000000000000e+00
0.000000000000000000e+00
4.196864086952699608e+02
0.000000000000000000e+00
4.852045193307276350e+02
8.729394833444533219e+01
6.667438886463060044e+02
7.859264451617498253e+02
0.000000000000000000e+00
2.336085356790135847e+02
3.663376364143913406e+02
2.601694808996400070e+02
1.259271803223783071e+00
1.916793577511068450e-03
4.280348217369463555e+02
4.608321629886631854e+02
3.110627813552127918e+02
4.366724515453826143e+02
5.677763038424018305e+02
3.802669030184914618e+02
0.000000000000000000e+00
1.563882390440995209e+02
4.614767074115661671e+02
1.874099323753708902e-03
1.324534709076032755e+02
8.295276433156684561e+02
1.537334647464377291e+01
5.223978536167123821e+02
1.348478241302654624e+03
0.000000000000000000e+00
6.490830994116547572e+02
3.530944878213630318e+02
1.983969839574051264e-02
0.000000000000000000e+00
2.662748759501453177e-01
3.346345254263724200e+02
1.235331405377237957e-01
1.460999964858488744e-02
0.000000000000000000e+00
5.727520469059526249e+02
3.187759199397986549e+02
2.343453574201702452e+02
0.000000000000000000e+00
0.000000000000000000e+00
1.056899787265866053e+03
0.000000000000000000e+00
3.194529602502244048e-04
6.367835857265162076e+02
0.000000000000000000e+00
0.000000000000000000e+00
0.000000000000000000e+00
2.726443473748076940e+02
8.247049751516890410e+02
4.222958388203552431e+02
1.678035544500745004e+02
9.238333506245916737e+01
0.000000000000000000e+00
0.000000000000000000e+00
0.000000000000000000e+00
3.347020614775432223e-01
6.993573392457622049e+02
3.285896745095670326e+02
1.889465956223830645e+01
0.000000000000000000e+00
4.292805106793821324e+02
3.767660023375357241e+02
3.192095747916026767e+02
0.000000000000000000e+00
0.000000000000000000e+00
3.386655960170172648e+02
9.875071033980939319e+02
0.000000000000000000e+00
4.002028263872490470e+02
4.579689869096910115e+02
1.915459405680052796e-01
2.261974998880758392e+02
6.038131216966575039e+02
1.100963256128306966e+03
2.254838659682718571e+02
4.005158081970876083e+02
9.731531497180860857e-01
4.853125178742629942e+02
4.513835309182468336e+02
6.442985881134518422e+02
1.101354662652011484e+03
1.437676095269852567e+03
4.357251292303772772e+01
0.000000000000000000e+00
0.000000000000000000e+00
1.452544916792248557e+02
5.784594647571794894e+02
8.408782173893998788e+02
0.000000000000000000e+00
6.879883141540631186e+02
2.664377087370667141e+02
0.000000000000000000e+00
3.135308373312000754e+02
0.000000000000000000e+00
3.015410691492581129e-03
0.000000000000000000e+00
1.029386953225185124e+02
0.000000000000000000e+00
4.092877614450117676e+02
3.561207896284030312e+02
0.000000000000000000e+00
1.262964166917298883e+02
1.041411774261177641e+02
4.651856768061406910e+02
3.800391341934303568e+02
0.000000000000000000e+00
4.858430412874441799e+02
4.515502308386487584e-01
1.085849524088189639e+02
2.259273687101742158e-04
0.000000000000000000e+00
0.000000000000000000e+00
0.000000000000000000e+00
5.943814140540780500e+02
7.158391663695508669e+02
1.180316570606009918e+02
0.000000000000000000e+00
6.103230620283284225e+02
0.000000000000000000e+00
3.588065363532222136e+02
0.000000000000000000e+00
0.000000000000000000e+00
0.000000000000000000e+00
7.706907113941269927e+02
3.632014308735961094e+02
0.000000000000000000e+00
0.000000000000000000e+00
1.018745522167393300e-04
1.182037875193054333e+03
0.000000000000000000e+00
0.000000000000000000e+00
5.217168208931981326e+02
0.000000000000000000e+00
0.000000000000000000e+00
4.227044092651340179e+02
7.782234793034151608e+02
5.091565119786537252e+02
7.940010930527930668e+02
4.073448187729809433e+02
2.515082382410584572e+00
2.421618771330030881e+02
4.399986490796436556e+02
4.647437572864872095e+02
1.217866622182554863e+02
9.659456849272828549e+02
7.199109615663473960e+02
5.258813100117549766e+02
0.000000000000000000e+00
4.026282446793630356e+02
4.778186504070617957e+02
3.146131253793101479e+01
1.442770444401731300e+00
0.000000000000000000e+00
0.000000000000000000e+00
8.225370823609409854e+02
4.934463779587531462e+02
9.295616800358402543e+02
8.356936691839678133e-01
6.990135990468842238e+02
0.000000000000000000e+00
1.128218980554083146e+03
0.000000000000000000e+00
0.000000000000000000e+00
9.567823659132480678e-05
0.000000000000000000e+00
8.418531790302382712e-04
8.413370489650513762e-02
8.670241158091805573e+02
2.301221358116889917e+02
4.424114330278825946e+02
4.492320570381708649e+02
4.579020991692105439e-04
8.063134198621481688e-03
3.622357321222959242e-04
0.000000000000000000e+00
1.232128490286088290e-03
0.000000000000000000e+00
4.185986813183263848e+02
7.664391743710436913e+02
0.000000000000000000e+00
4.250770644721342251e+02
0.000000000000000000e+00
8.733460644791962713e-02
7.194203354679299878e+01
3.582341554018056513e+02
2.630424109502200736e+02
0.000000000000000000e+00
7.878943539282770416e+02
7.055056268618501747e+01
4.994924012451519957e+02
0.000000000000000000e+00
4.304834565322380513e+02
1.356608855321610818e+01
1.133524578945072037e+01
2.658909937166755526e+02
7.758331302786248216e+02
6.798982829031540972e-04
0.000000000000000000e+00
2.842657381075696890e+02
6.860163703197723372e-05
1.620366185854437049e+02
5.389546163103659637e+02
0.000000000000000000e+00
3.568956671319028828e+02
4.989454854519864284e+02
3.931112954710158647e-01
4.769356467259057126e+02
3.001619958390619303e+01
4.447518756773205268e+02
4.198887374586774968e+02
3.856697867536240665e+00
4.546844396874804488e+02
6.894203603857019971e+02
3.494218590160015765e+02
0.000000000000000000e+00
7.246300912105650696e+02
4.822731263993773609e+02
0.000000000000000000e+00
9.605573050532251500e+02
1.978011181975034916e+01
0.000000000000000000e+00
4.082838631547928685e+02
2.112450522028666455e+02
2.115334888239885203e+01
4.911127042199951802e+02
0.000000000000000000e+00
0.000000000000000000e+00
6.934794308908749372e+02
3.250095933486592230e+02
0.000000000000000000e+00
4.976391469981535920e+01
1.586659636623723113e+00
0.000000000000000000e+00
0.000000000000000000e+00
5.414893066190415993e+02
4.891148253766131049e-03
2.898030490745440488e+02
5.882049938700218945e+02
0.000000000000000000e+00
3.814912462297799038e+02
5.095162462582791818e-02
7.466625154396753032e+02
6.730251738845254295e+02
5.399806354580505285e+02
1.341515206295298640e+03
8.937384188038780053e+01
4.694510327324678656e+02
3.071351589365805239e+02
2.263973863940919387e+02
8.445745718003308866e+02
3.092795785218186211e+02
4.155086829145147931e+02
6.766000478601197301e+02
0.000000000000000000e+00
5.206203685051150387e+02
3.023244726049599080e+02
1.488852917715849344e+03
3.721703082879913360e+00
5.806871620210587253e+02
5.413779178838012740e+02
7.522763240604035673e+01
0.000000000000000000e+00
1.807803834029187318e+00
3.459031447706365157e+02
0.000000000000000000e+00
6.715793288269196637e+02
7.885231398395261522e+02
1.111530019027123217e+03
5.697919649792311247e+02
3.299732936309737852e+02
4.545379465496808962e+02
0.000000000000000000e+00
0.000000000000000000e+00
3.341885918853223814e+01
0.000000000000000000e+00
4.924944231705012498e+02
0.000000000000000000e+00
3.006584835396620449e-03
4.808142576421232661e+02
7.918606344275756328e+02
4.033897786808665842e+02
0.000000000000000000e+00
5.016255395516053568e+02
0.000000000000000000e+00
4.158172290801303461e+02
0.000000000000000000e+00
0.000000000000000000e+00
6.254766080266563222e+02
9.116902873312935753e+02
5.156866321252890657e+02
4.358150033702260089e+02
0.000000000000000000e+00
7.833804613999184596e-04
5.813852331826636828e+02
5.091542604553978890e+02
4.101824630084593082e+02
9.245884570291315185e+01
4.366225824564025970e+02
0.000000000000000000e+00
5.779979756283864845e+02
2.112308554165792032e+02
1.398379321990067865e+03
1.934150915428035078e-01
4.229898651276016608e+02
5.929234724368143361e+02
4.806340597748203436e+02
3.061089397331670057e+02
5.796883906070431749e+02
5.175462017516110791e+02
4.190929867570957867e+02
1.036470446160819847e+02
9.515279291999830491e+01
8.584229011627030559e+02
1.819720039907223752e+00
6.258501084870658815e+02
0.000000000000000000e+00
4.307034131452383008e+02
4.718403506456523928e+02
7.199854066770059262e+02
2.232827890830123806e-03
6.551579654997112812e+01
6.217487543617039591e+00
0.000000000000000000e+00
5.881725389510393143e+02
8.797250662314578307e+00
0.000000000000000000e+00
0.000000000000000000e+00
0.000000000000000000e+00
1.575003684695274631e+00
3.721679573194706450e+02
0.000000000000000000e+00
3.667998698365408927e+02
0.000000000000000000e+00
4.204547790097423103e+02
2.886145251603012412e+02
5.553907260393316392e+02
4.014293157160863643e+02
5.705486058614042122e+02
1.955925273200875281e-01
7.150363520515384153e+02
6.646402791076866379e-01
2.439894267285126261e+02
5.521062455023638904e+02
0.000000000000000000e+00
0.000000000000000000e+00
6.483784586780529935e+02
2.308089680002012187e+02
4.790296551356732380e+02
3.886844378241221420e+02
4.494830043629916076e+02
0.000000000000000000e+00
1.839954563660285487e+02
8.670524908986614477e-04
9.798999262304284912e+02
0.000000000000000000e+00
0.000000000000000000e+00
0.000000000000000000e+00
8.785940549332737248e+01
0.000000000000000000e+00
1.929399695112807080e+02
9.845845767358690992e+00
0.000000000000000000e+00
0.000000000000000000e+00
5.796374531200854108e+02
4.836233469697617693e+02
3.531304196945711737e+02
5.452634647823288105e+02
7.378003650228494692e+00
4.022459648019777489e+01
9.965888571036884969e+00
0.000000000000000000e+00
0.000000000000000000e+00
0.000000000000000000e+00
7.532257415827186833e+02
1.810018690484868671e+02
0.000000000000000000e+00
8.626109667413402349e+02
7.472017366162615417e+02
1.483188223593971315e+02
0.000000000000000000e+00
0.000000000000000000e+00
0.000000000000000000e+00
6.053747631689474247e+02
2.306960934567995736e+01
2.412836256717127412e+02
4.511904389124765657e+00
4.242420245104768384e+01
2.672415320927393201e-04
1.990579621947985867e-03
3.938746125503601349e-03
3.483685362050892991e+02
4.849105965935451650e+02
0.000000000000000000e+00
1.664153820889624171e+02
7.575402599495649270e+01
0.000000000000000000e+00
0.000000000000000000e+00
6.029547614394689390e+02
0.000000000000000000e+00
4.337510147925058845e+02
0.000000000000000000e+00
7.182148804931787822e+01
8.126844438411359306e+02
5.007194297922980013e+02
3.967202691674174275e+02
2.410737301863363768e-02
4.128275611339630586e+02
3.796878772052876911e+02
0.000000000000000000e+00
1.592998828522929067e-03
6.372268461214844137e+02
8.899480213498466128e+02
8.738745000810018837e+02
0.000000000000000000e+00
0.000000000000000000e+00
2.449502470688457834e+02
3.691141051855083788e+02
3.800550318119348958e+02
4.434361249241192127e+02
7.788611336349276826e+02
4.062835001863276716e+02
0.000000000000000000e+00
0.000000000000000000e+00
1.010356350148503793e+03
3.505088363632240771e+02
0.000000000000000000e+00
4.076594454854786136e+02
0.000000000000000000e+00
0.000000000000000000e+00
3.126933094004925238e+02
6.892166577628813684e+02
6.237660727478214540e+02
3.734304832101771581e+02
6.106601150597269907e+02
0.000000000000000000e+00
2.371285290391281559e-05
0.000000000000000000e+00
1.253063703448731303e+00
5.460335373252966917e-03
8.096888064901578446e+02
9.863454149162859039e+02
5.430706790357361342e+02
0.000000000000000000e+00
6.233311931820935570e+02
0.000000000000000000e+00
1.602484447338347077e-03
5.159182349932963234e+02
5.271756375928816851e+02
1.217733106494961248e+02
2.440178729479213892e-03
3.326476555689515668e-02
0.000000000000000000e+00
1.033966515675273996e+02
0.000000000000000000e+00
2.041635891272820282e-03
0.000000000000000000e+00
0.000000000000000000e+00
0.000000000000000000e+00
0.000000000000000000e+00
6.368468485106859589e-01
2.794626985185288959e-02
7.218951659117010422e+02
0.000000000000000000e+00
2.736260753314127214e+02
1.414834426257584710e+02
2.240958933918957285e-03
0.000000000000000000e+00
0.000000000000000000e+00
3.985305497946682181e+02
6.995927682692126837e+01
1.463169383184719798e-04
2.575487874219106175e+02
4.619209860113186323e+02
0.000000000000000000e+00
7.508677556950716507e+02
6.721103914584091399e+02
0.000000000000000000e+00
0.000000000000000000e+00
0.000000000000000000e+00
7.165029398049226756e+02
0.000000000000000000e+00
0.000000000000000000e+00
0.000000000000000000e+00
5.422003677791508380e+02
0.000000000000000000e+00
4.664873519537650282e+02
1.175220060388255128e+01
0.000000000000000000e+00
3.007981112114067628e+02
1.995961706579692247e+02
9.624763927801321603e-03
4.033380424050848205e+02
0.000000000000000000e+00
8.276765576159526069e-04
0.000000000000000000e+00
2.967947946483362898e-03
3.681111505273293005e+02
0.000000000000000000e+00
2.851666014481307743e-04
7.164320026831205723e-03
2.192079778720601446e-03
1.531836625785487627e-01
7.055286884831730276e+02
6.539226813633697288e-05
0.000000000000000000e+00
1.732122159595747064e+02
4.533487909182440490e+02
6.821283477147517260e+02
5.613736729734227993e+02
5.654840853792848065e+02
0.000000000000000000e+00
4.547139167159911040e+02
7.729491254583994078e+02
1.764618314975905733e+01
0.000000000000000000e+00
1.790592606989776314e+01
4.283195734606124461e+02
5.934104080806719139e+02
0.000000000000000000e+00
0.000000000000000000e+00
0.000000000000000000e+00
4.506252457384221088e+01
0.000000000000000000e+00
0.000000000000000000e+00
3.815837085458041429e+02
8.129748774343173636e+02
6.560562060418305919e+02
3.358848342937562848e+02
2.582685835869825475e+00
7.295826335459422580e+02
0.000000000000000000e+00
6.209477722521114629e+02
1.849394878001476172e+02
4.101107247450272553e+02
0.000000000000000000e+00
1.776527055601106585e-03
6.904569674290543162e+02
0.000000000000000000e+00
8.259725282492584029e+02
2.700753693785374026e+02
0.000000000000000000e+00
6.500849087324316077e-05
1.097331617953023624e+03
0.000000000000000000e+00
1.095548081693413906e+03
0.000000000000000000e+00
0.000000000000000000e+00
0.000000000000000000e+00
0.000000000000000000e+00
3.008168196487532100e+02
3.263123093433240030e-02
1.321790692355716146e+03
3.675177192675618016e+02
4.932864231400879707e-04
1.994047657261034487e+02
0.000000000000000000e+00
3.051192224542319309e+02
7.838500387879320215e+02
0.000000000000000000e+00
2.723770499756939216e+02
1.758145143488945337e+02
2.071727846100769078e-03
0.000000000000000000e+00
0.000000000000000000e+00
0.000000000000000000e+00
0.000000000000000000e+00
0.000000000000000000e+00
4.075483493048523087e+02
3.714350140780881020e+02
0.000000000000000000e+00
0.000000000000000000e+00
5.406182754486509339e+02
2.007118748247194162e+00
0.000000000000000000e+00
0.000000000000000000e+00
0.000000000000000000e+00
7.558231050848007726e+00
5.846251407296222169e+02
0.000000000000000000e+00
0.000000000000000000e+00
3.804098446293209008e+02
1.776235201642606398e-01
8.387616765379782464e+02
1.939548814430055046e+01
0.000000000000000000e+00
3.757853126629925100e+02
2.800059481548553494e-05
6.482959611450496595e+02
6.146483414573594928e+02
0.000000000000000000e+00
1.261521863258394305e+01
5.269343875930643435e+02
0.000000000000000000e+00
0.000000000000000000e+00
5.781529871785551222e+00
2.307839669497299084e+01
0.000000000000000000e+00
6.694455315555387642e+02
6.389773782051635180e+02
6.774975451844511554e+02
6.216345327360613737e+02
0.000000000000000000e+00
0.000000000000000000e+00
3.693381460903765401e+02
0.000000000000000000e+00
5.240930283442138489e+02
8.353923881470111610e+02
4.598872072827360853e+02
9.284829817194157264e-04
5.071861752956465352e+02
1.631590191516351851e+01
0.000000000000000000e+00
0.000000000000000000e+00
1.205288589356712237e+00
0.000000000000000000e+00
0.000000000000000000e+00
0.000000000000000000e+00
9.785412882614762111e+02
0.000000000000000000e+00
4.364621298744167461e+02
0.000000000000000000e+00
9.096534991622320376e+02
0.000000000000000000e+00
5.567555105233623181e+02
2.191179077030369182e+00
3.826841054018586874e+02
3.523928099202748285e+02
0.000000000000000000e+00
7.058381381262735204e+02
0.000000000000000000e+00
0.000000000000000000e+00
0.000000000000000000e+00
4.924097178540250752e+02
2.072700545799306724e+02
6.236312422844282307e-04
6.593795676606532652e+02
1.510625636893792034e+00
7.386368087805749383e+02
0.000000000000000000e+00
0.000000000000000000e+00
3.394629120291938307e+02
4.566298307117904187e+01
1.109802681935252849e+03
2.251086578637114712e+02
2.828894056037823930e+02
5.216306291411456186e+02
5.327833100956922863e+02
1.117744567395130161e+03
5.538266228597878538e+00
8.242870780944942908e+02
0.000000000000000000e+00
8.416202949405263700e-01
0.000000000000000000e+00
5.688941435502783861e+02
0.000000000000000000e+00
6.101164410298224539e+02
6.497366291332584751e+02
3.220964578329585493e+02
1.078291767990434913e+00
4.124997859558789060e+02
0.000000000000000000e+00
4.556632327763508101e+02
6.331885383893677499e+02
0.000000000000000000e+00
5.069853537621385158e+02
2.590547409799909815e+02
6.996587006142362952e+01
0.000000000000000000e+00
8.558578491928862775e+00
3.674963376841334366e+02
1.032027017690415960e+03
9.573170619289161323e+02
1.093032302745996560e+02
0.000000000000000000e+00
7.388754914657624795e-01
5.743596933083609883e+02
2.104553849163493737e+02
5.204256899014580995e+02
4.836090239834448994e+02
8.209968766202278001e-01
2.278363470966723980e+02
0.000000000000000000e+00
6.831440672191092744e+02
2.509063719926984071e+00
0.000000000000000000e+00
8.352705331393650567e-03
0.000000000000000000e+00
0.000000000000000000e+00
1.505603948146017785e+02
1.310689587988300491e-03
5.020744402274431195e+02
0.000000000000000000e+00
0.000000000000000000e+00
0.000000000000000000e+00
0.000000000000000000e+00
5.221721843012345516e+02
6.315122959116294468e-03
0.000000000000000000e+00
6.381961971535929479e+02
7.831678215050487779e+02
5.971219208360708990e+02
0.000000000000000000e+00
7.904606516080094707e+02
4.076275685052679592e+02
2.859316106844644878e-01
1.228469736022929082e+00
3.552174103788273669e+02
4.880839458146509457e+01
1.007762979694234673e+02
5.774427700707747135e+02
0.000000000000000000e+00
0.000000000000000000e+00
3.811024891896522604e+02
0.000000000000000000e+00
7.309141356403415557e+02
1.555030970432653703e+01
7.271638206781062763e+02
0.000000000000000000e+00
4.452987247852433939e+02
0.000000000000000000e+00
0.000000000000000000e+00
6.544121000206359895e+01
0.000000000000000000e+00
0.000000000000000000e+00
8.025335444581287447e+01
4.241791871136229020e+02
9.537490170958329827e+02
4.119593773517408408e+02
3.647771720245719359e-04
2.896236551946458349e+01
6.947665249157580547e+02
2.070702293813155137e+01
8.437742528010860497e+02
0.000000000000000000e+00
2.043900172627672163e+01
3.354955041341701181e-04
1.097242853441275201e+03
0.000000000000000000e+00
5.383967691566795111e+02
6.574553054611898233e+02
0.000000000000000000e+00
5.255992615500872489e+02
6.541079371549130883e+02
2.116811313859217023e+02
0.000000000000000000e+00
3.622515024562744088e+02
0.000000000000000000e+00
0.000000000000000000e+00
4.522232164392335108e+02
0.000000000000000000e+00
0.000000000000000000e+00
6.412784611447932548e+01
2.525449096392548256e+02
0.000000000000000000e+00
1.346342217604615712e+02
0.000000000000000000e+00
4.674904152728032170e-04
0.000000000000000000e+00
0.000000000000000000e+00
4.135085379279188373e+02
1.452193208154994863e+01
0.000000000000000000e+00
6.984424542971767735e-04
5.028822605966708492e-01
1.550533112642369815e+02
3.348283711165911392e-04
1.470869870717095573e-01
2.634540144083529434e+00
0.000000000000000000e+00
7.522626976839094368e+02
0.000000000000000000e+00
0.000000000000000000e+00
1.351940020691472455e+02
9.249555825954303145e+00
5.398870999936208648e+01
6.483722820470575243e+02
0.000000000000000000e+00
0.000000000000000000e+00
0.000000000000000000e+00
0.000000000000000000e+00
8.334606930526209680e+02
0.000000000000000000e+00
7.050366058858346605e+02
0.000000000000000000e+00
3.182487652069539763e+02
6.462045728199880159e+02
4.828910462012572680e+02
9.047951450716933550e+02
1.833428895188156957e-04
5.035280537573272568e+02
3.518610711147631491e+02
5.631059685254058422e+00
1.526352211783886332e+02
0.000000000000000000e+00
4.846465502792854068e+02
0.000000000000000000e+00
0.000000000000000000e+00
7.333247813585330732e+02
1.782590889398693495e-03
2.201173703266248651e+02
0.000000000000000000e+00
3.714532010440052545e+01
4.964330837894523256e+02
2.833423547192070373e+02
2.026129414945897906e+02
3.045066310183756855e+02
5.983995111382680534e+02
3.024760633993536629e+01
3.775574492248523484e-02
4.042343417534511874e-01
7.477112950495211408e+02
2.865407805046515488e+00
0.000000000000000000e+00
1.131991639440403077e-04
1.546123199629433065e-01
4.426833352939867154e+02
5.791820457334838877e-03
5.366250211271108128e+02
4.504466993392269387e+02
0.000000000000000000e+00
0.000000000000000000e+00
8.392736327718012035e+02
1.755085531327495687e+02
5.239020991721190512e+02
3.569260124578476301e+00
0.000000000000000000e+00
2.075191188757231409e+00
0.000000000000000000e+00
5.179438697058835750e-04
5.670018744924163911e+02
8.432140594741213135e+02
0.000000000000000000e+00
2.377313321798285983e+02
4.204380202194441836e+02
1.972877814267805174e+00
0.000000000000000000e+00
5.460925961087923497e+02
2.705174358925432898e+02
4.787425601069118102e+02
0.000000000000000000e+00
3.458515719812567113e+02
4.596231753093888983e+02
3.921599867296662723e+01
0.000000000000000000e+00
8.271121483971910493e+00
1.457557869011339546e+00
4.120118779981567059e+02
0.000000000000000000e+00
0.000000000000000000e+00
5.065486170482472517e+02
2.561563758870761376e+02
2.774568268582698494e+01
1.827356470026644217e+02
0.000000000000000000e+00
0.000000000000000000e+00
8.493409217669975533e+02
3.721240009886968210e+02
4.438009053927089553e+02
0.000000000000000000e+00
8.751165779816808481e+02
2.058628944922019741e+02
1.303188484512440414e-03
1.275335394682385326e-01
5.789820949321438093e+02
5.260609959084832781e+02
1.861579117998190043e+02
0.000000000000000000e+00
0.000000000000000000e+00
0.000000000000000000e+00
1.827538234638632730e+03
2.265580677136314023e+02
6.768548634072945073e-04
1.008819745827727044e-03
0.000000000000000000e+00
0.000000000000000000e+00
0.000000000000000000e+00
0.000000000000000000e+00
4.284463098403648473e+02
3.003596464175642495e+02
2.903018237242349642e+00
4.463860913705986790e-03
2.940184595465324833e+02
5.213371724836179055e+02
2.095859972145262873e+02
3.749440982214765228e+01
4.366465181563398801e+02
0.000000000000000000e+00
1.079884154093451343e+03
0.000000000000000000e+00
0.000000000000000000e+00
2.258307430624881107e+01
5.757653465247128679e+02
1.529208960982941257e+01
0.000000000000000000e+00
3.119514783786144108e+02
0.000000000000000000e+00
3.632108494471140858e+01
4.284723658442090937e+02
3.675301549897993709e+02
4.626367574441247825e+02
6.472743991529569030e+02
3.409511993185304125e-04
6.197595287027070299e+02
4.117031920086446917e+02
5.127737059869106133e+02
5.139254949368477128e+02
8.677730785668245517e+02
0.000000000000000000e+00
2.383632687895442359e+02
5.429026479985620881e+02
5.364384655481834428e-03
7.542364790540884769e+02
0.000000000000000000e+00
7.751188366768475362e+02
0.000000000000000000e+00
3.549386472409423732e+01
1.454792581446326416e+01
1.716062147455232334e-01
1.704076669648202085e+02
0.000000000000000000e+00
6.051869416725821793e+02
2.663475553079480278e+02
0.000000000000000000e+00
2.303971866027153759e+00
6.733811640908240861e+02
5.732320186027209274e+02
5.172495836399320979e+02
8.648295754519492107e+01
4.581647116829117294e+02
6.941345811355859041e+02
0.000000000000000000e+00
8.185624382414971478e+02
3.166672199822641005e+02
0.000000000000000000e+00
0.000000000000000000e+00
4.499337969637053192e+01
8.260250905615973807e+02
6.338964502851013094e+02
2.694577313755871160e+02
5.248534824750095140e+00
4.025980420006818576e+02
1.698145042386386194e+02
0.000000000000000000e+00
7.579424246672717800e+02
0.000000000000000000e+00
1.080036776940574539e+00
0.000000000000000000e+00
0.000000000000000000e+00
8.024375937151486369e+02
3.207851161932921968e+01
7.725802198610751005e-10
4.763844508874171879e+02
0.000000000000000000e+00
6.007684864671318792e+02
2.904617020871229442e+02
7.716324911257290253e+00
0.000000000000000000e+00
5.017187884666782338e+02
0.000000000000000000e+00
0.000000000000000000e+00
0.000000000000000000e+00
7.778651830783928744e+02
4.445526510044146562e+01
7.361960242007626221e+02
4.841151520704443101e+02
3.203601648412585519e+02
1.839857617657980427e+03
4.307487046149616390e+02
5.361566368876083288e+02
0.000000000000000000e+00
0.000000000000000000e+00
6.823660698501043953e-01
5.409282162006923134e-04
5.524299880158652059e+02
4.962522420151798315e+02
8.173534046713026555e+02
4.135381239473645110e+02
0.000000000000000000e+00
8.787681966332453953e+01
1.093037253946021536e+02
6.464240117260487750e+02
7.403252652835591308e-01
4.717992768382826512e+02
0.000000000000000000e+00
2.969975048203195911e+02
1.815280339715538048e+03
3.314376771861133761e+02
3.986513182037015213e+02
1.019912566310086504e+03
3.884351612156023634e+02
3.540914452892138797e+01
5.344691833073738962e+02
1.612301541466877950e+02
0.000000000000000000e+00
0.000000000000000000e+00
5.848072717519244179e+02
4.535955334875326344e+02
7.519053723386602996e+02
3.941494784798123874e+02
6.002069985142952646e+01
7.673970196890875286e+02
1.620173863462695749e+02
0.000000000000000000e+00
3.687552274364861660e+02
4.571900208120496245e+02
8.271245882424407228e+02
1.321684592548991077e+03
0.000000000000000000e+00
4.975105050696583930e+02
7.265611395298039952e+02
6.949080180944292806e+02
5.589168308739318718e+02
3.990564889559209405e+01
1.944956452581617559e-05
7.730538528398028575e+02
3.783133760360215092e+02
0.000000000000000000e+00
0.000000000000000000e+00
0.000000000000000000e+00
4.998345890402561054e+02
4.962123025739856530e+02
3.284530615434049992e+02
0.000000000000000000e+00
4.798651079363481813e+02
1.924452292179524571e-01
3.431899425481788946e+00
5.007786685164319351e+02
0.000000000000000000e+00
7.175799394623027183e+02
0.000000000000000000e+00
0.000000000000000000e+00
1.971058389426615634e+02
4.415170060929085594e+02
5.116095745306664639e+02
1.547482280704570599e+02
0.000000000000000000e+00
3.954363186705450062e+02
5.578533145424445365e+02
6.763382751182687613e+00
2.061404976295307279e+02
5.612902002583723515e+02
1.972290868954586927e+02
5.081271700415527448e+02
0.000000000000000000e+00
0.000000000000000000e+00
3.666864224633172853e+02
1.182426186713269749e-04
0.000000000000000000e+00
0.000000000000000000e+00
6.564715159984189086e+02
0.000000000000000000e+00
2.151543827876594861e+01
0.000000000000000000e+00
0.000000000000000000e+00
3.753276360657763462e+02
7.309463231013067741e+01
0.000000000000000000e+00
4.138757577857177239e+02
2.162825207047717981e+02
1.881372451558727468e-02
1.310069149940926722e-05
6.257025419319689945e+02
2.093070243625040107e-03
2.913723192971007236e-04
0.000000000000000000e+00
0.000000000000000000e+00
5.699335986988444347e+02
5.623802142938076258e+02
0.000000000000000000e+00
0.000000000000000000e+00
8.190314520470565185e+02
4.636955355381361699e+01
3.412632773369673328e-02
2.567467109438438229e+02
5.537637767687556334e+02
0.000000000000000000e+00
3.210613013729016529e+02
0.000000000000000000e+00
7.987663287305624635e+02
1.305636773063451528e+03
2.870497172145404647e+02
6.390217203064821661e+02
0.000000000000000000e+00
5.383462905789201614e+02
4.355210103625721558e+02
9.711442714295111500e+02
1.229381827780162212e+03
4.575375907515990548e+02
7.244560843151701874e+02
5.294302111607975121e+02
1.446252884474233724e+03
2.200776305826365942e+01
0.000000000000000000e+00
4.854412741715349711e+01
7.844305718310354223e+02
0.000000000000000000e+00
5.732461028128454927e+02
0.000000000000000000e+00
5.209264100303699934e+02
7.085314231517259032e+02
0.000000000000000000e+00
4.655804319329034797e+02
8.313058450415414941e-03
4.664087357887182179e+02
6.645379694920848124e+02
5.960481321089901030e+02
3.611524701380404281e+02
1.884276143133320716e+02
0.000000000000000000e+00
0.000000000000000000e+00
3.054828692736919038e+02
5.697620598744834979e+02
6.306302271637835020e+02
9.210317952280877574e-01
2.676937539694335442e+02
2.472808798171172384e+02
3.537890528091340059e+01
8.021260632056507802e+02
5.571164612512800431e+02
3.429302341806759955e+02
3.286306995578343049e+02
0.000000000000000000e+00
3.641198315119254403e+02
4.789636353110836353e+02
2.975453398659739150e+02
6.673542277291222291e-03
1.164701844525553042e+03
0.000000000000000000e+00
0.000000000000000000e+00
0.000000000000000000e+00
0.000000000000000000e+00
2.355296586527402667e+02
3.449014434826585792e-04
6.189037978518173304e+02
1.042319687569488096e+01
7.710178243805785314e+01
0.000000000000000000e+00
0.000000000000000000e+00
3.612203356380632613e+02
7.398773708468070254e+02
0.000000000000000000e+00
8.486429915944883717e+00
0.000000000000000000e+00
8.261238793711523840e+02
6.620272500514056161e-04
7.664172657590821700e+02
9.805468103731985821e+02
1.234131351363076511e-03
0.000000000000000000e+00
1.413868043928801832e+00
5.681432454543095586e-04
0.000000000000000000e+00
0.000000000000000000e+00
2.026960630253427098e-01
5.395008849502502812e-02
9.086781593650808873e+02
0.000000000000000000e+00
1.554619491114795455e-03
1.394107591416116898e-01
9.567299894297327683e+02
5.532731354331190232e+02
2.346853765107879042e+02
4.011513171280968209e+02
0.000000000000000000e+00
2.488192560271272669e+02
3.826897035988374718e-03
0.000000000000000000e+00
0.000000000000000000e+00
0.000000000000000000e+00
5.890067053718667012e+02
1.604597639959236960e-02
3.029693217722523286e+02
4.075156916748311486e-01
1.838505363591025787e+00
0.000000000000000000e+00
5.060300066310448415e+02
3.173302907129256027e+02
0.000000000000000000e+00
3.547301126463620058e-04
5.095548318977307645e+01
0.000000000000000000e+00
2.835473788571108003e+02
2.627305907542903469e+02
6.783803344689657706e+02
6.017591307067958084e+00
2.509725734314997680e+02
0.000000000000000000e+00
0.000000000000000000e+00
0.000000000000000000e+00
0.000000000000000000e+00
6.130728014897613320e+02
0.000000000000000000e+00
3.949865344152385660e+01
1.356087498619672829e+02
6.549008490728738252e+02
5.947316533752200485e+00
7.103307860423228703e+02
3.427374847994714147e-01
0.000000000000000000e+00
9.649451280696663389e+02
4.667039104875583462e+02
0.000000000000000000e+00
5.348176287596288603e+02
4.092608442693746156e+02
3.687337999621377094e+02
2.942128495393262710e+02
0.000000000000000000e+00
2.099043998892738614e+02
6.226318069588160142e+02
3.680025479659010390e-04
3.564007522043539211e+02
6.294652947675785981e+02
1.031631946940337052e-01
0.000000000000000000e+00
0.000000000000000000e+00
2.856792185939411866e+02
8.395315741596275529e+02
4.262186756765004247e+02
4.743331654899519663e+02
0.000000000000000000e+00
4.127490826416759546e+02
1.035444034072133491e+03
3.040480279982149341e+02
4.070592639582173433e+02
1.794551428421982848e+02
5.783908291501575150e+02
2.544199549027326270e+02
1.160844451885622597e+01
1.410906907746146098e-02
1.692888916300462565e+00
5.525472830559011754e+02
3.907286189128171827e+01
6.163831501646200195e+02
8.417180960421433156e-01
8.260180979326835313e+02
0.000000000000000000e+00
9.940993856638669968e+02
1.843663238349110429e+02
0.000000000000000000e+00
8.594457065119058825e+02
1.868747819257805531e+02
3.852144174299609176e+02
6.328924831585026141e+02
6.826117325486848131e+02
8.461595767701508066e+02
0.000000000000000000e+00
7.283859259900054894e+02
5.321859368356180212e-05
0.000000000000000000e+00
1.987596860286430172e+02
0.000000000000000000e+00
0.000000000000000000e+00
4.354699524119496346e+02
0.000000000000000000e+00
0.000000000000000000e+00
0.000000000000000000e+00
5.806326235309825279e+02
1.278499676665525158e+03
4.540532855762080544e+00
0.000000000000000000e+00
5.566773468141036574e+02
5.284799693945387844e+02
8.941373747424222529e+02
2.603318678018240462e+00
0.000000000000000000e+00
0.000000000000000000e+00
2.935660643488516826e+02
3.385798352093843846e+02
0.000000000000000000e+00
2.583920287721410887e+02
8.362685513761672546e-05
3.322884848017563968e+02
6.837773360995926168e+02
0.000000000000000000e+00
1.583001177424137262e+00
2.996206061372504337e+02
4.431416808947686832e+02
6.089088888758851681e+02
0.000000000000000000e+00
3.009329437532869633e+02
5.304332991894625593e+02
3.761634617301751859e+02
0.000000000000000000e+00
6.055871527098588558e+00
3.306403266060271330e-03
0.000000000000000000e+00
1.414337169459030292e+02
5.601410615090571810e+02
1.001763530672178263e+03
4.414067043092017251e+00
0.000000000000000000e+00
0.000000000000000000e+00
1.846604707608889395e+00
5.748388153060659533e+02
8.988059727475049385e+02
0.000000000000000000e+00
4.243491161705604497e+01
5.118000129340492116e-02
0.000000000000000000e+00
3.152109741778984926e+02
2.837811206722108182e+02
3.676412063550741749e+01
8.753074727355848381e+02
3.825004900951170157e+02
5.150379174795327586e-03
1.682904970515153864e-01
7.111538396900866701e+02
3.342037409081967780e+02
3.945990344890459856e-03
4.072568874682473847e+02
5.077789174745703349e+02
5.586381607727162191e+01
1.087081485516561141e-04
0.000000000000000000e+00
1.951919760558666894e+02
2.829599557226175222e+01
4.969750960467842458e-05
0.000000000000000000e+00
1.750997951805401556e+02
3.110780673338015276e+02
0.000000000000000000e+00
6.116900048196837361e+02
3.294112237956141485e+02
0.000000000000000000e+00
3.634723446923088659e+02
2.993818012922422334e-02
5.376251936482728979e+02
7.400560069887435475e+02
6.551722457278500496e-04
3.773280987035831799e+02
4.731028489048938468e-02
4.412894760440393611e+02
5.988912739332590718e+02
6.182840816713905951e+01
4.744008115740142557e+02
1.714818321884690744e-01
0.000000000000000000e+00
4.152933992878388381e+02
0.000000000000000000e+00
0.000000000000000000e+00
0.000000000000000000e+00
2.541960850132454652e+02
5.137001741055427146e+02
0.000000000000000000e+00
3.732351965518320753e+02
4.729219207518326584e+02
3.463035232604737335e+00
4.788462667738713208e+01
0.000000000000000000e+00
