2.960881679254816390e+03
2.614890863467008785e+03
2.568525580636923223e+03
0.000000000000000000e+00
2.430697721207980067e+03
1.285517895504016906e+03
2.826752708276035719e+03
3.500217365159187466e+03
1.625171671062020373e-01
2.282230224099474981e+03
2.021381095808465034e+03
2.309797312680166669e+03
0.000000000000000000e+00
2.915223954099928960e+03
1.787208175670820538e+03
2.166181002074154094e+03
2.981735832605045289e+03
1.374366611352888413e+03
0.000000000000000000e+00
1.728753721620887063e+03
2.135571930615696147e+03
0.000000000000000000e+00
2.948793666780692547e+03
0.000000000000000000e+00
1.438440035676467460e+03
6.424692462624081202e+01
1.656568492102087475e+03
3.658963851812586654e+01
0.000000000000000000e+00
1.912732553284150299e+03
0.000000000000000000e+00
2.307225551112787343e+03
0.000000000000000000e+00
2.117788430495419561e+03
2.752362632303264945e+03
3.499676701286807656e+03
3.762127055553719401e+03
0.000000000000000000e+00
2.624020012991969452e+03
0.000000000000000000e+00
2.922203366429312155e+03
1.512564506477792975e+03
0.000000000000000000e+00
8.633967340167146176e+02
1.599960889440261326e+03
1.720286795278661430e+03
3.231486723781563796e+03
1.977439283774584055e+03
2.523996164056006819e+03
0.000000000000000000e+00
2.092862915043950579e+03
0.000000000000000000e+00
1.926934083545347676e+03
0.000000000000000000e+00
2.576872267032741547e+03
4.376692242664285004e+03
0.000000000000000000e+00
2.574879614455858700e+03
2.689675647241529077e+03
1.842853594888584212e+03
1.299278092788883214e+03
0.000000000000000000e+00
1.295558605052065104e+03
0.000000000000000000e+00
1.989407951175235894e+03
2.697495448513654082e+03
1.840072519099340980e+03
2.268762810883344173e+03
1.719238996587227575e+03
2.879565929219824739e+03
1.771817898494192605e+03
2.760670529399067163e+03
3.293067209928994998e+03
2.061757865996332839e+03
1.728761471449978217e+03
4.692711434816011206e+03
2.925099668581970946e+03
2.353483024699380621e+03
0.000000000000000000e+00
2.837657549581490912e+03
1.777346067846520555e+03
2.905892850109376468e+03
2.583653614151989586e+03
2.096922724106116675e+03
4.304637782066578905e-02
0.000000000000000000e+00
2.179138831043384016e+03
0.000000000000000000e+00
9.222634577497956343e+02
2.171575743576977402e+03
1.437770251964684576e+03
3.318619492091238499e+03
0.000000000000000000e+00
0.000000000000000000e+00
2.841147565509890228e+03
2.455922204529634655e+03
9.540168680541680715e+02
1.662915338255698998e+03
2.766265894530806236e+03
3.019825376401421636e+03
3.370479398011229932e+03
1.718359789662646563e+03
2.305169855884742447e+03
0.000000000000000000e+00
0.000000000000000000e+00
3.585615800879894778e+03
0.000000000000000000e+00
3.136602600506740600e+03
0.000000000000000000e+00
0.000000000000000000e+00
0.000000000000000000e+00
0.000000000000000000e+00
2.331326395261567086e+03
3.358106012851932519e+03
7.786302736261859536e+02
1.145261838514125429e+03
2.337261077854783252e+03
2.609844881482422807e+03
0.000000000000000000e+00
3.173514422681183078e+03
0.000000000000000000e+00
3.238678978197277502e+03
3.137312406837008439e+03
1.172096221195534326e+03
2.948342088656501346e+03
2.522458301967708849e+03
2.431427948997588828e+03
2.669868690264413544e+03
3.205628108256496489e+03
1.815473156151712146e+03
2.454856491170357458e+03
2.193871246108755599e+02
0.000000000000000000e+00
2.873207547236235314e+03
0.000000000000000000e+00
0.000000000000000000e+00
4.385696018196176738e+03
2.740262975008227386e+03
0.000000000000000000e+00
2.354792923643253744e+03
3.959035896070873584e+00
2.963858760899166555e+03
0.000000000000000000e+00
3.731357675639446825e+03
0.000000000000000000e+00
1.878316634986549161e+03
0.000000000000000000e+00
1.183817221038044863e+03
5.725819536455674097e+02
0.000000000000000000e+00
2.044906571076718365e+03
2.196503760083579436e+03
3.873482428095304385e+03
1.672955594630911492e+03
1.537199096442781865e+03
1.924923246691468648e+03
3.859051741525764555e+03
0.000000000000000000e+00
3.108813285146607086e+03
0.000000000000000000e+00
3.709188724489650667e+03
2.623852040752534776e+03
4.372483104548882693e+03
3.416020732320611387e+03
0.000000000000000000e+00
1.839252867116010293e+03
2.130184462823672675e+03
1.389280724345009048e+03
0.000000000000000000e+00
0.000000000000000000e+00
9.660597037858676686e+02
0.000000000000000000e+00
0.000000000000000000e+00
2.779227899573742434e+03
2.663826795009664238e+03
2.579944978693406513e-02
2.378415481152479515e+03
1.758692923322088006e+02
2.326795447070616319e+03
2.137542268732795037e+03
3.164103870035614818e+03
2.322727056406438805e+03
1.103347277942520805e+03
3.078337396938968240e-03
2.871514172293246702e+03
0.000000000000000000e+00
2.465598075528397203e+03
6.358924672400462441e+02
2.088020378979854286e+03
3.053728176851291209e+03
3.414786943467335277e+03
1.521343938511563692e+03
2.594893287081503331e+03
2.356157639290903262e+03
1.930876193870789848e+03
1.221942599906468331e+03
1.878050393078593061e+03
3.031309510261053219e+03
0.000000000000000000e+00
0.000000000000000000e+00
2.331717466207918733e+03
1.227319519778120238e+01
2.473045701440424637e+03
0.000000000000000000e+00
0.000000000000000000e+00
2.105399499787018613e+03
2.991609665559372843e+03
0.000000000000000000e+00
0.000000000000000000e+00
2.484028121345909312e+03
2.539468184433643728e+03
2.006815461252699151e+03
1.862569710789829969e+03
0.000000000000000000e+00
0.000000000000000000e+00
3.733388876589014217e+03
2.342755953344748377e+03
2.248051860148553260e+03
0.000000000000000000e+00
0.000000000000000000e+00
0.000000000000000000e+00
1.933902459108503081e+03
0.000000000000000000e+00
1.248308258468750637e+03
2.654126154386905000e+03
1.597855792636984233e+03
0.000000000000000000e+00
2.103195083560422972e+03
2.553925487736704781e+03
1.832788029671063896e+03
4.907849925721530781e+03
2.668320250319083243e+03
7.955602198460838963e+02
2.334781694709089606e+03
1.954497254188754141e+03
3.640367064205931001e+03
2.091689053995651193e+03
2.141966153407702677e+03
1.615860791018348891e+03
0.000000000000000000e+00
3.194018405367388368e+03
2.762359837259281790e+02
0.000000000000000000e+00
0.000000000000000000e+00
2.923550586163764365e+03
2.030130991298937715e+03
3.490480023273264578e+03
3.195577790297102183e+03
2.499462625896558166e+03
0.000000000000000000e+00
2.418164888047614113e+03
1.653186824635486118e+03
0.000000000000000000e+00
1.731032756483181856e+03
0.000000000000000000e+00
7.528670395098744166e+02
1.106808001123136592e+03
2.402111613278976165e+03
2.244778782071079149e+03
2.597571263182908751e+03
1.803921728994465184e+03
2.849713094229810395e+03
2.780427786509971156e+03
0.000000000000000000e+00
0.000000000000000000e+00
0.000000000000000000e+00
0.000000000000000000e+00
1.658014073286902203e+03
0.000000000000000000e+00
1.292716987666790828e+03
0.000000000000000000e+00
2.749000135768437303e+03
1.232566336382296186e+03
2.370844844629756153e+03
2.241493669099872477e+03
2.318680406565545127e+03
2.933746917557436518e+03
6.744589139284771703e-03
2.063288637937513158e+03
2.088665043149375833e+03
0.000000000000000000e+00
0.000000000000000000e+00
4.236239239055430517e+03
0.000000000000000000e+00
3.457330384600209072e+03
8.508812017331365496e+02
0.000000000000000000e+00
3.157280291797359951e+03
2.527132991992402822e+03
1.765475876623531803e+03
0.000000000000000000e+00
1.579111910291248250e+03
1.141369651773129135e+03
9.733731618573077640e+02
0.000000000000000000e+00
0.000000000000000000e+00
0.000000000000000000e+00
1.844081813731464081e+03
2.443803066539112478e+03
1.689796500993542850e+03
2.282488865323831305e+03
4.096479626809923502e-01
1.829788306594127107e+03
2.907939286844338312e+03
2.178810946157318085e+03
0.000000000000000000e+00
3.078462682821554608e+03
3.668013876787154004e+03
0.000000000000000000e+00
1.048276785188136699e+02
2.506898652878589019e+03
2.534972216596362159e+03
1.208398675054196019e+03
2.555487236048794330e+03
2.806534522766015471e+03
2.835555080033374452e+03
0.000000000000000000e+00
2.008567025882074859e+03
2.418154597008832752e+03
1.859505969879683562e+03
2.666248412959975667e+03
0.000000000000000000e+00
2.991763859050116480e+03
3.044395592878571733e+03
2.906083916954230972e+03
1.461199608701281477e+03
1.787519132543821343e+03
2.507258483581244946e+03
3.486651653592707589e+03
1.630305026881978392e+03
0.000000000000000000e+00
3.297400127328000963e+03
3.398043216863880843e+03
0.000000000000000000e+00
2.763196445937501721e+03
2.617079194926189984e+02
0.000000000000000000e+00
8.769056383607676253e+02
1.917454718899534214e+02
1.863483158076998279e+03
0.000000000000000000e+00
2.454993452620693461e+03
0.000000000000000000e+00
0.000000000000000000e+00
2.090781257027992979e+03
0.000000000000000000e+00
2.262823286798085064e+03
2.401246557966806449e+03
2.755845948157366365e+03
0.000000000000000000e+00
4.203492407931480557e+03
1.490899862119113550e+03
0.000000000000000000e+00
4.245663187009540707e+00
1.151750091800931841e+03
3.845036516926484182e+03
1.935242204359382868e+03
2.225908344041091368e+03
0.000000000000000000e+00
1.915365728375037406e+03
2.530633780814242982e+03
0.000000000000000000e+00
2.674808102060342662e+03
2.035445601519313641e+03
1.421441557104116555e+03
0.000000000000000000e+00
0.000000000000000000e+00
1.734358224782045454e+03
1.435373277438339073e+03
2.034334502040292136e+03
3.270168329280570106e+03
3.006744032021378644e+03
2.439240361831617520e+03
8.707140103560959687e+01
2.178410232381429523e+03
8.627666631597088553e+02
2.775581292354034304e+03
3.616324444161728024e+03
1.731898798450127970e+03
7.819090880686420633e+02
3.441902270360151306e+03
1.787619639394688420e+03
1.775039412386831145e+03
2.835412714927223533e+03
0.000000000000000000e+00
2.072283849076485239e+03
0.000000000000000000e+00
0.000000000000000000e+00
3.060299228830263473e+03
1.091410880463081639e+03
2.489789726334857733e+03
1.662741727169486012e+03
0.000000000000000000e+00
2.908755135617684573e+03
3.125516249140491709e+03
2.492519352666568921e+03
0.000000000000000000e+00
0.000000000000000000e+00
2.771212144073797390e+03
2.368105569732142612e+03
0.000000000000000000e+00
2.116987547898314915e+03
1.974815097567624662e+03
2.758415736415191532e+03
1.096578381603467278e+03
4.976147064263932407e+03
2.036698526886176069e+03
5.020378522574900671e+03
4.209839695785194635e+03
0.000000000000000000e+00
0.000000000000000000e+00
2.056159816245781712e+03
2.269362100405850924e+03
2.481535097124287859e+03
2.363088281045202621e+03
3.163429927459219925e+03
1.629852708766702108e+03
3.314831288438291267e+03
0.000000000000000000e+00
2.948637293471256726e+03
4.117157751554623246e+03
3.871681198017905444e+03
0.000000000000000000e+00
4.397715446690563112e+03
0.000000000000000000e+00
1.929903025287784885e+03
2.458763403160264261e+03
0.000000000000000000e+00
2.720481699737137660e+03
3.737890580791281536e+03
1.533302201566223363e-02
1.373965538067901211e-03
2.763298817106989191e+03
0.000000000000000000e+00
2.041374369920230265e+03
0.000000000000000000e+00
0.000000000000000000e+00
0.000000000000000000e+00
2.314689319155877001e+03
1.104912115287153483e+03
2.065829302670318611e+03
0.000000000000000000e+00
1.809762398301971871e+03
4.972868360425762857e-01
0.000000000000000000e+00
3.445803721330595181e+03
0.000000000000000000e+00
0.000000000000000000e+00
3.247167880553751274e+03
2.954592168069211766e+03
0.000000000000000000e+00
1.779445479912100836e+03
3.145723088120575540e+03
2.638317271712003730e+03
2.268084313633153215e+03
3.746833378763404653e+03
5.027717146079522536e+03
7.264464026004446850e-02
2.621598280314356543e+03
1.571054841490693889e+03
2.733829045097808830e+03
8.951023001689457033e+02
0.000000000000000000e+00
0.000000000000000000e+00
4.671106769889593124e+03
2.579079012223519840e+03
2.546606425236676387e+03
0.000000000000000000e+00
2.606030749459750496e+03
2.812225696665701435e+03
2.714839921676321410e+03
2.055669597967063055e+03
1.903673060439177789e+03
2.773858053894947261e+03
4.464707516308408231e+01
1.714871064416366380e+03
1.523995383924919906e+03
0.000000000000000000e+00
2.487720825994620554e+03
0.000000000000000000e+00
0.000000000000000000e+00
1.806618979282211512e+03
9.269592031021602452e+02
2.759555517719126783e+03
2.526280728774145700e+03
2.527736503479536623e+03
2.385246080701471328e+03
2.236129468004218324e+03
4.209654250578023493e+03
4.027799227740614697e+03
5.035801980320684379e+01
1.499764393127406947e+03
3.911085723177529871e+03
1.658686082708298954e+03
4.515452204039320350e+03
0.000000000000000000e+00
1.609599537166649952e+03
1.190172602902748622e+03
3.522837733814959847e+03
1.340457793456153468e+03
2.143265061476267419e+03
1.936756874324054706e+03
2.551598588644993015e+03
3.021867602644488215e+03
3.300144759990507737e+03
0.000000000000000000e+00
2.708136807102710463e+03
1.339719442973727382e+03
4.283177515910938382e+03
1.831782806280534032e+03
0.000000000000000000e+00
2.420757058615663482e+00
2.115652460575801342e+03
4.467338695144281701e+03
2.057925308769336425e+03
0.000000000000000000e+00
0.000000000000000000e+00
4.588528400030918419e+03
0.000000000000000000e+00
2.194223417330067605e+03
3.300487220979993253e+03
2.185704169602831826e+03
0.000000000000000000e+00
2.595131483901058346e+03
2.352391509170410700e+03
2.903206808678806738e+03
3.076605224894593448e+03
1.882801061257487163e+03
1.947069711290533405e+03
3.051267964637372188e+03
2.315673266368684381e+03
2.252506606467068195e+03
2.575574345618951156e+03
0.000000000000000000e+00
1.678669926236035508e+03
3.043872390501201608e+03
2.834648940875194057e+03
2.501449484744807705e+03
1.966590635900502548e+03
4.290084007568657398e+03
0.000000000000000000e+00
2.396314442827132552e+03
0.000000000000000000e+00
2.191746936785057642e+03
7.138976405796712470e+02
0.000000000000000000e+00
0.000000000000000000e+00
0.000000000000000000e+00
1.660404519829900210e+03
1.778702764055924035e+03
0.000000000000000000e+00
0.000000000000000000e+00
2.197090268984902195e+03
0.000000000000000000e+00
2.317095471866196476e+03
2.951497227069920882e+03
0.000000000000000000e+00
3.019818602978397923e-02
2.085720957076411196e+03
2.449948285199934617e+03
1.466602576151489529e+03
1.584120709158014961e+03
1.794471090630394656e+03
0.000000000000000000e+00
0.000000000000000000e+00
1.548853089805926629e+03
0.000000000000000000e+00
3.071256993839052484e+03
0.000000000000000000e+00
2.210746488918084196e+03
0.000000000000000000e+00
3.374680688779334560e+03
0.000000000000000000e+00
1.757922902368590485e+03
0.000000000000000000e+00
1.955030925432219647e+03
2.443782323843332506e+03
2.466288928908762500e+03
2.243325301911682800e+03
0.000000000000000000e+00
0.000000000000000000e+00
2.027817050655721005e+03
1.436176695508764624e+03
3.356851125648246125e+03
1.738141116561019317e+03
2.223536947966204025e+03
0.000000000000000000e+00
0.000000000000000000e+00
2.867594055191148072e+03
9.024936093177529983e+02
0.000000000000000000e+00
0.000000000000000000e+00
0.000000000000000000e+00
3.023422857391414254e+03
2.570049377158284187e+03
2.996412551868706942e+03
1.985221936347080600e+03
1.284741185948952534e+03
3.621500503958668560e+03
3.795382484269794077e+03
1.828706519940170665e+03
1.946014816715614188e+03
1.473270245725872201e+03
4.933384253061374807e+02
2.948716501198941842e+03
2.879302882467163272e+03
2.654874543508049101e+03
0.000000000000000000e+00
2.402983839047375113e+03
1.393527303714653499e+03
0.000000000000000000e+00
3.746962366666410617e+03
3.861903896613512188e+03
0.000000000000000000e+00
1.247943380481956837e+02
0.000000000000000000e+00
2.567884908977430769e+03
4.568987954570911825e+03
3.294151279656216502e+03
2.402438976155825912e+03
0.000000000000000000e+00
3.069353002519346774e+03
2.009675475160474207e+03
0.000000000000000000e+00
0.000000000000000000e+00
0.000000000000000000e+00
2.714063110653696514e-02
3.256438890384743900e+03
2.052476438926532865e+03
0.000000000000000000e+00
2.303757654607762106e+03
1.283675477314892913e-02
1.058167807877180621e+03
2.371490449563134462e+03
0.000000000000000000e+00
2.774786289531039984e+03
3.823913626349531114e+03
2.955827448377384826e+03
2.168310730828671694e+03
2.945588702301029116e+03
2.191149482899345003e+03
2.205047846271190792e+03
3.121969661180629828e+03
1.921557623837723895e+03
2.433228077692911938e+03
4.899825187074021414e+03
1.148583165157469011e+03
5.023584370454773307e+03
4.141018001083285526e+03
2.963219603640026435e+03
1.951118345913710755e+03
1.512699173382134632e+03
3.541098315938143060e+03
4.304112379916477948e+03
2.658731606486253895e+03
0.000000000000000000e+00
0.000000000000000000e+00
1.922725972239277780e+03
2.371290147170658202e+03
0.000000000000000000e+00
0.000000000000000000e+00
3.368028776999562979e+03
2.044915594378836204e+03
0.000000000000000000e+00
1.415809324354632736e+03
2.397357830253894463e+03
0.000000000000000000e+00
2.964795991155549927e+03
2.178956322855084181e+03
1.847940970482886769e+03
2.503416426933837101e+03
3.261011151876301483e+03
2.516116532497107528e+03
0.000000000000000000e+00
1.619384163909125391e+03
0.000000000000000000e+00
0.000000000000000000e+00
1.604015518564848207e+03
2.595528073230526388e+03
0.000000000000000000e+00
0.000000000000000000e+00
2.747745569801190868e+03
3.925220057659317717e+03
1.583493449119850311e+03
2.813373876007971376e+03
1.397176997098722950e+03
2.046147151786134373e+03
3.766640312795061618e+03
0.000000000000000000e+00
2.979727944242768899e+03
2.267730838822898932e+03
0.000000000000000000e+00
2.340109194541582383e+03
1.985854055086383596e+03
0.000000000000000000e+00
2.029379934768076055e+03
1.365616038971347280e+03
4.313286422233795747e+03
2.194936754617059727e+00
4.032142378814751282e+03
0.000000000000000000e+00
1.365878535032971286e+03
0.000000000000000000e+00
1.862350702111144074e+03
2.014340189646464978e+03
1.929561803353135019e+03
1.464263401238713641e+03
3.069080616964493856e+03
1.996865856653312221e+03
0.000000000000000000e+00
2.300643875385866977e+03
1.988489564877818793e+03
3.897054161410777851e+03
3.315157297533005476e+03
1.550487598171456966e+03
1.615644902922213532e+03
1.360251648575649142e+03
1.915008536400272078e+03
1.829185254016191948e+03
0.000000000000000000e+00
5.730987556737090927e+02
3.475984573143069611e+03
1.990747650535194680e+03
2.759570179868024297e+03
1.941986953470042408e+03
0.000000000000000000e+00
0.000000000000000000e+00
2.412411095987773479e+03
4.856904970016330481e+03
3.208254548854892619e+03
2.213671977695776150e+03
1.098043669173876413e+00
0.000000000000000000e+00
2.681341225194046274e+03
0.000000000000000000e+00
3.233558698813432329e+03
2.456389144639250844e+03
2.187366350193041853e+03
3.531547807459718115e+03
2.584460342105011478e+03
2.535989297053311020e+03
0.000000000000000000e+00
1.499111374300810340e+01
3.207336179766570694e+03
1.866367155726767578e+03
2.503231784817762673e+03
2.101735545799602733e+03
1.476599964671185489e+03
2.647616951895179227e+03
2.219267721427604556e+03
2.737792965082917362e+03
3.011934352421665153e+03
2.346480403037275664e+03
3.107211772352456137e+03
0.000000000000000000e+00
2.865290709614055231e+03
1.407039231123053469e+03
1.424563481964287803e+03
0.000000000000000000e+00
1.571935453824698925e+03
1.857276531629031524e+03
0.000000000000000000e+00
2.106659974210198015e+03
0.000000000000000000e+00
0.000000000000000000e+00
2.381960864475695416e+03
4.017694265168393031e+03
1.975079085084143571e+03
2.576346712745727928e+03
2.550137089047347217e+03
3.221164364449213281e+03
2.339879097469383851e+03
2.408432502381037011e+03
0.000000000000000000e+00
1.871306630622713101e+03
0.000000000000000000e+00
2.507965180801693350e+03
2.330773696495453805e+03
0.000000000000000000e+00
3.845830819912953302e+03
0.000000000000000000e+00
3.001955635769990295e+03
0.000000000000000000e+00
2.734604796679923311e+03
2.957498520333319448e+03
2.707851835963083886e+03
1.478014592430554330e+03
2.659688994329190791e+03
2.736674247711198859e+03
2.002263277038582601e+03
2.493582886207149386e+03
3.423262594820700087e+03
3.022647323791170493e+03
3.324500413471832871e+03
1.282046017961693451e+03
1.832398932034266636e+03
0.000000000000000000e+00
1.738148791817367510e+03
2.011290078339515730e+03
2.286719618062488735e+03
2.555764910532162503e+03
1.911900929507101637e+03
2.620430012221912875e+03
2.410059450217522226e+03
2.136621891916730419e+03
7.369677603273885325e+02
0.000000000000000000e+00
2.779918179317609884e+03
2.018732874232227232e+03
0.000000000000000000e+00
3.526896074367687106e+03
2.764547967945693017e+03
0.000000000000000000e+00
2.139235919021303403e+02
1.546019881931716327e+03
3.381980144383852803e+03
2.803868214430986427e+03
2.720752046014241046e+02
1.849850606385734864e+03
2.933981729921651095e+03
0.000000000000000000e+00
0.000000000000000000e+00
2.434055089432512432e+03
2.048915871445206449e+03
0.000000000000000000e+00
1.704426325473468751e+03
1.819138108266635300e+03
2.816594053327569327e+03
0.000000000000000000e+00
0.000000000000000000e+00
0.000000000000000000e+00
2.874156155572563875e+02
2.084810314871718674e+03
0.000000000000000000e+00
0.000000000000000000e+00
2.746309344627662540e+03
2.804054829856613196e+03
2.503757694759406149e+03
2.822838029247940540e+03
0.000000000000000000e+00
9.631441290434142322e-02
1.118768029558122635e+03
3.383855522715020015e+03
1.663385324375120035e+03
8.213156235314933440e-03
2.420003599533810757e+03
3.663091352849733994e+03
2.287118754338007420e+03
2.490820706004159547e+03
3.259945599762657853e+00
0.000000000000000000e+00
3.943101684038992971e+03
2.605586536828194767e+03
0.000000000000000000e+00
1.747648332692916028e+03
3.575998670258558377e+03
2.488246299972525321e+03
2.828921570512466133e+03
2.056823502201587416e+03
0.000000000000000000e+00
0.000000000000000000e+00
3.093186405859888055e+03
2.586301761155482382e+03
0.000000000000000000e+00
0.000000000000000000e+00
1.577013760225964461e+03
1.853329184002358716e+03
2.673461329762358218e+03
2.145969791983952291e+03
2.894270137144485034e+03
3.218670433881925874e+03
2.188452221138867571e+03
0.000000000000000000e+00
9.453543718205764890e+02
4.233560184517409652e+03
2.692297865875298157e+03
6.419774390105885686e+01
2.017602443203212488e+03
1.192705535015555597e+03
3.369707202975406290e+03
1.805227710001054220e+03
2.268630931852384492e+03
1.882586802289006300e+03
1.586943689093459852e+03
2.449561482109129429e+03
1.617549433460226510e+03
2.904360816167901248e+03
0.000000000000000000e+00
2.278877755077957645e-01
2.385669562109978870e+03
3.855985321733167893e+03
3.109664240473648533e+03
2.035570292884950732e+03
2.012867945837205525e+03
3.685342678200685441e+03
0.000000000000000000e+00
0.000000000000000000e+00
0.000000000000000000e+00
2.255876778258242666e+03
2.841726422100327909e+03
2.982434430078137666e+03
0.000000000000000000e+00
3.342916015122319550e+03
2.806909738399554954e+03
2.325994203082519562e+03
1.750296267450904224e+03
4.190483662986663148e+03
2.166698271616042462e+02
2.154064376611495391e+03
1.807433030383623080e-04
3.770994179398986489e+03
2.103834860346978985e+03
3.453270449338014259e+03
0.000000000000000000e+00
1.589680818590569515e+03
2.174089418712537281e+03
3.018779224046739728e+03
3.596570433833403513e+03
1.444438133784570255e+03
2.844829646410652458e+03
3.803483562462498412e+03
2.352363423927454278e+03
1.486096951430226341e+02
2.777557883108966053e+03
3.963782094366615638e+03
2.199737773515517802e+03
0.000000000000000000e+00
0.000000000000000000e+00
0.000000000000000000e+00
3.317585145175690741e+03
2.553533005644567766e+03
2.375470947643043473e+03
2.421121628541732662e+03
0.000000000000000000e+00
2.355726230225990548e+03
2.024479386844905093e+03
2.395727475016611606e+03
4.122591833048501030e+03
3.314603910403091959e+03
4.002666491840501294e+03
3.821688421536237911e+03
1.508441132755252056e+03
3.323876606725389138e+03
2.281982688477729425e+03
1.236039303833968006e+03
2.457871384871169074e+00
0.000000000000000000e+00
0.000000000000000000e+00
2.406215271115069754e+03
0.000000000000000000e+00
1.213858409572275832e+03
2.666934310120996997e+03
0.000000000000000000e+00
1.321136282102088899e+03
2.380801797512686790e+03
2.624969759996748508e+03
2.138937283860284879e+03
3.731656884436961263e+03
1.853819029417354159e+03
3.507818519143619596e+03
0.000000000000000000e+00
0.000000000000000000e+00
2.391084897163091227e+03
0.000000000000000000e+00
2.839010746608255431e+03
2.806778019986813433e+03
4.017820063652471617e+03
1.452997616375796042e+03
4.610563861575656119e-02
0.000000000000000000e+00
0.000000000000000000e+00
0.000000000000000000e+00
0.000000000000000000e+00
2.085697254416299984e+03
0.000000000000000000e+00
2.972020598669769697e+03
1.839346840247163755e+03
2.647983758017652690e+03
1.490842676296597801e+03
2.054718875780235976e+03
2.243843708687926210e+03
3.130965141928754292e+03
5.147048819402698427e+03
1.105952565695042949e+03
1.699821469956077635e+03
3.517463815317024455e+03
2.437135414173826121e+03
2.579519828927004710e+03
2.863527649309255594e+03
3.953874221822480649e+03
1.512798366605420370e+03
0.000000000000000000e+00
0.000000000000000000e+00
1.638525229298102204e+03
0.000000000000000000e+00
2.084610603324836120e+03
2.922852286981649740e+03
3.098742752237013519e+03
1.799269881175131786e+03
2.636763221601722307e+03
3.231737368513131969e+03
1.800045093538938772e+03
1.579309079401624294e-01
1.480818097406882714e+02
2.033247363357804716e+03
3.025908321083988540e+03
2.396395356552005404e-02
1.862534162536031090e+03
0.000000000000000000e+00
1.288444654886552826e+03
0.000000000000000000e+00
3.162476233835332096e+03
9.636975891495239921e+02
2.635059991583694227e+03
3.137054503206115202e-02
1.531261832485324476e+03
2.710856704559409536e+03
2.120969221933046356e+03
4.264176475908242026e+01
0.000000000000000000e+00
0.000000000000000000e+00
2.103318598971237407e+03
1.945133097263171749e+03
2.563989894208497390e+03
1.747671731325680867e+03
0.000000000000000000e+00
2.537808229553047568e+03
3.364053900557338238e+03
3.307638437440617963e+03
2.354747365432557672e+03
0.000000000000000000e+00
0.000000000000000000e+00
0.000000000000000000e+00
0.000000000000000000e+00
2.456878938426962122e+03
3.318036069354276151e+03
0.000000000000000000e+00
1.359636329498243867e+02
3.183491349586985052e+03
2.070222256865235977e+03
1.345989737336639564e+03
0.000000000000000000e+00
2.017688230541534267e+03
1.593383224866556134e+02
1.953981256685802464e+03
1.375584820238872908e+03
2.732563499727985345e+03
2.731632063200231187e+03
2.958311409142334924e+03
0.000000000000000000e+00
2.949611241054306277e-02
2.292893438239117586e+03
2.242881261371075652e+03
3.833782055648043752e+03
3.058733794903673697e+02
1.751423365651862014e+03
2.965211648162220627e+03
2.560235259763430804e+03
1.490218502422794700e+03
2.599035258099319776e+02
2.938609370280754774e+03
2.502042533102211564e+03
3.283576084300875664e+03
1.910983746950023132e+01
0.000000000000000000e+00
2.355604275106452405e+03
2.163094952440588713e+03
2.987049002997810021e+03
2.718398510111730047e+03
2.653294599446236134e+03
0.000000000000000000e+00
1.036383279226720333e+03
0.000000000000000000e+00
2.905273196491179988e+03
1.033627701579826407e+03
3.422227375977672637e+03
0.000000000000000000e+00
1.581528646594960946e+03
2.568297101219651267e+03
2.363910118583588428e+03
1.903807102079736069e+03
3.027188161475350171e+03
3.016123872168827802e+03
2.895457599114160985e+03
0.000000000000000000e+00
2.147973814036230578e+03
0.000000000000000000e+00
2.770546656899386107e+03
2.675336639257146544e+03
3.701038221776253522e+03
1.356045516315497480e+03
0.000000000000000000e+00
3.771747868921375812e+03
4.199556779698468745e+03
2.156325984396972217e+03
0.000000000000000000e+00
2.918586668616627321e+03
2.894822113128611818e+03
0.000000000000000000e+00
0.000000000000000000e+00
0.000000000000000000e+00
0.000000000000000000e+00
0.000000000000000000e+00
3.271269837557339088e+03
1.830847864833777521e+03
0.000000000000000000e+00
0.000000000000000000e+00
2.880013170652091503e+03
2.626960450736805342e+03
1.380394773749867454e+03
0.000000000000000000e+00
4.743783531314693391e+03
1.855227771666249055e+03
0.000000000000000000e+00
1.144129583321046510e+02
1.627193077560513984e+03
1.864934423999511637e+03
0.000000000000000000e+00
2.829333303845487535e+03
1.727216312705421615e+03
0.000000000000000000e+00
0.000000000000000000e+00
3.343168598745251984e+03
3.269480665319132640e+03
3.057094034895999357e+03
2.073353423009392827e+03
2.545706882898229196e+03
0.000000000000000000e+00
3.576303406043734867e+01
0.000000000000000000e+00
0.000000000000000000e+00
2.575469989667182290e+03
1.736447598208906584e+03
2.116143986745737948e+03
1.689408917757101108e+03
2.049057387569337607e+03
2.202733957255258247e+03
2.748782211262733654e+03
3.001462446054210886e+03
0.000000000000000000e+00
0.000000000000000000e+00
2.089040293201106579e+03
2.174425753264222294e+03
0.000000000000000000e+00
0.000000000000000000e+00
3.011095810588449694e+03
2.897217206127243116e+03
2.484097210125765741e+03
3.239947529422353000e+03
2.706930449546780437e+03
1.807455364242196083e+03
2.973548513901186652e+03
2.763768590980907447e+03
2.980605298321459941e+03
0.000000000000000000e+00
0.000000000000000000e+00
3.460373009950853884e+03
3.732714027666952461e+03
1.833400845542200159e+03
0.000000000000000000e+00
2.624580800032708339e+03
1.238490257554802383e+03
1.552958502969705023e+03
3.168912917200940683e+03
3.871303253308723669e+01
2.868281237297925600e+03
2.341842276602984384e+03
0.000000000000000000e+00
1.902995657042082556e+01
2.405136329698143982e+03
2.960904303478309430e+03
3.031053588073701576e+03
7.401200334265010952e+02
1.441849943267880462e+03
2.109712902072351426e+03
1.713205797661795486e+03
0.000000000000000000e+00
2.380565551057223274e+03
1.334586549323285226e+03
4.896277529282089063e+02
4.715662080422043800e+03
3.000961294263834588e+03
4.199018456263001099e+03
2.380623190052575865e+03
0.000000000000000000e+00
1.645381593730418217e+03
2.317311044462257541e+03
2.138685663946672321e+03
0.000000000000000000e+00
2.212222880119224556e+03
1.200330087632755067e+03
0.000000000000000000e+00
2.177424954331945173e+03
0.000000000000000000e+00
2.671051758178510681e+03
0.000000000000000000e+00
2.476281848800134867e+03
3.834378360423329468e-02
1.113815653577331204e+03
0.000000000000000000e+00
3.576840871892635732e+03
0.000000000000000000e+00
0.000000000000000000e+00
2.395777920610271849e+03
2.818580269702943951e+03
2.600423750979824945e+03
2.133363969315542363e+03
2.635449008911382407e+03
1.629010191632549777e+03
2.614017926389350578e+03
0.000000000000000000e+00
1.934468058959465225e+03
2.326825895695946656e+03
2.692862828989745140e+03
1.957121641168486121e+03
3.571936520759482846e+03
2.546274415904190391e+03
0.000000000000000000e+00
0.000000000000000000e+00
2.667933607846498944e+03
0.000000000000000000e+00
0.000000000000000000e+00
3.942360499792268001e+03
2.387767660547979176e+03
0.000000000000000000e+00
2.559631197585259542e+03
1.910882512477110140e+03
0.000000000000000000e+00
1.968384253821569700e+03
2.111962050473085128e+03
2.503169292857638084e+03
0.000000000000000000e+00
3.677777743624756113e+03
1.914146418106976171e+03
2.232271372480317041e+03
0.000000000000000000e+00
3.139072128577390231e+03
5.629803771778822465e+02
2.123821159038924634e+03
1.486060027882922896e+03
0.000000000000000000e+00
2.228975956997602225e+03
2.362282665946984707e+03
0.000000000000000000e+00
2.913480145036010072e+03
0.000000000000000000e+00
2.269664900167844280e+03
0.000000000000000000e+00
1.924055896833306633e+03
2.797444759123027779e+03
3.403158758010248221e+03
0.000000000000000000e+00
0.000000000000000000e+00
2.203538184153149359e+03
0.000000000000000000e+00
0.000000000000000000e+00
2.305306782916886732e+03
0.000000000000000000e+00
1.090949539045686606e+03
2.714386542333523266e+03
0.000000000000000000e+00
0.000000000000000000e+00
1.377226791615249113e+03
2.780413858615794652e+03
3.459150166081963107e+03
0.000000000000000000e+00
1.933632786854285996e+03
0.000000000000000000e+00
1.576509860716760613e+03
3.478077462961664423e+03
0.000000000000000000e+00
1.459952712254015978e+03
2.843673573830165878e+03
0.000000000000000000e+00
0.000000000000000000e+00
1.960947739248513926e+03
2.810902925318805956e+03
3.106421553657856293e+03
0.000000000000000000e+00
2.341692029731348157e+03
0.000000000000000000e+00
0.000000000000000000e+00
2.228610057220794261e+03
3.898124039371033177e+03
1.261098505271365411e+03
2.154320344689768262e+03
2.935640296601923637e+03
3.889894489548169076e+03
1.821042007804499690e+03
0.000000000000000000e+00
3.010419275175081566e+03
0.000000000000000000e+00
2.442239952972159244e+03
2.254044101428007707e+03
1.263758423295804050e+03
1.561496422564959403e+03
3.371068109676706626e+03
2.793074796278961912e+03
2.363370177493196479e+03
0.000000000000000000e+00
2.383357680821791291e+03
2.438907090498833895e+03
0.000000000000000000e+00
0.000000000000000000e+00
3.549136225279654809e+03
2.110254575544968702e+03
1.076798924760079672e+03
3.121467281808144890e+03
1.590582902138703503e+03
1.817236967920326833e+03
0.000000000000000000e+00
3.692238966792161237e-01
3.862733661808307261e+03
0.000000000000000000e+00
0.000000000000000000e+00
2.196305637509794906e+03
1.788435212822514131e+03
1.838158213795396250e+03
0.000000000000000000e+00
3.339679351489758119e+03
4.378961066796910018e+03
2.047775476350216195e+03
1.542979292990640488e+03
0.000000000000000000e+00
4.162311319063883275e+03
0.000000000000000000e+00
2.007521320963860035e+03
0.000000000000000000e+00
2.486685997224412858e+03
2.359017136925830982e+03
2.609282258804887533e+03
7.306314719535293989e+02
1.100984451996919006e+03
1.505932872748235241e+03
0.000000000000000000e+00
5.564721472801181790e-01
1.727225726080360346e+03
0.000000000000000000e+00
2.617279153136770219e+03
8.380674673840987907e+02
1.372206393818487868e+03
2.073873998131602548e+03
0.000000000000000000e+00
3.890888096799609229e+03
0.000000000000000000e+00
0.000000000000000000e+00
7.666195586702086757e+02
3.331609318504342809e+03
3.786157365358666539e+03
3.350470027659320294e+03
0.000000000000000000e+00
0.000000000000000000e+00
1.825719657793523538e+03
3.399376107158605009e+03
2.848521479131887645e+03
1.626720842786015965e+03
1.620519442166551471e+03
2.696322694583795055e+03
2.890931549778906174e+03
1.335129553632577881e+03
2.392351440660421758e+03
2.267292913247365505e+03
2.503866892203223415e+03
2.438571249274538332e+03
1.380425836166251656e+03
2.234593441552714467e+03
0.000000000000000000e+00
0.000000000000000000e+00
9.665826652359112359e+02
2.156370441225590184e+03
1.722004618519577690e+01
2.170775853371013909e+03
1.433207289120764926e+03
0.000000000000000000e+00
9.290214722044765949e+02
3.132159912027417704e+03
2.773743556598873283e-02
2.922657273517687827e+03
3.358261697797571287e+03
2.894214001076761178e+03
2.834030847548273869e+03
3.414409731578780338e+03
2.694226477673509180e+03
2.179293988243444801e+03
2.018567787384380836e+03
3.002609661687165044e+03
2.405381834646686912e+03
0.000000000000000000e+00
3.884941975894616917e+03
0.000000000000000000e+00
2.997431204089661151e+03
0.000000000000000000e+00
1.116908667157985747e+03
2.153450092230922564e+03
0.000000000000000000e+00
3.931360377464443445e+03
4.207087341975419804e+03
0.000000000000000000e+00
0.000000000000000000e+00
1.100661962162121654e+03
1.597625859286466443e-01
1.798373901119338598e+03
6.055028040563571225e-03
0.000000000000000000e+00
2.338199971657013521e+03
2.621036460727919803e+03
0.000000000000000000e+00
1.930467787629459053e+03
4.028222987362823915e+01
7.053671653520723339e+01
1.724121050469694183e+03
2.254816181736532144e+03
1.956921252730535343e+03
4.373334817076101899e+03
2.092697409441459968e+03
3.962726935918908566e+03
3.709184858179650291e+03
2.315961702272760704e+03
2.038880232843804379e+03
2.168969827692489616e+03
1.374909919689524941e+03
2.213037260383136072e+03
9.822885285320810453e+02
2.581274032284271470e+03
1.330945020674434431e-02
5.708001268227235414e+02
2.166694429685594969e+03
1.915085806704297233e-01
1.586855280236341059e+03
2.643734832474727682e+03
2.306737730634632499e+03
0.000000000000000000e+00
2.933745942375390769e+03
0.000000000000000000e+00
0.000000000000000000e+00
3.140133516717470229e+03
2.260872521158308246e+03
3.103173359931680352e+03
2.164973049808758788e+03
0.000000000000000000e+00
0.000000000000000000e+00
0.000000000000000000e+00
1.720335020899074152e+03
4.218819132099724811e+01
2.789093242707895115e+03
0.000000000000000000e+00
1.997523984071448012e+03
2.737803256121695995e+03
2.795977637887700439e+03
1.636590826639440593e+03
0.000000000000000000e+00
2.395775213045999863e+03
0.000000000000000000e+00
1.961801551285316236e+03
1.049868469437934664e+03
2.583353108935990349e+03
0.000000000000000000e+00
2.428002696629846923e+03
2.583115233352874384e+03
2.767186856456101395e+03
2.382334450981578811e+03
2.858912468334892310e+03
2.728571689536330268e+03
1.671234753972385533e+03
0.000000000000000000e+00
2.388916126708500997e+03
0.000000000000000000e+00
1.755869501686539706e+03
4.886994349915240593e-02
2.773742890631546743e+03
2.248526842641876556e+03
2.816229931823909737e+03
2.987433116629744756e+00
5.593290690070718938e+02
2.476100269902964101e+03
8.393476060664397664e+02
3.865884406166152075e+03
1.085952482518041961e+03
2.040186930896015838e+03
0.000000000000000000e+00
1.781718164618358742e+03
1.876850982260658157e+03
2.545948647736803650e+03
0.000000000000000000e+00
1.884516584305674314e+03
3.918954845715779811e+03
1.363659674639347713e+03
3.338503396668237656e+03
2.355007957021007314e+03
3.592813183605903760e+03
0.000000000000000000e+00
3.373136964126023486e+03
1.051189193870261107e-02
3.245772314735221698e+03
2.441983021184569225e+03
5.134157669940032065e+03
2.940604042058111190e+03
2.873292812565340228e+03
0.000000000000000000e+00
0.000000000000000000e+00
2.886219240672653541e+03
0.000000000000000000e+00
3.209316866286099412e+03
2.398788456735202089e+03
1.944563493429450318e+03
2.701816835819045991e+03
0.000000000000000000e+00
2.379805517115165458e+03
3.498437933268724919e+03
2.666641009779413707e+03
2.928127092565410749e+03
3.762320761126467005e+03
0.000000000000000000e+00
2.074117759225191094e+03
3.059861154109239578e+03
3.483584843727292991e+03
2.697936987999127268e+03
4.647573997965082526e+03
0.000000000000000000e+00
3.078662939323111459e+03
0.000000000000000000e+00
1.822339946427382529e+03
2.050402846239740484e+03
2.873985662200721436e+03
2.932603373198070585e+03
0.000000000000000000e+00
4.465962174057496668e+03
0.000000000000000000e+00
0.000000000000000000e+00
0.000000000000000000e+00
0.000000000000000000e+00
1.936381951245129585e+03
2.580166913842549548e+03
2.386767617095029891e+03
3.429970241122647622e+03
3.213689685839925914e+03
2.524840465199667506e+03
1.348117762390756980e+03
2.302405971981351286e+03
2.876749362540432230e+03
1.301633232005406626e+03
2.148934724007267960e+03
2.142815456661628559e+03
0.000000000000000000e+00
1.979064940928948317e+03
3.956918120646150783e+03
2.206378797674550242e+03
0.000000000000000000e+00
1.671840277489536390e+02
2.214588602929142326e+03
2.392582237569148674e+03
0.000000000000000000e+00
2.889589630445697821e+03
0.000000000000000000e+00
2.826358815038110606e+03
2.779322492232313380e+03
1.171945503941970173e+03
3.445059611537727505e+03
3.452796900935936719e+03
0.000000000000000000e+00
3.357925340300424978e+03
1.739196125863236375e+03
3.400814087659819052e+03
0.000000000000000000e+00
5.159086328919511288e+03
3.633924805093557552e+03
0.000000000000000000e+00
1.959216745223966882e+03
2.612452828040114127e+03
0.000000000000000000e+00
0.000000000000000000e+00
4.443199520604686768e+03
2.006731836523976654e+03
1.801713194057811506e+03
0.000000000000000000e+00
2.742667326499941737e+03
2.181958323268917411e+03
1.658139693943667680e+03
0.000000000000000000e+00
1.952737325939232278e+03
1.624583295366028096e+03
0.000000000000000000e+00
0.000000000000000000e+00
2.691811020579189517e+03
2.671577209210954152e+03
0.000000000000000000e+00
3.553016761463368312e+03
2.713466062262887135e+03
2.055304638954112306e+03
1.204187645630129949e-01
0.000000000000000000e+00
3.074064955970972278e+03
0.000000000000000000e+00
2.609316327703935734e+00
3.056887766683938935e+03
3.986357188761758152e+02
0.000000000000000000e+00
0.000000000000000000e+00
2.369448246265528724e+03
0.000000000000000000e+00
2.052883789676708147e+03
0.000000000000000000e+00
3.604649071366293356e+03
0.000000000000000000e+00
0.000000000000000000e+00
2.783326670026872307e+03
1.934059641245404009e+03
3.714694625273114070e+03
3.501692861487391383e+03
3.328290005325106904e+03
8.276773105926338303e-02
2.898541388619923509e+03
3.750503711588679835e+03
0.000000000000000000e+00
0.000000000000000000e+00
3.770549955294699430e+03
0.000000000000000000e+00
2.937274885276563509e+03
2.682226243056357362e+03
0.000000000000000000e+00
1.564828263965318911e+03
2.883802246232516154e+03
0.000000000000000000e+00
0.000000000000000000e+00
3.116843335668090731e+03
3.246146887895883083e+03
1.709798196089105431e+03
1.537390580608190476e+02
2.452236096700653889e+03
2.228829714108724147e+03
0.000000000000000000e+00
3.558483850001357496e+03
2.249723471322795376e+03
0.000000000000000000e+00
1.196134556175094531e+03
1.543382375885267038e+03
3.313058705767615720e+03
0.000000000000000000e+00
2.807824895123485931e+03
0.000000000000000000e+00
1.710907786904135037e+03
0.000000000000000000e+00
2.455925852857762948e+03
0.000000000000000000e+00
2.680831698310795673e+03
1.458931897423463170e+03
2.426439892826601863e+03
0.000000000000000000e+00
2.104648070392430782e+03
2.772297487274046034e+03
2.438539779576240562e+03
9.481927682369132526e+02
0.000000000000000000e+00
4.314552265894599259e+03
4.129830574966035783e+03
1.262434940639650904e+03
2.479334742244100653e+03
2.238929250079672784e+03
2.958099966729061180e+03
1.992172150578698393e+03
2.415091561671580166e+03
4.601534286008401864e-02
1.649909312347881951e+03
2.322617032926063985e+03
2.124452807396301068e+03
2.656478155811783836e+03
0.000000000000000000e+00
0.000000000000000000e+00
2.389284057158510677e+03
1.865207136527169496e+03
1.577811206740443595e+03
1.839034346028348182e+03
2.310341842862545491e+03
2.529940472269663587e+03
4.232893481233622879e+03
3.501081462498403880e+02
3.071061200229450151e+03
0.000000000000000000e+00
5.610272280784556642e+02
2.450041363458148680e+03
0.000000000000000000e+00
2.182872034428874940e+03
2.154430804133879974e+03
2.403917306248331897e+03
1.824601112512755890e+03
2.982911821844753376e+03
1.952782241677050024e+03
1.928188179130666640e+03
1.657052027515601822e+03
0.000000000000000000e+00
3.685939283104379683e+03
2.262465234368574329e+03
1.484780422682526023e+03
4.332265541434752777e+03
1.271593035862315446e+03
2.731455520831514150e+03
0.000000000000000000e+00
1.795901659748049951e+03
4.069345952512230724e+03
1.799931479094084352e+03
2.188809734350070357e+03
1.061769069131696369e+03
2.380968358606333823e+03
1.896833248288022560e+03
0.000000000000000000e+00
2.458361433120444872e+03
1.914441686021745454e+03
3.497386560821904823e+03
0.000000000000000000e+00
2.147717226430541814e+03
1.931998949643459127e+03
0.000000000000000000e+00
2.126903709489853100e+03
2.284739172470291123e+03
1.650045539543498307e+03
1.951894172068569333e+03
2.989831117069114953e+03
0.000000000000000000e+00
0.000000000000000000e+00
2.461097954562865198e+03
1.928918796993093565e+03
2.929796168266329914e+03
2.687083406851161271e+03
2.880292405426735513e+03
2.608561025635573060e+03
1.923352457868166766e+03
3.775590373005252331e+03
3.120292451314163372e+03
2.966419990500435233e+03
4.123268391407327726e+03
2.869462503993418977e+03
2.698927268158878178e+03
3.208773012994789042e+03
0.000000000000000000e+00
0.000000000000000000e+00
2.909271603502565085e+03
3.153269069746602327e+03
1.300421404108419665e+02
0.000000000000000000e+00
4.346106242865789682e+03
2.095109975407830461e+03
0.000000000000000000e+00
2.503689971234417044e+03
2.964628925261785753e+03
2.681465073314030178e+03
0.000000000000000000e+00
3.118566310254390828e+03
0.000000000000000000e+00
0.000000000000000000e+00
5.522062769127700221e-02
1.631921855770632419e+03
1.940487634018063090e+03
2.223527741100406729e+03
2.937268483493245185e+03
2.474407916032942012e+03
0.000000000000000000e+00
2.429670682421418405e+03
1.936114292455022223e+03
1.271451714774594166e+03
2.699385718448320858e+03
1.420981965278041116e+03
0.000000000000000000e+00
0.000000000000000000e+00
0.000000000000000000e+00
3.210520848986926012e+03
2.065701444831212029e+03
0.000000000000000000e+00
3.686077690118691862e+03
1.692266895255307418e+03
1.757679864056990482e+03
1.885483861641841258e+03
0.000000000000000000e+00
0.000000000000000000e+00
2.318890231323892749e+03
0.000000000000000000e+00
0.000000000000000000e+00
0.000000000000000000e+00
0.000000000000000000e+00
2.466658373759128153e+03
9.938224741170415655e+02
0.000000000000000000e+00
2.482701977016404271e+03
0.000000000000000000e+00
8.506704276063826455e+02
1.433731237225584437e+03
3.382153004006249830e+03
2.707718580204527825e+03
4.114864387252601773e+03
2.927725868253037333e+03
0.000000000000000000e+00
1.772824194584972702e+03
6.479562873118993593e+01
2.211128657025982648e+03
0.000000000000000000e+00
3.641734705399721861e+03
2.444856343459104664e+03
3.165607600752264716e+03
0.000000000000000000e+00
1.073711228789761208e+03
2.725350663234711192e+03
2.424082763091428660e+03
1.888576921113417029e+03
1.965514620029716752e+03
2.632177525543375850e+03
0.000000000000000000e+00
3.035765793925384514e+03
0.000000000000000000e+00
3.557194521662314401e+03
2.440916160552295878e+03
1.277240217578946158e+03
3.200917210296029225e+03
2.566256435267860979e+03
1.404718825596501574e+03
2.858364599588093824e+03
1.473399629438062902e+03
2.173104140663053386e+03
2.782720600120956533e+03
2.787723272549919784e+03
1.558605896931839652e+03
2.863506539486117163e+03
2.136029715486802161e+03
3.790583923179656267e+03
0.000000000000000000e+00
0.000000000000000000e+00
0.000000000000000000e+00
3.435384222393623986e+03
0.000000000000000000e+00
1.963414548282161149e+03
3.964244307711487636e+03
1.776334683599998698e+03
2.450489832472521812e+03
0.000000000000000000e+00
1.875230510780238546e+03
1.689653671241831489e+03
2.763874530169413447e+03
2.230655667919199914e+03
0.000000000000000000e+00
2.291430160368327961e+03
0.000000000000000000e+00
1.192737761914032006e+02
0.000000000000000000e+00
3.111427564651238754e+03
0.000000000000000000e+00
1.522452238644472800e+03
1.444348635018105369e+03
3.450149660278110787e+03
2.050763009651564971e+03
1.033482588754849985e+03
2.596739444369449757e+03
0.000000000000000000e+00
2.506473003124120623e+03
2.477320807753130794e+03
0.000000000000000000e+00
2.508228996227263451e+03
4.225754139048513025e+03
0.000000000000000000e+00
2.643159911030669264e+03
2.797590175975346028e+03
9.772878523581312038e+02
2.353585154941538349e+03
0.000000000000000000e+00
2.475138809240888349e+03
1.458966553672506961e+03
2.265072699071605712e+03
0.000000000000000000e+00
3.915076902369036361e+03
2.229645046609220117e+03
0.000000000000000000e+00
8.889478119008340684e+01
7.927617327550251503e+01
0.000000000000000000e+00
2.013908539654220704e+03
1.936953425133833207e+03
3.115747586701762884e+03
8.800533252360764891e+02
0.000000000000000000e+00
0.000000000000000000e+00
2.155684807937359437e+03
1.248094108491205134e+03
0.000000000000000000e+00
1.071593758647212553e+03
1.618792526697508038e+03
1.897840490879024628e+03
3.572709415631834418e+03
4.061004784499527887e+03
0.000000000000000000e+00
2.248491541051771037e+03
2.597351537458597704e+03
0.000000000000000000e+00
2.495411547581898049e+03
4.199869755771942437e+03
3.001621515455191002e+03
3.912017733341782332e+03
2.774964552809252382e+03
2.679108517215355732e+03
1.354493416569311535e+02
3.285160261800047920e+03
2.403539945214287400e+03
1.327048942790134106e+03
1.114756784561904624e+03
2.603937297477385982e+03
3.632732214813587689e+03
2.034584762435406901e+03
2.382742604822852627e+03
2.258030943927587941e+03
1.552774400071939908e+03
0.000000000000000000e+00
3.138652639678911783e+03
2.956528294505551457e+03
3.377852676330803661e+01
2.367899335938272543e+03
0.000000000000000000e+00
1.617393645260016910e+03
1.472524790755415154e+02
0.000000000000000000e+00
2.454878289357293397e+03
3.073330299707594349e+03
3.056854553130686327e+03
1.659517293467069521e+03
2.508740003092680126e+03
2.354322438460076228e+03
0.000000000000000000e+00
1.463281392917269159e+03
3.723543484532275215e+03
2.783386993641035133e+03
5.722159048801244152e-01
0.000000000000000000e+00
2.435025177587522194e+03
1.778007419101778169e+03
3.785665850661463537e+03
1.925172640895472341e+03
2.341901521780528128e+03
2.719925553415669583e+03
2.946288577190899360e+01
1.846781077483320360e+03
1.291035142817418091e+03
0.000000000000000000e+00
3.512367938429815695e+03
2.598167856613871663e+03
2.691396212554537215e+03
2.877235634200041204e+03
2.322939336329000525e+03
0.000000000000000000e+00
1.760150797537062999e+03
2.737316353461937524e+03
3.413455246336524397e+03
0.000000000000000000e+00
3.971759508003015071e+03
0.000000000000000000e+00
2.061777277855436296e+03
1.925528645442681864e+03
3.363958894880489424e+03
2.398282440507317915e+03
2.575437602150487237e+03
1.713329433536273427e+03
2.450267617165809042e+03
3.386805449841630207e+02
3.359807533433195204e+03
3.207695058232638530e+03
2.195644987525155898e+02
0.000000000000000000e+00
1.702204183879075117e+03
2.849365860584658094e+03
2.700099161633988842e+03
3.867279214784501846e+02
1.556129737623269193e+03
1.638666272172122945e+03
1.798134746326832101e+03
3.144927603442921281e+03
1.947849449646311086e+03
0.000000000000000000e+00
1.741226863590128460e-01
1.901549991604407069e+03
3.866180241981056497e+03
2.596715902327560798e+03
2.409282276016891501e+03
0.000000000000000000e+00
0.000000000000000000e+00
0.000000000000000000e+00
2.515482847730163485e+03
0.000000000000000000e+00
1.935289374488638259e+03
1.642752806958741985e+03
1.932674211583799206e+03
2.516228437505195870e+03
2.363961497633404463e-02
1.863949719586526044e+03
4.147311770802843967e+01
3.109346629417268559e+03
2.655628955812426739e+03
0.000000000000000000e+00
2.089449009206146911e+03
3.202420401794370719e+03
0.000000000000000000e+00
8.997306403645779938e+02
3.329902531940023437e+03
2.194054940290514878e+03
2.534852108586346276e+03
0.000000000000000000e+00
2.333816562773427449e+03
0.000000000000000000e+00
3.088981650327331408e+03
2.315847686282359064e+03
3.604864219471346587e+03
4.309211251186207846e+03
1.280508092773378621e+03
0.000000000000000000e+00
2.988752611615926980e+03
3.389339912129798904e+03
0.000000000000000000e+00
0.000000000000000000e+00
0.000000000000000000e+00
0.000000000000000000e+00
4.250714956090087981e+03
2.311388304980937392e+03
1.883109975984552193e+03
2.501580411539178840e+03
0.000000000000000000e+00
0.000000000000000000e+00
3.459637848887359723e+03
0.000000000000000000e+00
0.000000000000000000e+00
2.517567718110512033e+03
2.963036200578789703e+03
2.413588301336858876e+03
3.059912425739457831e+03
3.024520155176287972e+03
2.465863233263370603e+03
2.462339510454329684e+03
2.923707361018750817e+03
0.000000000000000000e+00
0.000000000000000000e+00
1.929171197052345860e+03
3.420356953865848482e+03
0.000000000000000000e+00
1.446644638048020170e+03
1.568227467499673139e+03
1.917341143175145135e+03
2.907217502983985923e+03
1.379342265502782084e+03
3.243084896577056952e+03
2.894362928584451765e+03
0.000000000000000000e+00
1.624485645224922791e+03
1.922610135311515123e+01
1.955113999469904229e+03
0.000000000000000000e+00
3.121410262340214558e+03
0.000000000000000000e+00
2.458873105404199578e+03
2.161217834556737216e+02
1.059719933437009054e+01
2.823972418368794933e+03
3.338658542395568020e+03
2.516999795031734266e+03
3.532045930449384286e+03
2.591575155593454838e+03
0.000000000000000000e+00
1.461911480122944567e+03
2.456884043791797922e+03
3.670628213655435047e+03
0.000000000000000000e+00
4.896589418314397335e+03
0.000000000000000000e+00
0.000000000000000000e+00
0.000000000000000000e+00
2.023708230091142468e+03
2.297690691438037902e+03
9.282421640760727541e+02
4.172153556119883433e+03
2.289341756387147143e+03
1.480071618495275970e+03
3.678554527752567992e+03
4.909405237832107559e+03
2.748735058342572302e+03
1.738174920959863812e+03
2.048101164208492264e+03
2.688761006790446572e+03
2.607705997489393212e+03
1.744673035058076948e+03
2.385144191386644707e+03
3.422156566288322210e+03
3.576571583974873647e+03
2.825050350185483694e+03
1.624493796599563893e+03
0.000000000000000000e+00
1.079493805929087102e+03
4.645412363548530266e+02
0.000000000000000000e+00
2.062849335634383806e+03
2.281008699594532118e+03
2.626115770993056231e+03
1.683754347602370444e+03
2.616833965323167376e+03
0.000000000000000000e+00
8.724092517688404769e+02
2.443863504880572691e+03
2.568751226289896294e+03
2.037505593284730367e+03
1.700558868201914720e+03
0.000000000000000000e+00
3.332400684740832730e+00
0.000000000000000000e+00
0.000000000000000000e+00
3.207470192725303605e+03
3.008326477138325117e+03
0.000000000000000000e+00
0.000000000000000000e+00
0.000000000000000000e+00
2.682566099736141496e+03
3.435132797516418123e+03
2.827213602256961622e+03
0.000000000000000000e+00
0.000000000000000000e+00
0.000000000000000000e+00
1.858343971275643769e+00
3.202208179235459284e+03
0.000000000000000000e+00
3.139776760706446112e+03
2.100666390621335722e+03
1.903162093728314630e+03
0.000000000000000000e+00
2.699615563120460138e+03
1.972087731363716330e+03
2.260355032200459846e+03
0.000000000000000000e+00
8.887610240257345140e+02
2.164501191561641474e-02
0.000000000000000000e+00
2.155686448537745491e+03
0.000000000000000000e+00
1.658788580077817869e+03
0.000000000000000000e+00
2.238883875432657987e+03
0.000000000000000000e+00
3.989244579471414909e+03
1.531280601871549607e+03
0.000000000000000000e+00
8.282117297931110045e+01
3.105958686367376686e+03
2.983945881942055166e+03
0.000000000000000000e+00
1.488469691248610616e+03
0.000000000000000000e+00
0.000000000000000000e+00
2.431287935801083677e+03
3.154297734792634174e+02
2.796754330233671681e+03
0.000000000000000000e+00
1.548155329842120864e+03
2.237379054806660861e+03
2.337436713877832517e+03
3.793589227739722901e+03
0.000000000000000000e+00
1.977342172851786472e+03
2.879625185870100722e+03
2.648772806493798726e+03
2.525479806022484809e+03
2.822518387518356576e+03
0.000000000000000000e+00
0.000000000000000000e+00
2.430984378838911653e+03
1.876144577594823886e+03
1.824101325977244414e+03
0.000000000000000000e+00
1.968339269247372840e+03
2.430744816764491588e+03
2.195270292466739193e+03
0.000000000000000000e+00
1.989189705433090694e+03
0.000000000000000000e+00
2.192772552953101695e+03
1.806859332974999006e+03
1.761552615993422705e+03
1.813961503515019558e+03
1.888459136331221544e+03
0.000000000000000000e+00
0.000000000000000000e+00
2.342991247563621528e+03
3.434873422037343516e+03
1.414011530359857034e+03
1.439681072426903029e+03
2.609424979565666035e+03
3.324396722938398852e+03
0.000000000000000000e+00
0.000000000000000000e+00
4.030538582947338909e+03
2.226881828124168351e+03
3.975687449506950543e+03
3.009989162528655470e+03
0.000000000000000000e+00
0.000000000000000000e+00
2.906068405823315516e+03
0.000000000000000000e+00
3.229575562005629308e+03
0.000000000000000000e+00
0.000000000000000000e+00
0.000000000000000000e+00
2.061250972104608536e+03
0.000000000000000000e+00
0.000000000000000000e+00
0.000000000000000000e+00
2.325879510201048561e+03
3.774470037978608161e+03
1.995097341065410774e+03
1.249580165467341658e+03
1.713806716311956279e+03
0.000000000000000000e+00
0.000000000000000000e+00
9.446554027385900554e+00
2.440599604987072325e+03
3.154012697684811883e+03
0.000000000000000000e+00
5.629571477678836118e+02
0.000000000000000000e+00
0.000000000000000000e+00
0.000000000000000000e+00
3.476659123774153159e+03
1.714756807498634544e+03
0.000000000000000000e+00
0.000000000000000000e+00
2.293452251970304133e+03
2.256244479253657119e+03
1.035716501370188780e+03
0.000000000000000000e+00
1.604524552120709814e+03
0.000000000000000000e+00
3.304248257208382711e+03
0.000000000000000000e+00
1.887305381242185376e+03
1.519545863434905414e+03
1.905830616300227803e+03
3.820961383165558800e+03
2.204390596516895130e+03
3.183622356690466404e+03
2.273091770190511852e+03
2.564041578856994420e+03
3.168109608121448673e+03
4.025735272146994248e+03
0.000000000000000000e+00
2.408756893820826917e+03
2.811762829375219553e+03
3.308591396809788421e+03
3.970842458278638333e+03
3.667181243409867420e+03
2.100529016152722306e+03
0.000000000000000000e+00
3.679332470626104623e+03
1.928188420057997064e+03
3.027224048174683503e+03
3.378250761417439207e+03
2.309340801282087796e+03
4.137617707096197250e-02
3.490431975480169058e+03
2.065717724635033392e+03
3.355664638860615923e+03
4.781622774561402366e+03
3.157153977040435166e+03
2.603069408400915563e+03
2.567508419870865509e+03
2.566091124701779336e+03
1.850858462767791934e+03
0.000000000000000000e+00
1.667081476579188575e+03
0.000000000000000000e+00
0.000000000000000000e+00
0.000000000000000000e+00
3.061742073768983573e+03
0.000000000000000000e+00
0.000000000000000000e+00
1.525951461438672141e+03
0.000000000000000000e+00
0.000000000000000000e+00
1.525886697878012910e+03
1.314911190295243614e+03
4.117471152119106591e+03
1.603878929978235419e+03
2.177417485584737278e+03
3.752868378907441183e+03
0.000000000000000000e+00
0.000000000000000000e+00
1.095576261586392093e+03
2.687844152102479256e+03
1.813307397288735956e+03
3.572410046216101364e+03
3.676657374179922044e+03
3.540298391313989669e+03
8.888727149845013220e-02
0.000000000000000000e+00
0.000000000000000000e+00
2.299725873424903966e+03
1.396573898629868609e+03
4.321141536568757147e+03
1.618940960877808038e+03
1.940674197816405922e+03
2.198609006032349043e+03
0.000000000000000000e+00
4.147841338394209743e+03
2.045874737549455631e+03
2.105715206370221949e+03
3.022137005289550416e+03
0.000000000000000000e+00
0.000000000000000000e+00
2.314300898410147965e+03
2.553335594380042494e+03
2.501901062869001635e+03
2.738763041765195339e+03
0.000000000000000000e+00
3.936577739089262650e+03
1.881193949771114148e+03
0.000000000000000000e+00
2.358171849127395035e+03
2.951116148871369660e+03
2.112492928106802992e+03
2.647886102140181720e+03
2.752739913028198771e+03
1.991732922848314047e+03
1.773518713502563060e+03
2.792235049809095472e+03
2.856826634245227524e+03
0.000000000000000000e+00
2.707568803714821115e+03
2.342794007292069658e+00
0.000000000000000000e+00
7.198648894132020359e+00
3.484258591267279371e+03
2.600024981831665627e+03
2.620211296097840204e+03
2.717252946551889181e+03
2.920869156770640529e+03
3.386704432006126808e+00
0.000000000000000000e+00
1.703461141910520382e+03
2.122595550242112040e+03
0.000000000000000000e+00
1.828417223581346207e+03
2.089820610929746636e+03
2.313269304949790239e+03
4.177518445579335093e+03
1.370927717909216881e+03
3.172000573016703129e+03
2.248027193779126264e+03
2.644273844273993291e+03
1.820451322829466108e+03
9.882129114819688311e+02
2.667494099034228839e+03
2.693303106474922515e+03
1.042986644149642188e+03
3.075622172554722056e+03
0.000000000000000000e+00
1.824746827656055075e+03
2.431115569506073371e+03
2.460018932836831027e+03
2.116712127806385070e+03
3.809924261283594205e+03
3.384362640324980021e+03
2.375321698898916111e+03
3.727547490235884652e+03
0.000000000000000000e+00
0.000000000000000000e+00
2.780032310035312548e+03
0.000000000000000000e+00
3.686695290118223966e+03
1.759125892678276387e+03
2.681371547619346984e+03
2.339143844624050871e+03
3.779133851855295688e+03
2.078731460217386484e+03
0.000000000000000000e+00
2.104628119315020740e+03
0.000000000000000000e+00
2.232228642297560327e+03
1.391325038624926947e+03
0.000000000000000000e+00
1.895005866122663519e+03
2.213574436545604385e+03
3.448761792661389336e+03
2.876179993897676468e+03
3.077530030184424504e+03
3.170932293351143727e+01
2.106659211273653909e+03
3.169751539343269997e+03
1.944034548950730141e+03
0.000000000000000000e+00
1.351190859312192060e+03
2.518412783434342134e-02
0.000000000000000000e+00
0.000000000000000000e+00
2.011339692160253890e+03
3.724961892556166276e+03
0.000000000000000000e+00
0.000000000000000000e+00
2.530738687457050673e+03
2.044076553481864266e+03
0.000000000000000000e+00
1.668552762415492452e+03
0.000000000000000000e+00
1.743894421029836394e+03
2.680748555436730385e+03
2.464562684594419807e+03
0.000000000000000000e+00
5.372782168847152207e+01
3.085980636568274349e+03
0.000000000000000000e+00
2.176108745386592091e+03
2.945263484824681655e+03
0.000000000000000000e+00
2.748944080009825484e+03
0.000000000000000000e+00
2.345619959762552298e+03
2.870455468771979213e+03
0.000000000000000000e+00
2.028104190141312301e+03
2.650215571123408608e+03
2.629998957377393708e+03
3.453751168196322396e+03
0.000000000000000000e+00
1.809255687973928161e+03
3.579810450371589013e+03
3.598313646315365077e+03
0.000000000000000000e+00
2.236630860721924819e+03
1.967153631441760353e+03
0.000000000000000000e+00
4.268733394774608314e+03
3.296870764094638616e+03
0.000000000000000000e+00
3.439816424797754735e+03
0.000000000000000000e+00
0.000000000000000000e+00
1.125672318451687943e+03
1.114037126708210951e-02
3.174911227554549441e+03
3.040639684960479826e+03
2.069352193706437447e+03
3.191721289482667089e+03
2.791286840150133685e+03
2.428811443783344203e+03
2.015183848317247566e+03
1.937234042372436988e+03
1.236319467461388655e-02
1.886415011351346038e+03
2.416163936384692192e+02
1.713735401822486892e+03
1.943976032291539013e+03
2.919985309126786888e+03
0.000000000000000000e+00
0.000000000000000000e+00
4.135194581025280058e+03
2.023701616062316589e+03
2.756897355022374541e+03
3.997567953279941548e+02
2.680245258245849072e+03
1.381914446272958008e+00
6.425809163568274585e-03
2.612038272415521078e+03
3.617455793009139597e+03
2.269118442566832528e+03
2.480872615805127680e+03
3.053819178545382783e+03
3.878788749268277570e+03
3.433855178622024162e+00
0.000000000000000000e+00
2.638736691774101473e+03
3.111903212562900990e+03
2.454617892805254542e+03
1.305134433845523517e+03
2.652106127876322262e+03
4.100178809159160664e+00
0.000000000000000000e+00
0.000000000000000000e+00
4.562390905385836959e+03
1.736965712430537678e+03
0.000000000000000000e+00
0.000000000000000000e+00
0.000000000000000000e+00
2.783882581157377899e+03
0.000000000000000000e+00
2.403021377819822192e+03
2.346472913495744272e+00
4.449341285973787308e+03
2.499836040311492980e+03
2.098745568806770279e+03
2.070273459659074433e+03
1.983553147464407402e+03
0.000000000000000000e+00
3.732878064760006964e+03
2.022435732246959788e+03
2.047276005314779923e+03
3.332979609898756280e+03
1.986551132422755018e+03
2.349607281248609070e+02
1.786027396566350262e+03
0.000000000000000000e+00
2.879252540128071814e+03
1.163498921618155464e+02
3.316331623226868942e+03
0.000000000000000000e+00
0.000000000000000000e+00
2.365793321316596121e+03
2.174243451585062303e+03
0.000000000000000000e+00
0.000000000000000000e+00
1.135623477605985954e+03
2.928642768831923604e+03
0.000000000000000000e+00
2.232643169240327097e+03
2.172581729904050917e+03
0.000000000000000000e+00
3.273638497386128165e+03
1.813477342837721835e+03
2.846962977602378487e+03
2.632502261165062464e+03
4.154899820778518915e+03
3.362301601673244477e+03
1.736004446804873169e+03
1.755496121689794336e+03
2.412350554391742662e+03
2.966487748443614237e+03
0.000000000000000000e+00
2.266260011895791649e+03
3.297104348876746371e+03
2.836395996721694701e+03
0.000000000000000000e+00
0.000000000000000000e+00
0.000000000000000000e+00
2.402716501493705437e+03
2.211741713824447743e+03
2.542943607049528509e+03
2.277809299388901309e+03
2.156964797474211082e+03
1.663667129041277349e+03
0.000000000000000000e+00
2.144510759023249648e+03
1.962409124118857562e+03
1.578643048499362067e+03
0.000000000000000000e+00
4.299442198674661995e+03
1.429009807299007889e+03
9.671885831281542778e+02
0.000000000000000000e+00
2.659510444232728332e+03
2.528380376030691423e+03
3.306626232893904671e+03
2.075508082006126187e+03
0.000000000000000000e+00
2.241799015807918295e+03
1.877259692529332142e+03
2.689861757867038250e+03
0.000000000000000000e+00
4.765601772582158446e+03
2.330888320540544555e+03
1.814894081579405565e+03
2.670687326911138825e+03
2.624377216439460426e+03
3.064974595746026353e+03
2.916000049863941058e+03
2.971215740771731362e+03
0.000000000000000000e+00
0.000000000000000000e+00
2.276586065447189867e+03
2.748526954493718677e+03
0.000000000000000000e+00
3.180345710593974673e+03
0.000000000000000000e+00
3.164925937028602675e+03
1.314870992000577701e+02
0.000000000000000000e+00
3.331916976967477240e+01
0.000000000000000000e+00
2.955696441273902565e+03
2.048956920873025410e+03
0.000000000000000000e+00
1.802357382109038099e+03
0.000000000000000000e+00
5.305772575709852390e+02
2.830498646391788952e+03
1.257648127624997414e+03
0.000000000000000000e+00
3.305958531482611761e+03
0.000000000000000000e+00
2.885913687455466970e+03
1.576742255920179936e+01
0.000000000000000000e+00
1.504028003764687810e+03
4.003601794678251281e+03
0.000000000000000000e+00
2.393184039619517989e+03
6.597758644355053548e+02
0.000000000000000000e+00
2.951507311599561490e+03
3.410300383268623591e+03
0.000000000000000000e+00
3.333588066132507265e+03
4.119272313360124826e+03
0.000000000000000000e+00
2.408994138403795660e+03
0.000000000000000000e+00
2.703820387489396126e+03
1.886625432691652122e+03
0.000000000000000000e+00
0.000000000000000000e+00
2.638296746998094932e+03
2.761000232712830893e+03
1.739877353623159706e+03
0.000000000000000000e+00
1.929486025971710433e+03
2.284186347504147307e+03
0.000000000000000000e+00
0.000000000000000000e+00
1.768740625499049202e+03
3.296607292850968406e+03
2.912786802073242598e+03
3.943889952369499042e+03
2.776655231660698064e+03
2.493991326866671443e+03
3.724619546293979511e+03
2.057145622040844046e+03
2.562273722951067612e+03
0.000000000000000000e+00
4.660986147040966898e+03
2.196689251181669079e+03
3.906388351565692574e+03
2.534874468937050551e+03
2.382034989784005120e+03
3.148865927767473750e+03
2.198834651685320750e+03
1.228963187863700796e+03
9.733856692673019395e-02
2.469080771855079547e+03
2.973948820395161874e+03
1.784206680057103313e+03
0.000000000000000000e+00
1.700176183821167797e+03
2.515723063750192523e+03
0.000000000000000000e+00
3.432331730495207921e+03
0.000000000000000000e+00
3.423727871384471655e+03
2.309367601579286656e+03
1.988086986783308703e+03
3.666994249384151772e+03
0.000000000000000000e+00
2.082242069696076214e+03
0.000000000000000000e+00
2.792896441218909786e+03
3.221826421277363806e+03
3.253305618994636461e+03
3.638866442599101902e+03
8.500046096946789476e+00
2.719030255987309374e+03
2.551709484052844800e+03
0.000000000000000000e+00
2.015509627957361317e+03
2.620206248096656964e+03
0.000000000000000000e+00
4.681553746014832541e+03
0.000000000000000000e+00
1.923430730568361923e+03
2.374085145117714092e+03
2.749011792062083714e+03
0.000000000000000000e+00
3.413246282032922863e+03
8.536566857877403436e-02
0.000000000000000000e+00
1.161194454581709579e+03
4.307586574950254544e+03
0.000000000000000000e+00
3.884240739693633259e+03
2.727649064065189577e+03
2.070348669140366837e+03
0.000000000000000000e+00
2.040035066369455762e+03
2.078958287561545148e+03
0.000000000000000000e+00
0.000000000000000000e+00
1.778707353147912272e+03
0.000000000000000000e+00
2.359828591643599793e+03
2.332696331001351609e+03
2.215537053515436128e+03
2.185582593083382108e+03
3.154091446503297448e+03
2.197193535027327471e+03
1.756882796142599545e+03
2.040867223628448073e+03
1.452463721414098472e+03
1.540112974817748409e+03
0.000000000000000000e+00
1.212480878885252650e+03
2.505961227585794859e+03
1.831737322642584331e+03
2.486178535432555691e+03
0.000000000000000000e+00
2.061072611308191426e+03
1.828210754596512515e+03
2.362936645973240957e+03
0.000000000000000000e+00
0.000000000000000000e+00
1.529518574112443730e+03
2.208154730382375874e+03
1.410158436946221627e+03
2.754024686693445801e+03
5.388348062860259802e-02
2.474885243982498650e+01
1.460975781476008024e+03
1.502832275693070642e+03
2.518734001420670666e+03
0.000000000000000000e+00
1.754589116340503097e+03
1.219225186295806907e+03
1.187435714332969155e+03
2.099333052890142426e+03
1.317525865609058656e+03
0.000000000000000000e+00
0.000000000000000000e+00
3.049394594033948124e+03
2.117380253708688087e+03
0.000000000000000000e+00
2.444533569674240880e+03
2.352749056799802929e+03
1.390300678720813721e+03
0.000000000000000000e+00
1.874745828093728733e+03
2.741306534525938332e+03
1.655638059438205573e+03
1.989685683022252761e+03
2.523370670818258986e+03
2.455275486741448276e+03
3.058419536752627209e+03
0.000000000000000000e+00
2.860143916751258075e+03
1.782494736500667159e+03
1.749662238502059608e+03
2.547413164662430972e+03
2.186538959853352026e+03
0.000000000000000000e+00
2.792524919804418914e+03
2.970603865664452769e+03
1.403853162229643658e+03
5.182742272072937340e+03
1.812976219729171135e+03
0.000000000000000000e+00
0.000000000000000000e+00
2.906869466247736000e+03
1.920850381662602786e+03
3.119737228547456652e+03
0.000000000000000000e+00
2.601318233844358929e+03
0.000000000000000000e+00
1.402167043788358797e+03
2.505258603184485764e+03
2.129016412713098362e+03
2.484621284430614651e+03
0.000000000000000000e+00
3.517286527220858261e+03
0.000000000000000000e+00
3.220239088777451798e+03
0.000000000000000000e+00
0.000000000000000000e+00
3.485802820720709860e+03
2.305356058292090438e+03
2.813184610381721541e+03
0.000000000000000000e+00
1.726094945133080955e+03
1.179658419525366526e+03
2.095577626826706819e+03
2.911371124559082546e+03
1.668527826436911710e+03
1.636988786960136849e+03
2.362083912373055682e+03
0.000000000000000000e+00
1.965029673470416583e+03
2.831093817204238348e+03
3.019409409631045037e+03
2.377040933375245459e+03
0.000000000000000000e+00
0.000000000000000000e+00
0.000000000000000000e+00
2.598558296560076087e+03
1.786896771361352194e+03
2.403826545481569610e+03
0.000000000000000000e+00
2.450249949161660879e+03
2.088439672841923766e+03
2.319908539362950251e+03
1.809228870467630941e+03
1.970710688267717387e+03
2.569431972195161507e+03
4.039659116452092803e+03
1.244451476572430920e+03
3.179407510891907123e+02
0.000000000000000000e+00
0.000000000000000000e+00
2.143603185773827136e+03
3.529762696567921921e+03
0.000000000000000000e+00
2.600121123308782444e+03
0.000000000000000000e+00
2.295013025100343839e+03
3.177946326794335619e+03
0.000000000000000000e+00
0.000000000000000000e+00
0.000000000000000000e+00
1.837502415341441520e+03
0.000000000000000000e+00
0.000000000000000000e+00
2.297061068017502748e+03
1.553651645159697182e+03
1.660993122504440862e+03
3.138465875107795455e+03
2.654161628067959100e+03
2.636093948426423594e+03
1.079706877470016934e+03
2.208584131719544530e+03
0.000000000000000000e+00
0.000000000000000000e+00
2.766282862698427380e+03
3.139637562073767185e+03
0.000000000000000000e+00
1.427839818297070906e+03
7.165789946830045665e+01
0.000000000000000000e+00
3.219079058105126023e+03
2.300625794363441855e+03
0.000000000000000000e+00
2.691440348146715223e+03
3.461777490080567986e+03
0.000000000000000000e+00
1.012372556240006816e+03
0.000000000000000000e+00
1.739740059463656962e+03
3.277845008246368707e+03
2.425946186837972618e+03
3.565243789006489351e+03
3.878934510302497984e+03
3.584842252061934232e+03
0.000000000000000000e+00
0.000000000000000000e+00
0.000000000000000000e+00
3.015732663549716108e+03
0.000000000000000000e+00
2.684803190297679066e+03
2.246926259138854221e+03
4.564640248822977810e+03
1.455444296504719887e+03
3.256167044048197567e+03
2.751340561208781764e+03
3.538542581774528117e+03
3.390720884635811672e+03
3.330902414774754106e+03
3.847273995303267941e-02
2.247435430367477238e+03
2.367361609084764495e+03
2.487446937512142085e+03
1.162277371299569495e+03
0.000000000000000000e+00
2.911849961889674432e+03
3.151261445257114701e+03
0.000000000000000000e+00
1.725217057572444219e+03
2.532735401380342410e+03
0.000000000000000000e+00
2.859493550634942949e+03
3.545178626768756658e+03
2.820831609395099349e+03
3.919182338478276506e+03
3.628617451374885604e+03
3.472564426140160322e+03
2.095670142921153456e+03
2.432484725100222022e+03
0.000000000000000000e+00
1.870695025124587119e+03
1.871475388744148859e+03
1.880198449519230508e+03
2.733135415316794024e+03
2.611812844744416907e+03
2.022846863261657290e+03
2.860698175808648557e+03
5.134060450026300714e+03
2.331729973724351535e+00
3.514997360952065719e+00
3.662933901103678181e+03
0.000000000000000000e+00
4.833400306280236691e+03
0.000000000000000000e+00
3.395890703267651588e+03
2.445238523039733536e+03
2.480424594227225498e+03
2.979011472256388060e+03
1.627029711622163177e+03
2.000458347005770747e+03
0.000000000000000000e+00
3.226126354577717848e+03
3.041327417758293905e+03
3.003532459249253861e+03
2.666512641403825455e+03
2.060873387352329246e+03
0.000000000000000000e+00
2.179683900444070332e+03
0.000000000000000000e+00
1.691788579933926712e+03
2.704858118860282502e+03
0.000000000000000000e+00
2.492549250600859523e+03
1.786694851313951176e+03
2.015385538910049945e+03
2.588033391916542314e+03
4.500510579440742731e+03
3.318188002717214204e+03
2.473967466456816055e+03
2.024433742588734731e+03
3.013920970342587680e+03
3.420709694421384484e+03
1.555103904055955555e+00
2.037140806362731837e+03
0.000000000000000000e+00
2.444665230723330751e+03
0.000000000000000000e+00
2.391549083817518294e+03
2.197694629454053484e+03
2.501865795697085105e+03
2.648055405216290637e+03
0.000000000000000000e+00
2.749146286875474743e+03
2.946087777527282924e+03
1.152411930647212785e+03
3.590944172639865428e+03
0.000000000000000000e+00
3.066469343315111928e+03
2.273805603449000955e+03
1.983358833836971826e+03
1.804267844048444431e+03
8.274425755685113870e+01
2.558641330443787410e+03
1.313291372760431159e+03
2.008067245082930867e+03
2.847531474317657739e+03
5.288024027261417359e+03
0.000000000000000000e+00
1.993244110839442101e+03
0.000000000000000000e+00
0.000000000000000000e+00
3.034257256134877935e+03
3.994376090657898203e+03
2.120241862325928196e+03
9.540551812358902453e+02
2.564734439965104684e+03
2.086041837860829673e+03
2.266084628272802547e+03
0.000000000000000000e+00
2.595719690766418353e+03
3.275773801887406989e+03
1.593980072131671477e+02
1.695969019015318963e+03
2.085162957909050419e+03
3.055588709469884634e+03
2.318499148904811591e+03
2.263347636448450885e+03
2.300479287601774558e+03
8.609738856161129661e+02
1.808103854567161306e+03
1.607824631268158100e+03
2.068110614869511210e+03
2.062081253572249807e+03
1.694305301079293713e+03
2.122273384511937365e+03
0.000000000000000000e+00
1.969211833461304195e+03
1.910729030295625080e+03
0.000000000000000000e+00
3.605760113481665940e+03
6.957930830128589150e+00
2.730495058296945899e+03
2.254924805543851107e+03
1.556763560062971237e+03
0.000000000000000000e+00
2.891573839093326569e+03
2.032965197300654381e+03
2.102793411811580881e+03
1.727342128398594696e+03
1.605200032042920157e+03
3.284460631781257689e+03
3.142598811350763754e+03
2.087789765634805917e+03
1.719641838554524384e+03
0.000000000000000000e+00
2.950333857833174989e+03
3.880049040127777516e+03
0.000000000000000000e+00
0.000000000000000000e+00
2.249271812889492594e+03
2.799944586673518188e+03
0.000000000000000000e+00
2.877175241749501765e+03
1.514631548235775426e+03
2.887260608898943246e+03
1.590034647128392375e+00
0.000000000000000000e+00
