3.616688806592719629e+02
3.286353072930069175e+02
2.990284519357373370e+02
1.837844262539874478e+02
2.947588571942106661e+00
0.000000000000000000e+00
5.903332899673841894e+02
2.517735664536303375e+02
1.154087665550833606e+02
3.749781964297654469e+01
1.367772958095884519e+02
2.011729611531337127e+02
0.000000000000000000e+00
3.461352086989791133e+02
6.076701509737176821e+01
6.178542672186093654e-03
7.914499192993388021e+01
2.165925181707279989e+02
5.899954381471616216e+02
6.789662876599324193e+01
1.291504848572002970e+02
2.419168338652077574e-02
1.657033543513534823e+02
0.000000000000000000e+00
5.458252513874245482e-05
0.000000000000000000e+00
0.000000000000000000e+00
2.936089477104814449e+01
0.000000000000000000e+00
2.600816098267385996e+02
0.000000000000000000e+00
1.290407293444429272e-03
7.933143096345435241e-06
5.181900870191213926e-01
2.862038643841514158e+02
1.292366317939013697e+03
1.413846495139295939e+03
1.254366227018179387e+02
3.566618070042750333e+02
7.041399089202649009e-03
3.937193099038266837e+02
1.121114767151085090e+02
3.811549359133969972e-04
1.729984971197140800e-02
4.967475713950989302e+02
5.437113073139698827e+01
1.214778118460344025e+01
2.151007363023381345e+02
1.948388181797781158e+02
0.000000000000000000e+00
2.392778142320820933e+01
1.093133094263976535e+00
4.613278408527547754e+02
0.000000000000000000e+00
2.203446895640808521e+02
3.663973658554198209e-01
0.000000000000000000e+00
1.472687563865093252e-01
9.993188697437286692e+02
4.000475315144286697e+02
4.067065628027275934e-03
1.233642253510857170e-02
4.127904349487954150e-03
0.000000000000000000e+00
4.928433813103765715e+02
2.004450182294022298e+01
5.275304690534539986e+02
9.575636826004483737e+02
1.178316375426220830e+01
9.596304787478968645e-01
5.203851629984047574e-04
6.475598607517895289e+02
1.834781997309618475e+02
7.013177183162042638e+01
4.286405202132300474e+02
6.727140076342037673e+02
4.797144978811047622e+01
1.566459767909692005e+02
5.523336948836004012e+01
1.558391283917881509e-02
6.947314598204634706e-03
5.544916508561074409e+01
2.963246259208850847e-02
8.899310225061182744e-02
3.450051569870994683e+01
0.000000000000000000e+00
4.836944985582293521e-02
0.000000000000000000e+00
1.742284728896265449e+02
5.132313703943510745e+02
0.000000000000000000e+00
2.961744913271104451e+02
0.000000000000000000e+00
2.298221009776170831e+02
3.641853263246730421e+00
8.425971349315659609e+01
0.000000000000000000e+00
2.837568704805447459e-03
1.590041218627448529e+02
5.021308290961354337e-05
3.262846137593440972e+02
6.745239225681871176e+02
8.183924984288750011e+02
3.151904365571681979e+02
0.000000000000000000e+00
6.356592467171141152e+02
0.000000000000000000e+00
1.029806366990726030e+00
2.519045933318865282e-01
0.000000000000000000e+00
1.533476730484835002e+02
0.000000000000000000e+00
1.031784273619607423e-01
5.653193226360600647e+02
0.000000000000000000e+00
0.000000000000000000e+00
1.945238186035566343e+02
1.615668397230151168e-02
1.327714919208133892e-03
5.629200408361613839e+00
0.000000000000000000e+00
2.155926518280465132e+02
3.589021515188505873e+02
3.891576707261264119e+02
0.000000000000000000e+00
1.297809941876040227e+02
1.573802551713014850e+02
7.721112648185227272e+02
1.040470822179486561e+02
3.068339590955869965e-03
1.063318731324703822e-02
3.576554354085601517e+01
0.000000000000000000e+00
4.123873873066941087e+00
0.000000000000000000e+00
1.026474526150559996e+03
6.785029196456487943e-05
6.485299316977034323e+02
0.000000000000000000e+00
2.162460802669556870e+01
1.702470487452956505e+01
3.701580460706566100e-02
0.000000000000000000e+00
2.010404717370875005e+01
0.000000000000000000e+00
2.700579727761577686e+01
4.728084956070233602e+02
2.560266268401392864e+01
9.025175830211082939e+01
0.000000000000000000e+00
1.721437720905669551e+02
7.590495531476335600e+02
3.597190873333602212e+01
5.189476408908376470e+02
2.314086870330356192e+02
3.881962813138962716e-04
3.381878815798700089e+00
0.000000000000000000e+00
1.640342471004260005e+02
0.000000000000000000e+00
6.618449859843167360e+01
2.819238463089275797e+02
4.223383216223738827e+02
8.638285876499141978e+02
0.000000000000000000e+00
3.434723178033892168e+02
1.561190930117391495e+01
0.000000000000000000e+00
2.140296227688410352e-02
8.506935265140782576e+01
6.528629365720739486e-03
1.908643619262876143e+02
9.514477354617403848e-02
3.688411811293917708e+02
3.023744004916806034e+02
3.459868419209669810e+02
4.132014825001532472e+02
2.283597617195482599e+02
1.304120728522320292e+02
8.893377811065874994e+02
3.627406702631561757e+02
7.386451365484390408e+02
1.092943109440966793e+02
3.115461152789066546e+02
1.210766836165499526e-03
0.000000000000000000e+00
2.124915972977760248e+02
1.129662918987379214e+02
6.031644972841604613e+02
3.590440892658078269e+02
5.792157532114286056e+01
0.000000000000000000e+00
5.287453106931934599e+02
5.640938552344822166e-02
1.676393474172073894e+01
1.057951591374149132e+02
4.931156132466087139e-02
0.000000000000000000e+00
5.137682077611671616e-02
0.000000000000000000e+00
1.928870716215896550e+02
6.203116124159359715e-03
8.697199700091005070e+01
4.487481903495789766e+02
6.482561923607136123e+02
1.810130262783785895e+02
2.424285983859590488e+02
0.000000000000000000e+00
1.050276231055250094e+02
3.101437432633246658e+02
4.726353850186571322e+02
1.538907340043805902e+02
4.535556313327107318e+02
0.000000000000000000e+00
3.807135292256135131e+02
1.543859732382202532e+00
1.189987306325690497e-01
5.770878826806438155e+02
3.926545662591252039e+00
0.000000000000000000e+00
7.534308313751125752e-01
1.843110181060183663e+02
0.000000000000000000e+00
5.840399429462195258e+01
1.955854029483949930e-04
1.446454410146544092e+02
0.000000000000000000e+00
1.001347885138238780e+03
5.976212298191967420e+02
2.358871983946301611e+02
3.893863265366235282e+01
2.006766571289518097e+01
4.540566031446360284e+01
2.866032975165581433e+02
3.452484421990754948e-02
7.354580207684193738e+01
3.895894712979497854e+02
2.567886387525503551e+02
9.364317974032022107e+01
0.000000000000000000e+00
3.123955590737750754e+02
1.167569134295262927e+02
1.206145691355686500e+00
0.000000000000000000e+00
2.700602389988490586e+02
2.268728082123061984e+00
2.218248332442272286e+01
5.944151238029007800e+02
7.768329115617687464e+00
2.227214455143844071e-02
2.783932900551008061e+02
5.024196976948586553e+02
0.000000000000000000e+00
1.914639267943129539e+02
0.000000000000000000e+00
1.889664769671070417e+02
0.000000000000000000e+00
4.604441813227388991e-03
1.071456534791793286e-01
1.670500778902351726e+02
1.229448442552351015e-02
9.695304082415535163e+01
2.649319903699507677e+02
0.000000000000000000e+00
4.287400275024992879e+02
0.000000000000000000e+00
0.000000000000000000e+00
1.432931081343014335e-01
0.000000000000000000e+00
6.073920394510423648e+01
0.000000000000000000e+00
3.051687418042093469e+01
5.795078499247097170e-01
4.615684297365078237e+02
3.282196545886109789e+02
3.195863530468159297e+01
2.941911675137816928e+02
2.544867373053421034e+01
5.353886795914149843e+02
2.669889354085171362e+02
9.095812600648397472e-01
0.000000000000000000e+00
4.306645377997483592e+02
1.031748037466968242e+02
1.405585240427170746e+01
0.000000000000000000e+00
0.000000000000000000e+00
8.875911261782217787e-01
4.598497479739449556e-04
9.079658319024016322e+00
6.340608401646022685e+02
1.778068901461666371e+02
1.143903097719501912e-03
2.617152634738886263e+02
0.000000000000000000e+00
0.000000000000000000e+00
0.000000000000000000e+00
1.408128830706119743e+02
3.851613703947805334e+02
1.681160563771299365e+01
9.255187665957450432e-03
1.261954298908563477e+00
4.528373724686389323e+02
3.647589831299312413e-02
9.227048923449390205e-01
3.209447234975292690e-02
3.414238991543244310e+02
2.713708785780256649e-01
2.812462453447572841e-02
6.217766916915933528e+00
5.304625844082694641e+01
3.549837915370517294e+01
2.170143032285524143e+01
1.412466461963049369e+02
1.747108885467696660e-01
8.957462944385953918e+00
1.148461342870632151e+01
6.055407721374650691e+02
2.452574509250553092e+02
9.339161924179497590e-04
3.469661426781385103e+02
0.000000000000000000e+00
3.389843263816146646e+02
4.307484765944536775e+02
3.230979439817019738e+02
8.838662225061852951e+01
1.907905327578191645e+02
8.191321682752459310e+02
6.206411129108248270e-02
2.505227829020441277e+02
0.000000000000000000e+00
6.506411548491541907e+00
1.942854677088234894e+00
2.474624407881491948e+02
4.453793350541671998e+02
7.568783390015596524e+02
0.000000000000000000e+00
3.263562595238909125e+01
7.763390575928498549e+01
3.526539464633971193e+02
2.774363020995450402e+00
3.232093413214897737e+02
3.520721901404613163e+02
0.000000000000000000e+00
3.245256053000956342e+01
4.613731179815657697e+02
9.698654406383862181e+01
3.840825544608378550e+02
3.805273985228269567e+02
0.000000000000000000e+00
5.423888417870330159e+02
5.010064653959034331e-01
0.000000000000000000e+00
1.353957067115629576e+00
1.463713856039249208e+02
8.706679839146090671e+02
4.148887768962595146e+02
3.862584071750460453e+02
1.641584637818596661e+02
3.638943809930459457e-03
6.167099480095203035e+02
0.000000000000000000e+00
5.836109098119777627e+02
4.995361745500304096e+00
1.467870265666988061e+01
1.334706004821783267e+02
2.402358494215662416e-02
0.000000000000000000e+00
1.744047961953044124e-01
3.386162080656504259e+02
1.027693323013954341e+03
7.490046675258780624e+02
3.151160545465245377e+02
1.433054455148521527e+02
3.614277009299257770e+02
2.770171604752249550e+02
9.557995259328887983e+01
5.179966351124677715e+01
2.376840982335124863e+02
1.284761568687827094e+02
1.620328546056981900e-01
4.686509274128184188e+02
3.521907482563618430e+01
2.546207114539810412e+00
0.000000000000000000e+00
3.216618032571007257e-02
0.000000000000000000e+00
2.148427771886396789e-02
2.420976127257290944e+00
5.400822382286420071e-06
1.933423260386916240e+02
1.662837466742530168e+01
3.204590250910356077e-03
2.850289659949111432e+00
1.063285715274105598e+02
1.198976621713881485e+02
0.000000000000000000e+00
2.006080532511987258e+02
3.856425008372752927e+02
8.661712116193596156e-01
3.105552512647591357e+01
7.362609890719794270e-02
1.214342274826776986e+02
4.469453254081598743e+02
1.150779557146375471e-03
5.250215705173103231e+01
8.189345469163527014e+01
6.927969549337832378e-01
3.006703716848277850e+02
0.000000000000000000e+00
0.000000000000000000e+00
8.576580384449532246e-02
2.068390267662146079e-02
3.228223647056439050e-01
1.751387044064359344e+01
6.346718945235352294e+00
2.259903468417177805e+02
4.725540627234295243e+02
1.176221261420945519e-04
7.863447724463184159e+02
1.253609284976846823e+02
6.628233155031921342e+02
3.590628193937845936e+01
6.515463838702163476e-04
2.977296388309013331e+00
1.547955701100001136e-02
3.848025306491763331e+02
5.023919007042421754e+02
1.806763626027533292e+02
6.153790166834369302e+02
8.968068213004443123e-02
9.591343279922165399e-02
4.693967330185842002e+01
2.730196212683039292e+01
7.923948006229863950e-02
1.492506057159558863e-01
0.000000000000000000e+00
0.000000000000000000e+00
2.084708242609423223e-01
3.995371970137283846e+00
3.709676172104080933e+02
7.426308640159918735e-04
6.526659182527509984e+01
1.160535955435637069e-02
0.000000000000000000e+00
4.641016916903026868e+02
9.062433622730733940e-02
3.864649234848911874e+02
4.926472980143444147e+02
4.269905527025912306e+01
2.246905229938533921e+00
2.384474906380091142e+01
4.909500148141887621e+01
1.144804097382802865e+02
9.428021382736912415e+01
9.533848869876243270e+02
4.902276877917755655e+02
6.991553489278885536e+01
1.630550180478166169e+02
6.366652330441864933e+02
3.408502755628433079e+02
0.000000000000000000e+00
0.000000000000000000e+00
0.000000000000000000e+00
3.058163124285329548e+00
2.562456251216644318e+02
1.237578876793121907e+02
0.000000000000000000e+00
1.284603506960024344e+00
9.417409265268361196e+02
5.765293964600459731e-01
2.447495615947444492e+01
6.101191283711671076e-02
7.087551299133339171e+02
3.456955984247544222e+01
3.916278412696556188e+02
2.161785548258194467e+02
1.697030979357805052e+02
2.112141367808363270e+02
4.374491015856621061e+02
0.000000000000000000e+00
1.986335677422175081e+02
1.133358502215741526e+00
1.709996454901557428e+01
3.186660393307646899e+01
1.120553374206793507e+02
1.507713846824572457e+01
2.348636265236564213e+02
2.143966125586302383e+02
8.235889223215053789e+02
3.365610904850767637e-01
3.201066754104431311e+01
2.880459827333652356e+01
1.478326339043879202e-02
7.988067392707307590e+01
2.945448226610097464e+01
4.650240782844150544e-02
1.715590428068482609e+00
4.224196948278405443e+02
0.000000000000000000e+00
3.963031680308631621e+02
3.840688412321924261e+00
1.564113695018021986e+02
3.904554960558015750e+02
4.613786284771776991e+01
2.782201823349168990e+02
2.111878629743842595e+01
2.290170702715840321e+02
5.439589623238133242e+01
8.510707825905683421e-01
5.598667356287479606e+02
5.093571209081347462e+01
2.188550122245942831e+01
7.011290446783391417e-02
3.467688791250111535e+02
0.000000000000000000e+00
0.000000000000000000e+00
3.236961349903140217e+02
2.490781871507863343e-01
1.596456876781303720e+02
2.712200196015145393e-01
6.409153625739349991e-01
2.822515692169070591e-03
1.141277746780816571e+01
7.050750100427194411e+00
4.663911136754904874e+02
6.618693341647487571e+00
3.649628723546848334e-04
4.894535872002059307e-03
2.854497890912169282e+02
8.876612720065678308e-02
5.575995751287976532e-02
3.885162332619074732e+02
0.000000000000000000e+00
6.086743326461085957e-03
2.449348363243188942e+02
6.970971870629000477e+02
2.948602054981165566e+02
1.315327671187332044e+02
3.211758443918371313e+02
5.468856087518373903e-06
5.586214224182185717e+02
0.000000000000000000e+00
2.798975815014273394e+02
3.043801599567075300e-02
0.000000000000000000e+00
0.000000000000000000e+00
6.020580614698701538e+02
6.089041491819102703e-03
4.233185473683988675e+02
0.000000000000000000e+00
6.798069999902508016e+02
5.431841224876164942e-01
1.508912995215779493e-05
3.181265806328155463e+02
4.315971857536737843e-01
0.000000000000000000e+00
2.387369487354361830e+00
1.876811389869544939e+02
2.308745325918516028e-02
2.203131947691873052e+02
1.101076727343297890e+01
3.881379042162734549e+02
0.000000000000000000e+00
2.998863052416708115e+02
9.375662774095868457e+00
0.000000000000000000e+00
2.500817008916783379e+02
0.000000000000000000e+00
7.084679144209076185e+01
0.000000000000000000e+00
2.868254698005331420e+02
7.445689888845663518e+01
5.666391870799999708e+01
1.762740602840494546e+02
2.308838469234615332e+02
2.421896859548723455e+02
7.089945651603104082e+00
3.650126522647041725e+02
0.000000000000000000e+00
0.000000000000000000e+00
4.632065634847095907e+02
6.640411171072628349e+02
2.043772556152844561e-02
0.000000000000000000e+00
2.435904331450728080e+02
0.000000000000000000e+00
0.000000000000000000e+00
1.552434678196732989e+02
6.106241459001466865e+01
1.053367454172986299e+02
0.000000000000000000e+00
7.503946235267734688e-02
6.406334342398167792e+00
3.490030771245073993e+02
1.185894344787997434e-01
3.865689094411210363e+02
4.081978865164275021e+02
9.408586104924322626e+02
1.250305716864659544e+01
6.666944294506096328e-04
2.400310353878331270e-03
5.206007229787701363e+00
8.597764689020550577e+01
2.413595263849855996e+02
1.360225835112487935e+01
9.127692757147082281e-01
0.000000000000000000e+00
9.902446827965156739e-01
2.492868073733235157e+00
1.396806816531537265e-02
3.996125856219804717e+01
3.037791617032781346e+02
0.000000000000000000e+00
2.061915362199216020e+02
7.403200490007293411e+02
5.741960090017528273e+02
1.283276531350565620e+03
5.044975001565035200e+01
1.785570725984143223e+02
2.342132894028736353e-02
1.260252107665565902e+01
2.391864220618344472e+00
2.970991904941910207e+02
4.081492493118277025e+02
0.000000000000000000e+00
1.374008214405364990e-02
7.208343413694821322e+01
8.063623278740124078e+01
6.759170905861537904e+01
3.657458758709252606e+02
2.798963045496094537e-02
2.747878348007361637e+02
7.174091627678080840e+00
0.000000000000000000e+00
5.794545290453241932e+02
4.066177631932079066e+02
2.854741847759215290e+01
0.000000000000000000e+00
2.224631217759842627e-02
2.617847624038403183e+02
1.329738291011040463e+00
7.486192555035813712e+02
3.888663236168213189e+02
2.494889795070775165e+02
4.220291415884274784e+02
2.731357656293766922e+01
2.349593802751570593e-01
3.760994983924320536e+02
1.212053949204346281e+02
4.253136127910228659e-04
1.578130899918049934e+01
2.433091540733585703e+02
9.988102692834215759e+02
2.168765664726378759e+02
3.975843608189366662e-03
1.030667424616694689e+03
1.063856462078547338e+01
2.700023528916516841e-02
0.000000000000000000e+00
7.408260071479162434e+01
2.704650306131952107e+02
3.373376612245918977e+02
6.072761028539389372e+02
4.801341004313144367e+01
5.267492908700660337e+02
0.000000000000000000e+00
2.821652153383183759e+02
2.065280725344759150e-04
3.461958599543236460e-03
3.049606937056524316e+02
7.422733185638207942e+02
7.099970471957931295e+02
0.000000000000000000e+00
9.955538761405476578e+01
0.000000000000000000e+00
3.775645517578140598e-01
4.379502598294494220e+01
5.904188413080644793e+00
6.842248989391561727e-04
3.251638427689612172e+02
4.206368053433834575e+02
4.173060022250866723e+02
1.084936653305703373e+02
3.553274768819391056e+02
1.492878331533574112e+02
2.227626438818220311e+00
2.342010039465093598e+02
0.000000000000000000e+00
5.490023905504131108e+01
4.233990357395667843e+02
3.276098444494834894e-01
1.185206481157363925e+02
4.587587438269110862e+02
1.408031652831987293e-02
9.669176621613930767e-01
4.268809031615091953e+02
2.023941457784530655e+02
4.721130537620865653e+00
6.485930030306917615e+02
0.000000000000000000e+00
2.327680223288552508e+00
0.000000000000000000e+00
4.705251710192897008e+01
2.575514438518666793e+00
1.345713737871846547e+02
1.101434272619883359e-01
3.289482546846556943e+02
6.139993405959103256e+02
6.390516251535416359e-02
2.465496174931302575e-01
1.502922842857514638e+02
4.399194571269619018e+02
4.105993141649831202e+00
1.023661960585742179e+02
2.305224702704435913e+02
4.520800934158614837e+02
3.078798614303269055e-03
4.504156879227137367e+00
0.000000000000000000e+00
2.313547089505263443e-02
0.000000000000000000e+00
1.056414057692745473e+03
1.078908312364365202e+03
6.960602473103790544e+02
0.000000000000000000e+00
0.000000000000000000e+00
4.295301343379832133e+02
3.600948407511169762e+02
1.193379579143538205e+00
2.888322519196682633e-02
1.782428324337282169e-02
9.165375955468843538e-02
1.927922409038728517e+02
0.000000000000000000e+00
2.639039864399818498e+02
4.361725509996175560e+02
1.993576418462907327e+02
2.189887290434854208e+02
2.246509269502894313e+01
2.121582320320158033e+02
0.000000000000000000e+00
4.079896490281952559e+00
2.373970447933970718e+02
3.412460761421244797e+02
4.247730872442011772e-03
2.903959859313545167e+01
1.785170058826724511e-03
1.318616954854406664e+01
3.921717978155355695e+02
2.334932878042309881e+02
6.951300645368974074e-01
2.796125135606416734e+02
5.674152172119307537e-03
4.273977917868165057e-06
8.288057590689277276e+01
6.694060409849043936e+02
2.538615947029030053e+02
1.337186455648406422e+02
5.889434011783123424e+00
1.923155726362892182e+01
0.000000000000000000e+00
1.283107699373431956e+02
2.736869072300862626e-01
0.000000000000000000e+00
7.503580158618738949e-03
9.476592144096687154e-01
8.144052852167078527e+01
3.871665956496145782e+02
4.838476940531108994e+02
1.546148514180095390e+03
5.105896882741943728e+02
3.083958126211655895e+02
0.000000000000000000e+00
3.505273927868984742e+02
0.000000000000000000e+00
1.145213899711961858e+02
5.885570991231361404e+01
3.470646280807619666e-02
4.295603893609949182e+02
2.356378059625852117e-03
1.011863623070531162e+03
5.272127396649396204e-03
2.780602696882853024e+02
1.762601804319274947e+02
1.237457670986259899e+02
1.675786773187581680e-01
6.846035734299221076e+02
2.317762754522847501e+02
1.518928717101175385e+00
1.290873697844289723e+02
3.230308844409591984e+02
3.049655839568004012e+02
7.503520048558129929e+01
4.600920729535573628e+01
5.297698878621302754e+01
0.000000000000000000e+00
2.040563686743552694e+02
6.552048712982207548e-03
6.286817388609051704e+02
2.171255831353136601e-01
1.253244982777688108e+02
1.672293940603139362e+01
1.234801063561462371e+02
7.564149339268624317e+01
3.656151398106886745e+02
2.746247863791496435e+00
4.821094204021392216e+00
2.502420882225123080e+02
0.000000000000000000e+00
2.393221330294182678e+02
1.788830216405586171e+01
0.000000000000000000e+00
1.650094994180108188e+02
2.646320487518095206e+02
7.065291134043948205e+02
3.369125521225213333e+02
2.448823010804517253e+01
2.190846523594700912e+01
2.085705729046872375e-02
2.135691856496123933e+02
0.000000000000000000e+00
3.808114253693872797e-02
6.126864099831436761e+02
0.000000000000000000e+00
3.679306708610964733e+02
2.573400386353341673e-01
7.067850417314502920e-01
0.000000000000000000e+00
0.000000000000000000e+00
0.000000000000000000e+00
4.761660215815936681e+02
4.220572469086620231e+02
2.764907944925654419e+02
6.260228275685220751e+02
1.575776198278618097e+02
1.117351797543618908e+00
2.702198036990922425e+00
3.892082659442409887e-02
0.000000000000000000e+00
2.293212465160898716e-02
3.740758877293045970e+01
3.680214230233104900e+02
8.625914978939168420e-02
1.030339171886225813e+02
3.143101599629716941e-02
6.927319165653899518e+02
9.301998764538441264e+02
1.722868714514334343e+01
1.447714352521872172e+02
0.000000000000000000e+00
1.268978905503171973e+03
1.180838420388852505e-01
4.008202442571929396e+02
4.602118740680454039e+02
3.793077713206002954e+02
5.436245201451585629e+00
3.380567178019192198e+01
4.468676650649285875e+02
3.707815840258264188e+02
1.391876602694352982e-02
7.873172010382404551e+02
2.889642204230766538e+02
3.613001448101726271e-02
1.382743974394544750e+02
2.486423514159241233e+00
2.329043667614314472e+02
9.173212380032055080e+02
2.207702539901220007e+02
1.508137844304258679e-01
1.839938229360995763e+02
9.413280545253655873e+02
8.001337203924778123e+02
1.721498510423024458e-02
2.516359566357984773e-02
0.000000000000000000e+00
2.214162740929170070e+02
1.645959196925104777e+02
5.590341218805860990e-01
3.797992386927944608e+02
3.420964477940286770e+02
4.345712361100596581e+02
7.007289413995749783e+01
1.000066064983912213e+02
7.612246393400708655e+01
2.270231126716681160e+02
6.087537314965628887e+00
0.000000000000000000e+00
2.068849869187942758e+01
7.822606010420713574e+02
9.012814609013733502e+01
1.255708367918487056e+02
3.342877134040463716e+02
1.118150084995761517e+00
8.338730057585053146e+00
9.388527355942642316e+02
3.279939945947262459e+02
0.000000000000000000e+00
2.553463660162377948e+02
1.088908171823277371e+02
1.569901070626655724e+02
2.796801092656842069e-04
1.358966436795527386e+02
2.619982211494062767e+02
2.830260157017619349e+02
8.031282348500101307e+02
2.424325200877319730e+00
1.059135480305485260e+02
2.639322997034469154e+02
3.965284164405602496e+01
1.947538195916422978e+02
6.557015882608540380e+01
2.546915054579584989e+02
0.000000000000000000e+00
5.259759528635186143e+01
5.954594605980673805e+02
2.717333774802682456e+02
1.079751635457796965e+03
1.859526046543712868e-02
9.625235029488985106e+01
8.407694845911464654e+02
2.429034173928812734e+01
1.927861893973385676e+01
5.370476908399723470e+02
2.326360411188944397e+02
9.599642417779103223e-03
1.168420459385365777e-03
0.000000000000000000e+00
3.261597370374147431e+00
2.032895063068282013e+02
2.388021121834754013e+02
5.159724751923932899e+02
6.079631920584915861e-01
0.000000000000000000e+00
5.326777005689107725e+00
2.364192699093109695e+02
1.730359681173467123e+01
9.239145413419462329e+02
2.582623388814681675e+02
1.195239591455903110e+02
6.879364170639945542e-02
9.064780482804053463e+01
1.025759760732762970e+03
1.283491017622509389e+02
7.095974089883384295e+02
1.239022314728573093e+02
5.045270273782080039e+02
6.626468849235678249e-03
7.180592901079306187e-03
4.217981474409492363e-04
0.000000000000000000e+00
1.715688879328808412e+02
0.000000000000000000e+00
1.116246326066060890e+00
3.891371015553886537e+02
3.427477704492047224e+02
4.501420539018000682e+02
5.397736489476390176e-03
3.160069323297421739e+00
3.815206694798689568e+01
0.000000000000000000e+00
0.000000000000000000e+00
1.216913966123684787e+02
0.000000000000000000e+00
9.047621781821360400e+02
4.074326353504149552e+02
2.467940467107837321e+02
2.117246694606223639e-02
6.233676689344063959e+01
0.000000000000000000e+00
5.864925928384764120e+02
0.000000000000000000e+00
5.258381868879949934e+02
1.554777330780781597e+02
0.000000000000000000e+00
2.298489987930224743e+02
1.212665246619337722e-01
8.349698876569163986e+02
0.000000000000000000e+00
9.150740889049306048e+00
5.032734695771067663e+02
3.248455390465095434e+02
7.012317610380705446e+02
2.889009296741278376e+02
4.473714308451235411e+01
1.364786812994862885e+03
8.180447313017796205e+02
1.976697752477775794e+02
1.147004064162048032e+01
7.677789095832848716e+02
3.893426355127304532e+02
1.280926793907610328e+00
5.332417345714929979e+02
2.251799237733393255e+01
0.000000000000000000e+00
6.059002299763963038e+02
3.786156989626761060e+02
2.258578346594732125e+02
1.809309225098587881e-01
6.261064406004379634e-01
6.697601017950916003e-02
1.704508752377478942e+01
4.819652036909261028e-02
7.184954245931294281e+01
6.723010689474904211e+01
3.933747758458139288e+00
7.544605658715841656e-03
5.785439893557507360e-03
1.011829542609120836e+02
3.059474981660061488e+01
0.000000000000000000e+00
1.099562163322116021e+03
0.000000000000000000e+00
2.834704382036079551e+00
2.137149916784437664e+01
1.362810703915328991e+00
1.558100995104894082e-01
4.668017642696214580e+02
1.655791561338446272e+01
0.000000000000000000e+00
0.000000000000000000e+00
3.180377845710607971e+02
6.819200502635793555e+02
3.604205415162142572e+02
1.045069741276166297e+02
1.941810263389925808e+02
4.435133700979349669e+02
3.009003212245398885e-03
1.201344933775546053e+02
3.866774615438771434e+02
0.000000000000000000e+00
0.000000000000000000e+00
0.000000000000000000e+00
1.008768116322244310e+02
1.147268994733608161e-01
1.719540590278484160e+02
4.571820447031582635e-04
3.491840694671565215e-01
1.149157768233271554e+03
2.088888772643571201e-01
4.237170741551381070e+02
2.880746839409197846e-01
7.368229343206621706e+02
4.284972255470621327e+00
2.882317540170333814e+02
2.006725715822540224e+02
5.364216510383990923e-03
1.544388570334831901e+00
5.571662722595647210e+01
1.245725550975862905e+00
8.022156913540359202e-01
2.282111145766976676e+02
3.631682890249067555e+02
6.637851117426180281e+02
1.205322930800320336e+02
3.427007362988288876e-03
1.197024880175012640e+03
4.148362805521173868e+02
1.228268789589037624e-01
1.239307532173371840e+01
1.019616016317741440e+02
1.674691638090735069e+02
1.107316712008469040e+02
7.820184640568187717e+01
0.000000000000000000e+00
3.870777967196773943e+02
4.402394348428374793e-02
4.523117514963814756e+01
2.490626700706342547e+02
3.717267648840787615e+02
5.957708206147382946e-05
2.689326332108165143e-02
2.960764310359082856e+02
6.201454139751149341e+02
5.082006342337990645e+02
1.580292165952413939e+02
0.000000000000000000e+00
1.313755738676264002e+02
6.103473465709613777e+01
3.563768157873710152e+01
6.779500631537871413e-01
2.524897193547076313e+02
8.351463066937867552e+01
3.312386540926580691e-01
2.169892752888698340e+02
3.387685802605120102e+02
3.233714079731725519e+02
5.980962073380169386e-01
4.764264511177316308e+02
1.019759473842896469e+01
3.609963420582062099e+02
6.204924831479274872e-01
6.288566549701498616e+02
1.988807606161572323e+02
7.094454434479757765e-02
0.000000000000000000e+00
2.534974201378646228e+02
3.345447515412659258e-03
3.183052103519767861e-04
0.000000000000000000e+00
0.000000000000000000e+00
0.000000000000000000e+00
2.380150025986950482e+02
4.355217428246760392e+01
3.391560446326381123e-02
1.678443140121999022e+01
2.184089112533910537e+01
2.848852510055620968e+01
6.025960099009796365e-03
1.608171898255932319e+01
7.067255896414280869e+02
6.370529510852064732e+02
2.433008901225547760e+01
6.565505160944370912e-05
0.000000000000000000e+00
4.156347639145678841e+02
2.888433179265121566e+02
4.538032056749215144e+02
4.213994803703435821e-02
5.740681769762886688e+02
0.000000000000000000e+00
0.000000000000000000e+00
3.447886156624010141e+02
3.340980347595177022e+02
1.850749024038123025e+01
0.000000000000000000e+00
3.963026646648358451e+02
0.000000000000000000e+00
2.170158310735133114e+02
5.245138122270873282e+02
0.000000000000000000e+00
1.065289036772809652e+02
1.738522085572568460e-02
2.743056614153828221e+01
1.403002169840307012e+00
5.174813990216354555e-03
2.412366217345863692e-02
1.930576816926078720e+01
1.992728555036592297e+02
0.000000000000000000e+00
8.591273436331903213e+00
3.192486107553123134e+02
1.556853606293770476e+01
0.000000000000000000e+00
0.000000000000000000e+00
3.510443482628035099e+02
4.319551759342233873e-04
6.209030993238685348e+00
1.937725763578781084e+02
1.754934500007949509e+02
4.243905248382362743e+02
3.075697918386140373e+02
2.283947364264803603e+00
3.788802070543169975e+02
0.000000000000000000e+00
0.000000000000000000e+00
3.006025879280059598e+02
2.826205134952032836e+02
1.138897272729081180e+02
0.000000000000000000e+00
9.978532863920015927e+00
0.000000000000000000e+00
0.000000000000000000e+00
7.804112206340505509e+01
1.647015412298061108e+02
2.629983370239642682e+02
1.715504512558254078e+02
1.071283719094040000e-02
1.364580049842060383e+01
5.091544985145446844e+02
2.150168692121953313e+02
5.735740608375635929e+02
0.000000000000000000e+00
4.080552345920294783e+02
2.184741032488090582e+02
2.207506155446024909e+00
3.376208268433402964e+02
6.232274424168283531e+02
7.566074387170829141e-02
1.434757904582511685e+02
4.644458893642877229e+02
7.746895770458195329e+00
3.197556867766251116e+02
6.904634800855548704e+00
4.695574236597166191e+02
1.304747870965002505e+02
8.522617268026806414e+01
2.003997577232352178e-03
0.000000000000000000e+00
3.770656740492705182e-03
0.000000000000000000e+00
2.705811233790628156e-04
4.016926062642597799e+02
0.000000000000000000e+00
2.525273190760345301e+02
0.000000000000000000e+00
3.261792754550698419e+02
1.614111300084914546e+02
8.717566126179008279e+01
4.813541334813636468e+02
1.379893077856307659e+00
0.000000000000000000e+00
0.000000000000000000e+00
2.179375150637497427e+02
1.402897986052308865e-01
8.962689475838778782e-04
1.745793986250986363e+00
2.251361828664589105e-03
1.282288689862980036e+01
6.892197697408846579e+02
0.000000000000000000e+00
2.382414816379422717e+01
4.354976562538580565e-01
1.163278706151686492e+02
2.416194776516932166e+02
1.520596812824805681e+02
4.007408486635540044e+02
9.002967683233161031e-05
0.000000000000000000e+00
4.144287405018984600e+02
2.367029831436441023e-01
6.050270891009291718e-01
1.749427223930979665e+02
1.272756978449861645e-02
0.000000000000000000e+00
3.928267874420270118e+02
2.726930111100955969e+02
2.125167597899490501e-01
6.457397491601568618e-01
1.388022039667702927e+02
5.618540894436474531e-03
0.000000000000000000e+00
1.064676033610268075e-03
2.882424308263581452e+02
1.675376147768474056e+01
0.000000000000000000e+00
3.189147112905629342e+02
0.000000000000000000e+00
1.266083708631525528e+00
3.251888604907435365e+02
0.000000000000000000e+00
1.661592992833903395e+02
6.932598543120546992e+02
0.000000000000000000e+00
2.865769787042893313e-01
0.000000000000000000e+00
4.320333248324460129e+01
0.000000000000000000e+00
9.350452635545345500e-04
9.508827609305824102e-02
3.696925853269930826e+02
0.000000000000000000e+00
0.000000000000000000e+00
3.499735324068751652e+02
2.562093334890215915e-02
0.000000000000000000e+00
1.174931486273635244e+02
7.569476056087296456e+02
1.309621209695706057e+01
1.330433219585756319e+02
2.132483837402106133e+02
7.824476230325672077e+00
3.048671981268853415e+02
2.383814494813123588e+02
1.148423148987377740e+00
0.000000000000000000e+00
6.435072827362091630e+01
5.542605631853801640e+01
3.405555224868294317e+02
2.262073191108356696e+02
0.000000000000000000e+00
2.472556143112568883e+00
3.947026634028588887e+02
3.065714905936545165e-02
2.154605576834000419e-02
3.172261368888928089e-03
2.419687743323350460e-01
1.924310090940707880e+02
0.000000000000000000e+00
7.387022040584268723e+01
3.339821322668968251e-01
0.000000000000000000e+00
4.640881771729253558e+01
9.955246170939069827e+01
7.198063247119536712e+00
4.743778388663487249e+02
1.485002546207396961e+02
2.310233257417166541e+01
0.000000000000000000e+00
0.000000000000000000e+00
4.640060894314956386e+02
0.000000000000000000e+00
8.446114523248979822e+02
1.807002746401850573e+02
2.850518655191079720e+00
6.268234376882900278e+02
4.669787906441343495e+01
1.051705234862310760e+02
5.262585052934198870e-03
1.200412297630464309e+02
6.017715300389681943e+02
4.224755354727676604e+02
0.000000000000000000e+00
0.000000000000000000e+00
2.421317113821714031e+02
1.720692207675256880e+00
5.145132966777321570e-03
0.000000000000000000e+00
9.335845902887740522e+00
4.800218282958667260e+02
0.000000000000000000e+00
1.045168579292976130e+00
9.725924856058554724e+02
0.000000000000000000e+00
1.219245098662557862e-02
2.283824547794211526e+02
3.378217057404981460e+02
1.108021565586981144e-01
0.000000000000000000e+00
3.359707442468788940e+01
9.506752146015056724e+02
8.508531514100914350e-04
6.625893361478230048e-03
0.000000000000000000e+00
7.556267215259140357e+02
0.000000000000000000e+00
2.377445265363348881e+02
0.000000000000000000e+00
2.222799869164190767e+01
3.679717683208184355e-03
6.981374453025636058e+02
3.938303731899849058e+00
1.466827282474696403e+02
3.363703437338699587e+02
1.563494131747575580e+02
7.016038190715789824e+00
4.130197273988223117e-03
0.000000000000000000e+00
1.510341102883103304e+02
1.429609289348262635e+01
8.058351218724052956e+01
3.324504833341052290e+02
0.000000000000000000e+00
5.833297160686925054e+02
6.024467604293022305e+01
4.333986384961463045e+02
0.000000000000000000e+00
8.777340669825207442e+02
8.445125487880432047e+02
2.467700443256034646e+02
0.000000000000000000e+00
0.000000000000000000e+00
2.894737372844957690e-02
2.037127747527846680e+02
6.465858664963519686e-02
1.646806387876065259e-02
1.071817159947387381e+02
8.110656392901205436e-01
2.533927644610231198e+02
1.267511337188498809e-02
2.211786050917652346e-01
1.191048583739641106e-02
4.977132984786293264e+02
7.602113879067474045e+02
5.566752830139522212e-02
5.082190484051451150e-03
8.318748884039717240e-03
4.886422954184510559e-02
5.578529402446292806e+01
5.629287596627818857e+00
1.114888459234862239e+02
8.048756485022749985e+01
4.720891396631486714e+02
0.000000000000000000e+00
1.133237159049827358e+00
1.131046587584933576e+02
2.494529178486118326e+02
2.242770000269956654e+02
1.003037803204279328e+02
3.201649031212561169e-02
6.116371169686317444e+02
1.964168639753439249e+00
1.439605819564350409e+00
3.667515897206614000e+02
2.075662985170368680e-01
3.865219056664500386e+02
8.104139009501527369e+01
0.000000000000000000e+00
2.487096097127505914e+02
2.587506963539710769e-01
4.029764189539264407e-01
0.000000000000000000e+00
4.192279189683176810e+01
5.408744830201612785e+02
2.457963938879402690e+02
3.434797220164909959e+02
3.264400290958292317e+02
2.307838450519739570e+00
6.215921567738405429e+02
0.000000000000000000e+00
9.303417979552367489e-01
1.010309742900061849e+02
3.834773328198935616e+01
1.151432492217280696e+02
2.427394792521226918e+02
3.599884297465903842e+02
4.935672503394016530e+02
5.556077786175592337e+02
7.993393213218948290e+01
2.484458719521854153e+00
9.956075936133854043e+01
3.054234112270791477e-03
3.417910322496026083e+02
5.642574454708665144e+02
7.054299484327202663e+02
4.213216226336953696e+02
4.777807767743070144e+02
4.710317425990069751e+02
3.299762385373469442e+02
1.085379500682392262e+02
1.478183901243027947e+02
6.857402112058482544e+02
6.133185845399680147e-01
4.272582993307877075e+01
2.100285364408592415e+01
7.549753680377762066e+01
2.374405703590127814e+01
5.711539286057814024e+01
5.762931033181928342e-03
1.150366281004268298e+00
3.930188442019756367e-01
0.000000000000000000e+00
3.383597896827269551e+02
2.076521336397262552e+00
7.872259139662938707e-03
5.876932627885253169e+02
4.169252194493311663e+02
5.294848572077171411e+02
1.048448743708263686e+00
0.000000000000000000e+00
0.000000000000000000e+00
0.000000000000000000e+00
5.198771844181463848e+02
4.370808993753597349e+01
1.680114955799895116e-01
4.160367056310860789e+01
3.014733032173921856e-01
2.230425142053719014e+02
1.103936513477398861e-03
1.317871139736581654e-01
3.300818249394068289e+02
7.572863200348365353e+01
0.000000000000000000e+00
1.774576361409430647e-01
1.556979815286466895e+01
1.993369213789265757e+02
0.000000000000000000e+00
1.381138103217837099e+01
5.587388945685233921e+02
5.341606314053933602e+02
7.617476362838715431e+00
6.141851791026056162e+01
3.502790756848562365e-02
1.243855070880150744e-04
4.378568983382139663e+02
3.629237248402205864e+02
0.000000000000000000e+00
2.135056439346953994e+02
3.928715263384674472e+00
1.692545020043326929e+02
3.637383099999170200e-01
3.783327255121549797e+02
1.708830524377844711e+02
8.291619873343734071e+01
1.514094580375058507e+00
2.332883638510452329e+00
2.766417885257397984e+02
0.000000000000000000e+00
1.517338693753117127e+02
2.433634740384855153e-04
2.842193301978113027e+02
4.126438820101611782e+02
2.099158735603623427e-01
0.000000000000000000e+00
3.221182330744341016e+02
5.057039129249460530e+02
5.830511753942120095e+02
7.569611486923921717e-03
5.215651948571319030e-02
6.647476106867543422e+02
1.517790554393286868e+02
2.548429676925144730e-02
4.002753826243266033e-03
6.650349509451189078e+02
2.754215697160589560e+00
2.888941704547675071e-01
2.377652620616573245e+02
0.000000000000000000e+00
0.000000000000000000e+00
0.000000000000000000e+00
2.340769935949537306e+00
0.000000000000000000e+00
4.099288317818717360e+02
2.562536402912484607e-02
0.000000000000000000e+00
1.651266474636941268e+02
2.246995098386832410e+02
1.053718139675766281e+02
3.818849265051539987e+02
1.136302722353832007e+00
2.862244027219275466e+01
5.258517394564066194e-02
8.966433454020261706e-01
1.466212732046389897e-02
8.415598237494123168e+02
1.083274362290467536e+02
1.157707433752876085e+02
5.387198727825307287e+02
2.725632272864459082e+02
2.035815459211497494e-02
4.648002332081903028e-04
8.166053244007542844e-02
3.860851144570915494e+02
1.395393598511872142e+02
1.223710411355568510e+02
0.000000000000000000e+00
3.293611854838673025e+02
0.000000000000000000e+00
0.000000000000000000e+00
2.253508330820607614e-02
0.000000000000000000e+00
6.626659182526055929e+02
9.433456976211118672e-01
8.162628151997530779e-03
8.962674161288298365e+02
8.056871143846677796e-03
8.342940807619015686e+02
2.217037046990299984e+02
2.730438514947309159e+02
6.449041245374246500e+02
2.688048629493097152e+01
9.340220777494318227e+00
1.889819898906353757e+01
5.911072042657397052e-01
1.445524648500118650e-02
4.560104054726252798e+02
5.030763121467316523e+02
1.433740380991366408e+02
1.824769772085233638e-02
5.552893800875312834e-03
1.346684248366728411e+02
9.913131184124962178e-03
3.294364924833644750e+02
0.000000000000000000e+00
2.219171536804508960e-01
3.294890490593388677e+02
4.900971983952331357e+01
4.839838825282642460e+02
3.026410195656354745e+02
0.000000000000000000e+00
1.759742635889516293e-02
5.717108980956253390e+02
6.559318129671738689e+02
0.000000000000000000e+00
4.736909206323616672e+02
5.055835941035182941e+02
2.231575620244256299e+02
7.571929757526959293e+02
4.188576817825378384e+02
3.818366430151029500e-05
1.458588399586006688e+02
7.701234081072815018e-05
2.822040627190290252e+02
3.860888488306956106e+02
4.836608549092489966e+02
2.130433359398012385e+02
3.349453362909572185e+00
0.000000000000000000e+00
5.328720120900244384e-01
6.673483325847495706e-03
1.280604662912133247e-03
2.265477379543881966e+02
6.312250651774320431e-03
3.642213307539350353e+02
1.867266135901444954e+02
5.390263879745394761e-03
7.624557579154497944e+02
3.874587576028430957e-01
3.052135282945528161e+02
4.964038391733538447e+00
0.000000000000000000e+00
2.221157255673461464e+02
2.108562216392163271e-04
4.401326849838368389e+02
1.561240342627569930e+02
1.828412416507490548e+02
0.000000000000000000e+00
0.000000000000000000e+00
4.133419259240328074e+02
3.879124994906306938e+02
3.737392939656274393e+02
3.630514392702024224e+02
2.618843656875923909e+00
0.000000000000000000e+00
5.381940109725746879e+00
5.803905345877865329e+02
3.913267452080616522e+02
1.807298606596305035e+02
5.131147902488010004e+02
1.080645484077269805e-02
2.196379086285561028e-02
3.790835396815965055e+02
1.801848615294147464e+02
3.381374645633484534e-03
7.084004077125884535e+00
5.781475499112274292e+02
2.479398383447433698e-04
4.483364928688389455e+02
2.824721947592479410e+02
6.457890778656292241e+01
4.360875624501204584e+02
1.931249728390867304e+01
0.000000000000000000e+00
4.179327703699527774e+02
1.671229743434033202e-02
2.525521388932248215e+02
8.973109899874543771e+02
2.991829560864972137e+01
3.785335915024915039e+02
3.585509383237096837e-02
1.984316881734061056e-03
1.694557064402033006e+02
1.628351783132531523e+02
0.000000000000000000e+00
6.585390163294846388e-01
0.000000000000000000e+00
1.894081261605604993e+02
0.000000000000000000e+00
3.414338761271210387e+02
4.653839700367824861e+01
5.170930611850053538e+02
0.000000000000000000e+00
7.817219091403870834e-02
0.000000000000000000e+00
3.568502955211273059e-02
1.628241042095357471e-02
0.000000000000000000e+00
0.000000000000000000e+00
1.835033802221005885e+02
1.772322340047870898e-02
7.646327571856091936e+02
3.638643919215075339e-05
3.606118335133942310e+02
4.284871900454164688e+02
2.861737068793444223e+02
1.910931157535599723e-01
1.736539497644116068e+02
9.737685996115033049e+01
5.880290828599754605e-01
4.966656804826926646e+02
3.830883814604021609e+02
2.259916461283864919e+02
4.819439493971002548e+02
2.882629096493474208e+02
1.557869640222634189e+02
2.059399378176748598e+02
0.000000000000000000e+00
5.170706790176281265e-02
3.049868257163325893e+02
1.032711062964875026e-02
2.794752258545486825e+02
2.098421610462536080e+02
5.368015448526419959e+02
8.451350766836185358e+00
3.546174052447894951e+02
9.567799531687339254e+01
1.046901007677660118e+03
4.513052239119020870e-01
7.633534217932336219e-03
2.779106439896318267e-02
0.000000000000000000e+00
1.673735916661825911e+02
1.520224088553678854e-02
5.445953245391139035e+02
3.595023715169398670e-03
5.452340630436084439e+02
1.004931846950057945e+02
6.599204839330923278e+01
4.883357729544512722e+02
0.000000000000000000e+00
6.218788086684070322e+02
0.000000000000000000e+00
1.250597992923374868e-01
7.352802565539604984e+02
0.000000000000000000e+00
5.279616982295467054e+00
9.469245554573713264e+01
4.233177697324207145e+01
2.782567358866799623e+02
1.214672026182597335e+02
3.755701301397493808e+01
4.014459741199970040e+02
1.049166764065034618e+00
2.064701647380929594e-01
0.000000000000000000e+00
1.582958148748729457e+02
2.562086148118395954e+02
7.513456481387946084e+00
2.419294227733189473e+02
4.331127022131113335e+02
4.817236342612886801e+02
4.969795127086398452e+02
4.789011103668599389e+02
3.098135824744530282e+02
7.051585010424332722e+00
2.287764311946375528e+02
1.344522164004046161e+01
0.000000000000000000e+00
7.796282069302828965e-04
2.481174613806479828e-02
2.742147253309667576e+02
9.682654644730068583e+01
3.283187732391525628e+02
1.137582917346662015e+02
1.672032280795975225e+02
4.926060621546639595e+02
0.000000000000000000e+00
2.824608317372621968e+02
1.572569362309876055e+02
2.798080176630720572e+01
2.701796156223280150e+02
3.589939706449513892e+02
1.788989750093608277e+00
0.000000000000000000e+00
0.000000000000000000e+00
7.086950454002759192e-02
1.419285499509897974e+01
2.315171075579200277e+01
0.000000000000000000e+00
8.649056331982139909e+02
7.498011422306662122e-02
7.365005979336274322e+01
6.912397137912194012e+01
1.078749069438344677e+01
4.019129786740904819e-02
0.000000000000000000e+00
1.343178744969918057e+02
0.000000000000000000e+00
1.346822799507208401e+02
0.000000000000000000e+00
7.224295292360127796e-04
3.686032964935748169e+00
5.507108589452400338e+02
1.401233999644318260e+02
1.573980185425171499e+02
0.000000000000000000e+00
3.417801349487490370e+01
9.692469529363723524e+00
1.238813917966581712e+01
7.424632140096143473e-03
2.813873929284454221e+02
0.000000000000000000e+00
0.000000000000000000e+00
2.346065165502295713e+01
2.406758506313053658e+02
9.647533714269226124e+00
0.000000000000000000e+00
3.242792221499258858e+02
1.373692229765310380e+01
1.709022061604627822e+02
3.468501684616986935e-04
0.000000000000000000e+00
0.000000000000000000e+00
5.804760896033259314e+02
1.175890024714132615e-03
0.000000000000000000e+00
0.000000000000000000e+00
9.869416128349687428e-03
1.185384074714967028e+03
0.000000000000000000e+00
0.000000000000000000e+00
3.369828225935634691e+02
0.000000000000000000e+00
0.000000000000000000e+00
8.186340338128504754e+02
1.445537402010814390e+02
3.250760319278923589e+02
1.668824440963363145e+02
1.276498757986702230e+02
0.000000000000000000e+00
3.770362009032396600e+02
1.632087698384565329e+02
2.041348285234561786e+02
1.023369740294127972e+01
3.633863053124515545e+02
2.409516321142291417e+02
1.432879268354553837e+01
0.000000000000000000e+00
2.485766902037767068e+00
3.409243478097778279e+02
1.713481569106079121e+02
1.683988157559213397e-02
2.889493876173218041e+02
9.327106392231773258e-04
3.472230515202682568e+02
1.490635527552513508e+02
4.254259587949491106e+02
1.593479401523723471e+00
6.122874974258593284e+02
0.000000000000000000e+00
3.076127887623442803e+02
7.031664726586672742e-03
1.879577301320266985e-02
1.006926769344663151e-02
2.730623993138578953e+02
4.244677815684605449e-03
1.390324548452553586e+02
4.443016556375367827e+02
2.572207189721666509e+02
2.199167065431538504e+02
2.868900211156869773e+02
4.009860710961219183e+02
0.000000000000000000e+00
0.000000000000000000e+00
0.000000000000000000e+00
3.501734838895487201e-02
0.000000000000000000e+00
1.849210604446853097e+02
5.667613444064045325e+02
0.000000000000000000e+00
4.318465326550722239e+01
0.000000000000000000e+00
3.763215634780862473e+01
1.023085685359547199e+02
4.095875524835719830e+02
2.888370638545894735e+02
1.576651926097838441e+02
1.423543569177127495e+02
0.000000000000000000e+00
1.721033551151941385e-02
0.000000000000000000e+00
2.887035327505145688e+02
9.039235835739404396e-03
9.675917785989444297e+00
1.389067581816561585e+02
4.065870793769134934e+02
2.510686809413797960e-02
3.546028090640904225e+02
1.404545284063715940e+02
4.879722747593706063e-05
1.128690092435136165e+02
3.383279600275272401e+02
0.000000000000000000e+00
1.382105897006113366e+02
7.564387068574433215e+02
2.231135696913882373e-04
2.075008622443419881e+02
4.060348622189734469e-01
7.307276170158729656e+01
3.624345477117458358e+02
1.665978031968329970e-02
5.752075954551401082e+02
3.995013994521286804e+02
6.258308572461828589e+02
0.000000000000000000e+00
1.671020830581255439e+02
2.286579379713657545e+02
0.000000000000000000e+00
2.800977329235899635e-02
1.542082971755576182e+00
0.000000000000000000e+00
1.494337999796699137e+02
6.343699040371577667e+02
1.478880933394322583e-01
8.691386933896865230e+01
0.000000000000000000e+00
0.000000000000000000e+00
6.873278706785641816e+02
6.992232343259276561e+00
0.000000000000000000e+00
3.779345178891447832e-01
3.645122693685110861e-03
7.019805373638519086e+01
2.240784562113163680e+00
4.394324411739944480e+02
7.322582245561372674e-03
8.609356072111040703e+00
1.303959884433424747e+02
0.000000000000000000e+00
3.384864443192782346e+02
2.812009935128116922e+01
7.468192702173837461e+02
9.043123467810801230e+02
1.912089819401444970e+02
8.183131243466051501e+02
2.621856669138651341e+01
5.648976653916179202e+02
5.204690302676338032e-01
8.136882324233739894e+01
5.722124284860910848e+02
1.416094325610175702e+02
4.185181890034074570e+01
2.916152270045131445e+02
1.825314016015155971e-02
1.958782338908348208e+02
7.896756544396339450e+01
0.000000000000000000e+00
1.266346323229754489e+01
7.545228527349536307e+02
3.384506909904303029e+02
7.766856953730894020e+01
0.000000000000000000e+00
2.299133435990370344e+02
1.952436356077669544e+01
0.000000000000000000e+00
3.496004736465693554e+02
5.494645404367474839e+02
8.352808359253685921e+02
2.789845443643571343e+02
3.014426986570469467e+02
3.874932314422039781e+02
0.000000000000000000e+00
2.919575639123705990e-04
5.269892034054366944e-03
7.525484045123448595e+02
7.973765437114366250e-01
0.000000000000000000e+00
3.736989838904260263e-05
3.658434973302064463e+02
3.112846976539004800e+02
1.884088979884837158e+02
2.067207531759776771e+02
9.205603116261046637e+01
4.504318299641453649e+01
1.513517636503820540e+02
7.666724687496753177e+01
0.000000000000000000e+00
9.843015193910099470e+02
5.731463947508019601e+02
4.852752888655230663e+02
6.369385676089222237e+00
1.347836608802026319e+02
0.000000000000000000e+00
6.873122247430728748e+02
2.365134588711953256e+02
2.648995347339223372e+02
4.367223425042538310e+01
3.401759185340780505e+02
5.720274003081726732e-01
2.857646395219489932e+02
2.080214522452480708e+01
9.341121289995498955e+02
4.782623585970215530e+00
4.901032359193778802e+02
3.312369137333007529e+02
4.034706728998570924e+01
4.066139566668880434e+00
9.979297861968914773e+00
4.723007197491824627e+02
3.326549582150620381e+02
0.000000000000000000e+00
3.631197407339641359e+02
4.387206557978059891e+02
1.411757425739779359e+00
4.338959254106157459e+02
0.000000000000000000e+00
4.084776404321019641e+02
2.156721621489850236e+02
9.403249966126171557e+02
1.879013529451079370e-02
4.260648037807185062e+01
1.615085079915701272e-02
0.000000000000000000e+00
1.384297773718116176e+01
9.212428223150938289e-02
2.595758705661311422e-02
0.000000000000000000e+00
0.000000000000000000e+00
3.170757179606198406e+00
1.223344599775372927e+02
1.411591559616342433e-03
2.975350882647035178e+02
2.244811652786893874e-01
3.021973475864797365e+02
1.568614733801952070e+02
2.742940542393625947e+01
3.372895732769393362e+02
8.074757204649361597e+01
5.842730858489632306e-02
2.912665779113013400e+02
5.629811600824652373e-02
2.799646410421701148e+02
3.441285493528995403e+02
4.368405313416586466e+01
0.000000000000000000e+00
3.584321180744155413e+02
5.144697476225701394e+01
5.841599143590428866e+02
1.216409549537056161e-03
1.025515145279314844e+01
0.000000000000000000e+00
1.414140555549238343e+02
2.057000831886398373e+02
1.863686420501553802e-04
1.627677308508280589e+02
2.591142839073607958e-04
0.000000000000000000e+00
3.184160297223569636e+00
6.726422055537115057e+02
2.613444604438797669e-01
2.115836860654141658e-04
0.000000000000000000e+00
4.153224180569736745e-03
1.486205175126086715e+02
2.776761978242573718e+02
6.083586904478578106e+01
2.621398254701489350e+02
0.000000000000000000e+00
4.991940832871931910e+00
3.669230905416042687e-01
0.000000000000000000e+00
0.000000000000000000e+00
6.675885919946167313e-04
5.305584824483955799e+02
1.688528673906120603e-01
7.433181917091133073e+02
8.631172898647491820e+02
4.317143944121198729e+02
2.126316687318308585e+00
6.658585681907423393e+00
0.000000000000000000e+00
0.000000000000000000e+00
7.353602358227362856e+02
3.965956269194066408e+01
0.000000000000000000e+00
2.984032584230589009e+02
6.563418266455300909e+00
3.597750054192146081e+02
3.099776841016137041e+02
3.334571455460011435e-04
2.801914416763792559e+01
3.581560766624534153e+01
0.000000000000000000e+00
2.840920112184903701e+01
1.296519325185272464e+01
2.873663201047746725e+02
0.000000000000000000e+00
8.677038456607989758e+01
0.000000000000000000e+00
2.174758033777202462e-02
0.000000000000000000e+00
2.975645034480296047e+01
7.766140790074132383e+02
7.072584434528836255e+02
4.605794533449625305e+00
3.647363356220621744e-02
7.962585778259379765e+01
2.107214131447109082e+02
0.000000000000000000e+00
9.714998206527525326e+00
2.165031405849731527e+02
1.231996449853341069e+01
9.504626708061556428e+02
0.000000000000000000e+00
0.000000000000000000e+00
9.368414850050615428e+01
3.977475431449419716e+02
6.649051395152127952e+01
1.940201277546293568e+02
1.626684295329141605e+01
5.444880573821137659e+02
0.000000000000000000e+00
1.041365992697773461e-02
4.197682577725458941e-01
2.672745640789798358e+02
1.804218773748288811e+02
5.143260896831634454e+02
1.025952548487111073e+02
1.673780057990370267e+02
2.875612676005401909e+02
3.767401528428307529e+02
2.183970402045816286e+02
6.914041574491418487e+02
3.343780181297915988e+02
0.000000000000000000e+00
0.000000000000000000e+00
6.353442399704364618e+01
4.546245643843870553e-03
6.977174314104496802e-03
9.117161984919223414e+02
2.631508361359010451e+02
2.531913614035148328e+02
6.562110818491008468e-02
3.979457747096603271e+02
0.000000000000000000e+00
2.122278958824608708e+02
3.059977252400130965e+02
6.008381890380405821e+02
2.900790169893299435e+02
1.505065512569236496e-03
2.667036340455731375e-02
1.494311526472301352e+02
2.350362840528031228e-03
2.814698101523391642e+02
1.598707827913159463e-01
2.708720020462350249e+02
0.000000000000000000e+00
0.000000000000000000e+00
6.503290204079804626e-01
1.114327685638727194e+00
8.616036051207629498e+01
4.121807293355232105e+02
3.985904503519121818e+02
1.099646862185182101e+02
1.982667300697358996e+02
1.714627257936030338e-02
2.218857977179141585e+02
0.000000000000000000e+00
4.678101483972567394e+02
5.014873821707066526e-03
3.885620019254928792e+01
1.469236760797798247e-01
4.220285521769255865e+01
0.000000000000000000e+00
3.076606874099526294e+02
4.660763191743172911e+02
1.043749032869528435e+02
1.788440048578194990e+02
0.000000000000000000e+00
7.113414561114041135e+02
1.591168880426267265e+02
4.168569638764893170e+02
0.000000000000000000e+00
2.306988412652572151e+02
2.088689715456837348e-01
5.618136980585404672e+02
1.416290233671179885e-02
0.000000000000000000e+00
2.295034631119051483e+02
3.109314623368846355e+02
6.169621314313644689e+00
1.449075505886866608e+02
5.851079809660042486e-03
2.317848838062631835e-03
0.000000000000000000e+00
5.720149987975542416e-03
2.644126815503113903e+02
3.885431468523164540e+02
1.526728446259867367e-04
0.000000000000000000e+00
3.386543663147500126e-03
1.100220238754445523e+00
8.863818892359631718e+00
0.000000000000000000e+00
2.466412362644998524e-03
6.939058573240952654e-03
5.018831573053716966e-01
2.834118106264214703e+02
3.540874267862819806e+02
2.394231977417803137e+02
0.000000000000000000e+00
1.551345105861400953e+02
3.989205107543965596e+02
5.720392273595109600e-01
0.000000000000000000e+00
3.456292443672737136e+00
1.580327243824284551e+02
5.516993321500194725e+02
3.433936399724189670e+01
3.891423280760752945e-03
0.000000000000000000e+00
9.733516483374839368e+01
3.807442947851085933e+02
1.993002043407614394e+02
2.935612716159084812e+02
3.130257747739960905e+02
4.303850733464286371e+00
2.659545253929535988e+02
3.864451452154753497e+01
3.731605176843005438e+02
0.000000000000000000e+00
2.970961487866588868e+02
1.676182368770242022e+02
3.710235152189851533e+02
0.000000000000000000e+00
8.386714607258909382e+02
2.560845028190669268e+02
8.131922125285200309e+01
7.627848933290806599e+02
3.007830290530364437e+01
0.000000000000000000e+00
8.268424679935828473e-04
1.730630339006893905e+02
0.000000000000000000e+00
5.609526209154864773e+02
0.000000000000000000e+00
7.517185504038934596e+01
0.000000000000000000e+00
3.119900955876800595e+02
0.000000000000000000e+00
8.477138649395785706e+02
0.000000000000000000e+00
1.831314716029737326e+02
0.000000000000000000e+00
3.353606280525126238e+01
0.000000000000000000e+00
2.231701791592059578e+02
3.764947948886402855e+02
0.000000000000000000e+00
8.709765180697104370e+00
1.299867206716953660e+00
3.202028679770593271e+02
0.000000000000000000e+00
1.058130784660533266e+02
0.000000000000000000e+00
0.000000000000000000e+00
6.311346116927296634e-02
2.648650900133361574e+02
1.557998364252852639e+02
0.000000000000000000e+00
0.000000000000000000e+00
9.418899969730889499e-01
9.415914399028230131e-01
7.288264408789046911e-03
0.000000000000000000e+00
2.020095246574782948e+02
0.000000000000000000e+00
1.894922155348467641e+02
0.000000000000000000e+00
0.000000000000000000e+00
2.121922216078927548e+01
0.000000000000000000e+00
1.192609267338411428e+03
5.472621892231189777e-01
1.957883852061058292e+02
1.417557069999020314e+02
1.719036479089218559e-03
3.159527650452220087e+02
5.183782544255777225e-02
0.000000000000000000e+00
0.000000000000000000e+00
1.853719774528144058e+02
4.553187633420748170e+02
0.000000000000000000e+00
3.136072641636565876e-04
7.179192169260774081e-01
0.000000000000000000e+00
1.734312690950900446e+02
2.016076930074631832e+02
6.431229426971185603e+01
2.326301120479001128e+01
5.212878815982758792e-04
4.368435192707694341e+02
3.253241999838791685e+02
4.719131250400096178e+02
3.390035489406727720e+02
4.115148678632976953e+02
2.514287133999460764e+02
1.061398296312836919e+03
6.651812311203684658e+02
3.060679235975526449e-02
3.496097579532943200e+02
0.000000000000000000e+00
1.904833683011309276e-03
0.000000000000000000e+00
0.000000000000000000e+00
0.000000000000000000e+00
2.923185110877966508e+02
2.145844005766588971e-04
4.632634214241093673e-04
7.611800348028551237e-04
1.834586649216429430e-02
0.000000000000000000e+00
9.138368257863473332e+01
5.495673043742766752e-03
3.682141329361955651e-02
2.340829352142463904e+02
4.149225962186164018e+00
4.817791680106892045e+02
2.695066059883732281e-04
2.901982473355020034e+02
8.962444878779933788e+01
4.017373697195125715e+00
1.830473223553780926e+01
1.133163220197187099e-02
1.249444436618432235e+02
1.512989617271642481e-02
5.103225842981374605e+00
0.000000000000000000e+00
0.000000000000000000e+00
2.606514918741595466e+02
1.299933900362760519e-01
1.478991835983832992e+00
3.340070746540733353e+02
4.880431763931482436e+01
1.915421077126666205e+02
1.455847270408414147e+02
6.900290245626820251e+02
2.757397778627712626e-02
5.058301201250288841e+02
3.057269094086655613e-03
5.671957173155467435e-05
0.000000000000000000e+00
6.184437413801789489e+02
1.181557659513110189e-02
3.008631895550934132e+02
5.034202861024822369e+02
3.809957225304970052e+02
7.757440508942181623e+00
4.457546650564835033e+01
0.000000000000000000e+00
3.995604409887164934e+02
3.165398748307781034e+02
4.204592901846382347e-03
2.622165364449757590e+02
2.563454513169744331e+01
3.261834203488466442e-03
1.830535853903711541e+02
1.618465122232008753e+02
1.552106852108408930e+02
3.758782397142113041e-01
6.578357727368711494e+02
5.378836131262687559e+00
0.000000000000000000e+00
0.000000000000000000e+00
2.987188345039612045e+02
4.587070175897679292e+02
2.811505212092015427e+02
3.818530021999323480e+02
6.653995505949694689e-02
4.427306685511211981e+01
0.000000000000000000e+00
3.393041301635094555e+02
1.382517008454709449e-02
4.855247074490762316e+02
4.705101709745473926e-03
8.485335849711672651e-04
3.924254742159973830e+02
4.672763402933098609e-02
2.710842009426415302e+02
2.444528420659252355e+00
2.733956599637822338e-01
4.768448176605487032e-01
4.056473896540410351e+02
0.000000000000000000e+00
3.792120399935812429e+02
4.693568244103518055e+02
1.571359543655822749e-05
4.484393831793568097e+02
1.001415275954059041e+02
3.939186485869868193e+02
7.067605041011226774e-03
1.233846453553268532e+02
2.077655130280618323e+02
1.191971464871156502e-02
3.430979993731853916e+00
8.095428217377047986e+02
1.587257953776343988e-01
7.722588108705963350e-01
2.826091497561719734e+02
1.280265086728832671e+02
0.000000000000000000e+00
3.327683037678071400e+02
1.352032376615853071e+00
5.106142743345117196e+02
1.030470779784310009e+00
4.320915604097535834e+02
2.504575150874543965e-02
7.528288869463722222e+02
3.640983593342639324e-02
0.000000000000000000e+00
1.994361924016629928e+01
2.974241584386619479e+02
0.000000000000000000e+00
4.253821960664937478e+02
9.287343735904869391e+01
7.276896402720012702e+02
3.023116006949067902e+00
3.063596339408830431e+02
4.701324107358573201e-01
3.008314445112774820e+02
1.720026677298846352e+01
1.554639292327919975e+02
0.000000000000000000e+00
0.000000000000000000e+00
2.293190932785016053e-02
8.698805674343022929e+02
0.000000000000000000e+00
1.246926625922241882e+01
5.712984150914054737e+01
0.000000000000000000e+00
2.779634070425344561e+01
4.335240942324162461e+02
4.751713165333057987e+01
0.000000000000000000e+00
3.668588195912888068e+02
0.000000000000000000e+00
0.000000000000000000e+00
6.950234194169751163e+02
3.373287511960754159e-02
0.000000000000000000e+00
1.540173897165003858e+01
2.317974338552631686e+00
0.000000000000000000e+00
2.078461433742631925e+02
2.418468298732478274e+02
3.552978742416001111e-03
1.288706372515323849e-03
0.000000000000000000e+00
4.442380293112364598e+02
3.155601096073041845e+01
0.000000000000000000e+00
5.716714711851976771e-01
3.763695022354340836e+00
2.713054152536643199e-02
4.245290996412222739e+02
2.486006619352565838e+00
7.642035220237630710e+00
0.000000000000000000e+00
5.257508951879572123e+02
0.000000000000000000e+00
2.692846831799933921e-02
5.778502213865977843e+00
1.192071996339305389e-03
5.338337589877482969e+02
2.489135410731250033e+02
0.000000000000000000e+00
1.460082433997201071e-02
4.286908854977809824e+02
0.000000000000000000e+00
1.333988433962986448e+02
9.575483442159082870e-04
8.511648707179122084e+02
3.251646530529228585e-01
2.060481880442237923e+02
5.293908683015615679e+02
2.423650299610926950e+01
3.759247357309504878e+02
5.026515888152061962e+02
6.456609891378320754e+02
1.086585995240252518e-02
8.429480929116834886e+01
2.292382352857202932e+01
5.180686114203415273e-03
2.493893146470328759e+01
8.277039180829890483e+02
0.000000000000000000e+00
0.000000000000000000e+00
6.164397323243519189e+00
5.057460164098300481e+01
2.144784550256417344e+00
1.498170577532320080e-01
1.913568632782698273e+02
1.042418868983930116e-02
1.752499612052816502e+01
5.937926823113230057e+02
9.747917620494263247e+02
2.824530575286190128e+02
1.428561132048590011e-02
3.939261189475472325e+00
5.191928346415807027e+02
1.094134726331503771e+01
0.000000000000000000e+00
5.270694837178346859e-03
2.941552300789184848e-03
3.003358283131092321e+02
1.236938068112092975e-02
8.728877563902640304e+02
6.268841561256977890e+00
0.000000000000000000e+00
0.000000000000000000e+00
4.188860939982987475e+02
2.008173114118605440e-02
6.421597177008742108e-04
0.000000000000000000e+00
0.000000000000000000e+00
5.856829435435530196e-02
0.000000000000000000e+00
2.309523075713513265e+02
3.295829708909180783e-02
3.202628717888728147e+02
1.068319081558002352e+02
2.111528577033822884e+01
1.183714094102470398e+02
6.382007507518211753e+01
0.000000000000000000e+00
2.656144336566511832e+00
3.110512906991061755e+02
3.603420009994807161e-01
2.037389325771074198e+02
1.675814760990760703e+02
1.486620197547382283e+01
6.924248718933085911e+01
0.000000000000000000e+00
1.054987183740862255e-01
4.131247589322128988e+00
2.933646980021187289e-02
0.000000000000000000e+00
0.000000000000000000e+00
2.553555975430832348e-02
3.929582764001678470e+02
2.561322628135797586e-01
6.651901472241661395e+00
6.041327037931143451e-03
1.451580366627070427e-02
0.000000000000000000e+00
2.992618646268965676e+02
5.110204061071273145e+02
0.000000000000000000e+00
1.116549851791933179e+03
2.069817893327125660e+02
7.221553502182359807e+02
9.550137989913306313e+00
4.167758115210745018e+02
2.763579696784290718e+02
1.720076366319745587e+00
7.473834969259769423e+01
4.471906232117461855e-03
4.240609821426915005e+02
0.000000000000000000e+00
2.454482414384528077e+00
1.044143520000488934e+01
7.052748227826670018e+02
0.000000000000000000e+00
0.000000000000000000e+00
2.012050613600103316e-02
1.006626258920278261e+01
4.122754428162807727e+01
1.981750966584513947e+02
7.789142328351774225e+00
4.940232266982036435e-01
1.999587232658086009e+02
5.280632730638501471e-01
4.931267208014844527e-01
6.852088545856533131e+01
5.115663474352913909e+01
0.000000000000000000e+00
7.985163605539469245e-02
6.064956282092469862e-03
0.000000000000000000e+00
1.972822106545208953e+01
5.219634888897417113e+02
3.906067166753927467e+01
1.115664942113880675e+00
3.788092959030109341e+00
0.000000000000000000e+00
1.619350261947260394e+00
1.318262771961598787e+02
4.240387379533785861e+02
4.547812960590817966e+02
4.839975867042085156e+02
1.636670179210341018e+02
3.709352239573490806e+02
2.361402868176811296e+02
2.509949531424354063e+02
2.002882645272620152e+02
4.848528672504471615e+02
6.101137194558514665e-03
1.233332062949558150e+02
2.234056884917664263e+02
7.510568228621394837e-02
1.355984075544255916e+02
1.520134077095393332e-02
2.636513311124872416e+02
0.000000000000000000e+00
7.152750852212194559e+02
2.725374093417485710e+02
0.000000000000000000e+00
2.660265065555903874e+01
0.000000000000000000e+00
1.588343168546998072e+02
3.480372281432211139e+02
0.000000000000000000e+00
1.411109531996771409e+02
2.652208278195757885e+02
2.322330349481489407e+02
1.370484795959782502e+02
5.841434596332018871e-03
3.148077779900630730e+02
2.300929757173435917e+02
0.000000000000000000e+00
1.772961765524087525e+02
1.063725626348968234e+02
0.000000000000000000e+00
6.255359445028753698e-03
2.677936344235298805e-02
4.089299829269292559e+02
3.152207145256397780e+02
2.230007825758662660e-02
1.540170522892902799e-03
2.429356062879377873e+02
2.574633220370743629e+02
8.610603968121217889e-05
4.092566875558987931e+02
1.409507644680729407e-02
1.092466596772283083e+02
0.000000000000000000e+00
0.000000000000000000e+00
2.140908911942459980e+01
8.926757769095274853e+01
0.000000000000000000e+00
1.702424103564225177e+01
9.450622531701810658e+02
1.149278268467241304e+02
2.585348111988423625e+01
3.844560728473879863e+02
0.000000000000000000e+00
1.284146002946727378e+02
0.000000000000000000e+00
0.000000000000000000e+00
0.000000000000000000e+00
3.051716958529141266e+02
2.331324361182395499e+00
7.190296450935420580e+01
5.121923038845126257e+02
3.179308157050399331e+01
1.246898087864975651e+03
3.668093097421660786e+01
2.767278856277698651e+02
1.141313606591726543e-05
1.325277908938005851e+02
4.942971371738168074e+01
9.024814811464662578e-02
5.649011875197173822e+02
1.544270991882512760e+02
4.062129651254507507e+02
2.716621706596810126e-01
4.141359870868655868e+00
8.732581607429068526e-03
1.411289006723563055e+01
6.215888956503476948e+02
5.099490711101680063e+02
5.889788259210035903e+01
5.858336049655916895e+02
3.198536925723602735e+02
0.000000000000000000e+00
2.366968881045977469e+02
2.890191317768767476e+02
1.239919122972060450e+03
6.398370452780000051e+01
5.127137745967047522e+01
2.593213579028088134e+02
0.000000000000000000e+00
3.348612839341512881e+02
0.000000000000000000e+00
1.402824069824418984e+02
4.746366693907475565e+02
2.854195053863804787e+02
1.275480767419594841e+01
1.023131985891722051e+00
6.973881670448464547e+02
3.700973851873641252e+01
0.000000000000000000e+00
4.494041293444751091e+02
6.089279665917274542e+02
5.197475812899938319e+02
9.930870893353124984e+02
0.000000000000000000e+00
2.508301086560095428e+02
6.769701151060872917e+02
1.911791347592384227e+00
1.958840118444640552e+02
1.489335934738989509e-01
1.537815619505611062e-02
5.248906989354509278e+01
1.893119249893969069e+01
2.820309507693964310e-02
5.728052818070864305e+02
7.544630683391005732e+02
2.314169954406679039e+02
8.348349368025083095e+02
4.578264869989652652e+02
0.000000000000000000e+00
4.965356069726111627e+02
2.169400868102382986e-04
0.000000000000000000e+00
2.077156475243100431e+02
6.856136017431708751e+01
4.867064072401263957e+02
0.000000000000000000e+00
5.507943617762065287e+02
2.507374835706286262e+02
3.682209664229958435e+01
7.306146185132092796e+02
5.225948948856965899e+02
1.875941361834776444e-01
2.760755218223494012e+02
6.071773169125660843e+02
0.000000000000000000e+00
1.652012015652872492e+02
6.748264555892092176e+02
1.901785606701195519e+01
2.529654217618372058e+02
0.000000000000000000e+00
4.749082733658723328e+02
3.404730722788370940e+02
2.224525148926126059e-02
0.000000000000000000e+00
0.000000000000000000e+00
3.716321205982239917e+02
2.566816806422138484e+02
9.436486045814271861e-01
8.890184260382238968e-04
2.008850069915024683e-03
4.077039209572831169e+02
1.316509925254648294e+02
0.000000000000000000e+00
3.691432581093976069e+02
6.170215966760928851e-03
1.422096069178223559e+02
6.910351309924456231e-04
2.209724522512260023e+02
9.880696642472494920e-03
0.000000000000000000e+00
0.000000000000000000e+00
0.000000000000000000e+00
2.467805476098875204e+02
2.316370839900627630e+02
5.403161072659035113e-03
2.059709325659408194e-04
7.509304771097957882e+02
0.000000000000000000e+00
1.794093871915204610e-03
3.407594502619759851e+02
5.099365515832234408e+00
1.458601566728390808e-01
3.934441192664961591e+02
5.864325617789291982e+02
9.427789812853008300e+01
2.379407797721796669e+02
7.656036059497386905e-05
2.038764396991610397e+02
1.305055049724614378e+02
1.651635810496373438e+02
5.714260061895402032e+01
8.667026413109852001e+02
3.533779216151743867e+02
1.176056175918347861e+02
7.463342605580692180e+02
2.595165427406755612e+02
5.167325019639976063e+02
3.190111775893454960e-01
5.172119401788222603e+02
2.708008658210304120e-01
4.875046783570724074e+02
2.719756528553261319e+02
5.471039414555889380e+00
0.000000000000000000e+00
1.780389773784919072e+01
6.470131249370751902e+02
5.037993362363990535e-04
5.702383133311741403e+01
2.292069253555516911e-02
1.110896902877356780e+02
2.924748410579880442e-02
7.202833841279243643e+00
6.614043726528961997e+00
1.534820215845682583e+02
0.000000000000000000e+00
6.401717845824350661e+00
3.064433737554281123e+01
3.012278294827411855e+02
4.347447554144309834e+02
0.000000000000000000e+00
1.454653151924958898e+01
1.975799907386319276e+01
1.021902691838931432e+01
5.435320304917696603e+02
3.879205691220703329e+02
5.170321954843531103e+02
1.668546512287319672e+01
0.000000000000000000e+00
4.469658734260520561e+01
4.939594628223859445e+02
4.653668980768089547e+00
3.734383177539379872e-03
5.716052313844558057e+02
0.000000000000000000e+00
0.000000000000000000e+00
1.023610864810962084e+01
0.000000000000000000e+00
2.425946804931299425e+02
4.236441879016638268e+02
4.371892861991000245e+01
1.337877767176111066e+00
1.749940994290227536e+02
6.130202238869840448e-02
2.601429652695514960e+02
2.302889249258441282e+02
1.687452275211399524e+02
3.083228403222166207e+02
1.322752333982180506e+00
0.000000000000000000e+00
4.700631659761710353e+02
4.266875661502126604e+02
8.612330115633085370e+02
2.739483715638925787e+02
7.732684015843462433e+00
0.000000000000000000e+00
3.337171616766276827e-02
4.129538522283836954e+01
0.000000000000000000e+00
3.364025820007388035e-03
4.118501899465627503e+02
1.570865833930846361e-02
1.421243648030668716e+01
0.000000000000000000e+00
0.000000000000000000e+00
1.369889318251808277e+02
7.875543739166460000e+02
3.110324159968059998e+00
5.393076565909723286e+02
3.709361475121113472e+02
0.000000000000000000e+00
4.686989458546619858e-03
4.146858386440726463e+02
2.321640978304451500e-02
3.578614831290905158e+02
2.278570374481205363e+02
4.230111646093064337e+01
3.259428742782844975e-04
1.003397709913769802e+02
4.346084292665182147e+01
5.833620793850966990e+00
1.216927965557168013e-02
1.716493426029047100e+02
3.474218811010359786e+02
2.954692680443572056e-02
0.000000000000000000e+00
1.695253432221761614e+01
0.000000000000000000e+00
2.196875918234582628e+02
7.405896971442869514e+00
1.841549402193776359e+02
7.136811943979638750e-02
3.174684071907130090e-02
3.669252696432522498e+02
3.559698539584710275e-03
0.000000000000000000e+00
6.286937422046321444e+02
2.390342972925281515e+02
0.000000000000000000e+00
1.722885622450122867e+02
2.592613734512270867e+02
5.305851092205557507e+02
1.429618250625935048e+02
3.986527228960766251e+02
3.816595996601890306e-02
6.272777319813028498e+02
2.551238595890025920e+02
2.806561698795121060e+02
8.265395292073659306e+00
5.051383489262661897e+02
1.578269466295751613e+02
1.397459873031039024e+02
3.828385512926615775e+02
0.000000000000000000e+00
1.050029787852509067e+01
4.830559294081466533e+02
2.289116300463466935e-03
1.396789180822451897e+02
3.300857357062341180e+02
0.000000000000000000e+00
6.142585006027731254e+01
1.108957198786697296e+00
1.994901117228438636e+02
8.252636684192111716e+02
1.814106442097909877e+01
3.744957645494651821e+00
1.041661799106805404e+02
1.628830461278993766e+02
8.232598041169694625e+02
1.253752949548924889e+01
2.329228012873500120e+02
4.685449975459049199e+01
5.906554650191536382e+01
2.889785900173592381e+02
6.080683873569796560e+01
2.822311738555072225e-02
2.941046573934727348e+02
2.115203604356793221e+02
3.973994443198236581e-02
9.300808181986215004e+02
8.404352363005074267e-02
1.570892816427658829e+02
0.000000000000000000e+00
5.108336917292035650e+02
3.461763097540825811e+02
1.009874998005866852e-02
5.355845133555702660e+02
2.145996612358431435e+02
2.362584494829206392e+02
3.282448228899737614e+02
1.832301618187556969e+01
4.695911161994445138e+02
4.729701532861507740e-04
2.788211741237317938e+02
5.942076136678224429e+02
0.000000000000000000e+00
5.619717234410927631e+02
0.000000000000000000e+00
1.021036318173962863e-02
4.231784653355135788e+02
0.000000000000000000e+00
4.395438198705960531e+02
1.342347205087208408e+02
1.118254981263818024e+02
8.029696128854992594e+02
1.022013122780481353e+03
2.256520518873003311e+02
3.311907030110886581e+02
9.432353593128934222e+01
1.118448171280761443e+02
5.995452543068324758e-02
1.267725787251037843e+02
1.535475305178279470e-03
6.188896116867681485e-01
5.019270690672783530e+00
0.000000000000000000e+00
6.393720053392826230e+01
1.949254251012462476e+02
2.577744746635290198e+02
8.767805963598220842e+01
0.000000000000000000e+00
2.526701032561362026e-01
3.036763244541363065e+02
4.053632305685822246e+01
4.483562499854087946e+00
0.000000000000000000e+00
2.590581585986910795e+01
2.587803914371760925e+02
1.269763064445214980e+02
1.118381848110861464e-02
3.279829976245308387e+01
5.341115195165912155e+02
0.000000000000000000e+00
1.707784985814215020e+02
3.984192012139828876e+01
7.687447643009363674e+02
2.408749491566997570e-03
6.057498333633670740e-03
0.000000000000000000e+00
6.956489289731138115e-02
9.371286854395297041e+02
6.288885319503606297e+02
1.232874827380214811e+00
5.885460699531106510e-01
5.783133939592514707e+02
4.784397746858302298e+02
2.162818034798874578e+01
2.486095223335723858e+02
8.085113547238620413e-01
5.580276010856323410e+02
2.846909422854082550e+00
1.691062487266248955e-03
6.224214635797143715e-03
5.824062315768969711e+02
2.988885120571467269e+01
3.435883386533532189e+02
2.758801340605713648e+01
3.079700370251885033e+02
6.770185357229951961e-03
0.000000000000000000e+00
9.097622295306528883e-03
3.264038577293832759e+02
3.883085223540547304e+02
4.547513837838778272e+02
6.704269906200353262e+02
2.527206212209875513e+00
3.211722218773503528e+02
8.875629758353653642e-02
3.032341625730623491e+02
8.482021873496705666e+01
3.229905563610373065e+02
6.886350763990776613e+02
4.843115637733717449e+02
5.453564699018896533e+01
4.018988888172316365e+02
2.644336682222635931e-02
8.288492658120958367e+01
4.306940614362247288e+02
1.945556554292124929e+02
2.114207040009206651e+02
1.956536050085560419e+02
5.914880948112111980e+01
8.872924430647799454e+00
0.000000000000000000e+00
2.534964822421897281e+02
4.825762487534746015e-01
0.000000000000000000e+00
0.000000000000000000e+00
2.728023116292207106e+01
3.294051719305571169e+02
0.000000000000000000e+00
1.066637910731516001e+02
1.508102662124656490e+02
2.842926567172980299e+02
1.726984735651058500e+01
2.290762793279554455e+00
