1.995343625545501709e+00
3.485921585559843550e+00
2.110823583602904119e+00
7.279576629400251742e-01
0.000000000000000000e+00
0.000000000000000000e+00
2.640963399410247714e+00
2.484569501876831232e+00
1.762814089655875716e+00
7.157248586416244951e-01
1.668944346904754905e+00
1.587803244590759055e+00
0.000000000000000000e+00
4.314153647422790172e+00
2.802703821659087602e+00
0.000000000000000000e+00
5.866858929395675215e-01
5.413957148790359275e-01
1.609491187334060935e+00
3.431201589107514049e+00
2.681900119781495118e+00
2.770402058959006708e-02
5.068193721771239169e+00
3.656485415995121280e-02
2.629473938213777322e-05
0.000000000000000000e+00
0.000000000000000000e+00
6.886030337773266403e-03
1.821587676431591062e-06
2.615723288059234708e+00
0.000000000000000000e+00
1.378032826323760077e-04
1.074833070742897516e-03
0.000000000000000000e+00
2.925287342071532848e+00
5.066787767410277254e+00
3.789536166191100452e+00
1.343435418605804177e+00
1.385750788450241355e+00
8.271139599382877627e-02
1.358088326454164108e+00
3.120486295223234841e+00
0.000000000000000000e+00
1.820782875938676436e-06
7.030082058906555353e+00
1.447745952010153658e+00
3.150540167093277777e+00
1.202623796463011541e+00
6.035723090171812188e+00
0.000000000000000000e+00
1.600333750247955877e-01
1.247680413722993098e+00
2.895475053787232245e+00
0.000000000000000000e+00
1.102252188324928550e+00
4.075233295559884117e-01
0.000000000000000000e+00
2.797577992081642373e-01
3.834051597118378396e+00
9.680226039886468570e+00
4.295697510769968916e-06
3.528485547751187834e-01
0.000000000000000000e+00
0.000000000000000000e+00
1.115021371841430575e+00
4.650372564792633057e-01
3.102455359697342541e+00
9.723316383361817472e+00
1.190875038504599859e+00
1.383863057941198682e-01
3.172396491208928366e-05
8.658895745873455008e-01
1.631492939591407509e+00
9.230839824676516869e+00
1.780298079550266310e+00
3.592274226248264313e-01
1.050930130481719349e+00
2.647648941725492255e-01
9.758305788040158024e-01
2.916863476857541396e-02
0.000000000000000000e+00
0.000000000000000000e+00
1.678372927010058913e-01
3.380682284478098067e-03
1.813649594783781849e+00
3.174197778105735668e-01
0.000000000000000000e+00
1.657521754503250566e-01
3.082247829437255504e+00
3.207770824432374379e+00
5.315049342868863990e-08
8.833792185783384099e+00
1.838657895859795958e-04
0.000000000000000000e+00
1.566005034372211779e-01
3.042184162139892400e+00
0.000000000000000000e+00
1.134644276462495362e-02
3.631162786483764116e+00
4.698786124635034999e-08
4.964755016565322698e+00
3.576861512660980402e+00
3.603560841083525812e+00
2.454973185062409691e+00
0.000000000000000000e+00
2.600223100185394820e+00
0.000000000000000000e+00
7.630695924162864130e-02
4.448946565389632485e-02
2.425897546112537329e-01
1.109237360954284490e+00
0.000000000000000000e+00
4.020685772411524903e-03
2.998882567044347698e-03
0.000000000000000000e+00
0.000000000000000000e+00
5.662597441673277388e+00
5.080728996631478155e-07
1.762237749062479193e-03
3.102144762873649819e-01
0.000000000000000000e+00
3.612050127983093439e+00
3.054342550039290671e+00
0.000000000000000000e+00
0.000000000000000000e+00
1.597175440110731436e-04
2.181556010246275434e+00
8.239306504838170286e-02
1.375322949886322199e+00
3.867900841214576990e-06
1.858826901298016960e-03
7.399484682083129705e+00
0.000000000000000000e+00
2.867722498194780092e-04
0.000000000000000000e+00
0.000000000000000000e+00
3.310554008706390216e-09
2.838973903656007103e+00
0.000000000000000000e+00
1.105577558279038364e+00
9.741692505776886057e-02
6.606611750612501597e-05
0.000000000000000000e+00
4.780908107757568248e-01
1.433739429712295621e+00
5.150829479098320007e-01
0.000000000000000000e+00
1.389344472438097111e-01
6.447408995882141793e-05
0.000000000000000000e+00
9.548641353845601643e-01
1.579225209355353821e+00
2.934483259916306874e+00
8.285274982452392578e+00
3.036028409004212225e+00
0.000000000000000000e+00
1.521703392267226840e-01
0.000000000000000000e+00
3.307864117622375311e+00
0.000000000000000000e+00
7.196942955255508645e-01
3.890240037441253573e+00
3.506126081943512052e+00
2.669879430532456244e+00
0.000000000000000000e+00
2.361467099189757501e+00
6.356875658035278320e+00
0.000000000000000000e+00
1.029200516641139290e-01
1.106966662406921653e+00
1.643905651604882488e-07
8.318598374724389677e-01
8.271669456735252640e-03
5.691236293315887096e+00
1.430372980237006875e+00
8.095586276054381969e+00
4.325241005420684459e+00
5.877319097518920898e+00
7.794599920511244839e-01
7.604341924190521240e+00
7.644651733338830857e-01
4.424800772540038452e-04
1.190683346986771030e+00
5.922314816713333485e+00
0.000000000000000000e+00
0.000000000000000000e+00
1.204564649611711558e-01
8.149136638641357067e+00
0.000000000000000000e+00
4.309765112400055109e+00
6.592043459415434237e-01
1.017552427947520863e-02
2.574329608678817660e+00
7.653322517871856412e-02
1.616326606273650324e+00
2.333246713876724776e+00
0.000000000000000000e+00
7.238497303774238919e-08
9.610319077968592083e-01
0.000000000000000000e+00
1.325945386886595756e+01
1.217115643620490406e+00
2.122929102182388839e+00
2.208692296335357675e-04
1.460570859909057662e+00
4.587468147277831143e+00
1.322819775342942261e+00
0.000000000000000000e+00
2.747506096959114186e-01
2.282647579908370972e+00
1.024940124154091636e+00
2.389035952091217219e+00
6.404603528976439364e+00
4.434059683262603764e-05
9.909443944692618578e-01
2.553653411567210485e-01
5.489676166325806184e-02
1.169737258553504189e+00
6.099743396043777466e-01
0.000000000000000000e+00
1.025721496343613204e+00
3.385601150989533181e+00
0.000000000000000000e+00
2.834614181518555043e+00
7.470656535588204861e-03
0.000000000000000000e+00
2.915151700377464628e-01
6.487373518943786443e+00
4.908474707603454945e+00
1.224370741844176713e+00
9.181434512138366699e-01
3.618749514222144859e-01
3.175058579444884010e+00
1.156735000014304848e+00
5.519171327352523360e-01
0.000000000000000000e+00
4.964053416252136586e+00
7.983256721496582387e+00
1.041586005687713090e+00
0.000000000000000000e+00
2.989669573307038863e+00
3.167477682232856528e-01
1.232053452730178966e+00
0.000000000000000000e+00
1.654666155576705266e+00
3.621002510190009238e-02
1.555684208869934526e+00
8.098305678367612614e+00
5.023633921518921505e-03
4.386721968650817982e-01
6.311372518539429266e-02
3.864858275651931852e+00
0.000000000000000000e+00
8.605659432709215073e-01
2.769322047242894118e-04
3.595813190937042769e+00
0.000000000000000000e+00
0.000000000000000000e+00
9.209909039782356944e-04
1.087872675061225980e+00
1.644904102431608752e-03
2.450358763337134871e-01
4.216016834974287697e+00
5.401892258305450647e-06
2.875948798656464689e+00
0.000000000000000000e+00
0.000000000000000000e+00
4.539299890398980075e-01
0.000000000000000000e+00
6.604935646057128906e+00
1.351212602457962768e-04
1.916088787838817614e-02
9.047215222381053404e-04
2.659844803810119007e+00
4.085513532161712646e+00
2.419229745864867276e+00
2.931172418594360618e+00
0.000000000000000000e+00
4.204433488845825018e+00
5.741053223609924316e+00
2.501593577861786155e+00
0.000000000000000000e+00
4.159899130463600159e-01
1.252296352386474743e+00
2.683514392375945246e+00
0.000000000000000000e+00
0.000000000000000000e+00
6.691136248409748633e-02
3.463074583560228625e-02
1.014399804174899444e-01
2.312003850936890093e+00
9.039246407337482234e-03
7.186062261462211609e-02
1.593900918960570845e+00
0.000000000000000000e+00
0.000000000000000000e+00
0.000000000000000000e+00
4.808581888675687921e+00
6.662048816680909979e+00
3.259682402014732472e-01
2.267485295305959447e-04
6.456040341618063225e-06
8.057089018821717019e+00
0.000000000000000000e+00
5.861375838518142478e-01
3.064185520634055138e-02
3.396810305118561413e+00
2.275849648867733397e-04
5.877008568495512356e-03
1.028573713028891389e-05
8.732316523790359941e-01
7.542664676904677901e-01
1.363858252763746837e+00
2.535737566649912678e-01
1.129840571433305962e-01
7.150139659643173218e-01
6.800144731998443159e-01
5.510940504074096857e+00
9.399547886848443667e+00
1.629392458125948628e-02
2.284908103942872248e+00
2.235838393971789520e-04
4.323625064444056368e-05
2.955574595928191606e+00
2.032102718949317932e+00
3.908342909812927424e+00
7.626603746414185814e+00
2.232903092633931885e-01
3.676122635602950828e-01
9.783077979087831721e+00
0.000000000000000000e+00
9.751883558928964302e-02
1.928433449938894012e-02
3.506270080804825828e-01
9.882882624864570698e-01
8.574233150482177379e+00
0.000000000000000000e+00
1.460207022726534853e-01
7.784883213043213068e+00
6.700201117992404143e+00
2.161406920109243931e-07
2.029145245254039498e+00
9.125703454017637384e-01
3.526600074768065696e+00
2.933890679851174424e-02
5.587744042277337231e-01
5.802549338340758922e+00
4.148920154571531960e+00
8.908637553453446767e-01
0.000000000000000000e+00
1.756976117193698173e+00
5.373760686779861220e-05
6.244407643407612129e-07
2.379771947860718773e-01
1.154678283631800806e+00
1.872143346071241776e+00
0.000000000000000000e+00
2.861928248405456454e+00
7.171466886997223122e-01
4.718157651950606230e-06
3.429030013084410911e+00
9.661113936454055612e-03
2.001600280404091770e+00
4.764894783496855801e-01
4.699832570622676205e-04
1.485511034727096114e+00
0.000000000000000000e+00
2.847690484486520968e-05
2.942591561004519532e-02
3.499593710899352228e+00
7.479970288276673429e+00
3.069973683357237526e+00
7.490042018890378017e+00
1.171256476640701427e+00
3.018774151802063432e+00
2.415306377410888050e+00
1.626999747753143044e+00
2.741222244501115846e+00
2.929381862282752214e-01
6.340268775820732117e-01
2.339906537532806752e+00
2.776054918766023061e+00
2.147946220636367531e+00
1.278084319829941418e+00
0.000000000000000000e+00
5.507508212758694115e-05
0.000000000000000000e+00
9.172801971435542989e-02
7.201441735029220359e-01
2.792048306332617993e-07
9.507450968027114646e-01
4.905833840370177334e-01
1.087257041945122657e-05
1.964164379239081271e+00
1.426219362020493486e+00
4.391762707382440567e-02
0.000000000000000000e+00
1.382181823253631148e+00
3.805064454674720875e-01
5.026686981320380720e-01
5.989706456661224587e-01
7.290656435543497813e-06
1.596006198087707552e-03
3.741972571611404508e+00
1.010309344451343943e-06
2.426445209980010009e+00
3.295617565512657388e-01
1.225072401575743458e-02
1.611490619182586626e+00
0.000000000000000000e+00
0.000000000000000000e+00
1.156028300641764237e-06
2.369934488087892602e-02
2.545309644192456783e-02
2.414878809452057240e+00
1.214061945676803367e+00
3.698611521720886142e+00
1.240771265029907866e+01
2.545466736592060844e-06
1.003968095779419656e+01
2.876090127229688598e+00
2.757946550846098521e+00
1.954043757915496782e+00
6.911264449627196882e-08
1.512303926531899048e-08
2.394795510917901299e-02
2.816530954837798806e+00
2.371701115369796664e+00
4.372043699026108010e-01
1.012292375564575408e+01
1.132955684661865092e+01
8.964866111682565744e-07
1.549818918108940291e-01
4.587981343269348367e-01
5.352214351296424866e-02
4.755202025990000773e-04
0.000000000000000000e+00
0.000000000000000000e+00
1.593434982001780686e-01
1.008411904876992860e-05
3.682494342327117809e-01
6.721710107626678047e-07
2.121958988904951493e+00
3.271473911404608970e+00
1.014078210294247162e+00
4.923600163310765804e-02
6.549786895513534102e-01
2.814919376373290483e+00
7.903506028652192761e+00
4.491926050186156871e+00
1.588877755403518943e+00
6.059066834859549652e-03
0.000000000000000000e+00
4.004075013101099922e-01
1.629232138395308338e+00
3.050599884986878063e+00
1.066934698820114491e+00
5.321343535184860585e+00
2.953819608688353249e+00
2.249245196580887729e+00
3.794512617588042591e+00
0.000000000000000000e+00
0.000000000000000000e+00
0.000000000000000000e+00
1.763011986017226418e+00
6.636979579925537109e+00
4.886958509683608787e-01
0.000000000000000000e+00
2.170915263891219915e+00
5.511574584245683361e+00
7.555153727531433994e-01
0.000000000000000000e+00
5.579794377088547197e-01
5.389530038833617809e+00
2.018546322360635289e-02
5.212169051170349121e+00
4.235199823975562827e-01
5.860892087221145630e-01
2.595264828205108731e+00
4.848574385046958146e-01
0.000000000000000000e+00
3.964346969127655829e+00
3.005690183490515241e-02
1.573510281741619388e-01
4.022359418869017489e+00
3.044530510902404785e+00
2.788151061534882125e+00
4.731320321559907782e+00
1.252931368350983288e+00
2.477821183204651057e+00
9.121447764337065056e-02
9.685668945312497780e-01
5.759076476097105823e-01
2.800353214144706837e-01
1.713031089305877774e+00
4.465375274419784435e-01
1.105724513530731645e+00
1.982359254360199330e+00
3.156455659866332919e+00
0.000000000000000000e+00
6.684454578161242111e+00
1.796336583793162467e-01
2.886691004037857500e+00
9.204593466165538092e-05
1.454184234142303911e+00
1.568454998731613204e+00
3.129199451208115157e+00
1.337278068065643089e+00
4.795963436365127674e-01
2.374762499332427446e+00
5.772844933744636093e-05
2.578527897596359253e+00
2.029915148019790561e+00
3.250425597652793069e-02
3.128922879695891446e+00
0.000000000000000000e+00
0.000000000000000000e+00
9.358234465122222678e-01
3.769814420957118360e-03
2.588694536685943071e+00
3.898163745179772550e-03
2.370432596653699805e-02
1.082258587121031918e-03
7.742134183645248413e-01
3.583428204059599942e-01
1.892514657974242454e+00
9.331935822963715044e-01
0.000000000000000000e+00
3.801558532359195077e-05
1.565332132577895496e+00
9.155521005392074363e-01
1.070896472083404920e-03
2.658030414581298295e+00
0.000000000000000000e+00
9.937403916637777849e-07
6.360105109214782004e+00
0.000000000000000000e+00
6.651700511574746288e-01
1.739203119277954457e+00
1.600507462024689520e+00
1.378627511439844142e-03
1.206203740835189553e+00
0.000000000000000000e+00
1.715590807795525308e+00
5.486751961708069558e+00
0.000000000000000000e+00
1.741324728354811530e-02
2.030899658799170560e+00
6.210098746350923797e-07
1.166549775462045212e-05
2.621244755118822869e-06
2.945740520954133856e+00
9.035154664888980780e-03
5.039588063955307007e-01
6.156493651866912664e+00
6.698871351545677456e-04
1.985204805322361974e-08
6.056874409317970498e-01
1.976369798183441162e+00
0.000000000000000000e+00
8.049180531501772151e+00
0.000000000000000000e+00
1.119182747602462946e+00
1.595660924067487127e-05
0.000000000000000000e+00
1.483621681109071125e-02
0.000000000000000000e+00
1.288948249816895153e+00
0.000000000000000000e+00
4.678137540817260742e+00
3.043487246031873145e-04
8.194995552301407304e-01
3.099070882797241744e+00
1.251162391155959119e-01
9.348037034273151136e-01
0.000000000000000000e+00
4.056961894035339355e+00
9.314134903252122358e-03
1.706050425767899004e+00
1.284147397200285855e-05
0.000000000000000000e+00
4.433176398277282715e+00
7.040160322189331410e+00
7.340713962912559509e-02
0.000000000000000000e+00
4.606860828399657493e+00
0.000000000000000000e+00
0.000000000000000000e+00
1.873859930038452193e+00
0.000000000000000000e+00
1.478639450669288591e+00
0.000000000000000000e+00
8.713029936188830408e-04
1.167543075978755562e-01
8.838666677474975586e+00
9.060688950121403851e-02
5.198183703422546209e+00
9.599049359560009043e-01
4.624539379030465081e-01
1.728826445341110185e+00
0.000000000000000000e+00
5.804331647232175220e-03
0.000000000000000000e+00
2.535031437873839444e+00
9.577372026443480735e+00
3.164529725909233093e-01
4.493353232741356673e-01
2.345093868427739826e-07
2.643379342555999933e+00
1.321449154056608330e-03
3.601393386721610246e-01
1.936722099781037043e+00
7.870178073644639172e-01
0.000000000000000000e+00
2.606334069371223805e+00
3.835561025142669056e+00
5.717512416839599432e+00
4.598607504367827836e+00
8.679160499572754262e+00
4.577039625530689466e-07
1.266886370103746965e-05
1.476262629032133677e+00
3.051806673407555515e-01
1.185937654972075039e+00
2.247052502632141291e+00
9.929192600566231357e-07
5.492711186408996582e+00
1.538124316930771007e+00
3.291241300106048762e+00
5.882471144199370450e-01
3.239278841018675248e+00
3.633662092685698841e+00
2.784945440292358398e+01
2.610057045239953973e-03
8.484556951771088243e-06
5.373175644874573109e+00
3.611525928135961186e-04
4.065684759616852162e+00
0.000000000000000000e+00
0.000000000000000000e+00
2.721358275413512384e+00
1.028267753124237460e+00
6.275029587745665438e+00
1.044755313545465691e-01
5.728992640972139228e+00
2.603973102569580700e+00
1.099366358175757124e-04
1.566631145775319034e-01
1.575544089078902754e+00
4.514142966270448198e+00
5.621661170152946006e-04
3.214162915945054100e-01
2.364152413606643410e+00
1.290755698084830705e+00
3.385207653045652965e+00
7.562598362565040033e-02
4.807908877730369679e-01
1.204167628288268066e+00
8.479894022457301617e-03
0.000000000000000000e+00
2.910702794790268055e-01
2.697129362821578891e+00
3.082168906927108543e-01
2.290720975399017423e+00
7.520877927541732566e-01
1.127376726362855006e-02
0.000000000000000000e+00
2.743447101116179621e+00
0.000000000000000000e+00
6.950451449938557133e-07
7.295600458979605296e-01
1.605675786733627763e+00
4.784191727638243741e+00
0.000000000000000000e+00
6.669179350137710571e-02
0.000000000000000000e+00
5.420337408781050748e-01
3.216060227155684181e+00
5.095315343141555431e+00
1.133236294845119162e-03
1.415536409616470648e+00
2.806809318065643488e+00
5.882658541202545610e-01
1.721100729703903820e+00
1.175108799338340670e+00
0.000000000000000000e+00
0.000000000000000000e+00
1.505360370874404774e+00
0.000000000000000000e+00
3.692092859745025546e+00
2.979358422756195335e+00
1.473242506384850881e-01
2.819357335567473033e+00
1.788493299484252619e+00
3.593988353145506196e-07
5.031958949984982827e-04
1.801265949010849798e+00
2.596200759708882089e+00
1.531834271550178483e+00
7.831386566162109375e+00
0.000000000000000000e+00
1.532928872620687322e-03
0.000000000000000000e+00
1.360142196714877461e+00
0.000000000000000000e+00
5.205455407500265697e-01
4.706535823643207689e-02
2.858030092716216775e+00
8.594123661518097146e-01
9.849146699707491087e-05
3.957049921154976585e-02
2.611077934503554521e-01
2.968918883800506059e+00
5.987085880042289539e-03
2.707876142859458213e+00
3.168060123920439786e+00
2.485809069871903976e+00
1.471223149565048313e-05
7.367608207277953798e-03
0.000000000000000000e+00
9.660651636123660069e+00
0.000000000000000000e+00
3.258688235282897860e+00
1.098937513828278689e+01
3.371813833713531494e+00
0.000000000000000000e+00
0.000000000000000000e+00
1.739760321378706509e+00
3.579762580990789367e+00
1.165760520845650905e-01
1.656621798247215067e-05
1.793882876634597112e+00
9.313705936074256897e-02
3.007321393489837735e+00
1.702550516569090284e-07
1.710108703374862982e+00
2.041680479049683417e+00
2.692143905162811546e+00
6.308399248123168768e+00
1.535298819839955309e+00
0.000000000000000000e+00
3.409493062645197609e-03
3.502699232194571907e-03
1.668594750761987155e+00
4.566584098339080633e+00
0.000000000000000000e+00
2.149204902350903001e-01
1.152444961007859567e-05
1.473304313421249345e+00
6.117191123962402166e+00
2.533023035526276168e+00
2.037275028228759499e+00
2.617812365293501919e+00
6.197318896283831722e-07
4.328609933145342870e-03
1.274908089637756259e+00
6.045547261834145480e-01
1.607362306118011563e+00
1.135130196809768233e+00
8.113794997334480841e-02
5.642925119400024059e+00
0.000000000000000000e+00
0.000000000000000000e+00
1.282707975769881246e-03
0.000000000000000000e+00
4.376666964844844293e-07
5.657226406037807118e-03
1.604254889488220481e+00
3.232939153909682339e+00
3.467151784896850497e+00
2.832892167568207054e+00
2.416629743576048206e+00
4.085231232643127264e+00
0.000000000000000000e+00
8.789800047874450906e-01
0.000000000000000000e+00
9.055445283651348820e-01
1.696285259723663730e+00
8.728830325708256729e-05
6.724410533905029297e+00
0.000000000000000000e+00
9.952621603012081763e+00
3.085832295255386135e-05
5.304122495651244940e+00
2.982952356338499644e+00
1.573372036218642966e+00
9.800795540213579071e-02
1.769416916370391890e+00
6.167142915725706942e+00
1.196020281314849054e+00
4.638905453681945623e+00
9.126292467117309570e+00
1.877428537607193082e+00
2.355433356761932551e+00
2.030183124542236150e+00
1.049031499028205916e+00
0.000000000000000000e+00
5.328341662883758767e-01
2.669097483476435565e-06
5.119921064376829811e+00
2.355414785444735482e-01
1.118912261724472890e+00
3.425366580486298718e-01
0.000000000000000000e+00
1.405311816930769897e+00
2.064193516969679898e+00
2.188145183026791452e-01
0.000000000000000000e+00
1.424462470412254600e+00
0.000000000000000000e+00
3.368156384676694592e-02
1.740736150741575727e+00
0.000000000000000000e+00
6.313538610935209849e-01
1.503639039583505122e-04
3.868909251689909290e+00
5.779898190498352406e+00
4.655156657099723816e-01
3.898120354861021875e-02
3.107174648903311058e-04
1.820258885622024536e+00
0.000000000000000000e+00
0.000000000000000000e+00
5.227238821983336337e+00
0.000000000000000000e+00
1.181897902488707963e+00
9.245164811611177313e-01
1.665683615207672164e+00
0.000000000000000000e+00
0.000000000000000000e+00
0.000000000000000000e+00
1.744523197412491289e+00
2.473450231552123846e+00
2.267930313944815646e-01
0.000000000000000000e+00
6.173055195808411000e+00
4.179221755266189220e+00
8.496531262062489639e-03
0.000000000000000000e+00
0.000000000000000000e+00
9.280495119094847922e+00
5.509488916397094371e+00
3.345384102431124855e-04
2.532214515667875233e-04
2.662114849686621820e+00
4.700047080405056693e-04
6.456966662406921742e+00
3.731135320663452326e+00
2.104551273584365667e+00
2.025979340076447421e+00
0.000000000000000000e+00
1.830805391073227595e+00
6.377769191749394287e-03
1.104714578390121105e+00
0.000000000000000000e+00
4.287245857715608288e+00
9.887035936117175572e-01
1.279706549644469060e+00
5.492524009943009489e+00
6.574793104082345130e-02
2.937198337167502057e-03
1.976230165362358848e+00
4.978150439262390314e+00
1.807282838854006013e-04
2.561253070831300271e-01
3.693066127598285120e-02
3.581409549713133966e+00
8.066847085952762342e+00
2.463762864470482317e+00
4.031257897615432850e-01
2.498332190513610662e+00
5.832759642601013539e+00
1.099506457149982186e+00
1.680783408880234031e+00
3.882812068331986579e-03
0.000000000000000000e+00
6.926882195472716219e+00
4.517535254359245078e-01
8.771253734827040294e-01
2.773437529802323276e+00
0.000000000000000000e+00
5.514650416374204944e+00
7.602511584758758767e-01
2.091617137193681142e+00
1.429068195819854781e+00
4.308607799430319574e-07
4.384276747703553245e-01
2.261063350772473376e-07
5.455935433506964305e-01
4.984211325645445889e+00
1.756401276588440696e+00
0.000000000000000000e+00
2.656373429298401145e+00
1.249533403664827291e-01
2.433612334728241677e+00
8.927371695637699167e-01
8.173047691583633645e-01
0.000000000000000000e+00
3.234627747535706366e+00
1.868457710742950084e+00
5.529506754875183283e+00
2.654368482530117257e-01
1.414827227592467906e+01
1.658494520187378196e+00
2.538842298090456806e-01
3.282085371017456676e+00
1.174960635602475129e-01
2.597508931159973500e+00
9.255890035629269263e+00
6.964224195480346324e+00
2.348805201053620006e+00
1.517280620336532992e+00
3.511987793445586536e+00
0.000000000000000000e+00
7.579319149255752119e-01
1.969105380773544356e+00
3.193712723255156316e+00
3.528125560283661422e+00
1.544777703285217019e+00
2.642164111137390137e+00
2.167526543140410933e+00
6.796060968190431942e-03
5.595205903053283691e+00
1.452620261907577426e+00
2.412883675098419722e+00
4.525188182924467012e-06
8.275705687701702395e-02
0.000000000000000000e+00
1.014654682949185649e-02
2.411230361461639493e+00
7.307576680183411888e+00
9.236433655023571498e-01
1.316595709323883368e+00
1.697893014807051027e-06
2.463093090057372425e+00
8.302316293120381996e-01
9.847137898206710371e-01
2.154832261800765814e+00
1.856894110143183507e+00
2.589290350675583774e+00
6.803897651843728023e-03
8.227199882268904085e-01
4.555294537544250844e+00
3.946513545513152366e+00
3.576417028903960293e+00
0.000000000000000000e+00
2.183970260620117454e+00
1.556018017232417561e-01
2.451183445373317904e-05
2.032494603554368273e-05
2.896208505262621398e-04
8.763787984848020685e+00
0.000000000000000000e+00
9.412768855690950565e-03
0.000000000000000000e+00
4.933404374122619451e+00
0.000000000000000000e+00
2.976250513597732669e-07
1.146263229846954612e+00
2.422383630275726230e+00
0.000000000000000000e+00
0.000000000000000000e+00
4.966488182544708252e+00
0.000000000000000000e+00
6.882324123382568715e+00
6.656472969055175604e+00
1.905237841606139737e+00
6.984827620908617800e-03
3.309398651123046875e+00
0.000000000000000000e+00
1.764498203992844072e+00
0.000000000000000000e+00
2.678585600852965598e+00
1.634358303621410713e-01
0.000000000000000000e+00
4.037825822830200195e+00
1.674428457021713168e+00
8.317946672439578748e+00
0.000000000000000000e+00
0.000000000000000000e+00
2.317638611793518599e+00
1.862622159719467430e+00
5.176021814346313477e+00
6.963324284553527477e+00
2.196032762527467264e-01
8.173191237449643154e+00
1.652714533805846742e+01
2.820899212360381991e+00
8.186100751161575761e-01
0.000000000000000000e+00
1.829480975866317083e+00
1.605813185960870254e-05
1.976712518930434426e+00
3.914763823151587441e-01
0.000000000000000000e+00
1.309936785697936479e+00
1.822863107919693748e+00
2.326597702503203635e+00
1.995008599758148149e+00
1.443825363821814019e-04
2.042092541232704700e-02
0.000000000000000000e+00
1.008963914728155010e-06
1.902151262760161998e+00
1.026685854412789041e-05
1.047547239810227848e-01
3.447560737840831002e-02
0.000000000000000000e+00
2.167512506246567217e+00
2.852973169410688787e-04
0.000000000000000000e+00
5.977585482597350897e+00
1.314183768386101800e-06
1.232116204500198098e+00
1.922683137655258445e+00
6.087355047464371172e-01
2.281269840896127943e-01
1.448376500606537221e+00
1.541972793638707040e-01
0.000000000000000000e+00
0.000000000000000000e+00
1.019546955823898315e+00
6.333343736827374837e-01
1.844879484176636053e+00
1.085168784856795465e+00
2.031506162881850930e+00
0.000000000000000000e+00
0.000000000000000000e+00
4.667930826544761658e-01
1.277282905578613015e+00
0.000000000000000000e+00
0.000000000000000000e+00
0.000000000000000000e+00
2.016518143936991969e-02
2.486276842653751262e-01
2.967804861068725764e+00
1.981713488698005898e-01
0.000000000000000000e+00
5.480647540092468795e+00
2.624004166573286681e-02
6.618926477432252042e+00
2.033261582255363464e-02
0.000000000000000000e+00
3.486093068495393910e-02
1.999382960796355135e+00
1.145216274261473322e+00
1.510342131950892454e-04
8.654083400964737161e-01
8.266163691878318509e-02
6.600944429636002031e-01
9.295457461848852590e-03
2.342615652084349520e+00
5.088603034615515330e-01
1.123667544788985714e-06
2.136949121952055997e+00
9.882534900680191997e-03
7.298931312561033558e+00
2.071771663427353971e+00
1.302164906263351130e+00
1.356088094413280543e-01
6.087664699554443004e+00
4.288004082441329246e+00
5.528977996110915782e+00
2.932894873619080744e+00
7.609142363071434989e-01
1.669686958193780324e+00
1.266401425255026038e-05
1.029341816902161089e+00
2.915448439121246071e+00
2.441135972738265103e+00
3.851097899314482036e-05
1.634516534395515433e-02
6.852362304925918579e-01
1.913858175277711293e+00
2.692323037981986467e+00
3.882990777492523193e+00
0.000000000000000000e+00
9.994903375627479502e-05
1.580091148614882979e+00
3.234100744128228233e-01
1.839399948716162192e-01
3.372195982933044345e+00
8.812079653143884972e-01
2.286104924976824770e-01
1.057493230700492948e+00
2.758330559730529874e+00
8.593193322420120683e-01
1.359585273265839556e+00
0.000000000000000000e+00
6.278607249259948730e-01
9.700754314661026445e-01
7.895540595054626465e-01
1.165283811092375554e+00
3.356278941035270580e-01
1.933981689944630163e-04
0.000000000000000000e+00
3.205353641510010565e+00
1.917061366140842826e-01
9.502644184067318426e-06
1.736296139657496906e-01
0.000000000000000000e+00
0.000000000000000000e+00
5.135714605450629744e-01
2.297960466146468761e+00
1.341918250545859269e-05
1.209214156866073697e+00
8.952219337224960327e-01
5.494024813175201194e-01
1.151838927171410664e-06
1.498250442743301436e+00
0.000000000000000000e+00
5.908191925846040596e-03
1.124643486738205134e+00
5.410630779806524732e-04
1.828958028554916071e+00
1.252444994449614546e+00
6.697986426297574021e-03
1.761385941505431152e+00
5.966553278113906080e-08
5.511672997474670765e+00
4.781134011864195696e-05
0.000000000000000000e+00
7.983955711126327071e-01
1.129556958675384593e+01
1.417355173826218451e+00
0.000000000000000000e+00
2.070188355445860662e+00
3.664584439247846326e-02
1.038588514924049466e+00
0.000000000000000000e+00
0.000000000000000000e+00
5.116500174999236705e+00
0.000000000000000000e+00
2.551050230860710255e-01
1.102665698528289662e+00
0.000000000000000000e+00
8.581066879287391203e-07
1.162808394432068182e+00
4.827016973495483754e+00
4.780796580016612868e-02
1.195689648389818283e-01
8.368837714195251909e-01
1.711657297611235862e+00
8.567567612044513919e-03
0.000000000000000000e+00
4.313358250260353799e+00
2.374379113316535742e-02
1.823530328273772927e+00
4.023233306407926868e+00
3.826370358467102717e-01
1.439053305983542863e+00
5.556000661849975764e+00
7.694053888320924184e-01
5.111972951889038441e+00
1.208891742862761238e-03
1.798395983314548678e-05
4.095468771457672297e+00
2.068403626978398080e+00
3.612300348281860529e+00
8.140195697546005471e-01
1.446356406807898232e+00
0.000000000000000000e+00
0.000000000000000000e+00
3.060156095027923850e+00
1.279509854316712048e+00
5.386502861976621759e+00
1.219199562072754484e+00
0.000000000000000000e+00
1.761489850282668357e+00
1.965805315971374201e+00
3.408770501613617832e+00
5.520340442657468927e+00
0.000000000000000000e+00
8.137369364500045554e-01
4.444639754295349299e+00
1.894272178411484375e-01
5.585437491536140442e-01
2.281063359975814109e+00
3.094893798232078441e-01
3.656747663021087114e+00
8.908991336822509766e+00
7.153360992670060314e-01
2.513651251792908159e+00
2.234500360488892223e+00
2.965260624885558638e+00
3.173755902051925482e+00
3.328620767593382990e+00
1.068502198904753078e-02
0.000000000000000000e+00
1.287548579275606987e-02
0.000000000000000000e+00
3.622027804794923762e-06
4.869057631492614391e+00
0.000000000000000000e+00
7.011621880531310858e+00
8.494447261095047219e-01
5.409339737892151057e+00
4.963253331184387385e+00
1.134014591574668440e+00
0.000000000000000000e+00
1.102668502926825056e+00
3.592479275539518704e-03
0.000000000000000000e+00
5.569448637962342019e+00
2.106501793861389249e+00
2.701455131173133850e-01
6.620923280715942383e-01
5.470690354059115767e-08
2.384218645095824929e+00
3.818413901329039906e+00
0.000000000000000000e+00
1.423483067750929809e+00
6.826253116130829302e-01
3.336962777376176525e+00
1.005481266975403187e+01
2.379329764842986972e+00
2.445682692527771263e+00
3.839804994640872967e-04
0.000000000000000000e+00
2.668664211034775136e+00
2.198704592883586051e-01
2.713905900716780950e-01
2.361384594440460116e+00
5.879043283130159687e-06
0.000000000000000000e+00
4.299279785156249645e+00
1.861381617188455184e+00
1.929987277835608708e-02
3.301000660285353938e-02
2.953313517570495428e+00
7.319127693772314869e-02
0.000000000000000000e+00
1.310147508978843633e-01
1.023865969181061786e+01
9.747649252414702925e-01
0.000000000000000000e+00
1.379255956411362005e+00
0.000000000000000000e+00
2.647257782518863123e-01
1.265552747249603760e+00
0.000000000000000000e+00
2.806202602386473899e+00
9.250214552879331364e+00
0.000000000000000000e+00
2.881854128837585627e+00
2.429733832798318934e-07
2.200117051601409024e+00
4.504813944095077142e-06
0.000000000000000000e+00
7.547859162092207530e-01
8.211901329457758081e-01
0.000000000000000000e+00
1.355255221824336670e-05
1.211853502690792839e+00
4.009479707747232304e-05
0.000000000000000000e+00
8.659618169069289717e-01
1.437008458375931053e+00
3.599991887807845736e-01
6.064245796203612926e+00
1.117811441421508345e+00
4.708610340952872342e-01
0.000000000000000000e+00
1.931247273087501437e+00
4.821681037545204052e-01
0.000000000000000000e+00
1.442490763962269495e+00
3.776909261941910345e-01
0.000000000000000000e+00
1.321263919089688075e-03
0.000000000000000000e+00
1.189228260773233809e-03
8.320906043052669343e-01
5.660449534654616865e-01
1.913035260513425845e-02
0.000000000000000000e+00
1.461120381951331870e+00
5.908881711959838690e+00
6.518411457538604292e-01
3.062225890159607111e+00
6.212388575077056885e-01
1.925293415784836926e+00
4.225902521610260365e+00
2.187929713726042724e+00
3.677738294936715949e-03
3.181199645996093395e+00
1.460553413629531505e+00
1.320576429367065430e+00
7.176797607826300744e-05
6.594027163373539766e-05
4.245973718166351496e+00
2.583894956842414781e-05
1.013371222652495351e+00
8.563376039266591411e-01
4.975746378302575157e-01
0.000000000000000000e+00
8.499174952507019265e-01
1.964033323526383157e+00
3.237588558135940032e-07
1.905373072624206188e+00
1.074806472659111112e+00
3.000943684577939585e+00
0.000000000000000000e+00
0.000000000000000000e+00
1.146189835071563401e+01
0.000000000000000000e+00
1.540460871183313971e-04
0.000000000000000000e+00
1.635470250621437818e-02
1.835076147317886042e+00
0.000000000000000000e+00
0.000000000000000000e+00
4.876804685592651012e+00
0.000000000000000000e+00
2.415494609522284144e-05
4.710089933872223078e+00
1.559888422489165816e+00
3.394661226775497025e-03
0.000000000000000000e+00
1.393905878067014603e+00
1.610802059173583345e+01
0.000000000000000000e+00
2.520440008083824285e-04
0.000000000000000000e+00
6.888477027416231024e+00
0.000000000000000000e+00
1.882081872224808716e+00
0.000000000000000000e+00
5.722693115472792247e-01
0.000000000000000000e+00
0.000000000000000000e+00
8.669350147247314453e-01
2.453781801462173728e+00
8.201152496039858519e-01
2.349839426577090828e-01
2.095433019101620720e-01
9.218142326972150199e-06
0.000000000000000000e+00
1.630037701129913419e+00
2.316134476661681152e+00
2.019931221008300692e+00
3.390212416648864746e+00
0.000000000000000000e+00
8.704495835304260964e+00
2.032397896051405972e+00
1.206939911842346014e+01
8.242077160502959255e-06
4.833835649490356268e+00
7.481315255165100764e-01
2.464949622750284008e-01
0.000000000000000000e+00
2.726832626365193242e-07
6.532706390134991256e-03
1.388858041167258861e+00
8.975503407418727875e-02
2.810755938291550349e-01
1.053092013299464780e+00
0.000000000000000000e+00
5.650094485282896706e+00
1.011451710946858519e-02
0.000000000000000000e+00
2.060682606697082697e+00
8.148229956626892090e+00
1.124167923629283417e+00
1.724904574453830775e-01
4.226433038711548129e-02
1.089181823730468501e+01
1.761499666608870932e-02
2.399907362461090266e+00
1.486473304033278486e+00
1.023171868324279821e+01
0.000000000000000000e+00
1.891721460968255886e-01
0.000000000000000000e+00
2.961743623018265638e-03
3.345980072021486507e+00
7.508411300182342707e+00
2.629821079969405950e+00
1.087938854098319030e+00
9.695619374513624322e-01
1.610379660129547030e+00
4.129770770668983459e-02
4.625985145568846768e+00
1.904823155701160120e+00
2.467389190196991766e+00
8.456636399030689200e-01
1.670275628566741943e+00
1.078472107648849265e+00
2.825842368602752508e+00
1.020728334784507307e+00
7.989880479872227270e-02
0.000000000000000000e+00
1.637358434498310089e+00
1.867349690198898404e+00
9.107723161578176740e-02
3.502633881568908869e+00
2.133548647165299794e+00
3.221448555588723450e-01
1.109503889083862660e+00
0.000000000000000000e+00
1.627443772740662029e-02
3.634774434566498513e+00
7.606699913740158636e-02
1.103436571359633467e+00
6.319240105152131193e+00
2.384483569860459173e+00
1.140482747554779408e+00
4.060017192363739369e+00
3.974427115917206432e+00
1.026378062367438559e+00
3.433583343029022128e+00
0.000000000000000000e+00
4.947040855884551114e+00
6.115032196044920543e-01
8.883313991129403453e-01
1.985751506686210588e+00
3.473175036907195423e+00
2.983904618024824540e+00
1.860280328989028620e+00
1.844144499301910711e+00
1.911751639842987682e+00
5.768606734275817161e+00
1.551745058968663146e-02
2.822424830810634183e-04
1.930273783206938987e+00
5.155589610338211504e-01
8.422436803579330666e-01
2.293692350387573686e+00
2.796373905766813974e-06
2.332235141011551710e-07
3.476921049878001907e-03
0.000000000000000000e+00
8.024394714832299158e+00
2.423520013689994639e-03
6.981475860811771697e-03
9.340969234704974422e-01
1.618382647633552995e+00
4.226303867995738761e-01
1.934281639754772963e-01
0.000000000000000000e+00
0.000000000000000000e+00
0.000000000000000000e+00
5.443193268775941007e+00
1.543322274088859691e+00
3.962123692035676159e-01
1.016367024183272960e+00
2.116347295045851951e+00
1.136807125806807983e+00
4.556265864152919570e-07
5.365199805237354409e-03
2.726936435699463424e+00
4.354687607288360240e+00
0.000000000000000000e+00
1.031569895148277238e+00
1.145219716429710877e+00
2.578446173667908514e+00
3.241154956867830214e-06
1.146628886461257046e+00
3.931032553315162437e-01
4.094724130630493342e+00
1.265392351150511629e+00
2.488872575759886185e+00
6.130156028270720370e+00
1.888248755130916921e-03
1.717519241571427102e+00
1.002145224809646251e+01
0.000000000000000000e+00
1.546471756696700561e+00
4.498963415622712070e-01
4.857399344444274902e+00
2.702447166666388338e-03
2.963462167978287098e+00
3.775992459058761685e+00
2.760663962364196866e+00
1.268781784921884925e-01
2.245619654655456876e-01
6.593382656574249268e-01
0.000000000000000000e+00
6.491062879562377930e+00
6.281398353166878223e-03
1.695228725671766856e+00
1.631793832778930975e+00
1.008078075945377794e-01
0.000000000000000000e+00
4.449426770210265225e+00
3.041560995578765692e+00
1.046796917915344416e+01
5.746069422457366965e-04
1.443890705704689026e-01
6.907521224021911266e+00
2.387303106486797777e-01
1.897973241284489285e-02
5.204274797439575551e+00
5.576244473457338202e+00
2.305179433897136879e-02
7.881667613983154297e-01
1.758884590864180808e+00
0.000000000000000000e+00
0.000000000000000000e+00
7.217259098979410630e-06
1.463345775846391483e-03
0.000000000000000000e+00
1.253836823999881167e+00
1.507281072437762492e-01
0.000000000000000000e+00
1.393510448932647305e+00
3.169510567188262407e+00
2.784587502479552779e+00
7.355450224876404874e+00
6.923723779618740082e-02
1.247142046689987849e+00
3.062442016601563122e+00
1.518043071031570879e+00
1.877260228866361674e-05
9.662928247451784358e+00
2.313631244003771792e-01
9.707803964614865055e-01
1.712058407068253185e+00
3.130775988101961005e+00
4.422043710947037853e-02
0.000000000000000000e+00
4.118573609739543118e-01
0.000000000000000000e+00
4.264767572283744701e-01
3.935937154293061013e+00
0.000000000000000000e+00
6.062032476067542586e-01
0.000000000000000000e+00
0.000000000000000000e+00
2.443603739266108425e-06
0.000000000000000000e+00
3.661558830738067538e+00
6.309822273254394709e+00
3.210498899221420066e-01
1.484026277065276345e+00
5.375345764946360062e-07
4.637165224552155074e+00
1.673810708522798008e+00
0.000000000000000000e+00
6.929456710815427911e+00
1.515789505839347573e+00
1.972475105524063466e+00
8.122613593935967824e-01
1.188705984503030944e-01
2.349672038108110289e-02
9.844873517751693281e-01
4.491229385137557872e-01
6.285939604043961904e-01
7.007371118664741161e+00
0.000000000000000000e+00
3.419063800573348910e+00
1.441803557099774914e-03
4.348540711402892889e+00
8.806822755502709466e-08
5.824763387441634910e-01
4.483817136287688854e+00
2.235431306064128432e-01
4.026308870315551403e+00
7.027487009763717651e-01
0.000000000000000000e+00
2.881482325028627590e-03
1.034133313223719597e+00
2.206759655475617699e+00
0.000000000000000000e+00
4.469784641265868608e+00
1.920611763000488192e+00
3.393902689218520896e-01
5.697889554500579656e+00
8.044563263654708862e+00
2.339550301432610502e-01
8.688844885909928571e-04
6.672822590917349035e-03
7.141795206069946111e+00
1.213974188566208312e+01
9.057352513074876654e-01
2.134633186459542475e+00
9.359564691781997459e-01
0.000000000000000000e+00
1.584654785692692081e-01
0.000000000000000000e+00
0.000000000000000000e+00
2.249292635917663485e+00
3.604739695787428366e-01
1.117990803718567072e+00
2.701928627490996160e+00
5.868197513336780057e-06
3.356592118740081565e-01
1.274365763366222648e+00
9.409862667322155261e-01
2.592850351333618963e+00
0.000000000000000000e+00
7.609298616647719449e-01
2.628899213874548117e-08
7.264837944507599232e+00
1.660281988978386636e+00
5.687472653388977228e+00
9.991007626056674917e-01
9.751467019319534080e-01
5.524907684326171520e+00
2.264223396778106245e+00
3.296551132202147905e+00
1.147723495960235152e+00
1.352998507022858066e+00
0.000000000000000000e+00
6.048173680901527266e-02
1.040949701973659035e-05
7.052740144729614080e+00
1.501751995086670677e+00
2.983553469181060791e+00
1.087324768304825523e-01
3.853586137294768399e+00
1.177057686448097051e+00
2.036661362648011675e+00
3.035160596482454755e-04
4.617102876305579362e-01
2.251674652099610263e+00
0.000000000000000000e+00
3.970250552892685025e+00
3.637985622882843106e+00
1.820292967557907149e+00
3.776183909177780684e+00
1.736351579893380404e-03
2.315546275610813556e-07
1.111780220270156105e+00
6.571644358336925854e-03
4.296816670894623158e+00
5.098788547515868963e+00
8.996978402137750797e-01
1.312088520526885915e+01
0.000000000000000000e+00
2.270005864556879065e-03
1.215777832269669512e+00
2.428173279762268155e+00
0.000000000000000000e+00
3.792173911278951795e-05
0.000000000000000000e+00
3.000528639554977950e+00
0.000000000000000000e+00
5.091412544250487393e+00
6.708270832896232050e-02
3.754303789138794034e+00
3.556274643656820312e-08
1.725509393215179488e+00
3.078713110880925492e-04
1.201618863269687462e-02
1.361512817442416812e-01
3.089190077076863930e-08
0.000000000000000000e+00
5.155817222595215021e+00
3.542363588167064510e-05
1.356566405296325328e+01
2.364237599074840157e-01
1.016147640347479619e+00
2.323751169443131204e+00
0.000000000000000000e+00
4.483557656407356484e-01
5.218964278697966641e+00
2.750472962856293169e+00
1.181047823047265063e-03
2.929077637645604662e-05
4.328064358234405162e+00
3.461429762840270818e+00
1.579007476568222268e+00
1.949506184458733360e+00
3.523880153894424438e+00
3.568376493453978782e+00
7.416854305120065892e-06
1.030903536826371925e-01
5.019998136162757696e+00
3.172648382587795421e-06
3.341047728061676825e+00
4.803194475173950373e+00
2.777196407318116123e+00
3.844012784957885120e+00
3.587873136997222101e+00
1.835797458887100220e+00
7.626417088508605779e+00
5.240961939096451250e-01
4.954215517500415011e-04
1.178847345727264292e-04
4.613144366885534768e-04
2.274095225334166415e+00
1.803621568251400839e-03
1.642560778558254997e+00
0.000000000000000000e+00
3.062350106239319025e+00
1.009714004397392229e+00
1.364032122492790489e+00
5.886000543832777820e-01
2.532265742775052959e-03
5.330798578262328391e+00
0.000000000000000000e+00
1.352762609720231213e+00
1.710973340272903487e+00
0.000000000000000000e+00
3.685856580734251930e-01
4.140237160027026020e-01
2.138493585586548118e+00
1.558529138565063032e+00
2.562522292137146440e+00
3.172292366623878923e-01
2.009307080507279686e+00
6.881525665521618373e-01
1.804770492017268857e-01
4.396506710691028486e-07
3.103918842971323949e-02
1.133557968139648864e+01
4.162096187472343334e-01
5.482321470975876077e-01
4.065141174942253632e-02
5.532877898216247203e+00
2.074688947200774347e+00
4.530343392491340992e+00
1.493797463178635931e+00
1.413266556937742026e-06
2.444385612010956166e+00
7.301375555992123623e+00
0.000000000000000000e+00
3.101524275541304387e+00
2.374064631760119948e-01
1.584935601800680771e-01
7.284420430660247803e-01
2.896936026215553017e+00
8.409251904487609508e+00
7.477968573570251465e+00
5.930396890640258434e+00
3.642481504357420559e-04
4.887405014038085582e+00
2.886668145656585693e+00
6.851407080888748391e-01
3.866091811656952704e+00
2.108226877450942283e+00
1.543403327465057706e-01
0.000000000000000000e+00
0.000000000000000000e+00
1.724310763180255390e-01
2.052222317457199630e+00
2.673467135429381525e+00
0.000000000000000000e+00
1.808846390247345726e+00
1.285126423835754483e+00
4.698721125721931346e-01
9.037237256765366933e-01
8.295336335897445235e-01
8.502409458160400946e-02
0.000000000000000000e+00
1.381295716762543035e+00
0.000000000000000000e+00
1.483910137414933050e+00
2.127528167329729557e-03
0.000000000000000000e+00
4.920960992574692772e-01
3.758414989709854659e+00
5.219324707984923428e+00
2.535411703586578636e+00
0.000000000000000000e+00
1.688763934373855857e+00
1.532450211234390181e-02
1.624421849846840737e-01
4.848765044584979901e-07
5.548680678009985101e-01
0.000000000000000000e+00
2.202987403165935089e-07
2.099737524986267978e+00
4.097577512264251709e+00
3.065132901072502025e-01
0.000000000000000000e+00
1.499568933248520031e+00
1.843627341091632621e-01
5.200023663043976896e+00
0.000000000000000000e+00
0.000000000000000000e+00
1.495869102654978525e-04
4.327353048324584783e+00
5.764953494071960449e-01
0.000000000000000000e+00
0.000000000000000000e+00
2.257606486091390773e-03
1.664625329971314471e+01
0.000000000000000000e+00
0.000000000000000000e+00
1.666321006417275097e+00
2.321803407312472700e-06
7.826872973737409180e-07
1.019961707592011102e+01
2.380437028408050715e+00
2.453564417362213312e+00
4.519043374061585183e+00
1.559598451852798551e+00
1.268849965184927764e-01
1.339350086450575850e+00
3.273601460456847523e+00
6.949223875999450684e+00
3.150563764572143377e+00
1.691088235378263915e+00
3.018763232231139071e+00
1.958173054456711526e+00
0.000000000000000000e+00
1.139160513877868208e+00
2.629604840278626732e+00
6.258921250700950900e-02
4.969832021743060026e-03
4.047496601939201133e-01
0.000000000000000000e+00
1.546492654085160012e+00
2.014985293149948120e+00
3.354799604415894088e+00
1.516504490282387027e-02
3.750276327133178711e+00
9.307968085181530280e-09
5.812216186523437855e+00
1.051217443309724643e-02
3.235739249873858683e-08
7.739107871884698821e-07
7.450838766089875557e-05
7.051871594740078070e-04
8.346680477261545494e-01
5.152289175987244896e+00
1.701639342308044478e+00
3.434680390357971902e+00
5.618654084205625843e+00
1.669896018370309050e-05
3.601889207493513736e-03
5.144776380916482171e-07
0.000000000000000000e+00
9.944694393197999350e-05
0.000000000000000000e+00
2.439254152774811502e+00
4.034174406528471479e+00
0.000000000000000000e+00
4.010333693027496871e+00
3.812020861460041657e-06
2.258737802505494052e+00
2.321740376949311013e+00
2.504688364267349421e+00
4.684190285205841242e+00
2.268220353126526145e+00
7.433621907234190473e+00
1.015682518482207808e+00
4.727054834365844727e+00
5.684548068529691885e-06
2.304274463653565252e+00
6.829718612134456912e-02
4.032134152948855382e-02
2.526398658752441406e+00
1.664135384559630948e+00
6.592604244360700033e-04
5.598976619541644606e-01
5.790212583541870295e+00
0.000000000000000000e+00
1.118444228172301491e+00
4.365280938148497825e+00
0.000000000000000000e+00
3.196568191051483598e+00
1.780256408452987049e+00
2.020157672464847065e-01
1.241203349828720714e+00
5.152799069881439653e-01
8.087900590896607511e+00
1.506556570529937966e+00
4.957253905013203274e-03
2.465161293745041338e+00
4.792898750305175426e+00
6.152717399597162462e+00
0.000000000000000000e+00
1.886942714452743086e+00
3.192451024055480424e+00
0.000000000000000000e+00
5.214690530300141624e+00
2.169258140027524318e-01
0.000000000000000000e+00
2.080408179759980047e+00
3.224408048391341985e+00
1.327019348740576532e-01
1.806359374523162087e+00
0.000000000000000000e+00
0.000000000000000000e+00
3.909736430644989102e+00
1.937594842910765891e+00
0.000000000000000000e+00
1.581128068268297937e-01
9.288884873967616232e-04
0.000000000000000000e+00
1.994444057345391152e-01
5.936253166198729225e+00
7.111733957572141391e-05
7.257255584001540694e-01
1.883367031812669623e+00
2.324100631767577205e-06
2.151591891050338212e+00
5.892093584407121594e-04
3.078697526454925004e+00
3.010208189487458164e+00
2.864209949970244473e+00
5.359069418907165705e+00
7.008351773023604459e-01
4.464771568775177002e+00
1.147250223159788529e+00
1.659684020280838279e+00
2.264842879772187789e+00
5.503212499618530984e+00
3.303986525535583585e+00
2.703190028667449507e+00
6.136241797357797761e-02
5.502735733985901767e+00
4.296793234348297297e+00
2.595098674297333652e+00
2.536300182342528520e-01
1.202475541830062777e+00
6.439714193344116211e+00
1.251971256732941074e+00
1.592853919873960602e-06
1.248690247535704900e+00
3.938617458939552396e+00
0.000000000000000000e+00
3.607669174671173096e+00
1.825523906946182162e+00
1.107033865451811927e+01
3.729410731792449862e+00
4.888919782638549982e+00
5.854916834831238148e+00
0.000000000000000000e+00
0.000000000000000000e+00
2.735554829239845720e-01
1.178155463933943548e+00
2.234170305728912620e+00
0.000000000000000000e+00
1.231704468409589331e-05
2.889379978179932085e+00
1.155638164281845182e+00
9.222019642591476885e-01
0.000000000000000000e+00
1.769314581155777777e+00
0.000000000000000000e+00
2.996462243795395608e+00
0.000000000000000000e+00
0.000000000000000000e+00
4.047772526741026944e+00
2.689467024803160022e+00
2.178261679410934626e+00
5.161516740918161705e-01
7.593942403793334517e-01
3.269578839535824846e-04
6.515969753265379083e+00
7.625613927841186523e+00
6.428491711616514337e+00
7.708422720432280828e-01
4.602586627006530762e+00
9.928577765822409890e-03
1.777137643098831266e+00
6.549514174461364968e-01
4.481137585639952903e+00
3.615730535238981767e-03
1.517474722862244496e+00
8.751859045028686168e+00
3.487723195552825839e+00
8.332465946674346702e-01
7.319287151098250455e-01
9.780359923839567760e-01
4.099369692802428133e+00
4.178716346621513256e-01
3.227529966831208075e+00
3.979011702537537332e+00
1.684973821043969644e-01
2.663280695676803145e+00
0.000000000000000000e+00
4.758390069007873535e+00
3.281130921840668346e+00
7.821867799758912554e+00
6.776124700991205194e-06
2.592032305896281863e-01
2.580582965165375414e-02
0.000000000000000000e+00
3.088230884075165772e+00
7.844724729657173712e-02
4.993993954371944287e-07
0.000000000000000000e+00
0.000000000000000000e+00
6.651422306895256320e-02
1.674742740392684670e+00
5.458061909303068768e-03
5.471626782417297719e+00
0.000000000000000000e+00
5.798785841464995983e+00
3.000451642274855502e+00
1.037841148376464950e+01
5.998071074485778809e+00
7.606234216690063832e+00
9.345784892502700535e-05
1.648793429136275801e+00
1.758802049153019068e-04
6.506073933839796375e+00
3.685550880432129084e+00
0.000000000000000000e+00
0.000000000000000000e+00
7.941930508613586071e+00
9.093963354825971290e-01
4.723056173324583717e+00
3.764611527323721840e-01
9.579882681369780162e-01
0.000000000000000000e+00
9.241159975528721038e-01
1.049741148948670544e+00
1.341761022806166936e+00
0.000000000000000000e+00
0.000000000000000000e+00
5.672089576721190962e-01
7.092374432832002085e-02
0.000000000000000000e+00
7.668898962438105982e-02
1.306241535348817446e-03
0.000000000000000000e+00
3.690582320814427792e-06
9.110385894775389071e-01
2.484171527624130515e+00
2.881833517551422474e+00
2.351293933391571223e+00
3.450620502233505693e-01
9.367611318826678524e-01
5.762126863002776656e-01
1.043398918909588374e-06
0.000000000000000000e+00
0.000000000000000000e+00
4.322262287139892578e+00
6.342610239982604536e-01
0.000000000000000000e+00
9.051387643814084782e+00
4.022503018379211426e+00
2.445395693182945140e-01
1.000688102096318755e-01
0.000000000000000000e+00
7.792530655860900879e-01
6.147236251831055043e+00
2.483273813128470398e+00
1.057903501391410650e+00
2.458901941776275635e+00
7.223695248365402666e-01
1.483576309680938454e+00
1.210360375046730219e+00
9.945428864739382882e-05
4.444889295101165594e+00
1.864312660694122936e+00
2.299238126113324186e-07
2.213728594779968084e+00
8.728230535984040639e-01
1.391617573797702401e-01
0.000000000000000000e+00
1.683799795806407928e+00
0.000000000000000000e+00
2.351183183491230011e-01
0.000000000000000000e+00
1.377864581346512463e+00
3.670838642120362039e+00
3.131872177124023438e+00
2.065664297342302724e+00
2.261114992201328222e-01
2.892120349407196311e+00
7.020469531416893005e-01
0.000000000000000000e+00
1.911942832171917017e-01
5.216452968120573352e+00
1.353527456521987471e+00
4.004757916927337291e+00
0.000000000000000000e+00
0.000000000000000000e+00
9.853806905448428410e-02
2.781311666965484708e+00
8.683830544352535430e-01
3.965165829658507501e+00
1.004862631857394772e+00
2.659094470739365779e+00
0.000000000000000000e+00
2.837758824171032540e-04
7.403293013572692649e-01
6.247521090507507147e+00
2.332317661494015815e-01
6.416644310951232555e+00
1.195588336884974900e+00
9.488707125186929270e-01
3.538685083389282227e+00
4.199529933929443182e+00
3.328459334373474743e+00
8.448101592063903098e+00
3.595600926876067582e+00
7.842433806217740679e-05
1.636709495045352120e-07
2.979501534719020215e-03
1.952097006142140823e-02
1.721483230590821201e-01
6.591041350364685414e+00
4.187017381191254550e+00
2.830831611156462646e+00
9.922759145498274425e-01
4.562163853645325062e+00
0.000000000000000000e+00
1.236693006753922131e+00
5.035858249664306285e+00
1.333884429931639559e+01
1.482289355993271052e+00
1.294423611852835165e-06
6.264454359188676227e-03
9.768419666215773928e-03
9.915896207094195836e-01
2.018591816010939002e-06
7.577031108667142256e-04
0.000000000000000000e+00
0.000000000000000000e+00
5.484942942857743420e-01
1.911848543386440236e-04
1.884547704830765932e-02
1.106334722862811922e-04
4.182025933265686390e+00
0.000000000000000000e+00
8.854906320571899192e-01
1.274171857833861488e+01
9.966826946765650335e-05
9.075374164240206272e-05
0.000000000000000000e+00
5.226413273811340687e+00
4.340729668736457159e-01
8.915463261306291187e-01
6.657985955476760642e-01
2.267107850313186290e+00
0.000000000000000000e+00
5.939475238323210782e+00
1.332993525266647827e+00
1.684542185068130804e+00
2.135038022696972071e+00
0.000000000000000000e+00
5.582523536682129084e+00
0.000000000000000000e+00
1.037644585967064659e+00
1.320026400208008574e-04
6.234411764144897283e+00
8.075657226145267764e-02
3.968508088588714067e+00
2.384192207828162574e-02
0.000000000000000000e+00
2.306480836868286310e+00
4.079610842466353304e+00
1.383049264550208490e-01
8.234756171703339067e-01
4.517473133347494844e-08
1.045601484861435554e-06
0.000000000000000000e+00
3.424954321928907395e-07
5.629573822021484153e-01
9.240336692892018103e-03
9.371100162525181076e-08
1.314526531359661911e-06
1.195026206914916007e-05
0.000000000000000000e+00
2.690939831733703880e+00
0.000000000000000000e+00
1.046971672735707871e-06
6.574304006062447851e-03
1.759323817491531328e+00
9.287274792790414235e-01
1.101606351137160988e+00
1.659172463417052823e+00
0.000000000000000000e+00
5.155402243137359619e+00
7.457838606834410022e+00
1.942465570755302212e-02
0.000000000000000000e+00
1.080285710096358986e+00
4.216709709167481002e+00
8.165508985519409180e+00
9.613583315513094581e-05
0.000000000000000000e+00
0.000000000000000000e+00
5.747715371847151644e+00
1.436580902338027377e+00
3.401515170931815879e-01
2.796942985057830899e+00
1.167747859954835299e+01
4.510257840156555176e-01
4.608392977714538929e+00
3.379826201125980811e-02
6.176677173376083019e+00
0.000000000000000000e+00
2.407453918457032493e+00
1.405473649501800981e+00
2.824572527408601097e+00
0.000000000000000000e+00
3.351169507950544357e-01
2.381853365898132235e+00
0.000000000000000000e+00
9.203454017639158380e+00
7.700687080621719804e-01
0.000000000000000000e+00
3.460801135588553599e-05
4.439615297317504705e+00
0.000000000000000000e+00
2.606568741798400701e+00
0.000000000000000000e+00
4.126301184296608110e-02
0.000000000000000000e+00
1.072641885280608554e+00
2.949376657605170537e-01
1.742383521795273449e+00
1.526000541448592651e+00
1.962589341402052767e+00
1.289153833567979983e-05
1.044355583190917702e+00
0.000000000000000000e+00
5.625648593902587535e+00
1.829239386320114402e+00
0.000000000000000000e+00
1.523539710044859996e+00
6.429392069578170332e-01
2.365399023890494945e+00
3.667750715976579351e-04
0.000000000000000000e+00
0.000000000000000000e+00
0.000000000000000000e+00
0.000000000000000000e+00
5.824657344818115590e+00
7.075187540054320934e+00
0.000000000000000000e+00
0.000000000000000000e+00
6.676927030086516890e-01
2.615287182852626263e-02
0.000000000000000000e+00
9.362950433045622578e-01
3.333272099494933860e-01
1.362620435655116646e-01
1.857217365503311068e+00
0.000000000000000000e+00
0.000000000000000000e+00
2.456062173843383434e+00
6.312346464255824902e-04
3.163780188560486817e+00
3.363157421350478904e-01
0.000000000000000000e+00
2.681295138597487249e+00
0.000000000000000000e+00
2.485911560058593928e+00
8.179349684715271351e+00
0.000000000000000000e+00
3.013710856437682661e+00
3.555440390110015780e+00
2.464748251438140692e+00
0.000000000000000000e+00
1.130517317506019514e-04
1.105948604643344629e-01
0.000000000000000000e+00
5.505489695072173006e+00
6.921426820755003817e+00
1.119678974151610440e+00
1.971110582351684126e+00
0.000000000000000000e+00
0.000000000000000000e+00
7.496537315845491101e+00
0.000000000000000000e+00
1.231504097580909729e+00
4.922864460945129750e+00
5.374103724956512451e+00
2.277534943819046198e+00
2.731981360912322021e+00
1.684041120111942624e-01
1.355797564610838890e-02
0.000000000000000000e+00
2.538509808480739482e-01
0.000000000000000000e+00
0.000000000000000000e+00
3.399967852146800459e-06
2.981521046161652144e+00
1.021800756006996592e-07
1.336594325304031994e+00
0.000000000000000000e+00
1.103670978546142267e+00
0.000000000000000000e+00
1.177569133043288474e+00
3.238546065404080071e-04
5.206249907612801042e-01
2.226351946592332265e+00
1.536351871490478471e+00
1.840780436992645708e+00
1.090097161977609814e-05
1.189958822727202659e+00
0.000000000000000000e+00
7.471575051546096580e-01
1.390308266878128363e+00
1.107639980091334257e-06
1.303934150934219494e+00
2.256332609249512953e-05
1.104377785325050487e+00
0.000000000000000000e+00
1.461160361941438006e-04
3.682102036476134543e+00
1.433372998237609997e+00
5.171399787068367004e-01
2.806059777736663374e+00
2.770715510845183527e+00
3.756301522254944736e+00
2.346003818511962713e+00
7.453665208816532939e+00
6.447104341350495989e-03
6.548594474792480469e+00
0.000000000000000000e+00
6.248935754410922354e-03
0.000000000000000000e+00
4.547133016586303533e+00
2.261349123727995848e-04
3.539724135398865545e+00
5.439327490329740833e+00
2.198124521970748368e+00
7.082506129518150242e-03
1.475384175777435969e+00
0.000000000000000000e+00
2.015863960981368663e+00
3.902662670612335294e+00
0.000000000000000000e+00
3.048547601699829190e+00
1.295182603597640592e+00
2.606634602670964302e-05
1.388949353247879714e-01
2.648400969803333727e+00
4.115893089771271995e+00
6.262515574693680032e-01
2.687739181518555398e+00
0.000000000000000000e+00
0.000000000000000000e+00
1.340103030088357682e-04
6.175825273990630748e+00
1.814903390407561989e+00
7.030385279655456898e+00
6.483938217163085938e+00
2.467968270182609447e-01
2.798178511857987161e+00
3.386248707771301047e-01
9.658355683088302168e-01
1.054203623789362913e-03
0.000000000000000000e+00
6.149116950109600847e-03
1.263383501768112316e+00
0.000000000000000000e+00
6.063755750656128068e-02
9.674188843928281656e-03
1.057490926980974022e+00
5.188973707845436281e-04
2.166710514575242649e-02
0.000000000000000000e+00
0.000000000000000000e+00
3.877626776695251465e+00
2.144383579492568970e+00
1.746531253843385519e-07
3.004977548122406361e+00
9.896864414215087447e-01
4.508540475368500111e+00
3.997438668079667815e-07
1.567878654599189403e+00
3.101545715332032493e+00
6.125663518905640759e-01
1.561616115272044802e-01
6.165742313861846569e+00
2.907693035900593692e-01
1.239667301997542451e-02
1.056106472015380104e+00
3.851117253303527055e-01
0.000000000000000000e+00
1.612867793440817987e+00
0.000000000000000000e+00
6.466004264354704212e+00
5.590507499873638431e-02
2.185381174087525302e+00
5.713158589787781412e-03
1.603115105628968085e+00
6.654043318121694452e-07
3.597437466851259454e-06
4.869879305362702082e-01
1.855861386656761258e+00
0.000000000000000000e+00
2.376512455940246404e+00
2.500371527671812810e+00
3.176079297065734330e+00
4.983123596757651347e-02
2.006013510253979977e-05
5.292194131761790432e-02
3.749969416856765658e+00
1.127019889652727952e-01
2.760591864585876465e+00
0.000000000000000000e+00
3.123568389564751469e-02
6.831837254139827141e-07
1.091208928823470536e+00
0.000000000000000000e+00
2.096701216697692161e+00
4.423783516883849742e+00
0.000000000000000000e+00
8.164914727210998979e-01
3.312694525718689498e+00
1.554848319292068348e+00
0.000000000000000000e+00
3.328142398595810736e+00
0.000000000000000000e+00
0.000000000000000000e+00
4.749996125698090488e+00
3.315731533803046617e-03
1.163295699768695505e-08
9.184747815132139337e-01
9.462793730199332842e-02
0.000000000000000000e+00
1.226311329007148343e+00
0.000000000000000000e+00
3.694200324844132326e-06
0.000000000000000000e+00
0.000000000000000000e+00
5.359698337316512351e+00
8.765187233686448920e-01
0.000000000000000000e+00
1.579700676757056245e-06
1.647756093740462946e+00
8.865853518247603926e-01
1.073069423437118086e+00
1.932858629152179111e-03
7.819914072751998901e-02
0.000000000000000000e+00
2.743731617927551270e+00
0.000000000000000000e+00
0.000000000000000000e+00
1.029354780912399736e+00
1.328959888778626607e-02
1.462164938449859175e+00
5.390097856521606445e+00
0.000000000000000000e+00
0.000000000000000000e+00
3.205651327967644626e-01
0.000000000000000000e+00
3.264711070060731579e+00
0.000000000000000000e+00
1.522332210540770880e+01
4.459909918904306103e+00
2.319615030288696644e+00
2.695825487375259844e+00
2.401675873994826738e+00
3.514079123735427856e+00
8.607123732566831498e-01
9.351776027679445491e+00
8.147251582145688786e+00
1.010762337595224603e-01
1.942265731096267656e+00
3.917829908459680019e-05
6.813647902011870983e+00
2.211859476566315319e+00
0.000000000000000000e+00
8.618844091892240433e-01
7.938412522889848333e-06
7.312226414680480513e-01
0.000000000000000000e+00
6.627149656414985102e-02
5.320015633106232045e+00
1.301363703608513056e+00
6.058987236022948863e+00
3.517335128784180309e+00
8.924042010307314143e+00
4.170787602663040272e-01
5.186832117033189724e-04
6.982386410236358643e-01
1.635015910863875543e+00
2.506964525673538099e-03
0.000000000000000000e+00
4.877163019045839171e-06
9.653460187837484274e-03
1.002788126468659158e+01
8.786310681898616053e-05
8.102992129325869541e+00
4.106458222866059771e+00
0.000000000000000000e+00
0.000000000000000000e+00
7.005717754364015448e+00
9.748373888432976253e-02
3.463495939970016591e-01
3.204690635204315852e-01
0.000000000000000000e+00
2.378925011726095405e-03
0.000000000000000000e+00
2.496625185012817938e-01
3.084485721588135476e+01
2.308294248580932795e+00
0.000000000000000000e+00
1.298585867881774991e+00
2.578731715679167813e+00
5.302507981657982317e-01
3.628338004091347271e-06
7.772493302822113259e-01
6.298983281850813576e+00
6.413625907897949396e+00
0.000000000000000000e+00
3.557374465465545033e+00
1.993051815032959695e+00
9.875880658626552400e-01
0.000000000000000000e+00
2.317861117422580219e-01
3.430578764528036898e-03
4.073956415057181646e-01
1.331798214232548508e-03
1.827470320463181253e+00
5.721672713756562612e-01
1.084162471294403574e+01
2.791745826601983449e-01
1.570299553871154830e+00
0.000000000000000000e+00
0.000000000000000000e+00
1.790407383441923628e+00
1.045817322731017462e+01
3.182410186529159635e+00
0.000000000000000000e+00
4.102166318893431196e+00
8.125660121440885231e-01
2.551593670248985646e+00
1.614115975797175251e+00
6.245911687612533125e-01
2.639055490493775302e+00
7.084602564573287964e-01
0.000000000000000000e+00
0.000000000000000000e+00
1.501572871208191273e+00
6.509188485145569025e+00
2.230846694111825013e+00
1.039469673287385613e-05
7.472840175032615662e-01
0.000000000000000000e+00
2.339622440672429538e-07
8.924120157957077248e-01
5.541950002312659995e-01
2.878944373130798873e+00
2.198968327045441207e+00
5.245126085355877876e-03
2.809149573295144296e-05
3.261339592933654608e+00
1.873930507898330600e+00
3.373512744903564009e-01
3.324224460124969305e+00
4.097363817691801913e+00
8.200127899726795922e-06
1.152031475305555386e+00
2.406295070613851653e-05
0.000000000000000000e+00
3.661116100847720822e-02
7.435667943954468839e+00
3.097593607380986699e-02
3.487624326226068661e-06
1.545147925615311335e+00
0.000000000000000000e+00
2.018619638681412365e+00
3.599547803401947910e+00
4.143197262287140248e+00
2.051945114135742099e+00
2.873932015895842795e+00
1.241372474396485175e-05
2.568253958225249711e+00
3.093520998954773837e+00
3.112042701244353449e+00
3.271752926707267140e+00
3.518209278583526611e+00
7.732459721410122901e-08
7.911513119935988936e-01
2.155200731754303156e+00
1.563937449827789870e-03
3.718702149391174494e+00
1.347407276625745432e-03
1.316625601053238448e+00
0.000000000000000000e+00
4.675228583812714334e+00
8.987231433391567048e-01
4.362047955510207171e-04
8.522396832704546288e-01
0.000000000000000000e+00
1.766689461469650668e+00
3.203840744495391135e+00
0.000000000000000000e+00
2.992556974291801231e-01
8.683860123157502997e-01
1.945170849561691284e+00
8.705683946609497070e-01
6.933453176170589760e-02
4.635863256454468839e+00
3.407364714145661999e+00
0.000000000000000000e+00
1.927532207965850564e+00
2.299224233627319425e+00
0.000000000000000000e+00
8.534329681424422968e-05
6.065958842635154058e-01
1.763791358470917503e+00
2.340933144092558926e+00
5.261091184616089045e+00
3.839303143322466555e-02
2.272958451509476063e+00
3.109889936447142400e+00
0.000000000000000000e+00
7.433008146286010920e+00
3.233998595533194156e-05
5.588861584663391557e-01
1.321997569903032854e-05
0.000000000000000000e+00
2.027790617942808904e+00
1.097729980945587380e+00
3.379810763703972361e-07
2.194234192371368408e+00
0.000000000000000000e+00
7.246899724006652832e+00
1.765205132961273460e+00
1.985846793651581565e+00
7.988276520336512747e-05
2.562301373481750577e+00
1.903626341004383523e-07
0.000000000000000000e+00
0.000000000000000000e+00
2.911106771230698165e+00
1.955576330423353937e-01
2.663229721784591497e+00
6.754669022560117142e+00
4.369842082262037630e-01
3.016920828819275702e+00
4.022715723514556529e+00
4.363891410827637429e+00
0.000000000000000000e+00
3.072786882519721874e-01
7.430055052042009445e-01
3.482462152533116479e-05
5.902814722061156871e+00
4.590420055389405007e+00
2.449392428994177973e+00
1.869410187005996704e+00
2.546887040138243741e-01
1.141362104564904306e-01
3.572203353047370689e-01
9.256122541427613371e+00
3.683860182762145108e+00
1.203713303804397228e+00
5.076005682349205017e-01
3.891137027740478427e+00
3.320607554912567760e+00
1.621678656339644364e+00
2.140238964557648060e+00
6.878850579261782450e+00
6.016178533434867193e-01
4.044019095599652586e-02
2.462558484077453702e+00
1.352812144905327363e-01
0.000000000000000000e+00
1.197205951029900245e-04
2.397623121738434726e+00
1.508212488889693947e+00
6.748114609718323109e+00
3.415767145156860973e+00
1.675416454672813693e-02
2.359614551067352295e+00
1.106783378124238215e+00
0.000000000000000000e+00
3.416614151000976651e+00
2.419283685684203533e+01
6.616220808029174449e+00
3.660457241535186146e+00
0.000000000000000000e+00
1.642921024560930032e+00
3.057063293457031428e+00
8.184221148490909314e+00
2.011344397068024037e+00
1.049327027052641831e-01
2.596103360701817911e-04
1.481169658899307517e+00
8.971836805343629262e-01
4.892019927501678467e-02
9.498530328273778744e-01
0.000000000000000000e+00
3.837396681308747226e+00
3.205857372283935636e+00
9.420073688030246029e-01
0.000000000000000000e+00
2.629386010766029180e+00
4.615629557520152006e-03
5.736873168498278497e-02
6.053275072574615834e+00
3.076698794960976424e-01
5.326108956336975453e+00
0.000000000000000000e+00
5.616055540740488849e-01
6.297149717807768443e-01
1.350424809455870800e+01
5.074121889472006153e+00
1.913417088985442494e+00
5.864982362879797384e-07
3.238091242313385631e+00
4.391065332293512924e+00
0.000000000000000000e+00
2.209152930974961571e+00
1.360385046899319716e+00
4.406976401805877686e-01
4.843372702598571777e+00
2.345961911487394267e-06
7.299183862414791485e-05
2.089794389903546268e+00
5.027917839470320100e-04
0.000000000000000000e+00
0.000000000000000000e+00
2.679468917846679510e+00
7.691603729501368392e-01
1.204214420169591460e-01
6.791298710595583543e-05
3.553617048623891394e-07
2.605208295583724354e+00
1.702157372236252186e+00
0.000000000000000000e+00
5.324893730878831555e+00
5.219598095864057263e-02
8.641488760709759021e-01
2.380719079155824960e-05
2.899765074253082275e+00
3.243820701754884523e-05
1.235753074979583987e-06
0.000000000000000000e+00
0.000000000000000000e+00
6.022701643407343264e-01
3.420416021347046698e+00
3.093574434842596954e-07
1.765596311997796917e-06
6.246562266349792836e+00
9.882948040962219460e-01
1.335446797311305375e-02
2.949179303646087824e+00
2.412462341785430731e+00
0.000000000000000000e+00
5.618103647232056019e+00
0.000000000000000000e+00
1.920704758167266490e+00
6.835804963111877797e+00
7.965220153331756814e-01
2.865581065416336060e+00
2.417393851280212225e+00
5.152468919754030097e+00
6.355227923393249156e+00
6.699969601631164728e+00
2.580321919918060480e+00
7.554062694311140191e+00
2.139792490005493875e+00
3.344481527805329257e+00
4.468591737747191317e+00
3.993006795644760826e-02
3.225964403152466353e+00
5.222717896103857838e-01
2.568416357040405273e+00
4.357982194051145640e-03
1.095408463478089178e+00
0.000000000000000000e+00
6.323990774154663264e+00
2.722666555643081132e+00
0.000000000000000000e+00
2.230682468414306729e+00
2.608666615560650999e-03
2.438334786891938055e+00
8.946669340133667214e-01
1.737413927912712541e+00
7.894437789916992632e-01
5.981895625591278076e-01
7.118970802366675174e-06
0.000000000000000000e+00
1.115184951573609390e-01
2.134753859043120983e+00
2.121197795867920455e+00
2.125361729413271367e-02
3.009063005447387695e+00
1.772813028097151911e+00
1.148656919598579629e-01
5.880633163452147372e+00
1.677710670232773538e+00
1.110512673854828547e+00
2.133997011184692649e+00
0.000000000000000000e+00
4.654381299018860219e+00
7.254122233390807750e+00
1.505559885501861705e+00
8.037865109145059589e-06
2.708041566610334350e+00
0.000000000000000000e+00
0.000000000000000000e+00
1.759980333736166705e-03
0.000000000000000000e+00
4.149514198303222656e+00
6.173286020755768266e-01
1.013157057762146041e+00
5.413003712892532349e-01
1.273520112037659802e+00
7.337198103778063904e-03
6.830330044031143188e-01
4.651406025886535289e+00
3.373978793621064121e+00
6.263867363333701643e-01
5.258842324838041565e-03
0.000000000000000000e+00
1.608070105314254761e+00
1.815257507562636707e+00
3.480470752716063654e+00
1.214840644598006225e+00
1.085159289650618544e-02
1.333416651050357762e-06
5.164717845618724823e-01
1.463826286792756282e+00
0.000000000000000000e+00
9.762871684415590295e-07
1.370396846532822011e+00
3.275316921644844115e-04
1.726757252216339911e+00
0.000000000000000000e+00
7.372186496468201321e-06
1.556926877237857498e-02
9.231821978092199288e+00
2.089906716346740190e+00
1.941343700885772350e+00
9.718656754493711247e+00
0.000000000000000000e+00
1.616670577786862711e-02
1.676208841800689964e+00
6.941398116759955536e-03
3.273349893093108420e+00
0.000000000000000000e+00
1.249368166923523038e+00
5.282361707941163602e-05
5.240932434797287875e+00
1.460012258030475227e-02
1.978318952023982724e-01
9.982275851070877837e-02
3.402224028110505394e+00
2.463676553964615046e+00
0.000000000000000000e+00
1.182086126760851072e-07
2.513448126614094003e-01
0.000000000000000000e+00
1.076996049880981232e+01
8.965449854731560864e-02
2.404642659425735296e+00
9.419690463691950122e-02
1.005023464560508950e+00
5.108835452460880465e-08
1.466128054516957279e-06
0.000000000000000000e+00
1.541748173534870092e-01
6.880734324455263007e+00
0.000000000000000000e+00
6.164739072322846791e-01
2.519082838296889726e+00
4.137799447774887618e+00
2.307766107842324985e-02
5.732351922988891069e+00
5.913010865449905840e-01
0.000000000000000000e+00
2.490663027763365456e+00
1.029350706934929915e+00
2.859619414806367388e+00
5.092838597297668635e+00
1.587885103374719886e+00
7.947620820999145685e+00
2.432059103250503007e+00
8.347838759422302468e-01
7.057163808494806845e-02
1.424956128466874604e-02
1.042762992256031127e-05
1.189277033805846884e+01
3.453263914585112726e+00
2.616017627588007599e-04
7.473768875002864132e-01
0.000000000000000000e+00
4.984720134735107777e+00
5.427115410566328180e+00
9.596648484468467410e-01
5.910707682371139082e-01
0.000000000000000000e+00
4.475869584083558728e+00
2.431599366664887185e+00
8.939229309558870407e-01
2.827866864204407360e+00
1.106829261779785467e+00
3.485191416740417658e+00
1.700421011447906139e+00
1.556824840605258164e-01
1.206859255034941692e-04
1.863630673289298212e+00
2.253972989320756071e+00
1.533484486863016805e-02
1.398292808532714560e+01
1.150141134858131964e-02
1.653274583816529031e+00
0.000000000000000000e+00
2.234533679485320334e+00
1.748085957765578957e+00
0.000000000000000000e+00
4.346793365478515803e+00
2.043385004997253951e+00
8.082547831535340066e+00
8.138371348381042703e-01
2.471200418472291105e+00
3.635254967212677712e+00
1.250238739203268779e-06
1.042867091298103288e+00
2.414836645126342274e-01
0.000000000000000000e+00
1.763331818580626820e+00
0.000000000000000000e+00
4.710451327264308236e-02
4.799631237983702725e+00
0.000000000000000000e+00
0.000000000000000000e+00
6.618895977735519409e-01
3.579724299907684149e+00
5.231477332115172629e+00
1.669081771373748690e+00
0.000000000000000000e+00
3.694471669197083141e+00
6.433079957962036133e+00
4.366136503219605558e+00
2.299739830195904680e-02
0.000000000000000000e+00
0.000000000000000000e+00
7.880776077508926392e-01
2.432463741302490767e+00
9.941682335920637957e-04
1.094786447286606457e+00
5.717759847640990767e-01
2.735762023925780273e+00
5.883249998092653366e-01
0.000000000000000000e+00
2.850392991676926543e-02
1.883166682720184060e+00
2.324603956937790095e+00
5.164420217275619285e-01
0.000000000000000000e+00
1.159049761295319225e+00
5.177443742752075195e+00
2.051877406239508872e+00
3.552485495674772577e-05
4.772286042571068088e-02
1.433013504743576139e+00
4.105007789689807502e-07
5.451201155781746355e-01
1.016804571151732972e+01
4.398644018173217596e+00
8.558798767626285553e-02
0.000000000000000000e+00
0.000000000000000000e+00
1.546860095113515576e-02
3.313187137246130565e+00
1.867483353614807218e+00
2.701205261246285835e-06
7.847037576138971016e-02
6.503358078002930753e+00
2.298136740922929189e-01
5.933838272094726918e+00
2.066501945257187778e+00
9.487563222646713812e-02
6.460948055982591143e+00
3.317968118190765203e+00
8.148699521370872390e-06
9.294824907556178137e-04
3.057533609867095770e+00
1.051782810688018044e+00
3.336038261279463679e+00
7.055035412311554399e-01
3.371190607547760010e+00
8.196886390447616355e-01
1.369510268887097007e-05
5.652573321413001607e-07
3.632683329284190910e-01
1.421165082603693119e-01
0.000000000000000000e+00
1.625306022167204656e+00
4.287415251135827110e-01
1.950528949499130249e+00
0.000000000000000000e+00
2.115664476156234652e+00
1.466553795337678157e+00
1.330228710174560458e+00
2.288747173547744485e+00
2.674526655673982400e+00
9.383971035480499490e-01
3.964924883842468439e+00
4.157164514064790595e-01
1.889755135774612071e+00
5.849811341613531113e-02
2.139860248565672585e+00
6.606905817985534668e+00
1.423711699247359963e+00
1.881288349628448486e+00
2.560308381915091802e-01
0.000000000000000000e+00
1.170001524686813621e+00
0.000000000000000000e+00
0.000000000000000000e+00
0.000000000000000000e+00
1.795730161666870828e+00
4.228590828180315064e+00
0.000000000000000000e+00
1.097278726100921142e+00
2.920255386829376576e+00
9.190012902021408303e-01
1.211008913815022348e-01
1.384990775585174694e+00
