6.006239128112793146e+00
7.301717972755431774e+00
2.800128722190855957e+00
8.723711282014846580e-01
2.273438441753388606e+00
0.000000000000000000e+00
1.037295918464660538e+01
5.577153730392456765e+00
5.761227339506149736e-01
5.756447958946226962e+00
3.558214056491851629e+00
2.937314534187317250e+00
8.221224933862687489e-01
2.941315114498137540e+00
3.559115910530090243e+00
6.360876888036728349e-01
1.902206099033355802e+00
7.114145326614379705e+00
1.297996824979781083e+00
3.860643231868743808e+00
5.588985228538513539e+00
3.300961494445799449e+00
5.863757610321046698e+00
3.069842004775999111e+00
1.887190449237824197e+00
2.707694526761771428e-02
1.623529364587739847e-03
4.295017924159764966e-02
3.042261576652526500e+00
8.598040318489072575e+00
0.000000000000000000e+00
2.220000970363616766e+00
2.614690399169922408e+00
4.379181718826294478e+00
2.969092178344725497e+00
1.173663187026978250e+01
1.627829256057739116e+01
4.190172100067139027e+00
4.462885642051697133e+00
4.894023013114929377e+00
7.724716496467590510e+00
9.647529125213626600e+00
2.791755437850951260e+00
7.245650663971900385e-02
2.058477821350097514e+01
1.817351299524307517e+00
2.284630453586579346e+00
5.183378195762633922e+00
2.511035192012786688e+00
8.402664721012117477e-01
2.179998636245727983e+00
4.712703633308409579e+00
8.874899029731750488e+00
3.969748544692992986e+00
3.792501854896546121e+00
1.231010878086090887e+00
7.642833799123763816e-01
5.932337760925292969e+00
7.726456403732299805e+00
2.639522132873535654e+01
1.412098184227943976e-01
2.494246125221251553e+00
1.926437907329159824e-06
0.000000000000000000e+00
3.428831768035887961e+00
1.849912130832672919e+00
1.117024130821228312e+01
7.008369207382202148e+00
8.948039102554320223e+00
2.317618668079375777e+00
1.974488252401351840e+00
4.504399597644805908e+00
1.716813738457857730e-02
1.368953776359558638e+01
1.138817429542541859e+01
2.454143965244292680e+00
3.535550212860107955e+00
6.992258834838867010e+00
1.665781986713410046e+00
8.686109662055969682e-01
1.053278326988219327e+00
9.768968075513843052e-01
4.368904638290406872e+00
2.812986481189727606e+00
1.391769987344741111e+00
4.357283163070678533e+00
3.273170351982115811e+00
5.648134207725524547e+00
3.315571820735931485e+00
5.875062489509582875e+00
1.205906474590302313e+00
1.618258666992189010e+00
4.048656213283538641e+00
9.013149213790892844e+00
3.150957274436952282e+00
3.181494867801666793e+00
9.534602344036102739e-01
1.107154641151428009e+01
7.934048748016357067e+00
7.229682475328444990e-01
3.307508862018585294e+00
1.242800998687744496e+01
2.982763509750368414e+01
1.847895032167435447e+00
0.000000000000000000e+00
5.866185116767883123e+00
5.438055381178857894e-01
5.948194336891174494e+00
3.740281808376312078e+00
1.053491973876953480e+00
6.552883887290954945e+00
0.000000000000000000e+00
2.163377130031585605e+00
4.827584576606751554e+00
2.222839069366455256e+00
0.000000000000000000e+00
6.421185541152953924e+00
1.023571091890334461e+00
1.268762964010238026e+00
2.669943988323212114e+00
0.000000000000000000e+00
1.161371284723281327e+00
1.132600638270378379e+00
1.286344456672668812e+01
2.248791193962096369e+00
6.862795591354370339e-01
6.801183962821960804e+00
1.038374338150025089e+01
1.789261823892593029e+00
3.234086561203001420e+00
1.990389600396156589e-01
1.112912803888320035e+00
0.000000000000000000e+00
4.418205812573433033e-01
0.000000000000000000e+00
9.153053939342491452e-01
1.439834631979465818e-01
3.603225767612456387e+00
0.000000000000000000e+00
1.535446488857268976e+00
2.835069745779038586e-01
1.062307709455490023e+00
0.000000000000000000e+00
2.320238339900969393e+00
6.404757308959960760e+00
3.145036029815673650e+00
6.604659318923950195e+00
4.755398225784301935e+00
2.010258340835572533e+00
0.000000000000000000e+00
2.821844315528869718e+00
8.289494442939759011e+00
1.282863408327103105e+00
4.708152222633360751e+00
1.718707633018492942e+00
4.186132736504079473e-03
2.653149139881133767e+00
7.662739962339401023e-01
3.137498283386231712e+00
0.000000000000000000e+00
3.397088706493377686e+00
4.322755217552185059e+00
5.115757489204407094e+00
8.739396834373474476e+00
0.000000000000000000e+00
9.405458974838257546e+00
5.423035025596618652e+00
4.846501722931861877e-01
9.938472181558607454e-01
6.773579895496367742e-01
3.326979029178618763e+00
5.272868847846984508e+00
5.994130277633666459e+00
4.139543354511262763e+00
7.238765668869018732e+00
9.213024228811264038e-01
4.770720195770264738e+00
3.535717964172364614e+00
2.351735007762909557e+00
2.239411249160767170e+01
1.257567942142487016e+00
9.858938026428218038e+00
9.264888048171993518e+00
7.927102947235107777e+00
5.808681212365626040e-02
5.945410966873168945e+00
2.875007510185242143e+00
3.557595539093016068e+00
6.328297758102417347e+00
2.553337740898133035e+00
5.995808529853821511e+00
7.219024419784545898e+00
6.502044677734375000e+00
4.258285951614380060e+00
7.720048165321351519e+00
6.849345588684082387e+00
3.913916027545926823e+00
1.911824882030486450e-01
4.970677590370177867e+00
0.000000000000000000e+00
6.084032344818115057e+00
3.513985965400934393e-03
1.451467478275299872e+00
1.619888252019882291e+00
4.018912661075591863e+00
4.206877040863036044e+00
1.660230660438536843e+00
0.000000000000000000e+00
2.932353806495666682e+00
6.898176479339601208e+00
4.123998963832855580e+00
5.831444120407105913e+00
7.029315137863159535e+00
5.792840686626732523e-03
6.396875500679016113e+00
1.502843576669693038e+00
2.802917587757110862e+00
6.130595517158508478e+00
8.461738854646683183e-01
2.284602332115174494e+00
2.082208734750747414e+00
5.952776479721069158e+00
1.449832308292389405e+00
3.892374062538147772e+00
3.166710913181305376e+00
3.431108534336090976e+00
3.749422132968901700e+00
1.143784780502318732e+01
6.227053189277649281e+00
3.803524756431579057e+00
9.022810250520706399e-01
2.754932475090026589e+00
3.860384309664367797e-02
3.143002433776855042e+01
3.692325747013092130e+00
9.037809896469116921e+00
4.503561091423034846e+00
3.612365603446959561e+00
7.935081505775452015e+00
0.000000000000000000e+00
3.588570284843444647e+00
1.135291689634323475e+00
2.853101372718810591e+00
0.000000000000000000e+00
6.055775094032289196e+00
5.571684670448302512e+00
2.600300776958465843e+00
2.183227497339248480e+00
1.104624673724173611e+00
1.829917496442794445e+00
2.127841699123384167e+00
1.514486861228942516e+01
2.140161693096160000e+00
2.637003910541535046e+00
2.716826677322388583e+00
2.419011020660399858e+00
3.089344143916153488e-05
8.771748834988102859e-05
8.239250004291533980e-01
4.851323127746582031e+00
1.901517122983933827e+00
2.452057278156279718e+00
1.515542201995850391e+01
2.499389970302581698e+00
3.224236166477202570e+00
0.000000000000000000e+00
0.000000000000000000e+00
4.547619509696960272e+00
0.000000000000000000e+00
5.639415335655210804e+00
1.584730452299118575e+00
1.718516904115677146e+00
6.458023166656493785e+00
6.166315126419066317e+00
1.855391163825990830e+01
5.108445286750793457e+00
1.058909416198729803e+00
4.072905369102954726e-02
1.061725358963011523e+01
5.678810572624206188e+00
5.192107486724853338e+00
0.000000000000000000e+00
9.670172870159150502e-01
3.883816802501677934e+00
8.488819039484952187e-05
1.856852370500563953e+00
1.423770350217818503e+00
2.028892844915389126e+00
1.480627673864364446e+00
1.240159559249877752e+00
8.807617259025573020e+00
4.183500218391420056e+00
1.071368570327758896e+01
6.215605711936950328e+00
0.000000000000000000e+00
0.000000000000000000e+00
3.056986355781554643e+00
8.511264109611506257e+00
4.465080189704896618e+00
7.143311500549316406e+00
3.923824203014374401e+00
3.839511781930922685e-01
1.217764654159545579e+01
4.057390585541724159e-01
3.955894303321838557e+00
1.707371115684508611e+00
4.553507041931151633e+00
2.074493005871773099e-01
6.545113712549209817e-01
1.493490830063819441e-01
2.905920827388762895e+00
4.982169556617738415e+00
1.423999009132384685e+01
9.356190395355222122e+00
4.096463274955748801e+00
3.618481731414794123e+00
8.676944613456726296e-01
1.373889884948730966e+01
1.563583254814147283e+00
7.624643015861510165e+00
5.214219856262206854e+00
1.107368415594100375e+00
3.273273682594299405e+00
5.414656567573547186e+00
2.382055699825287309e+00
5.161376404762267889e+00
5.588690876960754395e+00
1.688796906471251447e+01
3.626153349876403809e+00
3.715760183334351208e+00
0.000000000000000000e+00
2.961207032203675205e+00
1.094787290692329940e+00
1.792931616306306042e+00
4.111634600162505926e+00
5.085707492828370135e+01
4.350198224186896390e-01
1.735869598388672497e+00
3.155601477622985929e+00
1.879125967025757404e+01
1.127045965194702237e+00
5.062069559097290394e+00
1.704406595230102184e+00
8.079282617568969371e+00
2.621036875247955145e+00
2.287644666433333196e+00
3.654112195968628019e+00
1.911280828714371438e+00
3.014851903915406250e+00
0.000000000000000000e+00
2.425382518768310014e+00
1.013480648398400019e+00
3.578583061695099765e+00
2.442382343113421450e-01
9.039419174194337714e+00
2.854017794132233998e+00
9.972006416320791544e+00
1.012576761245727752e+01
1.775286960601806685e+00
5.014564603567122081e-01
6.652190876007080256e+00
4.826360321044921520e+00
5.304445934295654475e+00
4.143440139293670832e+00
2.590098023414610928e+00
5.384098935127259011e+00
2.799102687835692826e+00
5.544369626045226873e+00
2.513591563701631060e+00
1.631430792808533425e+01
7.992555212974548517e+00
7.293942403793335139e+00
4.245426487922669523e+00
2.871099829673767090e+00
1.469091906547546600e+01
6.243602418899536488e+00
7.811712360382079723e+00
2.793149495124817694e+00
2.816005015373230336e+00
4.220834338665008900e+00
3.296912848949432373e+00
1.234043641090392995e+01
5.050876379013061523e+00
1.680693429708480791e+00
0.000000000000000000e+00
0.000000000000000000e+00
3.103838278912009196e-03
8.066050648689270242e-01
5.562840080261230113e+00
8.807994318008422141e+00
5.181345891952514826e+00
8.883136940002440696e+00
8.684428215026855913e-01
2.847222173213958207e+00
2.457518577575684482e+00
2.755445981025695712e+00
1.086959390228514664e-06
4.244635391235351385e+00
6.690022289752960427e-01
4.906584095954895197e+00
3.838950228691102584e+00
1.080381691455840620e+00
1.845350325107574463e+00
1.053571987152099254e+01
3.699523396790029006e-02
6.054333615303039373e+00
1.000890998840331925e+01
8.725803434848785622e-01
1.018314006924628590e+00
0.000000000000000000e+00
5.840575814247130904e-01
6.642910432815551935e+00
3.720722067356109442e+00
2.558753323554993298e+00
5.845696210861206055e+00
1.348014879226683949e+00
5.758873724937439320e+00
4.639537322521209539e+00
6.232066899538041271e-01
9.067123746871949663e+00
2.219627451896665882e+00
1.006671261787415261e+01
1.044726386070251678e+01
1.174181598424911543e+00
4.780248194932935624e-01
1.283655840158462569e+00
9.497333288192745471e+00
1.337921214103697798e+00
1.211802756786346524e+00
1.881446033716201782e+00
8.823869138723239574e-05
2.239007176831363678e-03
5.095572161674500222e+00
1.897840780019760087e+00
2.335057002305985119e+00
1.390300095081329568e+00
0.000000000000000000e+00
1.584418064355850753e+00
9.425778627395629883e+00
1.584501439332961281e+00
1.662542170286178234e+00
7.197915941476822344e-01
6.046622061729430619e+00
3.086054138839244756e-03
8.834185600280761719e+00
2.249081075191496470e+00
1.494476670026779530e+00
8.914141607284545188e+00
6.276456308364868342e+00
1.304426741600036266e+01
3.788028061389923096e+00
5.103049039840698242e+00
1.197859370708464599e+00
2.432081973552702614e+00
3.543490803241729825e+00
3.496038877964020575e+00
1.580844169855116998e+00
2.910683608055113503e+00
6.059203147888183594e+00
6.603506922721862793e+00
4.043184900283813832e+00
1.268108457326889482e+00
0.000000000000000000e+00
5.399043083190918635e-01
1.443715536594390336e+00
5.397646713256835760e+00
1.093758076429367732e+00
1.629637086391449330e+00
7.811499023437500355e+00
9.709251785278325997e+00
2.966202640533446733e+00
7.346829399466513200e-02
2.211516118049622115e+00
1.002763113975524334e+01
9.287977367639541071e-02
8.748161268234252219e+00
1.542963260412215432e+00
1.965424841642378739e+00
4.648030900955200551e+00
9.386190086603166671e-01
6.334471046924591286e-01
6.088603138923645020e-01
3.194744265079497492e+00
6.150254797935485129e+00
4.143604207038880105e+00
6.079988360404967374e+00
5.894676494598387606e+00
5.210683250427246449e+00
9.984751552343364978e-01
5.072760224342347080e+00
1.964260309934617033e-01
5.651688027381896795e+00
4.041577771306038014e-01
1.041268029212952051e+01
1.584874451160430908e+00
4.521534621715546542e+00
3.923356306552887585e+00
1.982371133565901999e+00
6.834065222740173695e+00
2.481760990619659157e+00
1.222675619125366175e+01
2.576459944248198856e-03
1.470386558771132890e+00
4.852197527885437012e+00
7.205926394462585094e+00
4.412830710411071777e+00
4.098144388198853072e+00
1.627923113107681896e+00
1.370810866355894664e+00
5.260274291038514072e+00
1.084762802720069752e+00
2.196624648571015470e+00
1.726430735588073162e+01
2.535665822029113503e+00
6.644342398643493297e+00
4.638365492224691411e-01
2.246191358566285601e+00
1.221069502830504527e+00
1.335619449615478738e+00
3.887035167217254727e+00
4.247988581657409668e+00
4.616976499557495117e+00
1.935121583938598233e+00
4.198928296566009521e+00
2.670824122428894221e+00
6.073639845848084917e+00
2.310379803180693248e+00
1.809665870666504528e+00
2.182447448372840104e-01
3.819973933696746649e+00
4.137479317188262229e+00
4.321508198976515835e-01
5.213503408432006658e+00
2.914908378443215910e-03
1.197844438254834082e-01
2.394555318355561013e+00
3.684939050674438388e+00
4.570844101905822576e+00
6.717539644241332653e+00
4.176815676689146883e+00
9.480371206998825517e-01
5.815997886657713778e+00
0.000000000000000000e+00
6.247257733345032982e+00
8.037092089653015137e-01
0.000000000000000000e+00
3.767359960079192938e+00
4.719504094123839977e+00
1.928725175559519722e-01
6.859827423095703480e+00
2.608112692832947666e+00
4.649331438541413064e+00
4.071280801296234486e+00
1.578380054235458019e+00
5.370305013656616389e+00
1.151813077926636897e+00
3.453112076967954774e-02
6.449173227883875717e-03
5.744065356254576038e+00
5.314845061302184703e+00
1.417876136302948398e+00
5.089825081825256170e+00
3.739800262451173474e+00
4.834433269500732600e+00
1.350855600833891668e+00
1.584512877464294034e+00
0.000000000000000000e+00
6.637140607833861949e+00
6.012387931346894199e-01
4.586112737655639648e+00
2.352066838741302401e+00
1.516125643253325439e+00
5.638421583175660778e+00
3.986440253257752975e+00
3.434005415439605802e+00
3.155298340320586981e+00
8.514824724197387340e+00
8.999937891960143599e-01
3.914709222316742121e+00
1.849961352348328703e+00
0.000000000000000000e+00
3.982288634777069625e+00
9.443117284774787734e+00
1.278750503063201815e+00
0.000000000000000000e+00
4.581890356540679221e+00
0.000000000000000000e+00
0.000000000000000000e+00
2.975765836238861262e+00
5.938273310661315918e+00
1.137301211357116593e+01
6.476042628288270819e+00
8.106628477573394331e-01
4.968665432929991077e+00
6.862724852561949085e+00
4.172454762458801980e+00
8.682135915756225231e+00
5.332384729385376332e+00
1.526330953836442017e+00
2.568857359886169256e+00
4.173842072486877441e-02
1.228460425138473644e+00
4.659607338905334295e+00
4.522239804267883301e+00
6.567119097709655406e+00
1.971062564849853205e+00
5.094578790664671786e+00
0.000000000000000000e+00
5.975966238975525258e+00
2.977863430976867676e+00
3.502240347862243475e+00
1.412529987096786233e+00
1.679987508058548018e+00
0.000000000000000000e+00
1.876080884933471538e+01
3.483273220062256037e+00
2.542885065078735707e+01
1.820159035921096180e+00
5.367494964599609730e+00
3.473699450492857999e+00
1.183089554309846303e+00
1.290563249588013495e+00
1.853357207775115700e+00
1.342800083160400426e+01
5.780975198745728960e+00
2.033592307567596791e+00
5.617530792951584001e-02
3.840934073925017511e+00
1.919655637741087517e+01
2.107990431785583318e+00
4.646923911571502863e+00
4.865609053522348959e-02
1.400784935951233834e+01
1.778121429681777332e+00
3.003825807571412820e+00
6.135615944862365723e+00
1.657180076837538873e+00
5.808210760354995950e-01
0.000000000000000000e+00
2.076620119810103748e+00
1.993685889244079634e+00
4.495206439495087025e+00
1.073473253250122283e+01
7.180362534523008655e+00
5.525772929191589355e+00
2.408226478099822376e+00
5.937748759984970981e-01
1.278300052881241378e+00
2.697198450565339023e+00
1.751261556148528076e+00
6.457680964469910023e+00
7.031035375595092951e+00
5.599917030334472301e+00
3.199555099010466641e+00
3.926933765411376953e+00
4.314425849914549360e+00
3.034305500984192605e+00
7.424696588516235707e+00
1.037530341148376500e+01
5.272602231707423578e-03
3.049069091677666377e-01
7.163931548595428023e-01
2.892203927040099209e+00
1.910669362545013517e+00
1.702058763504028605e+01
8.069717001914977317e+00
0.000000000000000000e+00
7.001886606216430664e+00
3.944552969187498093e-03
7.151628918945789060e-02
5.114757657051087314e+00
2.685632574558257879e+00
8.005778670310972345e+00
0.000000000000000000e+00
3.593644773960114058e+00
0.000000000000000000e+00
2.231766211986541570e+00
7.441786503791808727e+00
3.427725672721862793e+00
4.043204367160795343e+00
4.515609502792359287e+00
2.335826897621155140e+00
9.852777332067489402e-01
1.033698801994324334e+01
1.754146617650984563e+00
2.204398047924042370e+00
3.631814610958098655e+00
2.261519968509674516e+00
2.705985164642334517e+00
7.180295276641845525e+00
1.240680208206176971e+01
2.710705459117890292e+00
5.272700238227844061e+00
6.217236018180848589e+00
7.114867389202117476e-01
1.718338710069656106e+00
4.087892663478851496e+00
1.018610790371895058e+00
6.612898651510476511e-02
5.131893587112426935e+00
1.675821560621261197e+00
1.447149854898452492e+00
0.000000000000000000e+00
7.628683495521544344e+00
4.811208581924438121e+00
6.548103570938108575e+00
4.902024936676026456e+00
6.811952114105224609e+00
3.205048859119416171e+00
2.409771347045898349e+00
2.106203615665434903e+00
4.174074983596801403e+00
1.157466477155685514e+00
3.345082962512970770e+00
2.870160222053527832e+00
3.020449304580688388e+00
7.848301935195922674e+00
5.841237038373947588e-01
9.310254478454590199e+00
4.496752377599477768e-02
1.038130216598510458e+01
1.498458230495452792e+00
1.269640235900877911e+01
1.549438290596006951e+01
5.845547008514404119e+00
0.000000000000000000e+00
0.000000000000000000e+00
4.759839820861816229e+00
1.925489246845244695e+00
1.892661011219025413e+00
4.201946333050727844e-01
2.248562537133694250e-01
9.398466765880583162e-01
2.209914511442184981e+00
1.995476484298705611e+00
2.556550049781799672e+00
5.661005067825317205e+00
7.369957852363585360e+00
5.919352245330811613e+00
1.190887622833252024e+01
1.052313700318336043e+00
5.416988492012023926e+00
1.494361001253128318e+00
5.667316031455993830e+00
1.833695089817047430e+00
4.485838562250137329e-01
1.969973993301392001e+00
9.938769116997725472e-02
5.542322254180907848e+00
6.683650064468383611e+00
1.243524539470673096e+00
3.371566593647003174e+00
3.216284263134004284e+00
9.953127428889282924e-02
2.821349644660950062e+00
3.326694262027739768e+00
9.318475961685177111e+00
6.099741506576537908e+00
7.359421461820601085e-01
1.258178889751433882e+00
1.060387210845947514e+01
1.009311130642891019e+00
7.110462546348571777e+00
1.107915538549423484e+00
6.553018298000097552e-02
8.320960141718387881e-02
1.347651612758637540e+00
1.905679172277450650e+00
5.980125141143798118e+00
3.824374508857727228e+00
1.707506012916564941e+01
5.520896327495575129e+00
5.616856288909912287e+00
1.899094283580780029e+00
6.349818301200866877e+00
0.000000000000000000e+00
8.741341280937195535e+00
4.541188812255859020e+00
1.503145313262939098e+00
8.207882785797119496e+00
3.075256636366247714e-02
2.004570055007934837e+00
4.118610680103301225e-01
5.896276497840881703e+00
3.249196636676789041e+00
5.018998956680297496e+00
7.100402760505676092e+00
1.921589547395706976e+00
7.935940718650817516e+00
3.522037708759307328e+00
6.141242027282715732e+00
2.426918518543243586e+00
3.428439557552337646e+00
1.870383566617964677e+00
4.417602479457854336e+00
2.756874763965607489e+00
1.988746700808404627e-02
1.240111744403839422e+00
3.116282239556312783e-01
2.752465896606445384e+01
2.037811034917830888e+00
8.228881567716598289e-01
1.072072225809097334e+00
4.538771128654478737e+00
5.546659207344054821e+00
1.973402822017669589e+00
9.275953829288482444e-01
4.989785742759704767e+00
6.885102772712706098e+00
0.000000000000000000e+00
1.743729656934738470e+00
3.820920872688292835e+00
1.092962861061096191e+00
6.261107265949249490e-01
1.294308197498321489e+00
2.933220696449279963e+00
4.315747416019439342e+00
4.031612664461134976e-01
1.635657417774200484e+00
3.866107010841370428e+00
4.446044898033141735e+00
0.000000000000000000e+00
4.888522171974180708e+00
9.927237129211427202e+00
0.000000000000000000e+00
6.756126046180725098e+00
1.377224602699279465e+01
4.411581182479859642e+00
6.866989731788635254e+00
0.000000000000000000e+00
0.000000000000000000e+00
5.748455619812012252e+00
6.416617321968077547e+00
1.976625335216522839e+00
1.003419372439384283e+00
8.550031375885009055e+00
4.455022072792052867e+00
6.152704358100891113e-01
2.611228898167610724e-01
0.000000000000000000e+00
1.100130956619977882e-02
5.574180817604064586e+00
1.518088853359221613e+00
1.553811722993850397e+00
6.924944996833799493e+00
1.099054473638534812e+00
2.367790186405182684e+00
1.304579329490661088e+01
2.856523537635803134e+00
1.134441429376603638e+00
1.088901036977767856e+00
4.260948705673217596e+00
2.634458017349243342e+00
1.888543236255645796e+00
5.287623095512390847e+00
5.010442042350770286e+00
2.677448952198028476e+00
5.636659383773802823e+00
3.242313785552978089e+01
1.107169023156167054e+00
1.066884464025495971e+00
1.912999629974365901e+00
3.524727201461791193e+00
2.020451134443282726e+00
1.724096399545669511e+00
6.085752987861633656e+00
5.420075368881225764e+00
7.695726609230040260e+00
4.418409895896911799e+00
2.669676005840301514e+00
3.226386165618896573e+00
8.567668294906615856e+00
1.251891696453095060e+00
1.271399313211440507e+00
7.783683001995086448e-01
0.000000000000000000e+00
2.550961494445801669e+00
1.521492886543274414e+00
4.410550856590270463e+00
5.320991683006286443e+00
1.182433390617370428e+01
4.338864517211915128e+00
4.577852356433867342e+00
7.158476448059081676e+00
3.105636072158813654e+00
2.224007785320280650e+00
4.133291447162627641e+00
1.675964027643202792e-01
3.394052755832672297e+00
9.292240524291994319e+00
1.565059661865233931e+00
2.798164856433868142e+00
8.264801073074341531e+00
4.635525918006896617e+00
1.520004642009734841e+00
1.653710073232651068e+00
1.383622217178344105e+00
7.665781558330306343e-05
8.094398474693297985e+00
8.642777180671691539e+00
4.665690183639524591e+00
7.713515734672546031e+00
1.068571722507476007e+00
5.067402601242064542e+00
3.534382271766662420e+00
7.336208772659301935e+00
1.273865008354186479e+00
2.690662765502930487e+00
2.520695233345031649e+00
1.880550128221511574e+00
1.240390273928642539e+00
9.091575193405152078e+00
4.112026250362395885e+00
0.000000000000000000e+00
2.281176871061325606e+00
6.074767661094665705e+00
1.442697203159333252e+00
5.728014588356017178e+00
3.526700045913457732e-02
2.509743499755859197e+00
8.281027817726135609e+00
1.268864288330077983e+01
4.892724648118018105e-01
2.901853251457214622e+00
5.920937156677245738e+00
1.982675321400166335e-01
1.961625903844832930e+00
0.000000000000000000e+00
1.124295097589493198e+00
2.127250194549561435e+00
9.796169424057001862e+00
5.235228013992308860e+00
8.577921462059020286e+00
2.276993632316588467e+00
7.963603711128234508e+00
7.356261777877804775e+00
5.398320126533508123e+00
2.355689162015914384e+00
1.531188106536866211e+00
1.685146999359130593e+00
9.377197086811064342e-01
5.599922776222228116e+00
6.570792412757873180e+00
7.212044954299926758e+00
4.714797592163085582e+00
2.938760638236999623e-01
3.832552230358123868e+00
4.361059117317199529e+00
6.929011845588684437e+00
8.799023889005183618e-02
2.448242199420927800e+00
5.326329874992370428e+00
0.000000000000000000e+00
3.693077015876770730e+00
6.023730683326721014e+00
3.762170529365539640e+00
8.131219577789307706e+00
8.126833289861679077e-01
4.945774888992309215e+00
2.397528797388076782e+00
0.000000000000000000e+00
0.000000000000000000e+00
2.199923098087310347e+00
1.604392647743224098e-01
1.115875339508057351e+01
1.298727965354919522e+00
1.603639996051789751e+00
2.948959052562714067e+00
9.215345591306686179e-01
0.000000000000000000e+00
1.148218780755997814e+00
0.000000000000000000e+00
5.900075149536132990e+00
8.178956341743468528e+00
1.295896928757429012e-01
1.984541249275206809e+00
3.719550025463104426e+00
5.519509363174438299e+00
0.000000000000000000e+00
9.828049945831299539e+00
9.033587098121637737e+00
1.962568432092665516e+00
2.293094003200531361e+00
7.047387170791625799e+00
5.712457656860351562e+00
1.091034679412842578e+01
7.394602012634277521e+00
2.021272063255310947e+00
2.931304097175598145e+00
1.002472558617592213e+00
1.221530113220215519e+01
5.110389545559883562e-01
1.936024534702300404e+00
2.523035359382630016e+00
3.168304860591886207e+00
6.932434535026549938e+00
4.218256437778473256e+00
5.686314725875853071e+00
6.075676560401916504e+00
5.793224573135375977e-01
2.055840033292769764e+00
7.041171407699586382e+00
5.367625840008258958e-02
1.039125740528106523e-01
1.717813420295714266e+00
2.942401003837584739e+00
7.636009657289832397e-04
8.636209415271878676e-04
2.505867195129392933e+00
6.205531597137451172e+00
0.000000000000000000e+00
1.852884879112244931e+01
5.051609516143797940e-01
3.110988390445709850e+00
2.758677348494528725e-01
1.274380669593812065e+01
2.178724479675293146e+00
5.152035808563232955e+00
1.877074934542178053e-01
0.000000000000000000e+00
1.297959029674530917e+00
6.587017703056335272e+00
1.501694297790526456e+01
9.461154341697695092e-01
7.696474671363830566e+00
8.454196333885194647e+00
3.224561786651611417e+00
6.193671021610498706e-02
1.354888945817947610e+00
4.731952214241028187e+00
3.429597802460193721e-03
5.095649165554046953e-05
4.516462635993955921e+00
3.825704991817474365e+00
3.631269943714142023e+00
1.370161664485930908e+00
6.602694392204284668e+00
2.030349051347002907e-03
1.371621475219725994e+01
1.131476825475692838e+00
9.009729170799250397e+00
1.090642613172530861e+00
1.603828368186951536e+01
1.892999511957168535e+00
4.280648970603943226e+00
6.233976364135742188e+00
4.547001051902769930e+00
4.541676259040831276e+00
1.940656518936157982e+00
2.789604878425597789e+00
2.340895541012286141e-01
4.926198005676268643e+00
2.715103912353515447e+00
1.420242685079573519e+00
4.119282150268555043e+00
3.805684530735015780e+00
8.848553800582880768e+00
4.996318554878234508e+00
5.580805945396424050e+00
2.293310441076754636e-01
6.008546876907349343e+00
6.160366445779800193e-01
1.608338385820389238e+00
3.428434360027313943e+00
2.344406020641327082e+00
1.659839844703673961e+00
2.251035666465760254e+00
5.477776217460632147e+00
6.579594326019287287e+00
2.092814505100251132e+00
4.192081046104430442e+00
9.276163339614866388e+00
4.439034253358841164e-01
4.611616206169128596e+00
6.025884914398192294e+00
7.946637988090515137e+00
0.000000000000000000e+00
1.569290709495545055e+00
5.369748997688293279e+00
2.629592978954315097e+00
4.431757378578185858e+00
2.859555816650391158e+00
4.139591777324676869e+00
3.189881682395933726e+00
5.284081530570984064e+00
7.253819727897644398e+00
2.477583515644074197e+00
3.818347644805907493e+00
5.218936038017273127e+00
1.178477782011031927e+00
1.190528507232665589e+01
3.833550488948821222e+00
3.050528693199157981e+00
1.997462373971939043e+00
3.130210340023039883e+00
0.000000000000000000e+00
4.766413712501525346e+00
2.969769489765167414e+00
8.352084577083587202e-01
1.621497213840484175e+00
8.574545443058013694e-01
0.000000000000000000e+00
1.133397763967515681e+00
2.393365621566772017e+00
1.380971086025238437e+00
4.412238311767578303e+00
1.088973543047905279e+00
2.718178784847261387e+00
1.646818548440933117e-01
8.765681028366088867e+00
4.269169461727142512e+00
1.433691054582595381e+00
3.666611981391906916e+00
3.160557925701140913e+00
2.958644950389862416e+00
7.447089529037475231e+00
6.941017961502074840e+00
3.642587506771087114e+00
2.668732196092605258e-01
9.055299568176268465e+00
1.309086424112321456e+00
2.208386754989624112e+00
1.163407936692238520e+00
4.451624155044553888e+00
3.568735587596891357e+00
8.066704809665680154e-01
1.086600203514099050e+01
3.200593423843383079e+00
3.464717257022857488e+00
3.315691244602203547e+00
0.000000000000000000e+00
4.535802793502808683e+00
1.704561042785645686e+00
7.272601866722105513e+00
4.830744791030883611e+00
3.184959864616393688e+00
4.341232031583786011e-01
3.675658261775970548e+00
2.269080346822738736e+00
1.096713334321975930e+00
2.693712376058102209e-01
5.066766738891601562e+00
4.150860536098480047e+00
2.795647859573363370e+00
0.000000000000000000e+00
2.955603730678558527e+00
7.460152566432951549e-01
1.994453163146972230e+01
3.981139063835145375e+00
1.471286106109619629e+00
6.887620854377746404e+00
1.252812629938125699e+00
6.080034184455871404e+00
4.503391027450561523e+00
3.560921013355254239e+00
3.185340882114891215e-06
3.073925447463989968e+01
1.670046603679656183e+00
9.371023130416871183e+00
2.057507061958314232e+00
4.279582595825194957e+00
3.661266732960939685e-02
0.000000000000000000e+00
1.801168984174729371e+00
1.971992236375809116e+00
3.917417132854461581e+00
2.178427916765213190e+00
1.293150550127028620e+00
5.525966271758079307e-01
4.630146837234496715e+00
1.423607999086381026e+00
1.763156824111938192e+01
0.000000000000000000e+00
8.762155961990355735e+00
9.750080347061155450e+00
4.024188113212583850e+00
1.688779056072235107e+00
5.944737243652343572e+00
5.038722194731235643e-02
3.311552953720093395e+00
1.999321043491363525e+00
5.452378559112547762e+00
2.130939793586731135e+00
5.696137666702270508e+00
6.888032746315002619e+00
1.356665438413619640e+00
1.273073315620421475e+00
5.896032428741456499e+00
7.332507111132144373e-02
4.045464539527892533e+00
0.000000000000000000e+00
7.877458065748215166e-01
1.217563390731811879e+01
0.000000000000000000e+00
6.739600849151609729e+00
3.501777219772339578e+00
6.193417763710021617e+00
7.660752058029173028e+00
3.940837955474854049e+00
7.740243732929229514e-01
1.120719993114471347e+00
3.005185234546661199e+00
0.000000000000000000e+00
2.181768769025802079e+00
7.264098238945008390e+00
3.970555078983307062e+00
5.177821445465087713e+00
6.413434222340583246e-02
5.753270483016967418e+00
1.113107056617736390e+01
0.000000000000000000e+00
1.761219739913938653e+00
4.097939670085905206e+00
2.749936542510987536e+01
5.789397215843200328e+00
2.933237624168396174e+00
1.270627913475036408e+01
3.763463342189788730e+00
0.000000000000000000e+00
5.907889032363891957e+00
1.665418434143066007e+00
6.304811263084411976e+00
2.408508312702177800e+00
6.355615973472594771e-01
1.932987958192824207e+00
7.711439728736877441e+00
4.137921607494353893e+00
0.000000000000000000e+00
7.821535015106201527e+00
4.191165137290954412e+00
2.948530101776122958e+00
0.000000000000000000e+00
1.904262715578079135e+00
6.671347475051879528e+00
4.290110766887664795e+00
0.000000000000000000e+00
1.607004445791244462e+00
2.527250587940216286e-01
2.556882619857787198e+00
6.179333853721620251e+00
1.328964859247207642e+00
9.606770658493037018e+00
1.390414581298827912e+01
0.000000000000000000e+00
5.847465062141418812e+00
4.518108725547790527e+00
4.350284025073049565e-01
6.651065349578856589e-02
4.425982211250810427e-03
3.106500840187074619e+00
1.543159329891205189e+00
0.000000000000000000e+00
1.138619905710219760e+00
1.373279923200607433e+00
9.049089461565016368e-01
0.000000000000000000e+00
3.439434909820556552e+00
1.049746936559677213e+00
3.627651262283325906e+00
2.485001492500304554e+00
5.861222314834594549e+00
8.997294306755068138e-01
6.795940208435058416e+00
4.349977385997772394e+00
9.330114316940305130e+00
0.000000000000000000e+00
3.083595633506773792e-01
3.416432514786720276e-01
4.416570818424226275e+00
2.344501459598541615e+00
0.000000000000000000e+00
1.158172279596329179e+00
4.351119089126587625e+00
1.850675094127656184e+00
1.161261355876923140e+00
1.417889274656773113e-01
5.129115843772888539e+00
1.984982120990752552e+00
4.741477274894713823e+00
3.098406004905699618e+00
2.721618735790252153e+00
6.029932641983033470e+00
5.933461880683898571e+00
5.779222035408020375e+00
8.303747802972794023e-01
5.999500393867492676e+00
3.021743726730347746e+00
2.762623476982116522e+00
5.844216251373290483e+00
7.997965753078460915e-01
3.989531636238098145e+00
1.568228745460510165e+00
2.326871442794799805e+01
3.239879882335662042e+00
6.078349971771240590e+00
8.282473373413086648e+00
1.275056034326553123e+00
3.387529742717743098e+00
7.918055962702343276e-08
1.659260904788969926e+00
1.417375743389129195e+00
3.431070125102997359e+00
0.000000000000000000e+00
0.000000000000000000e+00
2.474500894546508345e+00
4.116806077957153143e+00
6.313673996925354359e+00
3.273837976157664698e-02
1.135527029633522922e-01
1.048428525924682830e+01
0.000000000000000000e+00
3.554152235388756687e-01
6.088123393058777033e+00
7.287247776985168457e-01
1.370235472917556097e+00
6.024570059776306330e+00
4.990459871292114435e+00
2.019840794801711858e+00
0.000000000000000000e+00
3.159160956740379445e-01
6.678946661949157537e+00
1.232052966952323220e-01
2.449264991283416570e+00
0.000000000000000000e+00
5.067302060127258478e+00
0.000000000000000000e+00
7.577693343162536621e+00
2.567282631993292319e-01
1.566369342803954456e+00
1.473688022233544427e-02
6.414315581321716309e+00
3.619116532802581165e+00
1.239551129341125524e+01
9.825178003311162200e+00
9.998205125331883769e-01
2.530566079076379711e-03
5.657544469833373668e+00
0.000000000000000000e+00
2.781280338764190674e+00
5.076879560947417325e+00
2.442683976888656794e+00
3.670888555049896418e+00
0.000000000000000000e+00
2.777504503726960117e+00
4.096001732349395574e+00
1.369712123870849396e+01
4.763866114616393865e+00
9.779340457916248397e+00
3.283526384830475653e+00
8.492851167917251365e-01
7.714237093925475630e-01
1.334088301658630460e+00
2.423992991447449175e+00
1.488428443670272383e+00
3.520786190032958896e+00
5.807799649238586603e+00
5.254845595359801891e+00
4.234586751461028697e+00
3.164481759071350986e+00
1.366988152265548484e+00
3.113071370124817161e+00
8.496935009956359863e+00
5.130000476837157919e+01
9.671125173568723810e+00
4.280122303962707875e+00
3.564612770080566317e+00
1.832313841441645871e-03
6.087884783744812012e+00
2.840487360954284224e+00
9.714692974090576527e+00
3.703597986698149214e+00
5.241464447975158869e+00
1.126757884025573375e+01
0.000000000000000000e+00
3.598722696304320401e+00
3.015541899204254861e+00
6.142209529876708762e-01
2.699122512340546454e+00
2.540213656425476252e+00
4.419386982917785645e+00
4.585005891323089777e+00
1.822855097055435136e+00
8.470385074615478516e+00
8.351670241355895641e+00
7.303030586242675426e+00
4.178082430362701771e+00
4.307869613170623779e+00
2.222817462682724177e+00
1.103241699934005782e+00
3.879966247081756414e+00
1.517485052347184560e+00
1.360015380382537220e+00
6.294765084981918113e-01
1.080381593704224130e+01
2.786477851867676048e+00
1.445806884765625799e+00
1.299747550487519332e+00
5.433369278907776767e+00
1.066725444793702238e+00
0.000000000000000000e+00
9.802710749208926044e-02
1.730019593238830478e+00
3.675525169819592042e-02
5.265082240104675293e+00
7.803271842002868830e+00
5.578752446174622293e+00
1.728085809946060092e+00
5.439029312133789595e+00
2.174651473760603526e+00
5.210943806171417947e+00
2.599562680721284380e+00
4.265914484858512878e-01
1.038873152732849192e+01
1.652337199449540162e+00
4.705896968841553019e+01
1.310431009531021651e+00
2.169992011785508268e+00
7.229026436805725098e+00
3.669716513156890070e+00
1.727154237031936379e+00
5.356230616569519043e+00
2.488644580841063814e+01
3.390016829967497980e+00
7.701498031616210715e-01
2.934890851378442189e-01
1.724390324950218600e+00
2.009578937292099354e+00
4.620265439152717590e-01
7.392214059829711470e-01
1.080429602414369333e-01
2.330044901371002730e+00
0.000000000000000000e+00
1.739994210004805808e+00
2.910141721367835999e-01
1.882827345980332386e-03
4.233716988563537953e+00
2.643773877620696489e+00
4.396309757232665483e+00
5.035819482803344904e+00
0.000000000000000000e+00
1.707757008075714733e+00
0.000000000000000000e+00
2.090972290039061576e+01
1.266159168444573602e-02
5.755621576309205345e+00
2.619145989418029341e+00
9.557516145706177468e+00
1.377971929311751387e+00
2.216297912597655628e+00
6.345457077026367188e+00
1.475177997350691994e+00
3.271577394008636563e+00
3.465340065304192089e-03
9.766929912567139382e+00
5.856253743171691895e+00
1.711943322420119928e+00
3.297572147846222546e+00
5.003447961807251154e+00
3.822575998306274592e+00
7.410586071014404475e+00
4.303077363967895863e+00
2.642762255668638538e+00
1.259866456985474059e+01
5.035633611679077859e+00
1.922131407260894154e+00
6.512845945358276545e+00
5.975723767280578080e+00
1.712067341804504483e+00
5.356717651011423144e-04
3.485706210136414462e+00
1.102487075328827171e+00
1.694896388053894754e+00
4.874491429328918102e+00
1.246104998588561941e+01
3.098200297355652832e+00
2.941429704427718783e-01
4.248173773288726807e+00
0.000000000000000000e+00
5.166548538208007635e+00
4.321089363098144176e+00
8.359610414505004528e+00
7.735589241981505104e+00
3.072563111782074863e+00
4.972568824887275696e-01
1.112415676116942009e+01
2.994950675964356712e+00
9.139978861808776500e+00
1.345758181810379428e+00
3.456739842891692227e+00
5.562389421463011629e+00
7.102169632911683905e+00
1.115427327156066850e+00
1.979252719320356672e-03
7.396287727355956854e+00
5.909008359909057262e+00
1.242446297407150180e+00
2.352082371711731401e+00
3.808115839958190474e-01
0.000000000000000000e+00
9.447933554649352583e-01
3.158664631843565829e+00
0.000000000000000000e+00
9.670580923557281494e-01
9.636120229959489469e-01
0.000000000000000000e+00
5.573125696182250621e+00
2.806444990634918479e+00
1.059921073913575640e+01
1.244070142507553101e+00
2.082094430923461026e+00
3.270179593563079301e+00
2.223424625396729581e+01
3.402848732471466242e+00
1.961265599727630704e+00
1.654706501960754039e+01
1.126438680291176775e+00
8.778457188606262562e+00
1.423106372356413463e+00
1.483868097420782545e-03
2.341968393325805753e+00
5.761763811111449973e-01
1.510506010055541459e+01
6.867832207679748890e+00
2.651757919788360507e+00
5.111996555328369496e+00
5.303085613250732244e+00
1.776303339004516646e+00
0.000000000000000000e+00
5.054447221755981268e+00
7.114279597997665849e-01
0.000000000000000000e+00
1.716366310119629546e+01
2.043517370224000018e+01
2.555204296112060014e+00
1.087756478786468417e+00
1.155869787931442350e+00
1.419112663269041796e+01
5.165065264701844683e+00
6.442746782302855024e+00
9.856687927246094105e+00
4.283030009269714000e+00
3.865220510959623823e+00
6.041317129135132191e+00
2.591828191280365346e+00
1.305286008119582508e+00
8.520247429609298928e-01
6.294364094734191895e+00
1.907213354110718573e+00
1.742559246718883015e-01
4.298613041639328669e-01
6.995221090316772639e+00
2.205501383543014615e+00
2.319491708278656361e+00
3.629657232761382968e+00
5.837630867958068848e+00
6.719382238388061701e+00
4.197397387027740123e+00
2.709535932540893644e+00
4.386123943328857244e+00
0.000000000000000000e+00
1.095708966255188432e+00
1.014338808059692454e+01
2.878069877624511275e+00
2.349714779853820268e+00
1.905882686376570545e+00
1.016300811767578338e+01
8.664989805221557262e+00
2.160736074447631694e+01
1.120282292366027610e+00
2.221620810031891491e+00
1.277961164712905440e+00
1.878191792964934326e+00
6.682277798652648926e+00
4.755478620529175693e+00
3.924485456943512141e+00
3.455169808864594128e+00
7.494880914688110352e+00
0.000000000000000000e+00
5.267969155311583940e+00
1.341103635728358723e-01
5.595942586660386520e-03
1.222105091810226529e+00
2.611071813106536688e+00
5.272174406051635565e+00
1.010290904045105798e+01
1.106301773339510020e-01
2.488203608989714599e+00
8.856093883514404297e+00
4.710794138908386053e+00
2.858469802886247704e-02
7.478284895420074241e-01
1.061570686101912298e+00
6.266365975141525713e-01
8.142583608627321112e+00
4.609107804298401057e+00
6.005956506729125621e+00
1.012843027114868732e+01
2.529828405380249556e+00
1.020619969367981028e+01
4.439227795600890758e+00
1.118678545951844505e+01
3.156508183479308727e+00
3.586462056636810392e+00
0.000000000000000000e+00
2.352919414639471629e-01
4.888442802429198153e+00
6.472947955131530762e+00
2.724176490306854603e+00
1.332333183288574086e+00
2.356961905956268755e+00
1.487035173922777662e-02
6.060138583183290351e+00
1.430773884057999323e+00
1.460934317111969527e+00
1.362070250511168812e+00
2.982711958885192249e+00
3.499863415956497859e-01
4.213271224498747358e+00
2.220785814523696722e+00
4.203740239143372470e+00
7.204069232940673473e+00
2.967256283760070001e+00
1.815502323210240188e-01
5.030704903602600808e+00
6.604540133476255903e+00
3.193957209587096280e+00
1.986723566055296786e+01
6.047400951385498047e+00
3.939790332317352206e+00
2.171568131446837135e+00
1.333929428458213939e+00
8.814686715602875200e-01
6.005407023429869540e+00
1.757242619991301824e+00
4.140357220172882435e+00
1.642971737310289573e-02
5.956119394302367809e+00
3.442086055874825634e-01
8.189766144752502086e+00
2.992740905284883457e+00
3.351738488674162575e+00
3.256272975704633784e-04
4.126846086978913419e+00
1.132933276891707974e+00
3.647890377044678445e+00
1.215665292739867454e+01
1.620481324195861106e+00
1.707658702135085083e+00
6.642282438278198420e+00
1.204481202363967496e+00
1.161988043785094504e+01
2.790778899192808638e+00
1.200061124563216897e+00
2.612416160106658225e+00
6.119908761978149592e+00
3.471142649650574619e+00
1.415392237901687000e+00
1.261337286233900956e+00
2.294804084300995584e+00
9.607052803039554334e+00
6.771983814239502131e+00
2.584046624600887521e-01
1.033895773887634917e+01
5.795168733596801403e+00
8.380381608009338734e+00
4.549474453926086959e+00
8.160266828536986594e+00
3.989121687412262141e+00
6.579316782951354803e+00
3.634287595748901256e-01
5.272561073303220880e+00
7.311657071113588646e-01
5.526420331001281383e+00
6.400052714347839178e+00
9.324071216583259769e+00
1.727210408449173062e+00
1.156379642486572479e+01
4.706627678871155851e+00
1.389393198490143533e+00
3.831135666370391046e+00
1.519180667400359397e+00
3.033268797397615568e+00
1.233092719316482011e+00
7.606900095939638007e+00
6.088562154769897816e+00
6.704149723052978516e+00
2.378200674057007191e+00
4.421863794326782227e+00
1.053392772674561328e+01
4.408804702758789773e+00
6.186179447174071200e+00
0.000000000000000000e+00
3.551937448978423895e+00
1.389536517858507070e+00
0.000000000000000000e+00
3.112320458889007213e+00
2.915331864356994096e+00
6.635156869888303888e+00
1.322674697637558516e+00
8.895812916755676980e+00
5.741073393821716664e+00
8.024878597259521129e+00
4.850728762149810080e+00
7.154473423957826483e+00
6.809330582618713379e+00
1.518296504020690607e+00
1.346661267280579111e+01
1.571425932645798218e+00
1.412496972084046121e+00
2.388851559162139981e+00
6.130474495887756170e+00
5.471882748603820623e+00
5.776196908950805842e+00
1.275570373535156321e+01
4.200501635670660927e-01
4.853295850753784002e+00
1.394207453727722168e+01
5.597341012954712092e+00
0.000000000000000000e+00
7.633039712905883789e+00
7.054921245574949928e+00
3.656474077701568515e+00
7.244100189208984020e+00
1.534348028898239402e+00
5.423672699928284047e+00
8.047830319404599919e+00
1.657982122898101540e+00
1.886458390951156527e+00
2.510579812526702703e+00
1.257243877649306452e+00
9.287000870704648747e+00
8.783841681480414110e+00
3.576062333583829744e+00
2.939146363735200218e+00
0.000000000000000000e+00
1.483098679780959550e+00
2.221409523487090532e+00
2.941665127873422381e-01
2.360930991172791593e+00
2.339780914783477606e+00
9.343709993362427468e+00
2.830726552009583674e+00
4.766436958312988637e+00
2.066841548681259244e+00
6.896852421760558016e+00
1.340088737010954878e+00
3.154674327373504283e+00
3.330006627365945937e-02
1.535490506887434936e+00
4.595684558153152466e-01
0.000000000000000000e+00
2.955338883399963201e+00
6.633504295349119673e+00
4.085411036014556352e+00
2.997301161289214200e+00
4.591463088989257812e+00
3.757059687376023138e+00
5.246272325515747292e-01
2.153233456611634900e+00
2.150998143479227603e-02
8.822079277038573863e+00
0.000000000000000000e+00
2.905993771553038396e+00
5.441813111305235928e+00
4.434669005870819802e+00
5.101929020881653010e+00
0.000000000000000000e+00
1.940185546874999334e+00
3.920906853675842907e+00
7.928462004661559703e+00
3.596642389893531799e-01
0.000000000000000000e+00
6.904586148262024992e+00
9.582168674468995562e+00
1.916271966695784812e+00
1.144535338878631459e+00
9.545522242784499900e-01
1.235230195522308616e+00
4.009194240570069212e+01
0.000000000000000000e+00
0.000000000000000000e+00
1.705678164958952747e+00
3.682228696346283137e+00
9.054180711507797685e-01
1.378721362352369972e+00
2.415881967544556197e+00
3.441069543361663818e+00
1.970120793581009888e+00
7.862704426050186601e-01
1.071519810706376835e-01
6.082285404205322266e+00
6.080550932884214888e+00
5.869999527931214267e+00
2.845614373683930109e-01
4.976182532310486017e+00
7.613112473487854359e+00
4.511798954010009410e+00
1.551280111074447854e-01
3.133004093170167259e+00
5.112842750549316584e+00
2.370556390285492032e+00
2.383180236816407227e+00
5.569871854782103782e+00
6.817910522222518921e-01
7.710007041692733543e-01
3.519036209583282560e+00
1.112466759681702122e+01
8.725552648305893166e-01
1.514892220497131703e+01
2.888058885931967801e-01
3.310713362693786799e+00
2.198247790336609775e+00
2.741146981716156006e+00
4.159584760665893666e-01
6.013889479637146707e+00
1.006074002385139110e+00
2.677604556083680309e-01
4.154374636709689921e-03
5.163700509071349920e+00
2.835367560386658603e+00
7.783416700363159357e+00
1.628019797801971702e+00
2.199787628650666349e+00
8.205778658390044944e-01
0.000000000000000000e+00
2.263997662067412264e+00
4.097371444106102101e-01
4.602221536636352361e+00
2.533362227678298328e+00
2.310515153408050804e+00
8.313336324691771750e+00
4.275942713022233832e-01
1.975194871425628662e+00
5.891590476036071777e+00
1.863111746311187700e+00
7.952297592163086293e+00
5.888936138153075817e+00
1.372698950767517090e+01
8.921274042129518023e+00
2.588286041282118321e-03
4.142632102966308238e+00
5.071083354949950994e+00
1.787752634286881914e+00
7.196245360374450506e+00
2.014059293270110018e+00
1.662550848722457841e+00
1.979689508676530041e+00
1.222073183059692880e+01
3.298245811462400923e+00
3.399248850345610862e+00
3.185864078998565940e+00
2.695125865936279119e+00
2.169259655475616277e+00
6.055978846549986194e+00
1.070903033018111739e+00
5.659186339378356578e+00
4.307240986824036000e+00
4.163303840160369695e+00
3.443751394748687744e+00
8.577720379829406383e+00
8.526496559381484541e-01
6.066727423667908070e+00
4.694301033020019887e+00
4.918735289573670677e+00
0.000000000000000000e+00
3.549913728237152011e+00
3.980539882183074418e+00
0.000000000000000000e+00
5.199817091226577315e-01
2.160874414443969549e+00
2.289511895179747292e+00
6.963794374465943626e+00
6.873917198181151988e+00
7.589731717109680531e+00
1.240531623363495983e+00
0.000000000000000000e+00
1.057785397768020941e+00
1.098543839454650239e+01
1.676567710936069378e-01
0.000000000000000000e+00
3.595145261287688410e+00
4.321533727645873846e+00
9.948098957538611953e-02
6.012680917978286965e-01
2.081367486715316240e+00
2.164535653591155295e+00
1.654148077964782360e+00
4.037709271907806041e+00
2.129999387264251531e+00
4.527437520027160822e+00
1.046995061635970448e+00
7.041307640075683771e+00
4.616860091686247891e+00
2.233312648534774958e+00
1.444677710533142445e+01
3.200263559818268821e-01
5.278251957893371760e+00
3.964985764026641935e+00
8.072434616088866477e+00
2.843565213680267156e+00
5.664095091819763006e+00
1.762374383211135154e+00
6.438136339187622070e+00
1.517202454805374856e+00
8.382083654403686523e+00
3.026574015617370605e+00
2.972356116771696755e+00
3.999279701709748114e+00
4.176418805122375844e+00
7.976507544517517090e+00
3.023757445812226052e+00
5.857944726943969727e+00
5.808524298667906649e+00
5.152616143226621537e-01
0.000000000000000000e+00
6.567291450500486683e+00
6.732712697982788264e+00
1.668508939743041708e+01
1.417468714714050293e+01
1.270932304859161643e+00
7.966423058509827015e+00
0.000000000000000000e+00
1.980179831385613376e-01
1.878869092464447110e+00
7.944035339355467684e+00
7.730147466063500006e-02
0.000000000000000000e+00
1.065913516283034879e+00
9.399588108062747693e+00
1.302423149347304632e+00
4.614506220817564675e+00
5.897418260574340820e-01
5.494775772094726562e+00
2.850326721090822718e-03
5.032065248489379528e+00
9.214681923389435036e-01
0.000000000000000000e+00
9.545969486236571822e-01
1.174462027549743048e+01
4.911966013908385165e+00
8.539845317602157149e-01
2.624625945091247026e+00
8.395702421665192094e-01
2.700022153854369478e+01
4.785969543457031072e+00
1.972242939472198087e+00
8.457068383693695512e-01
9.680956631898881559e-01
2.050149112939834595e+00
2.796566414833068670e+00
4.418902635574342597e+00
1.390800409317016850e+01
1.561737263202667148e+00
2.378643834590912665e+00
1.063791556358337331e+01
5.975385928153990278e+00
6.752775502204895197e+00
8.654746711254117653e-01
1.802788490056991488e+00
4.227999234199524281e+00
4.421187639236449307e+00
8.272021198272705433e+00
5.604912328720092596e+00
2.554639208316803245e+00
5.395853686332702459e+00
2.989508223533630105e+00
1.690321474075317809e+01
6.681786155700683238e+00
1.060865807533264515e+01
7.156361460685729536e-01
1.871102981269360810e-01
9.968055877834561956e-03
3.145173180103302712e+00
4.896975755691527432e+00
1.225376218557359120e+00
1.029904413968324856e-01
2.590833806991576616e+00
6.306091904640197532e-01
2.245181232690810214e-01
6.233302354812622070e+00
3.222113847732543945e+00
6.940180587768556286e+00
9.227876253426074704e-02
7.015046429634095304e+00
1.842695140838622958e+00
6.350275301933288929e+00
5.378717541694642001e+00
1.019805674552917729e+01
1.433213400840760654e+00
5.671463227272033336e+00
6.597442622296510566e-03
3.719936227798462447e+00
1.865265536308288175e+00
4.901244640350342907e-01
0.000000000000000000e+00
1.552650618553160555e+00
2.526095807552337202e+00
5.565448904037475053e+00
1.401766639947890969e+00
5.613033795356750844e+00
0.000000000000000000e+00
4.542928957939148304e+00
5.376037192344666593e+00
4.570281744003296787e+00
1.805583149194716075e+00
3.313871321734041669e-03
4.248164892196656162e+00
1.564129251241683560e+00
4.893033194541930975e+00
8.593254655599592562e-01
3.847588574886320778e+00
4.446846708655357583e-01
1.042387944459915561e+00
7.879455685615539551e-01
4.952652025222779031e+00
6.713678812980651500e+00
2.936246240139008368e+00
5.551832723617553533e+00
6.658075004816056408e-01
4.165685641765593417e+00
6.924292832612992665e-01
2.027732646092771790e-02
1.873483997769653662e-05
3.189565241336822510e+00
7.113947439193725408e+00
4.444446587562560502e+00
4.716847658157347745e+00
5.030094099044799982e+00
3.513453054428101296e+00
1.036662964820861887e+01
0.000000000000000000e+00
3.670296418666840310e+00
6.518959832191467463e+00
2.075184047222138783e+00
3.985954606533051781e+00
2.220182681083679110e+00
5.011384391784668324e+00
1.378307085037231516e+01
1.612429755926131802e+00
1.700493603944777998e+00
1.629774326086044667e+00
4.192078697681425936e+00
0.000000000000000000e+00
4.249990212917327703e+00
3.261414313316345126e+00
4.938771915435791193e+00
1.363245242834091542e+00
3.445063734054565341e+00
0.000000000000000000e+00
9.034570360183716176e+00
3.567099221982061212e-04
2.440375946462153556e-01
4.172806930541992365e+00
5.950200986862181907e+00
6.961046576499938965e+00
3.567730569839477450e+00
3.987179255485534757e+00
4.207028281688689475e+00
0.000000000000000000e+00
4.501302385330201439e+00
1.461484456062316140e+00
4.812690293788909557e+00
1.161108374595642312e+00
0.000000000000000000e+00
1.249497830867767778e+00
1.056685128808021235e+00
7.827788925170898082e+00
5.415919947624207254e+00
9.980551570653913851e-01
1.065039238333701066e+00
8.791319894790650125e+00
0.000000000000000000e+00
4.701438009738921897e-01
1.926276898384093883e+00
8.659532248973846880e-01
7.381658816337585804e+00
1.025191984176635529e+01
5.212336611747740989e+00
4.535302722454071400e+00
5.659187602996825994e+00
3.548329412937164307e+00
1.999641400575637107e+00
1.867189288139342818e+00
5.168769407272337801e+00
9.921206808090211382e+00
2.538054347038269043e+00
2.902973651885985884e+00
2.280453056097030640e+00
3.284374082088470370e+00
2.686008224487304830e+01
1.440576124191284535e+01
5.542229223251342596e+00
8.945314836502074485e+00
6.049482798576354625e+00
0.000000000000000000e+00
6.489924216270447133e+00
4.348307812213897172e+00
1.581086997985840448e+01
5.175706458091736017e+00
1.438370281457900024e+00
1.539820957183836603e+00
2.327592849731445201e-01
3.730936348438261607e+00
7.973750352859495294e+00
7.621805548667908159e-01
2.421993446350097834e+00
3.512331616878508811e+00
4.575327229499817960e+00
3.646111907437444254e-03
2.041895383596420199e+00
3.156088638305662997e+00
8.696389698982239125e+00
2.112342029809952226e+00
2.545446956157684237e+00
1.403570985794067472e+00
1.160672612488270472e-01
4.509797573089598721e+00
1.067785840481519644e-01
2.445426630973814408e+00
5.586809277534483087e+00
7.380312395095825373e+00
3.807879996299745162e+00
4.704178404808044611e+00
1.158248684369026296e-02
1.069989709854126758e+01
2.035668051242828458e+00
7.531034678220749345e-01
9.794847536087042172e+00
2.832603585720062433e+00
9.124613237380982511e+00
7.352660846710205256e+00
4.828810167312622248e+00
9.588433533906934869e-01
7.728847265243530273e+00
3.872704184055328458e+00
1.638822460174559126e+00
4.040321397781372781e+00
1.273732125759124978e+00
4.194083392620086559e-01
2.160216051340102972e+00
2.830863463878632746e+00
2.850623905658722812e+00
9.616281539201734230e-01
6.220445148646831790e-02
0.000000000000000000e+00
2.087080687284471325e-01
3.614739131927490856e+00
2.193626630306244163e+00
9.681504033505919371e-02
2.163758397102355513e+00
3.188413619995117410e-01
2.483270287513733798e+00
1.915817719697951560e+00
1.402308952808378972e+00
1.189385191537440864e-02
4.164547467231750844e+00
5.180459213256836115e+00
1.543666005134582520e+01
1.272055929899217119e+00
1.541183257102966220e+00
0.000000000000000000e+00
4.476064825057983754e+00
8.948005414009095659e+00
2.000994718074798229e+00
1.587152915760726269e-05
3.830888068675994074e+00
6.384188580513000311e+00
6.004152870178222301e+00
4.990202355384828259e+00
0.000000000000000000e+00
0.000000000000000000e+00
3.043026077747345237e+00
3.381359565258025945e+00
5.536770701408388007e+00
1.293390147686004887e+01
8.226704430580138450e+00
2.762421345710756260e+00
4.950747799873352228e+00
1.876296475529671270e-01
5.564220929145813344e+00
7.654297910630702972e-02
6.582869243621827238e+00
5.491460967063904519e+00
6.259096741676328790e-01
4.816649317741394043e+00
1.106868147850037332e+01
1.747716963291167547e+00
4.324309086799621227e+00
1.432361588478087810e+01
3.077690374851226540e+00
0.000000000000000000e+00
1.892306405305863137e+00
8.899007272720336204e+00
0.000000000000000000e+00
5.716551446914673207e+00
0.000000000000000000e+00
8.263301849365234375e-02
0.000000000000000000e+00
4.646213579177857156e+00
5.971576070785521217e+00
7.274585819244386187e+00
2.345492482185363770e+00
1.209922084808350462e+01
2.010824555158616800e+00
6.994668626785278676e+00
2.900020824745297779e-03
1.799693650007248014e+00
8.824830353260043614e-01
1.134928171522914600e-02
2.101424954831599690e-01
4.390257024765015004e+00
6.099782609939575551e+00
2.973433995246886674e+00
2.625682687759398615e+00
0.000000000000000000e+00
4.469807827263140272e-04
7.699986755847930686e-01
1.613660764694213601e+00
7.439455461502075373e+00
0.000000000000000000e+00
0.000000000000000000e+00
3.735824370384216220e+00
7.555187988281249822e+00
4.796599037945271232e-02
7.282653236389161400e+00
6.536973810195922496e+00
2.408279800415040306e+00
1.389563333988189209e+00
0.000000000000000000e+00
4.265532469749450328e+00
7.146150797605514970e-01
2.872126603126524458e+00
9.140630149841308949e+00
2.903206741809844615e+00
6.122226166725158514e+00
4.391516995429991965e+00
6.713169753551482266e-01
4.946062374114990945e+00
1.689284378290175637e+00
0.000000000000000000e+00
2.610362029075622203e+00
2.637733030319213690e+00
2.655427944660186945e+00
1.101528269052505671e+00
9.266824603080749956e-01
2.531650376319885432e+00
0.000000000000000000e+00
3.348796284198761075e+00
9.773671340942376773e+00
4.414793956279754461e+00
5.108866024017333807e+00
4.883866310119629184e-02
7.639685344696045100e+00
1.332405108213424061e+00
8.491534948348999023e+00
2.545100831985473100e+00
1.387613028287888239e+00
2.353284335136413219e+00
1.056657466888426988e+01
7.312849593162536799e+00
3.122914159297943026e+00
3.084495925903321556e+00
0.000000000000000000e+00
7.509308791160583141e+00
0.000000000000000000e+00
0.000000000000000000e+00
1.599294918775557850e+00
4.783369708061218972e+00
2.398109328746796276e+00
4.969868254661559348e+00
7.566802531480789629e-01
2.230065649747848155e+00
0.000000000000000000e+00
2.036640769243239113e+00
3.673325288295745672e+00
1.013211902976036249e+00
8.548294234275818582e+00
4.889609956741333363e+00
8.088600158691408026e-01
1.141761344671249789e+00
4.243685567378998158e+00
8.028949171304702315e-01
1.390307176113130039e+00
4.447430074214935303e+00
6.255794733762741755e-01
1.931219547986983587e+00
2.361832785606385432e+00
6.437570309638976696e+00
0.000000000000000000e+00
8.595458650588989613e+00
3.393594455718994762e+00
3.146956622600555864e+00
1.222815327644348571e+01
8.718046951293946023e+00
4.419904732704162953e+00
9.170380878448494144e+00
1.996519660949707120e+00
7.683099961280822399e+00
3.163582921028136319e+00
1.255722632408143014e+01
1.093248925171793652e-02
3.917963588237763251e+00
0.000000000000000000e+00
1.658970022201538086e+01
1.785986262559891458e+00
2.842972838878631503e+00
7.390690732002258123e+00
2.164028406143188477e+00
1.309947949647903620e+00
3.634327483177183460e+00
5.904833883047102550e-01
9.306562471389771218e+00
2.828399372100830256e+00
1.661460079252719546e-01
1.491264754533767611e+00
1.737549060583114979e+00
3.591352272033691229e+00
4.705141115188598455e+00
2.746840071678161799e+00
4.727322983741760964e+00
1.154222378134727611e+00
1.661868519783019948e+01
1.562202661298215181e-02
2.630016291141509921e+00
6.986155500635504376e-03
3.088059687614441273e+00
7.941440701484679954e-01
8.082131671905518289e+00
3.815366864204405850e+00
1.730939197540283248e+00
1.029850363731384277e+00
9.475975799560547586e+00
3.229171848297119229e+00
1.198988717794418735e+00
1.481051647663116588e+00
1.569939482212066917e+00
8.214258456230163929e+00
8.031510257720947621e+00
1.881790709495544389e+00
8.293347644805908914e+00
1.711135947704315097e+00
9.415321826934814897e-01
1.499966698884963368e+00
9.761228036880496006e+00
1.713631373643875078e+00
9.693995803594586125e-01
2.072516336441038476e+01
7.273871218785643578e-03
5.165409684181213379e+00
6.815909624099733222e+00
1.412145900726318848e+00
1.792923696339129846e-01
6.507897901535034002e+00
5.993841934204102273e+00
4.622824454307556508e+00
2.207456612586974565e+00
2.376858129501342631e+01
2.352343344688416327e+00
6.396820306777953880e-01
1.604333716630935935e+00
7.808848357200622203e+00
0.000000000000000000e+00
3.389412915706635054e+00
4.459278368949890492e+00
7.068153285980224965e+00
2.805987083911895219e+00
3.288356292247771595e+00
2.081590211391448175e+00
1.977903872728348222e+00
9.736254334449766512e-01
2.481137681007385964e+00
3.799732327461241788e+00
1.239652242660521964e+01
5.515119303017854829e-02
1.762126474380492880e+01
3.685749924182891935e+00
1.309775319099425417e+01
1.184897446632385165e+00
1.226535844802858044e+00
3.323525100946425614e-01
6.021069908142090199e+00
1.887526553869246282e+00
1.623232927322387908e+01
0.000000000000000000e+00
1.030933411675506121e-03
1.619242684682830518e-03
4.259549915790556085e+00
1.335094414651394334e-01
1.312944855690002477e+01
2.672741031646729493e+00
0.000000000000000000e+00
3.335902559757233377e+00
7.424518299102783381e+00
7.552362561225891113e+00
0.000000000000000000e+00
7.047306227684020818e+00
0.000000000000000000e+00
0.000000000000000000e+00
6.043214988708495383e+00
2.305797934532165527e+00
2.288634812831878751e+00
2.433728739619255566e-01
8.458709836006164107e-01
2.055960901081563819e-01
5.652934098243711958e+00
5.729572367668152033e+00
4.487511068582534790e-01
0.000000000000000000e+00
5.186324262619018910e+00
4.581484448909757923e+00
4.299356794357298561e+00
0.000000000000000000e+00
8.984071791172029142e-01
2.719457983970642978e+00
1.146955180168151900e+00
2.695925235748290127e+00
2.320437097549437944e+00
4.097650575637817205e+00
0.000000000000000000e+00
3.033412897586823309e+00
4.285997653007507679e+00
2.298945915699005305e+00
7.711593604087829235e+00
3.685581171512604559e+00
1.007844004034996743e+00
3.378766000270844394e+00
0.000000000000000000e+00
9.735544137656684804e-02
2.364392757415772373e+00
0.000000000000000000e+00
8.896768999099734287e+00
0.000000000000000000e+00
2.762188901901243909e+01
8.729866409301758168e+00
5.736275196075440341e+00
2.045098346471786233e+00
1.263659155368804132e+00
7.994550895690918146e+00
4.579011726379393465e+00
1.465781283378600364e+00
1.378187127411365509e-01
3.007690203189850031e+00
7.782487454824149956e-03
2.720965850353242566e+00
1.874516373872757047e+00
4.820579528808594638e+00
2.681801617145539218e+00
2.151925098896027233e+00
1.961018288135529364e+00
1.410295897722244618e+00
4.623141384124755504e+00
6.899789780378341453e-01
3.665611243247985929e+00
3.384502828121186413e-01
3.761868548393250133e+00
5.571997570991515936e+00
2.996223866939546010e+00
4.343783664703368963e+00
3.540887162089347839e-01
2.915732574462890803e+00
2.187286013364793114e+00
4.918480861186981912e+00
2.485138559341430131e+00
3.203116333484650191e+00
2.529589855670926646e+00
4.968326854705809481e+00
1.827212870121001753e+00
8.214858460426331277e+00
1.417874142527580095e-01
3.057752656936645330e+00
0.000000000000000000e+00
2.537726330757140936e+00
1.592958307266235218e+00
3.447244510054587319e-01
2.431119561195372647e+00
1.489556705951691873e+00
1.429271656274796465e+00
6.463821560144424883e-01
2.800700938701629727e+00
1.798669859766960089e-01
2.163367301225662676e+00
7.199939799308777033e+00
2.307458043098450595e+00
5.390252995491026766e+00
1.299180620908737760e+00
8.176658526062964560e-02
3.889815843105316251e+00
1.203616442680359455e+01
6.030053424835204900e+00
2.823446309566497892e+00
7.296015334129333674e+00
2.708365932106971963e-01
1.013752901554107133e+00
0.000000000000000000e+00
3.209557819366455789e+00
2.244802460074424300e-01
7.430163288116453657e+00
8.699506551027298418e-01
7.295569276809692028e+00
2.648104534149170064e+01
1.703885865211486106e+00
4.805228424072265803e+00
4.978929686546325506e+00
5.058371591567992986e+00
7.164145447313785553e-02
1.865613198280334561e+00
5.180190443992614746e+00
4.466201996803283336e+00
1.466235917806624434e+00
7.133034968376158247e+00
5.116779947280884144e+00
1.126460962295531054e+01
4.737176811695098522e+00
1.340212577581406883e+00
1.020879724621773565e+00
4.257753372192382812e+00
6.781195497512817028e+00
2.045761188492178136e-03
2.516514849662780495e+00
8.068588256835937500e+00
2.945442163944244740e+00
8.608332902193069902e-01
8.829036927223205211e+00
1.679580068588258257e+00
2.255917124450207145e-01
9.315491795539856401e-01
2.621525633335113348e+00
5.306044006347656605e+00
6.851603865623475897e+00
3.240543818473816451e+00
1.263526809215546276e+00
6.470408463478086958e+00
6.542162489891052424e+00
3.991780066490173251e+00
7.049779391288756969e+00
9.138695573806762340e+00
0.000000000000000000e+00
6.381725096702576039e+00
2.982863879203796920e+00
0.000000000000000000e+00
1.796733838319778842e+00
1.405317354202271041e+01
4.254045045375823619e+00
5.705863118171692339e-01
3.173195755481719171e+00
0.000000000000000000e+00
1.412784037590026820e+01
7.759526419639587225e+00
2.365696263313293191e+00
6.690782666206359863e+00
1.572221088409424539e+00
6.311438918113708496e+00
4.341322970390320002e+00
3.492330455780030540e+00
6.439251613616944425e+00
2.497921824455262119e+00
4.839699673652648748e+00
5.466898623853921890e-02
1.570082676410673894e+00
4.922977972030639471e+00
3.706249320507049472e+00
2.536835944652557906e+00
4.828858137130737305e+00
2.125072932243346813e+00
0.000000000000000000e+00
6.668678355216980158e+00
1.658460751175881431e-01
9.371034526824951527e+00
7.148227304220199363e-01
0.000000000000000000e+00
4.069168865680694580e+00
9.478996324539178175e+00
0.000000000000000000e+00
3.408530676364898593e+00
5.519055104255675914e+00
8.725358176231383212e+00
3.390637028217317273e+00
4.310072636604308727e+00
5.539969205856325019e+00
2.576694929599760098e+00
0.000000000000000000e+00
2.536447238922118430e+00
7.250560712814331232e+00
0.000000000000000000e+00
1.331882309913635654e+00
4.332417273521423695e+00
5.217375612258910778e+00
2.154947471618652965e+00
7.005440562963485274e-01
2.762628877162932817e+00
2.173091286420823387e+00
1.756168651580810591e+00
5.739347308874129805e-01
4.547006464004516246e+00
8.703275203704834428e-01
4.096044087409973500e+00
4.618716597557067871e+00
0.000000000000000000e+00
1.014779977798463051e+01
1.506282269954681174e+00
4.084098634393740213e-06
8.914319372177123668e+00
1.189163718223572275e+01
4.455475282669067560e+00
2.655016756057738458e+00
4.241878938674926935e+00
7.828762263059615423e-01
1.731247121095656594e+00
1.627000463008881237e+00
1.806576436758041471e+00
0.000000000000000000e+00
1.175748109817504439e+00
3.771500754356384988e+00
1.869429558515547374e+00
2.030646979808806929e+00
3.342622005939483110e+00
5.413608241081237615e+00
7.603055667877197443e+00
3.016383194923400346e+00
2.830600523948668901e+00
8.959577977657318115e-01
5.469541215896606801e+00
4.180806085467338451e-01
6.055956435203552424e+00
3.866221570968627841e+00
3.877403676509858510e+00
1.022530927658080913e+01
2.860198885202407393e-01
1.705665240297092860e-03
4.894417643547059882e+00
7.513607859611511230e+00
6.545949983596801580e+00
1.880340164899826361e+00
6.637599611282348988e+00
6.534866070747375133e+00
9.184386730194090021e+00
1.040540191531180714e+00
2.897492170333863193e+00
1.154412403106689133e+01
1.871003592014311767e+00
3.645504939556121649e+00
1.344223260879517934e+00
9.602091401815417981e-01
7.910625481605531029e+00
1.726223158836365457e+00
3.310132205486296719e+00
2.211225748062134677e+00
4.001112031936645330e+00
2.098956042528153265e+00
8.429204579442741221e-03
8.989193344116211293e+00
5.663050365447998225e+00
8.511465549468993919e-01
5.656435632705688832e+00
1.827322635650634908e+01
4.139017999172210693e+00
3.477000129222870051e+00
0.000000000000000000e+00
2.194844716787338168e+00
6.734491014480591176e+00
5.480749225616454723e+00
3.396787619590758478e+00
1.081971716880798962e+00
1.496665338054299285e-02
4.022639536857605336e+00
3.959985613822937900e+00
1.456375271081924661e+00
7.828732013702393022e-01
2.090215754508971457e+00
7.063994717597961603e+00
1.890911006927490234e+01
1.713205122947693226e+00
1.135124845313840352e-03
9.155018448829656208e+00
3.122309041023254572e+00
1.642476934194565086e+00
5.786389279365539373e+00
2.260196268558502197e+00
7.415365672111510875e+00
4.310717955231666704e-02
1.611643438339232404e+01
6.552233052253723322e+00
5.369605183601379395e+00
6.579591035842895508e+00
8.429843592643738504e+00
6.936533432453870218e-02
2.989589834213257191e+00
8.418652009963988547e+00
0.000000000000000000e+00
5.101026415824888360e+00
5.734498405456544212e+00
4.890538144111633123e+00
6.479952526092529475e+00
2.801216077804565163e+00
1.005707001686097257e+01
4.963170099258421786e+00
1.076010209321976108e+00
0.000000000000000000e+00
1.423717671632767523e+00
6.983931589126586736e+00
8.508212637901305442e+00
4.633945250511169789e+00
1.983072727918625322e+00
1.733696408569812553e-01
1.388656806945799627e+00
1.216368780136108185e+01
0.000000000000000000e+00
1.473751193284989380e+00
8.995998430252075906e+00
5.164353609085083008e+00
4.047607672214509122e+00
2.239576500654220759e+00
2.317007100582122003e+00
1.292771708965302357e+00
1.110292941331862959e+00
1.575061948969959033e-02
3.142877972126005837e+00
1.266106301546097601e+00
6.642048209905625500e-01
1.696264711208642778e-02
5.941023349761962891e+00
1.151759591102601021e+01
1.321638357639312922e+00
1.192311420440674574e+01
4.169975173473358332e+00
4.487727212905884500e+00
4.923399329185485840e+00
8.559442758560177111e+00
6.246116781234741566e+00
8.348881316184996848e+00
4.849846220016478249e+00
2.229584574699401855e+00
5.067214941978454235e+00
6.491895914077760565e+00
5.337399721145631659e+00
1.926106166839599254e+01
5.986987560987472312e-01
2.719352316856386231e+00
4.839573049545286665e+00
8.430006718635560503e+00
1.914924061298369340e+00
2.482664418220519309e+00
6.263836908340453924e+00
7.586176466941831897e+00
4.449160003662109730e+00
2.690933108329772505e+00
1.221632689237595049e+00
0.000000000000000000e+00
6.306954121589660289e+00
4.056998157501221058e+00
0.000000000000000000e+00
6.019618129730225142e+00
3.692802274227142245e+00
1.128116783499718778e+00
7.621780943870542835e+00
6.318590259552001598e+00
3.768320024013520175e+00
1.966806721687317294e+00
1.605749791860580533e+00
3.204897928237915750e+00
1.265340954065323320e+00
4.898700225353239901e+00
2.778001654148101629e+00
7.408163022994995295e+00
7.729653429985046564e+00
1.167767901420592480e+01
2.906744325160979692e+00
5.607018971443176625e+00
2.118645685911180188e+00
3.279687798023225298e+00
2.438802731037140070e+00
0.000000000000000000e+00
1.218441758155823429e+01
4.918353128433227361e+00
7.490493249893189542e+00
4.591070920228957353e-01
3.804393291473388672e+00
0.000000000000000000e+00
0.000000000000000000e+00
3.748489928245544611e+00
8.703819550573825559e-02
8.886751025915146096e-01
1.934890937805176181e+00
1.905326575040817261e+00
2.199599230289460472e+00
9.428998470306396484e+00
2.235079598426819469e+00
4.441989791393280207e+00
2.648245048522947620e+00
2.663774240016937966e+00
6.483897900581359508e+00
1.648116308450698897e+00
8.742706656455994096e-01
1.338904201984406406e+00
5.882776594161986949e+00
2.725330889225007436e+00
6.626740622520446600e+00
2.579473048448562844e-01
3.103909945487976607e+00
7.209364199638367054e+00
1.486413598060607466e+00
5.270278781652451006e-01
8.581889212131501576e-01
1.078138121962547213e+00
2.989758574962617210e+00
8.347180783748628929e-01
0.000000000000000000e+00
1.049827179312706305e+00
6.834100937843324175e+00
1.996900968551634747e+01
2.865402638912201816e+00
4.103920912742615279e+00
4.276324522495269953e+00
0.000000000000000000e+00
3.107855618000030962e+00
5.248258495330810902e+00
4.071119177341460116e+00
4.253284180164337513e+00
1.758894836902618719e+00
2.613253366947173362e+00
2.323851072788239325e+00
1.320165973901749057e+00
2.436482441425324552e+00
2.171295177936554577e+00
2.168282556533813743e+00
4.681035876274109775e+00
1.030336799621581356e+01
1.711960273981093295e+00
6.050821244716644287e-01
2.185866272449493941e+00
0.000000000000000000e+00
5.134226703643799183e+00
1.012195202708244146e+00
7.652350157499311356e-01
1.526907414197921531e+00
1.317423593997955056e+00
2.063476049900053511e+00
5.918978035449981023e-01
7.197622388601303545e-01
1.719364041090011508e+00
5.218523001670837047e+00
0.000000000000000000e+00
2.573215436935424982e+00
4.578816008567811124e+00
1.038415503501892267e+00
4.603079581260681508e+00
5.099906778335571822e+00
2.839053094387054887e+00
4.481158673763274258e+00
2.044805421829224912e+01
1.835921818017959284e+00
4.618827775120735168e-01
9.895441246032714133e+00
2.448716294765472590e+00
2.990555727481841508e+00
1.286452674865722301e+01
2.425459218025206365e+00
1.789903801679611162e+00
3.415777254104614968e+00
1.169515472650528354e+00
3.076109147071837580e+00
6.312895965576172941e+00
7.890391081571579424e-01
4.012691056728362682e+00
2.769660317897796986e+00
2.885503518581391091e+00
3.424985146522521173e+00
1.022855481505394293e+00
3.359269773960113614e+00
5.494085407257078835e+00
4.381698322296142756e+00
5.716702842712402699e+00
5.151511883735658159e+00
6.454323029518126198e+00
5.148099446296692250e+00
2.669185948371887385e+00
5.739125204086303889e+00
2.779494988918305598e+00
6.506670147180555475e-01
1.313474100828170510e+00
5.936703968048095525e+00
1.979201033711433799e-01
1.250917100906371360e+01
3.497084185481071361e-01
1.272644776105879894e+00
3.043482232093810858e+00
2.073394584655761097e+00
7.474627709388734331e+00
3.775756299495696688e-01
5.681536698341369984e+00
2.909655523300171520e+00
5.775559878349303844e+00
1.475973427295684370e+00
2.765573894977570113e+00
9.662634277343753908e+00
4.252999639511108043e+00
5.381150722503662109e+00
1.319650363922118608e+01
0.000000000000000000e+00
6.410750508308410645e+00
8.576127737760543823e-01
5.548978775739670244e-01
4.791235411167143354e+00
0.000000000000000000e+00
5.453241515159605868e+00
3.025354623794554776e+00
2.737394070625304821e+00
8.727718877792355556e+00
2.590715241432190119e+00
3.782338619232178623e+00
1.077377200126646883e+01
6.362299346923828480e+00
1.050636467933654572e+01
1.001200142502784107e+00
1.528226399421691584e+00
3.758547257166354287e-03
1.002720978260039786e+01
3.638569450378419390e+00
2.003030252456666105e+00
8.076952791213988903e+00
3.092761492729185768e+00
1.066647772789000648e+01
9.641849398612979405e-01
5.139422297477721280e+00
5.075798559188842596e+00
6.935647082328796564e+00
1.131790690422057111e+01
3.583469879627227961e+00
0.000000000000000000e+00
1.488981050252914828e+00
5.412962746620178400e+00
6.692102122306823553e+00
1.360644119977951982e+00
2.165973380208015830e-01
6.822797441482544301e+00
4.478887581825256703e+00
8.184336495399474387e+00
8.656278085708617454e+00
1.237811887264252064e+00
1.352142870426177534e+00
4.712258127983659679e-03
3.898607695102691117e+00
1.438464850187301858e+00
6.283231091499327015e+00
1.133357834815978737e+00
4.164635181427001953e+00
5.126669001579284846e+00
4.064363455772399547e+00
3.970160675048828303e+00
1.209913447499274958e-01
4.135503566265105846e+00
2.175954449176788152e+00
4.897076702117919567e+00
1.486737501621246516e+00
5.123113274574278009e-01
4.402393150329590554e+00
3.223021316528319691e+00
1.409682208299637196e+00
8.666060900688172808e+00
1.924541014432907149e+00
3.811145591735839222e+00
5.674955296516417391e+00
3.734915256500244141e+00
5.796168655157089011e-01
8.775618791580195310e-01
1.137990989685058807e+01
6.704178881645202814e+00
6.499024391174316406e+00
8.701206469535829768e+00
8.167823624610900168e+00
2.582665312290191029e+00
1.845763349533082076e+00
1.659988427162170321e+00
6.563061738014221547e+00
1.059517374038696857e+01
7.912698674201964266e+00
1.583809322118758578e+00
3.722739756107331210e+00
6.588174605369568226e+00
4.685548424720764160e+00
6.173544144630432662e+00
1.186246361732483479e+01
1.537992423772812645e+00
1.983390843868255704e+00
1.266611948013305877e+01
4.096478962898253862e+00
0.000000000000000000e+00
2.259793466329573786e+00
2.240461754798888538e+00
0.000000000000000000e+00
0.000000000000000000e+00
4.540304493904113947e+00
7.468511909246444702e-01
8.645845770835876021e-01
2.595973622798920299e+00
2.003650957345961992e+00
1.734331530332565929e+00
9.554563630372281402e-02
6.669698929786680885e+00
