1.002972435951233265e+01
1.112714247703553205e+01
1.107196187973022639e+01
2.693199694156644952e+00
1.379661726951600542e+01
1.138411247730254372e+00
8.566747140884398704e+00
9.558477544784546254e+00
1.446524605853483081e-03
6.199693393707275568e+00
1.387828350067139027e+01
9.932355070114130768e+00
0.000000000000000000e+00
2.656662387847901385e+01
5.324764118194580931e+01
1.584235435724258068e+00
4.684875774383544744e+00
1.352472887039184357e+01
0.000000000000000000e+00
3.575937538146973793e+01
1.009746227264404084e+01
2.607520115375518532e+00
2.167987346649169922e+01
0.000000000000000000e+00
6.876243329048156383e+00
4.234917238354683061e-02
3.122825646400452015e+00
3.773565089795737678e-03
1.281896042823790882e+00
2.342479572296142010e+01
0.000000000000000000e+00
8.038307332992554066e+00
0.000000000000000000e+00
1.546571364402770499e+01
1.005469369888306019e+01
2.452747230529784161e+01
2.325357513427733380e+01
0.000000000000000000e+00
8.062705183029175160e+00
0.000000000000000000e+00
1.226898369789122967e+01
6.091988825798035023e+00
1.859810215234756425e+00
1.859480303525924638e+00
1.818675851821898704e+01
3.292469024658204457e+00
1.637391285896301696e+01
9.341000080108642578e+00
4.201189479827881001e+01
1.469774711132049383e+00
7.046174168586730957e+00
3.481652963161470549e+00
5.999692392349243342e+00
0.000000000000000000e+00
7.036976838111876020e+00
3.961086618900299783e+00
1.629878151416778831e+00
2.532272434234618430e+01
5.621392297744749911e+00
1.292234771728515739e+02
1.760776883363722289e+00
3.223882114887239858e+00
1.728042966127394831e+00
0.000000000000000000e+00
3.691955399513244807e+00
6.513676619529723766e+00
1.053925752639771041e+01
3.258225250244140625e+01
8.201812052726745961e+00
1.722700792015530061e-04
1.080230002403258815e+01
1.077784485816956739e+01
5.575786315603180202e-04
3.086001596450806872e+01
9.338400745391846058e+00
8.896283817291259055e+00
9.823910474777225232e+00
2.882192988181485967e-04
2.145760881900788064e+00
5.837467360496520818e+00
8.914424276351928356e+00
3.358440411090851008e+00
6.885027265548705699e+00
8.558958435058595882e+00
3.627256359322927133e-04
1.725606310367584939e+00
6.874792313575744274e+00
0.000000000000000000e+00
1.211959306150675320e-01
8.197015285491943359e+00
9.026290941238404031e+00
1.702806129455566264e+01
3.762534797191620761e+00
5.214801120758056463e+00
1.070165328979492436e+01
9.739384508132928886e+00
3.016446912288666127e+00
9.045422220230101118e+00
1.783928442001343484e+01
3.467298567295074463e+00
2.971217966079711914e+01
2.825270309448242756e+01
4.227847442626951846e+01
4.945771144703031003e-02
0.000000000000000000e+00
1.302827754020691131e+01
0.000000000000000000e+00
1.336995787620544185e+01
5.003870773315429510e+00
0.000000000000000000e+00
3.109155356884002686e+00
0.000000000000000000e+00
9.225926828384398704e+00
8.575439453125000000e+00
1.937947505712508400e+00
2.407991814613343440e+00
2.414292449951172870e+01
5.602877354621886852e+00
2.704336595535277610e+00
2.894392919540405984e+01
0.000000000000000000e+00
1.585424308776856073e+01
1.048306336402892036e+01
6.010690236091614125e+00
6.965118288993837226e+00
4.839855742454529874e+00
1.204797096252442046e+01
3.971042613983154723e+01
5.563198399543762385e+00
2.072526435852051563e+01
9.379657840728759410e+00
7.576586604118347168e-01
0.000000000000000000e+00
6.096168112754820179e+00
0.000000000000000000e+00
5.511013007164001110e+00
4.346703636646269686e+00
9.316102027893066406e+00
0.000000000000000000e+00
1.170137691497802557e+01
6.406985055655241290e-02
7.137962317466735485e+00
0.000000000000000000e+00
8.421676874160766602e+00
3.212769651412963334e+00
5.514942550659180043e+00
5.283128380775452548e+00
3.102697908878327304e+00
2.353148198127747559e+00
5.771584123373031394e-01
5.581403517723083851e+00
1.434788632392884189e+01
7.644754362106321643e+00
4.516265430450440732e+01
3.533011971740051887e-04
4.605159640312194824e+00
1.563622703552245774e+01
0.000000000000000000e+00
2.436252956390380220e+01
0.000000000000000000e+00
7.524437499046325861e+00
7.838191819190979182e+00
1.431564307212829235e+01
5.745680737495422186e+00
0.000000000000000000e+00
1.877280292510985404e+01
3.385806856155396360e+01
8.613069725036620383e+00
1.970265555381774947e+00
1.980568075180053622e+00
1.108111910820007395e+01
3.569025266170501531e+00
4.191387820243835272e+00
8.225985646247863770e+00
9.802442836761475320e+00
4.161509752273557794e-01
9.018683433532714844e+00
2.623812228441238514e-01
1.104287199974059419e+01
9.625954484939574840e+00
3.152197206020355136e+00
1.185693049430848234e+01
1.224677789211273016e+00
7.467289426131174402e-04
3.931858313083648859e+00
1.621018666028974931e+00
7.905603265762328746e+00
6.026204185485838849e+01
9.646529436111450195e+00
2.117209815979004262e+01
2.287050085067747673e+01
4.743455553054809926e+00
1.111396079063414888e+01
1.396961908340453284e+01
1.097800755500793457e+01
1.311669464111328942e+01
5.998786401748657404e+00
4.339459538459779608e+00
2.438017380237579967e+00
0.000000000000000000e+00
6.144511432647705362e+01
1.937477814499288060e-03
3.373161590099336138e+00
2.758187103271484197e+00
3.462160754203797097e+00
8.730003356933595526e+00
3.321676754951476962e+00
0.000000000000000000e+00
3.375350487232206209e+00
1.907723875045775941e+01
9.176145601272583718e+00
1.680082521438599130e+01
3.038266220092772940e+01
0.000000000000000000e+00
3.940122401714325040e+00
6.118775690993061560e-05
8.293950772285462847e+00
1.192590112686157333e+01
2.304709422588349543e+00
0.000000000000000000e+00
2.597253036499024059e+00
1.999781913757324148e+01
0.000000000000000000e+00
3.664198894500732706e+01
6.846845841407775524e+00
4.879859590530395863e+00
0.000000000000000000e+00
1.123980946540832093e+01
1.123670744895935236e+01
6.688826751708984553e+00
4.014391779899596280e+00
4.114000785350799383e+00
2.728876890614628683e-04
7.579638404846190269e+01
4.563815569877625933e+00
1.539498286247254022e+01
1.976158370971679901e+01
3.389384536743163778e+01
1.626876459121704599e+01
0.000000000000000000e+00
6.515311455726622292e+00
4.204264014959335216e-01
2.943328809738158913e+00
0.000000000000000000e+00
8.982515048980712180e+00
6.515995049476623890e+00
1.754337186813354066e+01
3.224002370834351439e+01
4.660482168197630948e+00
0.000000000000000000e+00
6.947344756126403453e+00
3.311073036193847230e+01
0.000000000000000000e+00
4.448815555572510050e+01
1.805585300922392999e+00
7.118855677545070371e-02
7.298479020595550759e-01
9.316994756460189597e-01
2.923643481731413196e+00
7.049688625335693182e+00
1.285666441917419967e+01
7.652451801300048650e+00
4.776334686279297159e+01
0.000000000000000000e+00
2.840537631511687700e+00
0.000000000000000000e+00
0.000000000000000000e+00
1.071736164093018218e+01
0.000000000000000000e+00
4.608983101206830984e-04
0.000000000000000000e+00
8.086938214302062278e+00
7.991465497016906561e+00
1.580344638824462855e+01
4.916318759918213033e+01
2.368477306365968360e+01
1.835253763198852539e+01
1.215870060633505841e-07
2.063688354492187926e+01
3.869089501677079579e-04
2.599862718582153676e+00
0.000000000000000000e+00
9.719877004623411310e+00
3.393949019908904408e+00
2.563367030234076300e-04
2.547192096710204634e+00
0.000000000000000000e+00
5.041082239150999733e+00
2.883453154563903276e+00
3.084808230400084561e+00
2.367350292205810725e+00
6.612149810791015270e+00
1.099787569046019975e+01
4.554338932037353516e+00
0.000000000000000000e+00
0.000000000000000000e+00
1.279348337650298983e+00
2.662271203994750479e+01
1.713446807861328836e+01
1.015258641242981241e+01
6.896626639366151501e+00
3.523706545820459181e-04
4.009250659942627237e+01
6.093622112274170277e+00
2.713159713745115909e+01
2.297182929515838801e+00
1.184427185058594389e+01
4.239819967746734974e+00
1.907005596160887162e+00
2.876829002052546172e-02
4.927568507194519221e+00
6.591816735267639338e+00
3.124557886123655948e+01
2.187849302291869691e+01
1.785668344497680238e+01
5.507677173614502486e+00
1.167978411912919068e+00
1.121868157386779608e+01
6.309537353515624858e+01
3.221105337142945046e+01
7.893853402137755992e+00
0.000000000000000000e+00
1.242608652114867596e+01
1.812710456848144602e+01
1.672871699333190776e+01
3.299379081726073082e+01
5.430242228507995428e+00
9.935629796981807260e+00
5.378065896034240900e+00
4.003992080688476562e+01
0.000000000000000000e+00
6.875046992301941273e+00
5.674219799041747336e+00
1.396218419075011985e+00
7.461932063102722168e+00
2.480854988098144531e+01
0.000000000000000000e+00
5.792940914630889671e-01
2.660308706760408093e+00
7.549163208007811932e+01
2.263938641548156827e+00
1.378256940841674805e+01
1.702676701545716043e+00
4.076427412033080344e+00
5.788252735137939808e+00
1.446862041950226274e+00
2.918069477081298757e+01
3.788215100765227383e+00
5.040471553802492011e+00
6.048635512590407881e-01
9.176563215255736594e+00
4.640059471130371094e+00
0.000000000000000000e+00
9.229947850108147223e-02
3.348319473266601420e+01
3.554930627346038818e+00
1.623385415077209970e+01
1.402954216003418253e+01
1.434965223073959129e+00
8.607683992385863903e+00
6.392981672286986772e+00
6.360682892799377264e+00
9.768582105636589574e+00
8.477202868461608531e+00
1.534918589591978488e+01
0.000000000000000000e+00
3.240151762962341309e+00
5.753430366516113281e+00
7.371646332740783514e+00
2.817990093231201598e+01
1.142400741577148082e+01
7.267615008354186834e+00
4.724349498748778586e+01
5.278387352824210899e-01
2.832866106033325337e+01
5.281259083747862348e+00
1.742983655929565856e+01
1.481950345039368599e+01
4.623348021507263539e+00
6.290529823303222301e+00
1.946475601196290839e+01
3.242763538360597408e+01
6.293125391006469727e+00
6.561443805694580078e+00
0.000000000000000000e+00
1.678374922275542191e+00
0.000000000000000000e+00
0.000000000000000000e+00
1.397867312431335129e+01
1.529846701622009597e+01
1.039070234298706374e+01
1.074704155921935111e+01
0.000000000000000000e+00
2.425297679901122194e+01
1.281286430358886674e+00
5.778755712509155096e+00
0.000000000000000000e+00
3.668550217151642645e+00
2.118189865350724066e+00
1.017785272598266566e+01
3.322279679775237415e+00
2.164308768510818215e+00
6.229395008087158736e+00
2.032989473342894726e+01
5.858202695846556729e+00
1.572044687271118235e+01
2.591368999481200674e+01
6.784696698188779962e+00
9.890886878967288354e+00
0.000000000000000000e+00
0.000000000000000000e+00
7.854568123817443848e+00
1.110211677551270171e+01
1.324785599708557982e+01
7.043761086463928400e+00
5.380679631233215687e+00
1.883886470794677948e+01
2.876608715057372478e+01
0.000000000000000000e+00
3.049667901992796004e+01
7.601137495040893199e+00
1.635397939682006552e+01
3.455937969684600208e+00
4.756931066513061523e+00
1.793215459585189908e+00
9.782205152511599167e+00
2.937109375000000000e+01
4.432267880439759722e+00
2.205999135971068448e+00
1.925185441970824129e+01
1.081075128167868597e-02
1.908028679054040430e-06
1.236741671562194256e+01
1.624453192949295133e+00
1.313234286308287935e+01
2.169484531879424249e+00
5.436038464307785256e-01
0.000000000000000000e+00
1.087364730834960191e+01
2.893868446350097656e+00
2.846038544178009388e+00
1.765469276905058837e+00
7.387954998016357244e+00
1.152748577296734342e-02
7.468898153305052467e+00
3.738779234886169256e+00
9.907161623239522097e-01
5.251773953437805176e+00
9.733823776245120740e+00
2.569404134750365643e+01
6.144907212257384010e+00
1.409390497207642667e+01
1.607561573982238201e+01
4.965398812294005815e+00
8.939666700363158469e+00
5.198093366622924982e+00
1.507991647720335848e+01
1.983750648796557547e-02
1.738060455322265341e+01
8.401058244705200906e+00
1.475850200653076527e+01
2.365141034126281294e+00
0.000000000000000000e+00
1.926194500923155584e+00
8.973167562484741566e+00
2.402609052658080913e+01
5.057906317710878064e+00
0.000000000000000000e+00
2.197290849685669656e+01
1.736502857208251882e+01
3.774529111385344748e+00
7.204527735710144487e-01
8.638710975646972656e+00
2.287072000503540181e+01
4.837390803731978113e-03
2.232440967559814382e+01
4.315184161067008306e-01
2.410177159309387029e+00
1.100444216728209845e+01
3.486399579048156561e+00
0.000000000000000000e+00
2.680349588394165261e-01
3.489001882076262717e+00
1.576274633407591885e+01
2.299881820678710653e+01
2.061764860153197532e+01
1.962359933853149840e+01
1.864807301899419319e-03
1.553162706841248694e-04
4.085721135139465332e+00
2.255406891927122862e-02
1.033130736351013113e+01
7.305789232254028542e-01
1.130094866752624938e+01
7.006113672256470970e+00
3.538982558250426624e+00
8.837655305862426758e+00
2.735979213714600178e+01
1.053345015048980926e+01
4.961085486412049939e+00
1.552054305076599050e+01
1.567760290345176794e-03
8.114891052246093750e+00
1.675161108970643298e+01
3.110234766006470153e+01
0.000000000000000000e+00
9.731008005142211204e+00
6.434769332408905029e-01
4.225964605808258057e+00
2.854241914749145437e+01
0.000000000000000000e+00
2.160326935350894983e-01
2.684088745117187358e+01
6.555594921112060547e+00
1.169908404350280229e+01
0.000000000000000000e+00
9.575110733509063499e-01
4.703860044479370117e+00
4.676750230789184393e+00
1.206961798667907537e+01
7.065457105636598456e+00
1.433557109832764453e+01
0.000000000000000000e+00
2.598231515884398846e+01
4.220240616798401234e+00
1.429814877510071369e+01
6.637806797027588246e+00
2.928111255168913907e+00
5.053787899017334162e+00
1.884740037918090394e+01
8.879017877578736062e+00
6.712293267250061035e+00
9.853223752975468486e+00
0.000000000000000000e+00
5.797847008705138805e+00
2.917988185882568786e+01
5.959169125556945446e+00
6.285172390937804110e+00
2.945418672561645579e+01
2.246944036483764862e+01
1.375035601854324607e+00
8.592267370223998668e+00
0.000000000000000000e+00
9.403700780868529563e+00
3.090064954012632439e-02
0.000000000000000000e+00
0.000000000000000000e+00
1.606816071271895963e+00
4.456761169433592684e+00
5.236965870857238414e+00
1.339020144939421231e+00
3.168614029884338823e+00
9.827207994461064189e+00
0.000000000000000000e+00
1.650844564437866424e+01
4.315392565727234064e+00
4.165126264095306285e-01
8.232061984017493075e-03
2.875105504989624450e+01
1.051586990356445561e+01
1.780231773853301336e+00
3.739832150936126531e+00
4.090821433067321600e+00
0.000000000000000000e+00
1.971943080425262007e+00
5.682437014579773127e+00
0.000000000000000000e+00
1.146687169075011425e+01
1.271625965833663274e+00
2.543191318511961896e+01
0.000000000000000000e+00
4.141208600997925871e+00
3.312079715728759144e+00
4.683372831344605025e+00
3.236207807064056308e+00
6.392154550552367809e+00
1.080623979568480131e+01
6.871432161331178179e+00
1.637699532508850808e+01
3.821397042274475186e+00
0.000000000000000000e+00
6.109696483612060192e+00
5.268851852416992188e+01
7.359429764747619451e+00
2.980312812328339778e+00
2.825271997451780948e+01
0.000000000000000000e+00
0.000000000000000000e+00
1.556995129585266113e+01
6.183037590980529963e+00
1.687611646950244737e-01
0.000000000000000000e+00
8.069391310214996116e-01
1.116910128593444362e+01
3.330308341979980469e+01
1.540101041793823278e+01
1.377270298004150106e+01
4.267508125305175426e+00
1.243222217559814524e+01
1.202838129997253347e+01
8.324862122535705566e+00
4.021408677101135254e+00
1.418097949028015670e+01
1.514400006271899505e-04
2.408249216079710919e+01
1.203311071395872922e+01
2.936234025955199556e+01
0.000000000000000000e+00
1.870947713851928285e+01
3.208605170249938965e+00
0.000000000000000000e+00
4.824071812629698641e+00
7.013030767440795898e+00
0.000000000000000000e+00
1.783085680007934570e+01
3.095452904701233354e+00
2.951215047836301864e+01
7.725549006462097523e+00
2.541612586975097798e+01
8.505637168884277344e+00
2.183187341690063565e+00
4.933988094329833984e+00
4.709425187110900524e+00
9.674473094940186257e+00
3.049312770366669145e+00
9.971624881029127474e-01
6.754245638148860444e-04
9.888521909713750446e+00
3.947702236175538104e+01
1.304821914434433516e+00
6.456664037704467951e+00
1.637151731301855965e-05
3.683770122528077451e+01
3.164004468917847035e+00
0.000000000000000000e+00
1.218055911064147523e+01
3.584472227096556107e+00
9.185800765408204524e-04
7.034666866064072099e-01
1.448463153839111683e+01
4.046666564941406108e+01
5.829895281791686479e+00
2.320684909820555930e+01
2.021800823211669140e+01
1.951685028076170880e+01
7.372704696655273615e+00
2.565145611762999600e+00
1.419152441024780487e+01
1.133649845123290412e+01
3.633581914901732546e+01
1.166713685989380522e+01
7.345464444160461071e+00
6.037621521949768422e+00
8.982567167282104137e+00
1.774020013809204599e+01
2.786269056797027410e+00
3.277326750755309437e+00
2.551455173492431072e+01
2.396806230545044514e+01
0.000000000000000000e+00
2.357183346290981271e-08
9.885227060317989256e+00
5.769967699050903676e+00
5.524389910697935946e+00
1.697152042388916016e+01
6.243672418594360174e+00
0.000000000000000000e+00
2.078707904815673047e+01
6.338302016258239746e+00
3.813983285427093417e+00
3.002922239303588370e+01
6.445668148994444735e+00
1.798823509216308736e+01
0.000000000000000000e+00
3.270766210556030895e+00
0.000000000000000000e+00
3.244161558151243518e+00
1.803089866638184802e+01
1.972756958007812500e+01
0.000000000000000000e+00
3.246993577480316251e+00
8.170284652709961293e+00
4.706326746940612260e+00
7.584681534767151234e+00
4.356295180320739924e+00
3.634277820587158914e+01
8.060052180290222523e+00
5.455471110343934171e+00
0.000000000000000000e+00
2.971910295486450693e+01
6.922485828399658203e+00
2.387119007110596769e+00
2.328411264419556304e+01
8.516449999809264426e+00
2.020203703641891835e+00
2.236177611351013006e+00
3.829995858669280384e+00
1.423894295692443812e+01
1.080690552043961605e-04
1.340781207084656579e+01
0.000000000000000000e+00
9.030613422393798828e+00
0.000000000000000000e+00
1.890356159210205078e+01
1.064570636749267685e+01
1.271407370567321138e+01
1.865704383850098225e+01
9.472129487991333363e+00
3.405156064033510344e+00
1.132858145236969039e+00
2.267139024734496999e+01
4.989579939842224476e+00
6.668451261520386808e+00
1.303196411132811861e+01
2.495199689865112447e+01
1.507842636108397416e+00
8.827471446990966086e+00
6.765847468376160023e+00
2.560360355377196839e+01
0.000000000000000000e+00
1.039393112296239149e-03
4.616516113281250000e+00
7.893595385551451571e+00
3.091760864257812358e+01
4.913518571853638051e+00
0.000000000000000000e+00
0.000000000000000000e+00
7.189544939994812367e+00
2.962947063446043927e+01
8.774912118911743164e+00
5.494781708717345836e+00
1.425425469642504920e-03
3.998699033260345370e+00
1.435765662193299264e+01
0.000000000000000000e+00
6.968815875053405939e+00
1.421773681640624787e+01
1.873806877136230398e+01
3.120553998947143981e+01
4.026041393280028302e+01
2.919922518730163397e+00
0.000000000000000000e+00
1.920390102895908166e-04
1.411760840415954910e+01
1.975459461212158629e+01
4.712676215171813787e+00
5.389450049400328346e+00
3.132588958740234908e+00
1.828236408233643573e+01
1.361153907775877769e+01
1.661747674942015962e+01
9.910666227340707124e+00
7.289036726951600542e+00
5.516382193565367409e+00
0.000000000000000000e+00
6.144566631317139205e+00
7.185861468315124512e+00
6.353109025955200551e+00
1.528681522607803434e+00
9.181175136566162465e+00
4.424525337219237997e+01
0.000000000000000000e+00
1.782904968261718892e+01
2.560363066196441828e+00
3.437947437167167553e-01
4.060297453403471479e+00
5.320009756088255770e+00
2.002470474243163423e+01
9.765424728393554688e+00
2.012809228897095437e+01
1.697597551345825551e+01
7.940895366668700994e+00
9.364186716079711204e+00
0.000000000000000000e+00
6.347943472862243475e+00
0.000000000000000000e+00
3.607747423648832719e+00
8.659276294708252664e+00
0.000000000000000000e+00
1.573807382583618697e+01
0.000000000000000000e+00
3.578926067352294638e+01
0.000000000000000000e+00
1.191754698753357467e+01
1.069824099540710094e+01
1.046662292480468359e+01
1.069185748100281508e+01
4.770603108406068493e+00
1.646080913543701030e+01
4.671383452415466486e+00
1.593004322052002308e+01
9.722334051132204280e+00
7.397828722000122426e+00
5.873575615882875134e+00
6.886727263918147358e-04
4.200369313359259560e-01
0.000000000000000000e+00
2.213105142116546631e+00
1.010821080207825595e+01
2.624202184677123384e+01
8.057955598831176403e+00
1.077699117660521821e+01
7.838694453239442694e+00
2.858543510437011648e+01
1.225266361236572443e+01
3.720021629333496005e+00
1.164550817012786066e+00
2.296498565673828907e+01
1.416270384788513148e+01
0.000000000000000000e+00
4.758655500411986594e+00
1.338481259346008656e+01
0.000000000000000000e+00
7.051553338766097800e-01
5.934510540962219416e+00
3.942099819183349041e+01
1.407649002075193856e+01
9.603541523218150910e-01
6.156020474433898215e+00
1.117122778892517587e+01
3.399627947807311479e+00
0.000000000000000000e+00
1.112133502960204900e+01
4.445121402740476668e+01
0.000000000000000000e+00
6.182530117034910511e+00
2.485941028594969993e+01
1.397823810577392045e+01
2.797904407978058394e+00
0.000000000000000000e+00
1.495789778232575085e+00
1.221696378290654028e+00
4.778975009918212891e+00
0.000000000000000000e+00
3.634573876857757568e+00
7.797198200225831322e+00
1.762492532730102823e+01
6.226912665367126287e+00
1.785900807380677247e+00
0.000000000000000000e+00
2.893067798867557420e-09
8.314946441650390341e+01
4.020026779174803444e+00
4.796879196166992543e+00
3.286109013060923005e-05
4.584279012680053889e+00
1.956492576599120170e+01
5.175650691986083629e+00
8.956710444181225923e-05
5.341915202140808283e+00
0.000000000000000000e+00
4.424839258193968838e+00
1.052579717636109180e+01
4.512355899810791549e+00
1.613025593757628684e+01
2.391156167984009429e+01
1.277170910835266326e+01
1.386341576576231560e+01
8.130759735107422159e+01
1.224498796463012518e+00
0.000000000000000000e+00
7.590453982353210449e+00
2.015216922760010476e+01
3.869116532802582498e+00
3.047154390811920965e+00
5.817465996742248180e+00
2.678186483383178640e+01
2.493458147048949414e+01
1.468920745849609411e+01
1.083652658462524698e+01
1.176350474357604536e+00
7.958518195152284314e+00
2.416210031509398615e+00
1.038126549701701659e-05
4.694045615196227317e+00
1.100284439325333485e+00
3.173370555043221186e-01
8.919965696334834604e+00
4.000151300430299095e+00
1.802108354568483151e+01
2.146781873703002930e+01
3.879563560485839702e+01
1.551872377395630487e+01
1.323572897911071422e+01
1.168649954795837509e+01
7.268302106857300160e+00
8.336513042449951172e+00
2.442206323146820068e+00
7.816597353667018629e-04
1.595360474586487420e+01
2.844666223973035812e-02
1.052740077972410759e+01
2.625476436614990661e+01
6.102727019786834184e+00
2.234458618164062571e+01
4.277487373352050426e+00
3.015289640426636275e+00
0.000000000000000000e+00
1.530461483001708700e+01
2.451067543029785156e+01
1.699566392898559641e+01
0.000000000000000000e+00
4.482028732299805540e+01
7.219485926628112615e+00
1.231029510498047053e+01
5.797006058692932839e+00
4.267820358276368076e+00
1.032955884933472124e+00
5.929659576416015909e+01
2.354260150241316770e-05
4.321051204204559681e+00
1.089565124511718963e+01
1.734506597518921112e+01
1.339034396409987560e+00
3.197541937232016851e-01
5.783762860298155672e+00
2.130398855209350373e+01
7.466652393341062677e+00
3.837266266345976673e-01
2.006476931273937225e-01
7.642272710800170898e+00
1.117981247901916930e+01
3.373767610173672611e-03
2.348171768188477770e+01
1.369394226074219034e+01
7.868549513816833318e+00
0.000000000000000000e+00
0.000000000000000000e+00
1.020755538344383151e+00
1.197814331054688530e+01
2.028538732528686950e+01
6.202295088768005726e+00
1.188954768180846422e+01
2.340916705131530939e+00
1.600144505500793812e+01
5.427643609046935325e+00
1.001150970458983913e+01
9.188480710983277788e+00
7.501424646377563121e+00
9.590820646286010387e+00
1.252509899139403871e+01
7.877963995933532360e+00
8.402011728286741032e+00
3.701384010314941264e+01
4.794961249828338268e+00
2.176347430795430929e-02
3.419479739665984397e+00
2.526494777202605846e+00
1.107697138786316060e+01
2.063397443294525679e+00
9.039415502548218129e+00
2.858428821563720135e+01
0.000000000000000000e+00
1.233476452827453507e+01
1.578539037704468129e+01
1.427693953514098268e+01
2.392445135116577504e+01
3.115214717388152366e+00
1.393934507369996467e+01
3.817603647708892822e+00
0.000000000000000000e+00
0.000000000000000000e+00
2.710527715682982830e+01
0.000000000000000000e+00
1.041415734291077300e+01
5.131431522369384624e+01
1.680836205482483336e+01
5.396843767166137340e+00
2.780749559402465598e-01
0.000000000000000000e+00
0.000000000000000000e+00
0.000000000000000000e+00
5.649270391464234820e+00
2.651930522918700461e+01
8.486561894416808638e-01
1.646541047096251731e+01
2.038905010223388459e+01
7.604995012283325195e+00
0.000000000000000000e+00
1.676754064559936452e+01
9.279649209976195579e+00
1.281031937599182058e+01
2.875588817596435121e+01
3.410105276107787908e+00
1.459603838920593510e+01
1.571193032264708300e+01
2.684571447372436381e+01
7.706674933433530938e+00
1.331612257957457857e+01
3.132831263542176004e+00
3.685399017333985228e+01
1.116749876737594516e+00
2.620437955856321999e+00
1.650433740615843803e+01
0.000000000000000000e+00
5.390149521827697576e+00
1.126326289176941486e+01
2.014837484359739506e+01
5.033862400054930575e+00
1.481211912631988037e+00
4.225466740131378351e+00
2.559081926345825053e+01
1.501084027216714372e-09
1.037732921540737430e-01
5.515137171745300826e+00
9.222454071044921875e+00
0.000000000000000000e+00
2.109508860111235506e+00
3.335844147205352606e+00
3.721072353073395789e-04
0.000000000000000000e+00
3.190582370758056641e+01
8.331324124336243031e+00
9.431675291061401012e+00
2.990031294757500508e-04
2.915475425720214986e+01
8.822830963134766336e+00
6.556999444961547852e+00
5.172356739640234652e-02
0.000000000000000000e+00
0.000000000000000000e+00
6.500318551063537953e+00
2.456602210998534730e+01
1.082326059341431446e+01
4.303264665603637518e+00
2.632264769077300226e+00
2.611383914947509055e+01
7.717193460464477184e+00
1.058683462142944443e+01
7.679733133316039684e+00
0.000000000000000000e+00
0.000000000000000000e+00
0.000000000000000000e+00
2.092973875999450062e+00
1.137837939262390385e+01
1.067475085258484491e+01
0.000000000000000000e+00
1.141890219878404986e-02
1.687804660797119283e+01
1.749188894033433472e+00
1.207829880714417570e+01
1.987718510627747293e+00
4.361300697326660725e+01
3.978194683790207686e-01
9.671228933334349520e+00
6.488850259780885033e+00
5.955081725120544789e+00
4.819468426704407449e+00
4.441780328750610352e+00
3.757846438884734575e+00
6.526726356241852045e-04
1.177830519676207999e+01
8.485921406745911000e+00
3.973917067050933838e+00
2.036227672360837321e-02
8.707989454269409180e+00
2.252029180526733754e+01
9.149830198287963512e+00
8.322189540863041657e+01
1.384949900209903884e-01
3.318824329376220561e+01
9.612083256244658980e-01
2.208851709365844584e+01
1.223023259080946966e-02
0.000000000000000000e+00
5.945984229445457903e-01
7.074506139755248668e+00
1.412153139114379563e+01
9.293887519836426137e+00
1.000122756958008097e+01
3.473659455776214600e+00
7.733365511894225719e+00
0.000000000000000000e+00
1.090633206367493457e+01
3.065032520294189311e+01
3.125931921005248526e+01
0.000000000000000000e+00
4.235157465934753063e+00
9.101992702484130504e+00
5.304520106315612438e+00
1.044775061607360556e+01
1.393051934242249068e+01
3.865957565307617472e+01
1.834630718231201740e+01
2.457326972484587646e+00
2.120057687759399556e+01
1.399776518344878928e+00
1.521292395591736124e+01
9.617016887664794567e+00
4.234390783309936346e+00
1.194215703010558549e+01
3.242662286758423384e+00
1.111344738006592969e+01
7.083401083946229804e+00
5.995391035079956410e+00
0.000000000000000000e+00
9.366326522827145951e+00
4.227154183387756170e+00
9.811737984418865688e-01
0.000000000000000000e+00
0.000000000000000000e+00
1.043462610244750399e+00
1.261131840944289539e+00
2.663799571990966086e+01
6.309079670906066362e+00
2.942978250980376576e+00
3.794938302040100186e+00
1.006562218666076625e+01
1.245493116378784038e+01
1.427888202667236861e+01
2.182162988185882835e+00
6.231609106063842773e+00
5.920316338539124423e+00
2.674300837516784490e+00
6.152616769075393011e-01
1.459206085205079262e+01
6.907622408866880725e+00
2.502809607982634965e+00
1.211021914059528485e-04
1.240758442878722789e+01
0.000000000000000000e+00
0.000000000000000000e+00
7.349628257751464666e+00
5.978832740783691690e+01
1.083797616958617560e+01
4.110145235061645863e+00
1.645031108856201740e+01
4.912095713615419079e+00
1.270166985690592276e-01
3.512847101688385099e+00
3.918125474452972323e+00
8.985245132446289418e+00
7.865394043922424139e+00
1.919584150314331694e+01
2.378103437423706623e+01
1.883289861679076438e+01
6.370851325988769354e+00
8.132084345817569115e+00
6.533145666122434747e+00
0.000000000000000000e+00
2.392761688679455670e-02
7.016021776199339754e+00
4.732527494430541992e+00
0.000000000000000000e+00
0.000000000000000000e+00
3.045537786483764719e+01
1.798094332218170832e+00
3.315214099884032350e+01
1.824532375335693146e+01
4.209412395954131192e+00
1.206570353507995463e+01
9.507436466217043858e+00
1.660280370712279563e+01
1.298464255332946493e+01
1.867696666717529652e+00
0.000000000000000000e+00
5.821144962310789595e+01
6.663167071342469328e+00
1.337017440795898970e+01
0.000000000000000000e+00
2.510698633193970153e+01
2.196434211730957209e+00
1.284008419513702037e+00
1.635577454566956135e+01
3.100709000136702711e-04
1.706241321563720703e+01
3.121112096309663020e+00
0.000000000000000000e+00
7.032605935819447041e-03
6.640389680862424981e+00
1.014106154441833851e+01
5.339922447204590839e+01
3.274770927429198508e+00
1.821198587417602965e+01
1.116890671253203848e+01
9.928908920288089135e+00
2.499057018756865922e+00
1.118092494010926607e+01
6.289167189598083851e+00
5.486004739999771340e-01
1.798054990768432759e+01
6.505462479591369807e+00
1.139629874229431472e+01
8.770158815383911843e+00
3.645463573932647527e+00
8.155228090286257725e+00
1.331128716468811257e+00
1.330263347625732351e+01
6.327618092298507024e-01
2.062060928344727273e+01
2.306451380252838579e+00
1.019800847768784102e+00
2.217944459915161204e+01
0.000000000000000000e+00
1.504790000915527592e+01
0.000000000000000000e+00
9.410111498832696597e+00
6.983823346672579863e-04
1.510684804916382618e+01
3.155860471725461913e+00
6.802396368980407892e+00
0.000000000000000000e+00
0.000000000000000000e+00
3.603019275665282350e+01
1.767145090103149130e+01
9.316744136810303445e+00
1.085527219772339080e+01
3.556525051593779629e+00
9.085216379165649059e+00
1.106036267280578933e+01
0.000000000000000000e+00
6.390671819448471291e-01
1.325448546409607253e+01
2.146901044845581197e+01
2.983078117370606108e+01
9.769522619247428707e+00
2.671508731842040874e+01
4.290500283241272861e+00
2.678554892539978916e+00
6.945076322555541637e+00
2.845244884490964576e+00
3.144171667098999201e+00
5.585498332977294922e+00
3.158850860595704191e+00
0.000000000000000000e+00
1.983110179901122905e+01
1.057212629318238051e+01
3.233279171399772341e-03
2.364931535720825906e+01
2.646461820602417703e+01
9.767459106445311789e+00
0.000000000000000000e+00
1.023700761795043235e+01
4.848954582214354758e+01
5.211513495445251110e+00
0.000000000000000000e+00
5.958565592765808994e+00
1.390639823675155373e+00
1.429344367980957387e+01
1.312780761718749467e+01
0.000000000000000000e+00
1.452690463066100790e+01
2.601062259674072408e+01
0.000000000000000000e+00
5.286399626731872914e+00
3.794044327735901057e+00
6.710310163907706564e-03
0.000000000000000000e+00
4.820202505588531139e+00
8.289789175987241521e+00
5.393329358100890758e+00
0.000000000000000000e+00
2.349526786804200018e+00
3.512765753269195379e+00
0.000000000000000000e+00
0.000000000000000000e+00
1.423411059379577637e+01
0.000000000000000000e+00
4.026018035411834006e+00
3.768732631206511918e+00
3.280842888355255837e+00
2.812193524837494074e+00
2.588847799301148456e+01
8.005746769905091043e+00
2.543141393661499450e+01
0.000000000000000000e+00
2.463279880583285897e-01
1.555822193622589333e+00
2.629652576446532208e+01
3.959183940887451314e+01
0.000000000000000000e+00
3.764613258838653387e+00
4.814446640014648615e+00
2.934790575504303778e+00
3.634931302070617765e+00
4.726873898506165794e+00
7.808083081245422719e+00
2.228864955902100675e+01
0.000000000000000000e+00
1.576701607704161745e+01
3.111274719238281250e+00
6.529692316055298207e+00
2.367356290817260955e+01
1.459019312858581507e+01
5.341567254066466930e+00
1.672973823547363992e+01
1.288209505081177042e+01
9.087114524841307883e+00
5.671990442276000799e+00
4.959433570504188649e-01
1.503334007263183913e+01
0.000000000000000000e+00
3.097349319458008310e+01
7.713085302384570458e-04
4.555825066566467463e+00
8.694559144973755593e+00
6.539620900154114125e+00
7.274909424781798251e+00
4.753283858299255371e+00
3.265164184570312322e+00
3.702471816539763871e+00
6.130342698097228649e+00
0.000000000000000000e+00
0.000000000000000000e+00
3.274084749221800905e+01
5.117080044746399103e+00
9.025907993316648614e+00
3.200790894031525280e+00
3.923290729289873567e-04
2.459441576004028462e+01
0.000000000000000000e+00
4.235470271669328386e-03
8.540426993370056508e+00
0.000000000000000000e+00
1.259429639577865023e+00
1.804807519912720082e+01
6.193530702590942738e+00
1.195066699981689240e+01
0.000000000000000000e+00
2.771570405457169468e-04
2.301857099533080842e+01
4.454858756065368297e+00
7.730400013923646618e+00
0.000000000000000000e+00
5.791174030303953835e+00
0.000000000000000000e+00
7.091808104515076039e+00
1.707195293903350120e+00
5.036108589172362926e+00
8.455187034606932883e+00
1.101265521049498908e+01
2.642313652038573579e+01
9.638718700408936968e+00
1.849964771270752095e+01
8.974657684564590898e-01
3.503854255541227975e-04
2.055778627395630664e+01
0.000000000000000000e+00
5.139425015449523571e+00
6.731566691398620961e+00
4.223433816432953236e+00
1.410635614395141246e+01
0.000000000000000000e+00
1.509918184280395792e+01
0.000000000000000000e+00
3.202376788635774680e-07
4.759330868721006524e+00
9.860897541046142578e+00
3.703418934345246161e+00
5.114540410041809260e+00
1.443950074911117820e+00
0.000000000000000000e+00
4.852112960815429865e+00
7.948059701919556019e+00
7.804931259155274859e+00
8.710192203521728516e+00
1.154510207176209136e+01
9.600082635879516602e+00
2.914720535278321023e+01
3.604253101348876331e+00
3.789005148410798718e+00
2.903764963150025125e+01
4.156758422851563495e+01
1.451377091407775666e+01
7.024276876449585316e+00
2.554369878768919833e+01
2.142283494349638887e-09
7.610371589660644531e+00
3.731229841709137740e-01
8.614707374572754262e+00
8.257606241386383772e-04
1.179364891052244957e+01
1.407861008644103684e+01
0.000000000000000000e+00
6.005625963211059570e+00
7.045458221435547230e+00
2.667844798415899138e-02
1.663549666404723837e+01
1.251434473991393403e+01
1.079961190223694345e+01
7.518728137016296387e+00
8.393730974197387340e+00
3.271201848983765359e+01
2.565596494674682759e+01
1.630467405319214791e+01
7.093506574630737305e+00
6.637539100646972834e+00
2.913490784168243586e+00
3.967266845703124822e+00
0.000000000000000000e+00
7.910092043876649548e+00
0.000000000000000000e+00
2.251925981044768932e+00
1.237113962173462411e+01
4.213296484947204767e+00
9.398176956176760299e+00
4.822622609138488947e+00
3.290956151485442405e+00
2.320229160785674871e+00
0.000000000000000000e+00
2.823233492672442765e-02
3.454681129455566690e+01
3.083241479351348881e-08
5.389037942886352184e+00
2.242798280715942028e+01
7.531915307044982910e+00
1.717344319820403697e+00
7.779812359809874067e+00
6.449209600687026700e-02
4.898454062640667656e-02
1.676051778793334890e+01
1.386532773971557120e+01
3.169456424713134624e+01
1.015952229499816895e+01
6.053615322113038388e+01
6.364739799499512074e+00
8.283399128913879750e+00
9.249856424331664329e+00
5.040095305442809703e+00
7.017909312248230336e+00
2.296304540634155344e+01
1.429218835830687873e+01
3.909355199337007036e+00
5.079022836685180842e+00
3.449799361987972287e-04
3.051879480481147766e-01
1.703088331222534180e+01
9.168902994133535517e-03
8.307264328002929688e+00
2.786123430728914219e+00
6.301434803009033025e+00
0.000000000000000000e+00
7.669064292907714275e+01
1.419048416614533625e+00
2.713057192522682232e-05
7.780286836624145330e+00
6.606251335144044390e+00
6.616670775413513006e+00
7.535731554031372070e+00
0.000000000000000000e+00
1.587729513645171675e+00
0.000000000000000000e+00
2.889140319824217684e+01
1.415826838638167720e-04
9.560248088836670988e+00
2.188969218730925537e+00
3.631852073669433167e+01
4.467980980873106134e+00
1.240926427841186452e+01
5.904242706298828303e+00
3.840591561794279407e+00
5.427822113037109375e+01
0.000000000000000000e+00
1.036308526992798917e+01
2.021113786697388903e+01
5.937221360206605070e+00
0.000000000000000000e+00
2.010452518463134552e+01
6.568240571022033514e+00
1.537877621650695481e+01
8.941737747192382457e+00
1.119994716644287180e+01
3.988539874553679088e+00
6.266753864288329368e+00
3.135039210319518155e+00
2.562562093734741353e+01
0.000000000000000000e+00
8.135227012634278054e+00
1.190346470139047224e-05
1.514050221443176802e+01
2.533776021003723677e+00
5.487043666839601208e+00
1.483862712979316101e-01
2.765553534030914751e+00
9.384578609466553090e+00
1.367176696658133628e-01
7.920181131362914684e+00
3.102469766139983598e+00
2.564825525283812979e+01
0.000000000000000000e+00
9.105050325393676758e+00
1.487682352066040004e+01
4.625174641609192783e+00
0.000000000000000000e+00
1.999864492416381978e+01
6.116562294960021795e+00
4.548781967163087359e+01
7.959424424171447576e+00
7.042313575744628906e+00
1.596659803390502930e+01
3.886642289161681418e+00
3.322184824943542392e+00
1.889524108264595379e-04
8.264369297027588601e+00
1.259723548889159872e+01
6.247918176651000799e+00
7.608602190017700551e+00
3.254141795635223211e+00
0.000000000000000000e+00
0.000000000000000000e+00
1.135251703262329492e+01
0.000000000000000000e+00
5.177313137054443182e+00
6.020534706115723722e+00
6.017414718866348489e-01
1.051892919540405735e+01
3.551053822040556529e+00
5.123303108215333168e+01
1.005872259140014435e+01
4.259347462654114125e+00
5.044608378410340599e+00
1.653290085792542641e+01
0.000000000000000000e+00
6.274789738655089266e+00
7.509228973388671591e+01
6.118006229400632989e+00
1.845135297775268413e+01
6.888606882095338335e+00
1.103064194321632607e+00
1.122448072433472177e+01
5.588922321796417902e-01
2.950547542572020276e+01
1.659836745262146707e+01
5.874175739288330256e+00
1.818889970779419230e+01
0.000000000000000000e+00
1.338495779037475231e+01
0.000000000000000000e+00
0.000000000000000000e+00
1.610210877656935935e+00
0.000000000000000000e+00
1.270235958099365625e+01
3.372541370391845561e+01
7.286333775520324352e+00
2.384783148765563521e+00
4.464174818992614924e+00
1.423982892036437775e+01
5.058359646797180531e+00
2.390855712890624929e+01
2.387778148651123544e+01
3.559247933328152369e-01
1.081830582618713343e+01
1.962627716064452699e+01
0.000000000000000000e+00
4.370703911781312456e+00
5.379443502426147106e+00
7.854931116104125977e+00
7.260935693979262417e-01
7.232842873781919826e-03
5.143896913528443804e+00
1.862213001251220845e+01
3.693411397933959783e+00
9.551052570343017578e+00
0.000000000000000000e+00
3.314616565704345419e+01
9.577301025390625000e+00
4.864100003242491255e+00
1.477462191581725470e+01
1.413815107345580202e+01
0.000000000000000000e+00
4.556384301185607555e+00
7.219194984436035156e+01
7.510352635383606312e+00
0.000000000000000000e+00
1.447003769874571866e+01
6.742205739021301270e+00
7.834609270095825195e+00
1.214457092285156392e+01
2.590496530532835706e+01
4.188661229610443293e+00
3.244735920429228315e+00
6.312953472137451172e+00
3.465654850006103516e+01
5.574839258193970082e+00
2.235309505462646840e+00
8.697305250167847390e+00
2.501342391967772727e+01
2.241306698322296675e+00
2.630264520645141157e+00
3.006045401096344438e+00
3.689405763149261386e+00
2.867618930339814298e+00
4.163575601577759855e+00
7.966647720336913707e+00
2.500501899719238708e+01
1.311141818761825784e+00
4.240407633781432928e+00
4.339378719329833700e+01
6.835746645927429199e+00
1.724558830028399478e-03
2.586955201625824152e+00
3.390874052047730913e+01
0.000000000000000000e+00
2.439818300306797472e-01
1.127572479248046555e+01
1.654703445434569886e+01
7.221851229667663574e+00
0.000000000000000000e+00
6.684621047973632990e+00
3.856833386421204324e+00
1.508900275230408283e+01
3.026595640182495384e+00
9.437834811210629837e+00
0.000000000000000000e+00
4.257919732481242614e-02
9.449232816696166992e+00
8.481045150756835938e+01
2.073574819564819904e+01
4.353873882293701314e+01
3.292538042068481730e+01
1.620384858688338854e-03
8.735410737991333718e+00
9.157393026351929421e+00
2.516714930534362793e+00
1.669462275505065874e+00
6.192675375938415883e+00
2.543641078472137274e+00
2.907365980148315288e+01
1.092434358596801935e+01
0.000000000000000000e+00
1.129988040924072124e+01
2.779288029670715865e+00
0.000000000000000000e+00
1.608173447847365933e+00
3.673186511993407066e+01
1.363044729232787589e+01
8.610452747344970348e+00
1.068285924196243020e+00
2.723007392883300071e+01
8.318136096000671387e+00
3.457544147968292236e+00
4.468558764457703170e+00
3.679530506134034340e+01
0.000000000000000000e+00
1.226349654197691841e+01
1.391198354959488404e+00
2.871868400573732316e+01
0.000000000000000000e+00
4.387601146697996768e+01
0.000000000000000000e+00
1.089406847953796564e+01
3.760401450563222441e-05
7.285054349899292347e+00
0.000000000000000000e+00
2.061658544540406268e+01
1.116182169914245392e+01
6.633263635635375799e+00
0.000000000000000000e+00
1.526677641868590740e+01
6.369922304153441850e+00
4.845965614318847514e+01
6.498677206039429777e+00
3.706179511547087913e+00
1.111754088401794505e+01
4.827656507492065430e+00
5.146971893310547053e+00
1.156509456634521449e+01
3.819203052520752095e+01
4.117543363571166459e+00
1.349757323265075115e+01
1.511019773483277540e+01
7.266287878155708486e-03
6.851228260993957875e+00
1.235720906257630070e+01
3.634600143432616903e+01
2.113990526199340891e+01
4.100691652297973278e+00
2.508926022052764271e+00
2.652040452957153249e+01
2.483996641635896285e+00
1.160691466331482502e+01
5.177177995443343894e-01
1.016108798980712535e+01
2.417897520065307759e+01
2.180291910171508718e+01
1.540823377668857075e-01
4.606554088592530150e+01
5.342288088798523127e+00
3.266418468952178245e+00
8.807522487640380149e+00
0.000000000000000000e+00
1.647629394531249858e+01
8.752479195594787598e+00
1.268357200622557990e+01
1.873993358612059268e+01
1.258676252365111914e+01
2.332009166479111606e+00
1.157873311042786035e+01
1.558570084571838343e+01
0.000000000000000000e+00
1.742584800720213423e+01
2.746507537364959894e+00
2.321528081893920614e+01
7.519770193099975408e+00
8.311555027961731179e-01
3.503152835369110818e+00
1.903340137004852384e+00
3.689313755035399112e+01
6.893893218040465065e+00
1.292207112312317818e+01
9.046160411834716086e+00
5.377197766304016469e+00
2.269260196685790021e+01
3.211014337539673136e+01
5.609170365333556063e+00
5.329888844490051625e+00
5.508076438903808736e+01
4.222462582588195623e+00
1.826442873477934770e+00
4.103619074821473589e+00
8.476820144653319744e+01
3.237021136283874334e+00
2.342204732894898456e+01
1.207649779319763361e+01
2.041044932603837125e+00
1.291401591300964391e+01
1.506929302215576527e+01
0.000000000000000000e+00
0.000000000000000000e+00
2.182587451934814382e+01
6.272734045982359952e+00
6.146788692474363991e+00
2.587567310333252379e+01
1.432903504371642533e+01
5.949957466125488281e+01
3.837015552520752948e+01
5.883144068717956365e+00
4.834698247909547497e+00
1.036605286598205389e+01
4.962059307098388494e+00
9.921654176712035422e+00
4.895605826377869008e+00
9.021462774276733043e+00
2.342273318767546630e+00
0.000000000000000000e+00
6.019984698295592906e+00
1.704319629669189240e+01
3.580189675092696477e-01
0.000000000000000000e+00
1.100890669822692658e+01
2.372939519882203285e+01
2.709082317352295544e+00
1.444839558601379359e+01
4.619183683395386097e+00
3.133355922698974538e+01
0.000000000000000000e+00
7.025753116607665660e+00
6.054797142744064997e-01
3.203455829620361239e+00
1.423689178191125428e-02
1.581052136421203125e+00
5.036918330192565740e+00
1.788139638900757333e+01
1.412742910385131623e+01
1.027574272155762714e+01
0.000000000000000000e+00
3.707429575920106579e+00
1.301823917031288635e+00
2.214806962013244451e+00
3.604949188232421164e+00
1.970200672149658772e+01
0.000000000000000000e+00
3.185344254970549294e+00
6.511464953422546387e+00
1.045450210571288174e+01
1.104985890388488556e+01
0.000000000000000000e+00
6.942466974258424628e+00
3.355314421653748269e+00
5.457370166778564169e+01
4.538672280311585538e+00
0.000000000000000000e+00
1.810428851842879494e+00
2.295007915496825746e+01
1.124395906925202082e+00
0.000000000000000000e+00
2.200574195384978449e+00
0.000000000000000000e+00
3.365409946441651101e+01
7.439345180988311546e-01
0.000000000000000000e+00
4.526187610626219104e+00
2.112115991115570690e+00
2.179318380355835139e+00
5.506067485809326456e+01
7.619361019134520241e+00
4.878138184547424316e+00
9.226926898956298473e+00
6.863871812820432794e+00
0.000000000000000000e+00
1.356271243095398482e+01
1.179713888168336133e+01
1.849581308364867738e+01
0.000000000000000000e+00
7.498984026908874334e+00
1.263021054267883869e+01
7.148234033584595082e+00
1.524062842130661899e+00
2.662282705307006392e+00
1.495618815422058745e+01
7.558230423927307484e+00
1.734575223922730558e+01
7.955350351333616565e+00
6.336903142929076971e+00
1.050579524040222479e+00
1.831869764328002503e+01
5.105040168762208452e+00
4.142780852317810236e+00
1.462529211044312127e+01
5.129929685592651722e+00
2.582454471588135192e+01
9.405916309356689098e+00
8.993595075607299094e+00
8.685558795928955078e+00
9.190414762496947887e+00
3.006972181797028743e+00
6.439081080316100541e-05
8.192458420991896029e-01
1.076480851173401021e+01
9.509932374954223278e+00
2.850014629364014240e+01
6.927490019798279164e+00
0.000000000000000000e+00
2.981122910976410356e+00
0.000000000000000000e+00
6.044900488853454767e+00
0.000000000000000000e+00
1.039094567298889338e+01
1.199286646842957005e+01
4.221255552768706565e+00
1.882111158370970116e+01
0.000000000000000000e+00
3.429575765132904852e+00
1.011971145868300948e+00
7.640988874435423739e+00
1.506346187591551811e+01
1.035508732795714693e+01
4.373048839569091228e+01
1.590786153078079579e+00
1.507870889327022853e-04
0.000000000000000000e+00
1.537205448150635334e+01
2.423927378654479714e+00
1.027365541458130593e+01
2.187227821350096946e+01
3.071540069580078303e+00
5.458471703529356844e+00
1.568264818191528320e+01
2.980164003372193093e+01
1.367907202243805020e+00
1.169182686805724991e+01
5.962495279312133079e+00
0.000000000000000000e+00
2.540132846832274893e+01
6.979944515228273083e+00
5.024606728553772328e+00
6.969448709487915394e+00
1.871620454788207510e+01
9.379956207275391478e+01
3.058207206726074290e+01
1.477524650096893044e+00
1.860699872970582547e+01
3.264827978610993053e+00
3.639251079559325319e+01
0.000000000000000000e+00
9.587625122070315697e+00
1.191922168731689879e+01
0.000000000000000000e+00
1.632037450326606328e-03
8.089372485876082930e-01
0.000000000000000000e+00
1.645436429977417347e+01
1.201483545303343803e+01
1.179257249832153320e+01
1.813817346096038507e+00
0.000000000000000000e+00
0.000000000000000000e+00
1.355829300880433053e+01
4.003087815362960100e-04
0.000000000000000000e+00
2.586303901672363459e+00
1.219057364463806437e+01
3.919326186180113858e+00
2.818132519721983975e+00
1.140315132141112997e+01
4.703426194190980070e+00
2.341174998283387509e+01
6.866001462936400124e+00
9.597293570973161070e-10
1.680783414840698953e+01
5.451946759223938344e+00
1.553346076011657928e+01
7.933558869361877264e+00
1.460951561927796050e+01
1.359693112373353507e+01
3.159195737680420930e-04
9.024271368980407715e+00
2.895412855148315501e+01
1.483493795394897674e+01
2.740976977348328347e+00
1.963485994338988405e+01
1.219903912544251234e+01
5.316577506065369718e+00
4.350500559806823375e+00
4.897094268798828409e+01
3.641009922027588175e+01
0.000000000000000000e+00
1.256928482055663920e+01
4.645461511611938654e+00
2.685302618891000082e-01
1.758376541137695170e+01
0.000000000000000000e+00
8.886777973175048473e+00
1.456174612976610626e-02
0.000000000000000000e+00
2.338808810710906627e+00
1.383300843238831135e+01
4.489295501708984659e+01
1.170244951248170118e+01
1.268738069534301971e+01
2.403080224990844016e+01
0.000000000000000000e+00
4.398307442665100098e+00
7.572406744956969860e+00
9.636750364303589222e+00
9.822618994803626765e-05
0.000000000000000000e+00
5.151904296875000178e+00
2.446977443695068999e+01
3.886921787261963690e+00
3.757645213603973300e+00
2.376770395040513240e+00
8.783542871475219727e+00
2.372692615608685261e-04
1.189633355140685644e+01
1.124483174085617154e+00
0.000000000000000000e+00
3.624657869338989258e+00
6.578610372543335139e+00
8.701820659637451882e+00
1.233998024463653476e+00
5.452960515022278187e+00
1.542753142118453713e+00
2.049108705520630025e+01
2.075822944641113210e+01
1.621748552322387837e+01
2.264378380775451838e+00
1.125243206024170561e+01
1.507094162702560025e+00
3.678107631206513961e+00
1.533113837242126465e+01
1.176158676147460547e+01
8.468910193443297985e+00
4.626874017715453924e+00
1.212683491706847860e+01
3.817735443115235228e+01
1.053632221221923615e+01
1.003318074345588951e+00
3.448703551292419345e+00
1.431604281067848206e+00
2.762395894527434059e+00
1.041402659416199938e+01
8.369269108772277477e+00
9.883978652954098720e+00
6.117725402116775957e-01
3.232691276073457409e+00
2.508137006759643484e+01
9.410333681106566317e+00
1.869928741455078480e+01
4.072166538238525924e+00
1.130144670605658791e-01
0.000000000000000000e+00
6.395447945594787242e+00
1.638203186988828008e+01
3.080359137058256813e+00
9.146862983703613281e+00
2.241223466396333297e+00
0.000000000000000000e+00
2.103922283649445113e+00
4.765038070678711790e+01
0.000000000000000000e+00
3.542472343444824645e+01
2.981135082244873225e+00
2.267181701660156534e+01
1.282764186859131428e+01
2.473941662174183658e-04
3.054633083343505362e+01
4.185840085148810341e-01
4.296518206596373624e+00
6.297748184204100319e+00
0.000000000000000000e+00
2.336046714782715483e+01
2.251168785095215341e+01
1.308982193470001443e+00
5.339936912059783936e-01
4.001884651184082031e+01
6.963074493408202947e+00
8.029859542846679688e+00
0.000000000000000000e+00
1.445529317855834606e+01
0.000000000000000000e+00
1.421879653930664666e+01
1.140233798027036904e+01
8.641300487518311257e+00
5.578778076171875000e+01
3.851621723175049361e+00
0.000000000000000000e+00
6.642997312545775301e+00
1.047176718711851784e+01
1.450036048889160378e+00
3.673697781562805798e+00
1.857156597077846694e-01
2.368008315563201016e+00
5.786258548498153242e-01
2.560272502899170988e+01
9.791742277145385032e+00
1.717826709747313174e+01
2.271463382244109930e+00
4.546528663486243405e-02
2.006789751052857085e+01
2.056157547235489158e+00
0.000000000000000000e+00
2.256210672855377020e+00
1.311514987945556854e+01
1.685349578857421449e+01
8.059411859512330523e+00
1.632591943740844798e+01
6.959862995147704900e+00
1.026967964172363246e+01
1.660285978317262234e+01
0.000000000000000000e+00
3.613920760154723411e+00
2.076009016036987731e+01
2.433757009506225444e+01
0.000000000000000000e+00
9.317422402091331268e-03
8.943952655792235973e+00
1.708523206710815856e+01
7.441631460189819691e+00
5.279720330238343529e+00
2.424151315689086417e+01
1.328677563667297612e+01
0.000000000000000000e+00
1.510449719429016469e+01
1.373424358665943645e-01
6.702299118041992188e+00
0.000000000000000000e+00
1.643478183746338317e+01
0.000000000000000000e+00
1.742423191070557209e+01
4.191051888465880282e+00
2.923949500545859961e-02
5.586021900177001953e+00
8.483513045310974832e+00
2.035176486968993714e+01
5.866130065917968928e+00
3.925646190643310263e+01
2.025335383415221902e+00
2.868250978644937364e-03
5.826569509506225764e+00
1.003939046859740714e+01
3.632530295848845903e+00
1.118477892875671564e+01
0.000000000000000000e+00
0.000000000000000000e+00
2.938407015800476252e+00
3.342159824371339027e+01
7.823242235183717419e+00
1.967043244803789596e-05
1.142583851814270268e+01
1.987531080245970827e+01
1.313375502824783325e+00
4.998250389099121449e+00
1.755682525634767188e+01
3.286428526043891907e-01
1.033686976432799298e+01
3.629519271850586648e+01
7.995592045783996404e+00
1.184424052238464498e+01
1.506070899963378373e+01
8.375341820716856844e+00
1.426795220375060680e+01
1.183712482452393644e+01
5.843309855461120250e+00
1.659568719863891673e+01
0.000000000000000000e+00
6.756758975982665838e+00
1.721430140733718916e+00
0.000000000000000000e+00
1.782940435409545543e+01
1.081944408416748438e+01
1.014129815101623322e+01
1.013060998916626687e+01
2.011028604507446715e+01
0.000000000000000000e+00
1.158753061294556730e+01
1.352230787277222035e+01
1.597663736343383434e+01
6.514418411254882635e+00
8.097933793067932484e+00
7.919578403234481812e-01
1.223789946379839541e-04
4.333579969406126331e+00
4.556487059593200328e+00
3.714078891277313055e+00
1.128273282051086390e+01
0.000000000000000000e+00
3.248167514801026279e+00
0.000000000000000000e+00
4.975075197219847034e+00
2.992475185394287251e+01
1.805296392440796183e+01
0.000000000000000000e+00
2.323672699928283514e+00
3.812958425442047036e-06
7.553493208251893694e-03
8.287171030044556019e+00
0.000000000000000000e+00
1.524855666160584633e+01
6.228612804412842152e+00
8.650209283828734996e+00
1.769840139150619551e+00
2.133054494857787375e+01
4.768640089035034002e+00
2.071230907440184765e+01
2.974253273010254439e+00
3.055053240060805475e+00
5.876916870474815230e-02
0.000000000000000000e+00
1.285041251182556188e+01
3.674307870864867986e+00
3.979697740077972501e+00
1.393562549352645785e+00
3.071378593444823579e+01
0.000000000000000000e+00
9.311262798309327238e+00
9.860088634490974613e+00
0.000000000000000000e+00
1.313470274209975752e-01
1.148595557212829910e+01
7.015954637527466176e+00
1.568071711063385498e+00
5.395119571685791371e+00
0.000000000000000000e+00
0.000000000000000000e+00
5.526493763923644664e+00
6.734230250120163408e-01
7.138961577415466664e+00
0.000000000000000000e+00
6.894593930244445446e+00
2.628388404846190962e+00
8.808180332183837891e+00
6.944066786766052601e+00
3.991132819652557284e+00
5.366774320602416104e+00
5.699427509307861683e+00
1.585634498596192010e+01
3.051241264343262927e+01
4.899084186553953835e+00
3.324857115745544434e+00
0.000000000000000000e+00
1.513562602996826456e+01
2.811367006301879812e+01
4.516830706596374867e+00
0.000000000000000000e+00
1.104533653259278125e+01
1.813916578292846538e+01
1.343480105400085201e+01
4.763405776023864391e+00
3.628650832176206986e+00
0.000000000000000000e+00
2.967878254130482119e-02
3.817664289474487216e+00
1.763913564682007262e+01
7.407098484039305042e+00
4.626653785705566690e+01
2.466506588459014715e+00
3.779649877548218573e+00
1.035214525461197077e+00
1.351634712219238565e+01
2.158858263492585028e+00
7.612567627802492055e-04
2.786347236633300639e+01
3.980766034126281827e+00
0.000000000000000000e+00
4.165223288536071600e+00
9.305316591262814185e+00
8.379279899597168679e+00
3.265189857482910440e+01
8.714833354949950817e+00
0.000000000000000000e+00
3.644710576534271329e+00
9.185798454284668679e+00
0.000000000000000000e+00
8.284852647781372426e+00
0.000000000000000000e+00
5.804329272359610992e-02
0.000000000000000000e+00
5.517485857009889472e+00
0.000000000000000000e+00
3.206126606464384743e+00
0.000000000000000000e+00
1.999906511306761558e+01
8.490865767002105935e-01
1.028308615684509597e+01
5.816596984863281250e+00
6.406308966688811779e-05
2.818310463428496782e+00
2.104376846551894165e+00
9.362913481891155243e-02
1.529710717201233194e+01
2.612041864395142099e+01
6.143060040473938166e+00
7.548441082239152333e-01
0.000000000000000000e+00
0.000000000000000000e+00
0.000000000000000000e+00
1.593808879852294957e+01
4.301790161132812784e+01
0.000000000000000000e+00
0.000000000000000000e+00
1.164451885223389027e+01
1.485944266319273765e+01
6.136856108903884222e-01
3.322540950775146662e+00
5.378409528732300160e+00
0.000000000000000000e+00
2.710521287918090749e+01
0.000000000000000000e+00
1.783353647624608834e-04
2.504395655705592767e-04
1.155746035575867303e+01
1.364029979705811613e+01
8.180811262130736949e+00
1.759972581863403462e+01
1.658267688751219282e+01
1.529038792848587569e+00
7.459856152534484863e+00
3.696195301017723869e-04
0.000000000000000000e+00
3.763808631896972567e+00
7.959028983116151146e+00
7.513098120689392090e+00
6.464886713027953924e+00
5.389264893531799494e+00
5.321900987625122426e+00
0.000000000000000000e+00
3.404083862304687358e+01
8.818168580532075307e-01
4.579873371124266512e+00
1.268438410758972168e+01
4.034099960327147016e+00
6.586500525474547896e-01
2.558553695678710582e+01
9.450457525253295188e+00
5.746060943603515270e+00
7.394639348983764293e+00
2.904160041809081960e+01
1.015307421684265599e+01
8.242929673194884899e+00
1.029555578231811630e+01
2.822017610073089600e+00
0.000000000000000000e+00
1.327936968803406081e+01
0.000000000000000000e+00
0.000000000000000000e+00
0.000000000000000000e+00
7.073817896842955477e+00
3.212532901763915927e+00
0.000000000000000000e+00
3.404149556159973944e+00
0.000000000000000000e+00
6.718367874622345193e-01
3.461157190799713845e+00
1.507925200462340953e+01
7.078981804847717108e+00
1.058249197006226261e+01
9.739443492889400034e+00
3.174836325645447488e+00
0.000000000000000000e+00
1.690814757347107955e+00
1.630373829603194880e+00
4.562272214889526722e+00
4.879751300811767223e+00
9.863730812072757814e+00
4.705965876579284668e+00
1.418152818679809357e+01
3.206207125913353075e-04
0.000000000000000000e+00
6.545920896530151190e+00
1.121193184852599600e+01
3.607559547424316548e+01
2.056893978118896982e+01
1.407840828895569452e+01
1.541611614227295135e+01
2.658298711776733469e+01
3.379741740226745783e+00
1.046170268058776642e+01
4.831897711753845748e+00
1.121775002479553685e+01
6.464394688606262207e+00
2.798197591304778520e+00
0.000000000000000000e+00
1.343689470291137944e+01
6.636953186988830744e+00
6.786402869224548162e+00
2.321094045639038583e+01
1.879184979200363426e+00
4.060794532299040860e+00
6.713907456398011675e+00
0.000000000000000000e+00
6.202149391174316406e+00
1.440961585044861337e+01
4.250452494621276500e+00
5.182838463783264515e+00
2.684020929336547923e+01
1.887323350906373776e+01
2.007898473739624023e+01
1.326843047142027920e+01
1.808154296875001066e+01
2.153906667232513339e+00
2.418227825164795064e+01
1.568687737744766514e-04
0.000000000000000000e+00
4.118259437382221222e-02
2.047800674438475355e+01
9.796934500336647311e-02
5.834877643585205220e+01
2.615737085342407653e+01
8.247399783134460094e+00
3.399219624698161801e-02
6.995521855354309260e+00
3.672200477123259699e+00
2.104150934219359925e+01
2.128247159719466541e+00
7.781732940673828480e+00
9.353727865219116921e+00
1.229688735008240563e+01
8.816056823730468395e+00
5.940267372131348367e+00
8.864095211029052734e+00
4.248676753044128063e+00
4.230530059337615612e+00
1.830635118484497070e+01
5.503402566909789684e+00
7.700973558425903143e+00
3.503713016510010192e+01
2.279543435573579302e+00
1.661244974136352681e+01
6.137037062644958851e+00
1.922556459903715931e+00
4.467088389396669079e+00
1.164565362930297532e+01
1.552999539375304927e+01
9.069883775711058860e+00
5.009745573997497203e+00
4.644143905639649716e+01
6.227330446243286133e+00
1.117303562350570843e-02
2.071529895067214078e+00
1.002205672264099334e+01
0.000000000000000000e+00
1.408510150909422975e+01
1.276343474388121990e+01
1.670954780578613352e+01
1.509960455894470144e+01
4.563448095321655629e+00
1.043792581558228072e+01
4.345938444137571466e+00
9.726634311676026101e+00
0.000000000000000000e+00
1.728047723770142241e+01
1.564069194793702344e+01
0.000000000000000000e+00
3.701701679229736186e+01
1.331114444732667756e+01
2.677524585723877593e+01
3.520316708087920965e+00
3.500714182853698730e+00
1.286405934952200569e-02
7.074479532241821467e+00
5.920526456832885032e+00
1.075160784721374618e+01
0.000000000000000000e+00
3.429697200655937861e-01
7.540560363850092008e-05
2.749486267566681352e+00
9.489581137895584106e-01
1.218332457542419967e+01
2.523024854660035388e+01
0.000000000000000000e+00
1.633842647075652632e+00
5.634123492240905584e+00
1.805269441604614400e+01
1.048212951421737316e+00
1.488512477874754936e+01
0.000000000000000000e+00
1.477375924587249312e+00
2.057766017913818501e+01
7.998956918716428888e+00
0.000000000000000000e+00
0.000000000000000000e+00
3.878334665298461381e+00
8.864627182483675316e-01
8.156950950622558594e+00
6.803712105751037242e+00
0.000000000000000000e+00
1.196864682435988758e+00
0.000000000000000000e+00
4.141226177215575888e+01
1.063704872131347479e+01
0.000000000000000000e+00
1.071151916403324106e-03
1.348339729309081392e+01
8.842421770095825195e+00
6.519289851188659668e+00
1.304918259382247481e+00
1.083937807083130522e+01
2.885743093490600764e+00
1.598089303970335173e+01
1.511687260866166671e+00
5.045869302749633967e+00
1.216181483268738006e+01
2.706266546249389560e+00
1.395389952659606969e+01
1.205689988136291468e+01
0.000000000000000000e+00
4.666144227981567028e+00
2.976924896240233487e+00
0.000000000000000000e+00
1.197010633768514536e-03
5.734306119848042943e-04
4.075904655456543679e+01
6.041821537017822408e+01
2.659025545120240253e+01
1.642853250503540963e+01
2.474318780899048065e+01
7.878367877006530406e+00
6.928268599510192693e+00
1.864740715026855966e+01
1.693567691836505391e-03
6.522510051727294922e+00
6.759480442851782678e-02
1.310967998504638032e+01
1.206255676224828391e-02
1.038272514343261399e+01
6.178548145294189275e+00
0.000000000000000000e+00
3.723987090587617566e+00
2.408839643001555508e+00
1.075725345611573047e+01
1.000589549221331037e-04
1.392468948364257564e+01
3.411093683098442419e-04
1.400121174810919531e-04
1.400531411170960006e+01
1.309937658309937092e+01
5.126702141761780851e+00
7.352363300323487394e+00
1.622181329727172283e+01
9.534601116180420277e+00
3.914446197450159592e-02
0.000000000000000000e+00
8.898482990264891868e+00
6.506102013587951483e+00
3.245790796279906942e+01
3.246147286891939210e+00
1.617382383346559749e+01
2.337579345330595762e-02
0.000000000000000000e+00
0.000000000000000000e+00
1.231984806060791371e+01
3.256008005142213335e+00
1.056949257850648305e+00
2.529591488838195623e+00
0.000000000000000000e+00
3.932105863094329745e+00
0.000000000000000000e+00
3.785939908027648126e+00
2.145159896463156093e-02
7.210365390777587535e+00
8.954901981353760476e+00
2.022725944519041974e+01
6.957948088645935059e+00
2.668772083520891236e+00
4.040826056152582030e-02
2.096094970703124716e+01
2.683691663742065359e+01
3.626921405792236186e+01
1.102202243804931925e+01
1.529821777343748934e+01
2.498964928090572912e-01
1.381824874877928488e+00
0.000000000000000000e+00
9.199490928649902699e+00
1.462366977648344108e-04
1.123472013473510067e+01
1.228589880466462114e+00
0.000000000000000000e+00
3.195000829696655131e+01
2.461236715316772106e+01
2.164808666706086182e+00
2.025782269239426281e+00
7.987957000732421875e+00
2.532228529453277588e+00
0.000000000000000000e+00
2.286187429428099804e+01
3.030262765884399911e+01
2.804656124114990323e+00
7.309023618698118341e+00
2.927045936584471519e+01
2.907504959106444176e+01
8.619877147674563034e+00
8.177007651329040172e+00
7.290332174301147106e+00
3.638303410261869292e-02
8.470796966552734730e+00
5.425043201446534624e+00
1.559465737342834224e+01
9.859542942047118785e+00
2.483478193283081836e+01
6.262464618682860973e+00
1.095657606124878392e+01
0.000000000000000000e+00
0.000000000000000000e+00
0.000000000000000000e+00
8.176577091217041016e+00
1.369035849571228525e+01
1.586131753921509713e+01
7.277587699890136541e+00
4.573295235633850986e+00
2.633032293319702788e+01
0.000000000000000000e+00
1.010930361747741379e+01
4.946911373138427592e+01
1.129385409355163361e+01
3.710982263088227207e+00
1.635504164695739249e+01
1.045441370010376048e+01
0.000000000000000000e+00
3.061743965372442505e-02
4.973947887420654013e+01
8.784609413146970525e+00
1.910970711708068093e+00
5.929741811752317737e+00
0.000000000000000000e+00
9.885472822189328213e+00
1.108855519294739267e+01
8.074636054039000754e+00
2.770802772045135143e+00
3.617677669525146911e+01
2.245427036285399325e+01
4.720448017120361328e+00
1.953478450775146058e+01
1.966761407852172994e+01
3.622213713242672059e-04
1.188838438987731827e+01
1.960979497432707719e+00
0.000000000000000000e+00
2.303287339210508655e+00
7.225878643989562811e+00
1.587022933959962323e+01
5.718386149406432750e+00
4.727420783042908248e+00
0.000000000000000000e+00
1.810567932128905255e+01
1.169384934473783385e-03
6.629597806930542347e+00
6.268740096129478585e-03
0.000000000000000000e+00
8.000561642646790261e+00
5.022084541320801776e+01
0.000000000000000000e+00
7.939964461326598055e+00
3.554865586757659734e+00
5.857997250556945978e+00
6.280689692497253063e+00
1.793579015731810955e+01
6.511373829841613947e+00
9.934445762634286581e+00
0.000000000000000000e+00
4.534018659591675160e+00
2.841370835900307035e-01
0.000000000000000000e+00
4.063166904449463601e+00
1.003645853996276749e+01
3.578007400035858154e+00
5.539553546905517045e+00
9.121655859053130061e-03
2.075000339746474687e+00
1.058999176025391264e+01
7.895756721496580255e+00
1.451701688766478426e+00
9.013946533203123224e+00
6.878491830825805842e+00
2.063571465015411999e+00
6.742538070678710582e+00
0.000000000000000000e+00
1.240962486267090092e+01
2.869627678394318426e+00
0.000000000000000000e+00
6.196441602706909357e+00
3.998680553436278728e+01
2.843988170623779865e+01
1.400005464553833079e+01
3.550716376304626998e+00
3.804265463352204169e+00
2.442662744522095153e+01
0.000000000000000000e+00
9.072300165891645785e-01
2.062820631323902499e-10
5.499745202064515226e+00
1.077728042602539027e+01
2.908141880035400462e+01
2.012847576141357564e+01
4.812571954727173029e+00
2.178801126480103534e+01
3.649406032562255575e+01
8.329718661308287864e+00
1.778683835268020319e+00
6.055261325836182706e+00
6.471980619430541815e+00
4.537941789627074840e+00
1.459480385780334544e+01
1.564738984107971476e+01
6.315868902206420721e+00
4.946487197875977415e+01
2.353384814341552935e-04
5.490713892504572348e-03
4.284077906608581898e+00
1.865149288177490305e+01
8.802683401107788796e+00
0.000000000000000000e+00
3.917631709575652543e+00
6.455497241020202281e+00
3.533725225925445024e+00
1.027964711189269797e-01
2.663711297512055598e+00
2.324108610153198029e+01
1.425556230545044301e+01
6.913977098464965998e+00
7.036988902091979803e+00
0.000000000000000000e+00
1.756506748199461398e+01
3.151911079883575439e+00
3.889801239967346724e+00
4.524135279655456365e+00
1.008888049125670783e+01
4.687923927307129190e+01
1.532980035990475810e-02
6.100299882888794656e+00
1.524239330291748296e+01
1.460154074430465965e+00
8.315305995941162820e+00
1.099458938598632329e+02
8.311991953849792836e+00
1.197044754028319069e+01
0.000000000000000000e+00
3.353322780132292902e+00
8.502219295501708629e+00
3.894585456848144389e+01
3.385681021213531317e+00
9.582639455795286310e+00
4.830815558687362123e-09
1.948734080791472589e+00
2.957958006858826039e+00
3.861301708221435369e+00
2.070501118898391724e+00
9.070888566970825906e+00
1.709814190864564054e+01
1.858318738937378356e+01
5.521176886558532892e+00
3.287165534496307551e+00
2.804064025878906818e+01
3.696016979217529475e+00
0.000000000000000000e+00
1.303588323593139364e+01
2.482597041130065740e+00
1.329022674560546591e+01
4.243294131755829035e+00
2.511315002441407884e+01
5.560733342170715687e+00
2.161563767003826472e-04
6.973167057037353800e+01
7.731852459907531561e+00
2.436522126663476576e-03
9.445172166824340465e+00
1.167114192247390880e+00
0.000000000000000000e+00
6.020671081542968928e+00
8.776284790039062145e+00
1.483136010169981844e+01
1.478871483802794629e+01
2.269021403789519553e+00
1.142490048408509473e+01
2.957049808502197408e+01
5.652856063842773615e+00
0.000000000000000000e+00
0.000000000000000000e+00
8.002657365798949485e+00
1.597423834800720499e+01
1.538737349510192054e+01
1.135539612770080886e+01
2.598477905848995827e-04
4.224607932567597146e+00
1.452879071235656738e+01
9.288823872804641280e-01
3.585138130187989702e+01
5.321012306213379617e+00
1.065706014633177823e+01
2.106244621276854900e+01
4.796179041266442900e-01
1.488662018775940155e+01
6.154446673393249689e+00
0.000000000000000000e+00
0.000000000000000000e+00
1.046206126213073517e+01
8.685755801200871318e+00
2.417533218860625777e+00
6.693081855773925781e+00
6.478865957260131481e+00
9.818445158004760032e+00
3.141421508789061345e+00
2.071545915603638477e+01
8.201756405830384011e+00
5.505180788040161310e+00
1.288889803886412722e+01
8.354478645324707742e+00
7.300525903701782227e+00
1.390365653038024973e+01
1.202543872594833418e+00
1.859779911041258771e+01
1.180169868469237926e+01
4.839641590118407777e+01
4.043089914321900125e+00
1.666724958419798241e+01
1.692508965730667558e+00
1.442638306617736532e+01
7.860260939598082253e+00
3.813436663150786110e+00
8.726072788238525391e+00
6.778652667999265802e+00
5.373933744430543058e+00
5.617849087715149459e+00
6.035858345031738459e+00
4.054109346866606955e+00
3.935821838378906534e+01
0.000000000000000000e+00
3.296127252578735067e+01
3.363263607025147817e+00
3.862002158164977939e+00
1.176688542366027690e+01
1.214038681983949708e+01
2.564591908454894309e+01
4.158515453338622159e+00
1.232293643951416051e+01
4.273619854450225297e+00
5.200149917602539418e+00
0.000000000000000000e+00
4.386645984649658381e+00
3.910448670387268955e+00
3.474333965778350741e+00
1.245916123390198038e+01
0.000000000000000000e+00
1.433123703002929439e+01
1.540572147369383949e+01
5.871875262260435768e+00
1.171006240844726065e+01
4.440832614898682529e+00
4.267586874961852850e+00
1.450480976104735831e+01
1.624015963077545477e+00
2.522113971710205149e+01
2.540086116790772053e+01
1.023735527992248784e+01
1.113723176717758667e+00
3.832287466526031583e+00
0.000000000000000000e+00
0.000000000000000000e+00
7.211291027069090198e+00
4.208935332298278986e+00
2.213161244988440524e-01
2.175148129463196245e+00
5.287329220771789906e+00
6.615650367736816584e+00
6.664467549324035289e+00
6.553101444244383345e+00
9.010132169723510387e+00
2.037309503555297852e+01
2.116199226379394460e+01
4.618236207962036488e+00
1.187643432058393955e-02
2.592409563064575817e+00
3.544254660606384277e+00
6.519962739944458185e+00
1.623585700988769531e+01
4.967378735542298251e+00
6.421419739723205566e+00
0.000000000000000000e+00
2.934967327117919922e+01
8.605783081054687145e+00
0.000000000000000000e+00
1.125228822231292281e+00
1.346870726346969693e+00
8.650658798217772727e+00
3.617885923385620650e+00
0.000000000000000000e+00
2.460311698913574485e+00
1.287683448791503871e+01
1.851154251098633452e+01
8.389778208732604270e+00
1.042715792655945073e+01
5.280755004882811221e+01
1.064984327554703292e+00
1.787828302383423207e+01
4.729959249496459961e+00
2.348729050159453546e+00
5.969295549392700906e+00
6.238926839828491389e+00
0.000000000000000000e+00
4.936518096923828480e+00
4.299921565689147386e-03
3.109819734096526567e+00
7.088411474227905629e+00
4.867399072647094371e+00
3.733262145519256059e+00
8.891395950317383168e+00
4.160587668418884277e+00
0.000000000000000000e+00
2.589866038761100904e-04
0.000000000000000000e+00
1.193840873718260980e+02
6.185165017843246016e-01
4.949590516090393244e+00
7.310138082504272106e+00
5.057238650321960627e+00
5.896493005752563299e+00
2.615042030811309814e+00
1.019787082076072382e+00
5.408985567092893909e+00
9.574484348297119141e+00
0.000000000000000000e+00
5.833208489418030496e+00
1.611123399734497497e+01
8.781762123107908380e+00
5.438827395439149726e+00
1.279552006721497293e+01
1.288502264022828570e+01
1.567713627815246369e+01
3.270333127975463583e+01
8.809539794921875000e+00
3.422184803639538369e-04
2.098454723358154794e+01
2.275655889511109109e+01
2.100601015090942525e+01
9.487718963623047230e+00
6.015108060836790393e+00
6.148710036277770463e+00
1.158228316307068084e+01
2.002865821123122725e+00
4.756090188026428578e+00
1.791891918182373189e+01
0.000000000000000000e+00
7.494173216819763006e+00
4.762800741195677645e+00
2.130254487991333434e+01
9.437934303283691762e+00
1.171480584144592463e+01
1.258519210815430256e+01
5.642583322525025480e+00
2.880403337478638193e+01
4.029820382595062256e+00
1.010212121009826980e+01
3.067046403884886985e+01
1.039732203483583461e+01
1.057824821472166477e+01
1.176491813659668040e+01
5.488582849502564365e+00
7.039735293388366344e+00
8.408853459358216043e+00
1.517500378191470323e-01
8.944979286752641418e-04
2.684243440628051758e+01
1.561516469717026068e+00
8.201377987861636853e+00
0.000000000000000000e+00
3.707780456542967507e+00
2.071040554046631854e+01
7.618321466445924450e+00
2.319888935089111115e+01
6.193552160263061879e+00
3.308812360763549520e+01
1.672863048315047507e+00
9.217679786682129617e+00
1.037454223632811612e+01
5.617116665840149459e+00
1.558696751594544594e+01
6.739465389251709837e+01
0.000000000000000000e+00
1.154255127906798606e+01
0.000000000000000000e+00
1.259672689437867277e+01
1.222748823165893484e+01
0.000000000000000000e+00
1.493962268829345774e+01
1.874665174484253427e+01
5.571532654762267889e+00
8.658135147094726847e+01
6.747008252143861462e+00
6.467878460884092462e+00
2.841695528030395934e+01
3.981817264556884339e+01
1.354311037063599521e+01
4.012689852714538929e+00
6.267980334814636338e-03
1.051272563934324999e+01
9.518054056167603250e+00
1.541908578872680913e+01
1.835668992996215776e+00
2.081467647552491229e+01
4.774723696708678133e+00
3.916216220855712749e+01
3.656526017189025701e+00
0.000000000000000000e+00
1.096377739906312065e+01
1.768177671432497178e+01
7.526409626007080078e+00
6.727808427810667347e+00
0.000000000000000000e+00
9.100082111358641868e+00
1.108434090614319523e+01
1.330704264640807821e+01
4.220764112472534357e+00
6.850964929908515133e-02
1.358540377616882644e+01
6.977509069442748846e+00
1.947343864440919248e+01
6.319442596435546733e+01
1.970165252685546875e+00
0.000000000000000000e+00
1.002620297670364646e+00
0.000000000000000000e+00
0.000000000000000000e+00
7.613207244873047230e+00
6.508059692382812678e+00
1.000029468536376598e+01
2.194601070880890514e+00
1.978495195508003096e-02
3.054320182800291761e+01
2.926523331552743261e-04
3.272171306610108132e+00
6.951142692565916548e+00
1.342170753479004119e+01
1.168071697466075386e-02
4.798834824562073109e+00
1.179430675506591442e+01
7.269714355468750000e+00
1.246562838554383390e+01
4.052092590332032529e+01
6.044882249832151722e+00
1.078988260030745661e+00
1.028122992515563894e+01
1.667399673461913778e+01
6.219488477706909713e+00
1.591758936643600908e+00
2.830028877258301989e+01
1.313690104484558319e+01
3.373927068710327326e+00
1.857903609275818013e+01
1.207675313949584428e+01
4.070235526561736705e+00
2.304040682315826594e+00
2.844842239283024848e-02
1.580903306007384046e+01
1.221768903732299627e+01
4.647428655624390004e+00
1.874566119909288009e+00
2.790570535659790607e+01
3.015065393447876474e+01
1.342819008827209792e+01
1.000713553428650471e+01
1.339196619987487580e+01
9.473059511184690251e+00
1.662286882400513122e+01
2.701574821472168608e+01
7.034046959877014338e+00
0.000000000000000000e+00
1.424274806976318075e+01
8.013239693641663663e+00
0.000000000000000000e+00
0.000000000000000000e+00
1.180002188682556152e+01
2.782620477676392667e+01
2.982768118381500244e+00
1.079531059265135973e+01
1.403411917686462473e+01
5.868187642097472789e+00
5.329706618795171380e-04
4.852069759368896840e+00
