8.299313634634017944e-01
7.782106369733809981e-01
2.594955742359161266e-01
1.024912260472774783e-01
4.813829101622105894e-02
0.000000000000000000e+00
5.349078670144080672e-01
3.931404516100882596e-01
1.585318782417744068e-05
4.728705156594514847e-02
6.640639096498490712e-01
3.804735630750656350e-01
0.000000000000000000e+00
1.282676100730896440e+00
4.560165166854858176e-01
9.555263034144445555e-07
1.206844903528689061e-01
1.775234751403332034e-01
2.537660755217076014e-01
6.676521092653274758e-01
2.319554410874843653e-01
1.039683778799371577e-04
1.208359229564667903e+00
6.986880151089281494e-04
1.836897791918089983e-06
0.000000000000000000e+00
0.000000000000000000e+00
1.017778357490897040e-02
0.000000000000000000e+00
5.400533124804496321e-01
0.000000000000000000e+00
6.436423149125402931e-07
1.869672159955371578e-05
4.169024564325810034e-02
5.986128270626067671e-01
1.907908368110657005e+00
1.271760970354081977e+00
2.483724594116211715e-01
3.611548081040381608e-01
6.298917505773716217e-05
1.051235568523407382e+00
3.472290292382240184e-01
9.046497979170457218e-07
2.032528245763386379e-05
1.953906267881393433e+00
1.586938925087451879e-01
1.645861148834229792e-01
6.172243922948836836e-01
7.488083750009535411e-01
9.971297532320019807e-02
4.255776349455117624e-02
5.735805127769708772e-02
1.027612051367758239e+00
0.000000000000000000e+00
2.563113078474997808e-01
1.482403947738930930e-03
0.000000000000000000e+00
9.548089838062877343e-05
1.198642534017562600e+00
1.570303261280058926e+00
2.819402652676218105e-06
2.857922649127430997e-04
4.081670044797648803e-06
0.000000000000000000e+00
4.582655936479568259e-01
1.316480729728938259e-01
1.756773567199706232e+00
2.047752034664154230e+00
4.333304818719625751e-02
1.760302617913113085e-03
6.645278176620195154e-07
1.580402052402496649e+00
2.882656299334484677e-05
6.649371981620786354e-01
9.695270508527761288e-01
1.754938006401061956e-01
1.455711364746093139e-01
4.632848829030990490e-01
4.093756359070539752e-02
6.437614592869067565e-05
2.174795213250035039e-06
5.939246974885463437e-02
7.050567452097312917e-04
2.430147054838016683e-04
1.002238959074020358e-01
5.547245223169738892e-06
3.649519712780603361e-04
2.867203914291850214e-08
4.702264722436666489e-02
1.703011721372605036e+00
0.000000000000000000e+00
1.747143191099165715e+00
0.000000000000000000e+00
4.146501138806343301e-01
5.628442950546742873e-02
4.376968383789061612e-01
0.000000000000000000e+00
7.098423498064221179e-06
7.848453789949416670e-01
2.623939137080810128e-08
3.719727810675975849e-05
1.814961814880372781e+00
1.808374255895614180e+00
3.745632007718087131e-01
0.000000000000000000e+00
4.912976905703544395e-01
0.000000000000000000e+00
7.875663985032587810e-04
2.331380330724641767e-03
0.000000000000000000e+00
3.590702533721922829e-01
0.000000000000000000e+00
5.658173715346493261e-04
2.559348829090595800e-01
0.000000000000000000e+00
0.000000000000000000e+00
8.191886156797408836e-01
2.255772751595941643e-05
6.802908478675817266e-06
1.316089248284698157e-02
0.000000000000000000e+00
7.115741193294524702e-01
6.308361113071441206e-01
8.888973265886306319e-01
0.000000000000000000e+00
1.883255960419772876e-02
2.666424326598644257e-01
1.448886454105376975e+00
2.900518953800201305e-01
1.400298747284977383e-05
1.706757193460362439e-05
1.384393810294567116e-02
0.000000000000000000e+00
1.575512543786316373e-03
0.000000000000000000e+00
3.076701268553733715e-01
3.350223956033459994e-08
7.066931903362274614e-01
0.000000000000000000e+00
2.852219408378004611e-02
1.285658674314618145e-02
1.384451039484701996e-04
0.000000000000000000e+00
5.326053984463215152e-02
1.443936366740672045e-05
7.596873566508294262e-02
8.023317098617553933e-01
4.296018846333026775e-01
2.600828120193909854e-04
0.000000000000000000e+00
3.505572497844695601e-01
1.728686952590943182e+00
2.715339228510856850e-01
1.669165605306625055e+00
1.801044821739196666e-01
5.360962120448675070e-07
3.412803786341101018e-03
0.000000000000000000e+00
6.323039919137954934e-01
0.000000000000000000e+00
3.711421396583318433e-02
4.725413937121629437e-02
6.208542287349700928e-01
8.202062070369720015e-01
0.000000000000000000e+00
7.290047943592070645e-01
2.070643447339534371e-01
0.000000000000000000e+00
8.896431427274364978e-05
8.805973306298256476e-02
4.046884811259587772e-07
3.582698479294776361e-01
3.154762234771623665e-04
9.347126424312588444e-01
6.032070904970169289e-01
6.141333222389221413e-01
1.724527460336685580e+00
6.405335038900376032e-01
3.111276045441628835e-01
1.876694273948669833e+00
2.821709528565405911e-01
1.343326127529144598e+00
3.769525289535523571e-01
5.734893947839736494e-01
2.650505976475869723e-07
0.000000000000000000e+00
2.601742126047611459e-01
1.368909102678298906e+00
1.293694269657135631e+00
1.069772365689278359e+00
4.616733510047197481e-02
6.937800731975585439e-04
1.256511509418487993e+00
5.491952324518933892e-04
1.317928429692983294e-01
2.952663257718087797e-01
1.922238705446944020e-04
0.000000000000000000e+00
6.199219543486832532e-03
0.000000000000000000e+00
2.134681582450865811e+00
4.372471335045702459e-06
3.170757263898848488e-01
1.897224970161914548e-01
4.500180512666702159e-01
6.031983703374862449e-01
1.160291984677314370e-01
0.000000000000000000e+00
1.153370238840579487e-01
1.216888922452926014e+00
7.484944403171539529e-01
3.149038001894950978e-01
2.442177724838257014e+00
2.364888978263479048e-05
5.152943491935729758e-01
8.741632569581270435e-04
7.990941521711647511e-04
9.570845305919647439e-01
2.168086105957627366e-02
0.000000000000000000e+00
2.543241791427136578e-01
9.792007058858871460e-01
0.000000000000000000e+00
3.203864753246307151e-01
1.994991305309668120e-06
1.665152341127396074e-01
1.117397262714804130e-03
2.677127420902252197e+00
1.494798725843428988e+00
3.159967675805092080e-01
3.546850476413963837e-02
2.275175321847200047e-02
3.229902868042700128e-05
6.869713246822358732e-01
5.051983302109874568e-04
4.079547122120856240e-01
1.606056690216064453e+00
1.645057272911072399e+00
7.458887621760368347e-02
0.000000000000000000e+00
4.069119468331335865e-01
2.149062389507887944e-02
1.549586929380893374e-01
0.000000000000000000e+00
7.722441762685775535e-01
2.795688575133681731e-03
9.023878909647464752e-02
1.334119963645934437e+00
1.313298399327322364e-03
2.981612307485190325e-03
2.327292449772357941e-01
2.140371370315552024e+00
0.000000000000000000e+00
7.480910599231720415e-01
2.439084964862558042e-05
3.088015495450235144e-04
0.000000000000000000e+00
1.200381711896625051e-06
2.915298675361554961e-04
2.151531971991062220e-01
2.921953118857345612e-05
1.917934335768221865e-01
7.387469619512558872e-01
0.000000000000000000e+00
3.740934118628501670e-01
0.000000000000000000e+00
0.000000000000000000e+00
2.201375935692338921e-03
0.000000000000000000e+00
8.437096821580777417e-05
1.386310805173707491e-06
1.860133325681090355e-02
1.164180304158435955e-06
8.151730477809906450e-01
1.534603291749955911e+00
2.146820470690726235e-01
3.909979850053787453e-01
1.640262622386216146e-02
1.808743429183959694e+00
2.965358905494214214e-01
5.087059251964091283e-02
0.000000000000000000e+00
1.075359761714935330e-01
2.341827996075154794e-01
6.914604928169865432e-05
0.000000000000000000e+00
0.000000000000000000e+00
2.400365320499986584e-03
1.551110281070578454e-05
1.781839076429605692e-02
1.043232226371765936e+00
1.190109248273074453e-02
1.244417981070001220e-05
3.819315299391745633e-01
0.000000000000000000e+00
0.000000000000000000e+00
0.000000000000000000e+00
7.474903225898742454e-01
1.827266204357147261e+00
7.381981145590544094e-03
1.827616853233848561e-06
4.222083138301968358e-04
1.616369122266769320e+00
1.082703142310493215e-03
2.237016353756187889e-02
1.363915973342956088e-04
1.012205341458321195e+00
8.218367118388413949e-04
1.403511239914223931e-04
6.432215985842049295e-03
4.944827500730752945e-02
1.126108009368181062e-01
1.700824916362762007e-01
6.835233531892299930e-02
1.872019516304134368e-03
5.895436368882656097e-02
4.901672247797251615e-03
1.291354852914810225e+00
8.979323893785476907e-01
8.421315214945931325e-06
5.385050386190414207e-01
1.518064602912261241e-08
5.152808755636214544e-01
1.051335015892982616e+00
2.389604812860488092e+00
6.112498372793198076e-01
8.173946984112264724e-01
1.935198110342026157e+00
4.686957981903104890e-04
2.876730132102965687e+00
0.000000000000000000e+00
5.833215638995169379e-03
1.190562586998565901e-03
1.150059392675757512e-02
5.030008986592292564e-01
2.414106237888336448e+00
0.000000000000000000e+00
1.073210410773754175e-01
9.005767196416855080e-01
1.814301615953445745e+00
4.449841333553195000e-03
1.510786306858063588e+00
2.907926306128502114e-01
3.371707375521283228e-08
1.761172465048729818e-02
1.434772394597530476e-01
3.816138938069343900e-01
9.522973261773588771e-02
8.986045837402343306e-01
0.000000000000000000e+00
8.739639699459076372e-01
4.474460602068574557e-05
0.000000000000000000e+00
7.876866823062300335e-03
6.916504681110382524e-01
2.614418156445027508e-01
1.631100589036941440e+00
8.257678091526031716e-01
3.199891000986098133e-01
1.032668269544955360e-05
1.160161060094833108e+00
2.980049551126739865e-07
8.717876613140106423e-01
6.862800661474465977e-03
1.122016090084798547e-03
2.521109879016876221e-01
6.465148617280647159e-04
0.000000000000000000e+00
1.099371883901767129e-03
8.507356077432632890e-01
2.202674818038940607e+00
7.138485938310623613e-01
1.642912852764129239e+00
2.398284256458283470e-01
7.918138295412063821e-01
9.185471028089524648e-01
3.063110306859017085e-01
1.890525959432125536e-01
1.589354380965233016e-01
1.189940359443427687e-01
6.953510316088795315e-03
1.569178318977356490e+00
1.654065579175948986e-01
1.048858966678381383e-01
0.000000000000000000e+00
2.235768515674862740e-05
0.000000000000000000e+00
8.524763397872450407e-05
5.946024395525456585e-02
0.000000000000000000e+00
2.740290112793447030e-01
1.806706376373768200e-02
2.813806486301473342e-05
5.428120233118534366e-02
2.756495427340268090e-01
2.921087928116320939e-02
0.000000000000000000e+00
8.475285358726977747e-02
1.549821175634861770e-01
7.121663144789637176e-03
3.834836035966873030e-02
4.263318132871063562e-05
1.054892665706575264e-02
9.073344320058820411e-01
0.000000000000000000e+00
1.814762897789478635e-01
7.288636453449724717e-02
5.149145843461155458e-04
3.106741249561310592e-01
0.000000000000000000e+00
0.000000000000000000e+00
3.157784506678581460e-01
1.521328034868930403e-04
2.846479322761296706e-03
1.500241115689276705e-01
5.955758336931467334e-02
9.051054745912552324e-01
1.223826467990876410e-01
5.711518815587624484e-06
3.331344008445739746e+00
4.608160063624381908e-01
8.132520347833633867e-01
1.320040218532085308e-01
2.210747418018855083e-07
2.122740543200052479e-05
7.870613699196837571e-05
1.447832947969436956e+00
2.668223559856414129e-01
1.203753747045994971e-01
1.135288485884666354e+00
5.763214676335336555e-06
0.000000000000000000e+00
3.186415852978826541e-02
5.584749318659305850e-02
1.067119769868441403e-03
9.317994226876184007e-06
0.000000000000000000e+00
0.000000000000000000e+00
1.407511421712115494e-03
5.999481378239577547e-04
2.703841879963873041e-01
2.282428702926608080e-07
2.139800786972045066e-01
4.339271181379445168e-05
1.882699146866798068e-01
1.794598594307899586e-01
3.760556678753346899e-03
8.977633357048034890e-01
1.658671426773071333e+00
1.025056783109902642e-01
2.205618461593984378e-02
5.596032459288835179e-03
2.514287270605563562e-01
1.832499958574771437e-01
2.058458119630813266e-01
6.273656874895096047e-01
2.974650815129279424e-01
9.302514307200908383e-02
6.556679040193557073e-01
1.918183583021162431e+00
9.629808634519576582e-01
0.000000000000000000e+00
0.000000000000000000e+00
6.804041552399550130e-10
4.940746929496526996e-02
1.087469807267189337e+00
7.189916335046291074e-02
0.000000000000000000e+00
2.181693492457270622e-02
1.857373100519179143e+00
1.820750609040260037e-02
8.063688474067021703e-05
4.287180339451879610e-03
1.007363319396972212e+00
0.000000000000000000e+00
1.911340320110320956e+00
2.095112908631561743e-01
1.008997324854135486e-01
6.203902602195739968e-01
1.052669741213321936e-01
0.000000000000000000e+00
4.071284011006355286e-01
3.792024403810501272e-03
3.668358866125344397e-02
4.283516228199005238e-01
3.025070369243622048e-01
1.563437804579733970e-01
1.430723088560626887e-04
7.918235808610916970e-02
3.792105659842490151e-01
1.408747833920643059e-04
8.155358396470545335e-02
1.276345640420913363e-01
1.839882606873288209e-04
8.315427973866464095e-02
4.817549064755438648e-02
5.015195929445324160e-04
7.765128538012502912e-02
5.424820765852927940e-01
0.000000000000000000e+00
1.564979219436646307e+00
3.555411228444427078e-03
6.154461383819580522e-01
7.468284785747527632e-01
2.052169717848300601e-01
2.775022745132447177e-01
2.468356415629386902e-01
1.232243955135345070e-01
6.342560667544602793e-02
1.682760058902204453e-02
2.292698219418525807e-01
3.258960783481598122e-01
3.485361449420452257e-02
8.870776327967176992e-05
1.087732169032097129e+00
0.000000000000000000e+00
0.000000000000000000e+00
2.374416939914227309e-01
1.363741659588413747e-04
8.032778680324554887e-01
4.347937472630292286e-04
1.743394637014717124e-03
1.301788288401438905e-05
4.127164911478757581e-02
1.138517814688384464e-02
7.825633347034454124e-01
4.729505777359008928e-02
0.000000000000000000e+00
1.448521470592824235e-05
8.253535211086273637e-01
9.782917710253976641e-04
1.674917039053979990e-04
5.059420064091681990e-01
0.000000000000000000e+00
1.199075704789720543e-05
1.309500932693480113e+00
6.591420710086822732e-01
3.275531992316245700e-01
5.295926615595817344e-01
2.796508267521858326e-01
1.946623063986408874e-06
5.219857588410378169e-01
0.000000000000000000e+00
4.975798740983010116e-01
4.642139424504421525e-06
0.000000000000000000e+00
3.492443511277087223e-07
7.449216336011886819e-01
1.087384139282221847e-05
3.309760943055152782e-01
0.000000000000000000e+00
4.789589419960975647e-01
7.239394093630835197e-04
1.026616395392920198e-04
1.358669674396514537e+00
2.074292453471572454e-04
0.000000000000000000e+00
1.063981694642279187e-05
3.731987506151199230e-01
9.704895754111930294e-04
1.121890908479690196e+00
1.615835681557654668e-01
5.269774287939071877e-01
0.000000000000000000e+00
2.762036249041556202e-01
4.906305184704251587e-04
0.000000000000000000e+00
6.681966423988342507e-01
0.000000000000000000e+00
5.967223405838011363e-01
4.274882297039539216e-08
2.534276306629180686e-01
1.496717661619187678e-01
4.255776456557213219e-03
1.316847339272498862e-01
3.483185067772867072e-01
4.238213449716566883e-01
2.277975566685200640e-02
6.407055526971817683e-01
0.000000000000000000e+00
0.000000000000000000e+00
9.311924129724502563e-01
2.222070109844207941e+00
7.304431856027803773e-05
0.000000000000000000e+00
9.538667559623720260e-01
0.000000000000000000e+00
0.000000000000000000e+00
6.652012497186661211e-01
2.909002125761615599e-06
2.459693580865859874e-01
1.719448280823599161e-06
1.238025761267636242e-04
9.967361437156794374e-03
1.885768818855286355e+00
9.119739755988117563e-04
1.067279362678527521e+00
6.879684239625929454e-01
9.510346859693529220e-01
1.807429224252701527e-01
8.119520941818337147e-07
1.238970012309436271e-05
2.685027960687875331e-02
5.494853066920768334e-05
1.874020057916640836e+00
1.293988372199238700e-02
9.390420606359837358e-03
0.000000000000000000e+00
1.752764065749942354e-02
8.116857614368199868e-04
1.641572086373344454e-03
3.807128313928842545e-02
3.167578175663948170e-01
0.000000000000000000e+00
6.941985249519350143e-01
1.039234468340873851e+00
1.568580436706543235e+00
6.665195077657699585e-01
6.386737793684007514e-01
2.921666756272317533e-01
1.772084133335738917e-05
1.816496429964899531e-02
2.805878492072225172e-02
5.651189208030700240e-01
8.126131534576416238e-01
0.000000000000000000e+00
6.206048037711297822e-05
1.462447233498097021e-01
3.019283249974250571e-01
6.094595529139042178e-02
4.383912876248359791e-01
5.862006469214974013e-06
2.809429061412811901e+00
3.377939152414911254e-04
0.000000000000000000e+00
1.416624939441680997e+00
7.239137589931488037e-02
5.036427653976715667e-04
0.000000000000000000e+00
5.519324986380524933e-05
6.670611113309860007e-01
8.346831938251853683e-03
1.883050477504730980e+00
3.044037893414496820e-01
6.658645480871200339e-01
2.772071942687034385e-01
6.517350720241665667e-03
3.777144578634761057e-04
3.533281236886978149e-01
4.764974519610404857e-01
2.939904760523858448e-07
1.004917122190818581e-03
4.049877852201463346e-01
5.171490505337714705e-01
8.031089633703232256e-01
6.124651081336196241e-05
3.356115967035294689e-01
1.068712286651135185e-01
1.190361381304683164e-04
0.000000000000000000e+00
2.786783538758755285e-02
5.027406200766563193e-01
3.964576110243797080e-01
2.864384621381761420e-01
4.147828905843198299e-03
5.653683871030807939e-01
0.000000000000000000e+00
2.907639801502227561e-01
2.888182692117879183e-07
4.152912723043301138e-07
7.911786168813704778e-01
3.756350323557853255e-01
1.576270306110381991e+00
0.000000000000000000e+00
4.400287810713052888e-02
0.000000000000000000e+00
1.172502934932708255e-02
3.137833863496779507e-01
2.252927549183369182e-01
6.365134449879406562e-05
3.542192637920379417e-01
1.001868346333503190e+00
3.061340689659118874e-01
1.497292712330818010e-01
2.982523813843727112e-01
1.138854137063026073e+00
5.411363560706376752e-02
3.960627123713492681e-01
0.000000000000000000e+00
4.372495785355566822e-01
7.895412266254424605e-01
1.530066423583775976e-03
8.447976619005203025e-01
7.349586397409438865e-01
1.023103122861358151e-05
3.341565723530948270e-04
6.237941861152649370e-01
6.654993176460266557e-01
2.351044306124095849e-04
6.467290043830871138e-01
2.082862265524453602e-04
2.051255304832010854e-03
0.000000000000000000e+00
4.303386151790619119e-01
1.677988939918577740e-02
1.650245152413844785e-01
8.578847860917449214e-04
4.100853413343428788e-01
5.937943249940872414e-01
1.558798248879611763e-04
4.088411142583936106e-03
1.196390058845282073e-01
3.928413823246955650e-01
5.175687205046415607e-02
1.409516356885432697e-01
2.847867399454117598e-01
1.429443269968032615e+00
4.938484835292909463e-06
2.969351166393608375e-03
0.000000000000000000e+00
9.462193884246512907e-05
0.000000000000000000e+00
1.780157160758972790e+00
2.526137590408326083e+00
9.653215825557710517e-01
0.000000000000000000e+00
0.000000000000000000e+00
3.505978271365165488e-01
3.924885168671607971e-01
1.309519964270293955e-02
3.635894245235249400e-05
1.420643434357771693e-05
3.981230722274630611e-04
4.873863324522972884e-01
0.000000000000000000e+00
2.654604695737361464e-01
7.913130521774291992e-01
4.205765232443810508e-01
1.462039542198180886e+00
1.575858190655709534e-01
1.931904375553131492e-01
1.081850064110767223e-06
1.764947455376385688e-03
4.822159796953203181e-01
1.493818843364716376e+00
9.547905483486827293e-06
2.768551679328084061e-02
8.395864739441093088e-07
1.124441862106321938e-01
1.501322603225708541e+00
7.627286106348037942e-01
9.384447708725929260e-03
7.055538102984426629e-01
1.175113252429581425e-05
1.924234325656470477e-07
1.486331395804882383e-01
1.079156577587126797e+00
4.399300426244734941e-01
1.126314513385296145e-01
9.008167637512087475e-03
4.373862609267235024e-01
0.000000000000000000e+00
5.013755798339843972e-01
4.127236932981758095e-03
0.000000000000000000e+00
1.018985212795087170e-05
2.990069333463907676e-03
1.585983142256736922e-01
9.589344501495359330e-01
8.847115010023116621e-01
2.157246387004851496e+00
2.539350390434264026e-01
7.370480298995970569e-01
0.000000000000000000e+00
4.528066948056220231e-01
0.000000000000000000e+00
3.533077120780944158e-01
1.436084367334842793e-01
6.036431550455745039e-05
7.411708921194076760e-01
1.155295035459858493e-06
6.233340740203857644e-01
9.306797210228978656e-06
1.079551523923873990e+00
5.605982452630996482e-01
3.936327204108237554e-01
4.225730604957789400e-04
6.730406820774078591e-01
1.558310347795486495e+00
2.390646757557988653e-02
7.147139847278596303e-01
1.418617355823517112e+00
5.197534024715424472e-01
3.977221712470054849e-01
2.385582976043222614e-01
2.466578871011733953e-01
0.000000000000000000e+00
1.982594862580298600e-01
1.083740921785647109e-05
1.246910405158996538e+00
3.528267191722989776e-03
2.303517863154411760e-01
2.547716246917843680e-02
1.121164306998253313e+00
3.165742948651313893e-01
6.064954608678816417e-01
3.623362246435136817e-03
1.073723684996366889e-01
7.404779821634293047e-01
0.000000000000000000e+00
5.923759061843156953e-02
6.119942106306552887e-02
0.000000000000000000e+00
1.801840960979462780e-01
1.115542501211166382e-01
6.437685012817382368e-01
1.517176640033721879e+00
5.873228833079337935e-02
1.165653099305927025e-02
4.090614365850341218e-05
4.533237606287001675e-01
0.000000000000000000e+00
2.114840986905619448e-04
1.390001863241196345e+00
0.000000000000000000e+00
5.102073460817336814e-01
1.999359478941187089e-03
6.942669698037207300e-03
1.367165697985228319e-07
0.000000000000000000e+00
0.000000000000000000e+00
4.577587932348251565e-01
5.627851486206054688e-01
7.627839595079421997e-02
2.287302762269974310e-01
5.683451145887372657e-01
4.328520819544792037e-02
1.231124548939988841e-03
6.879149282212893225e-07
0.000000000000000000e+00
1.039342620060778558e-04
5.065037339925765325e-01
1.710518319159744921e-02
1.213865863974205770e-04
7.089139508025255325e-05
5.400241843744879588e-05
7.861424267292023149e-01
8.006442338228225708e-01
5.248133838176726254e-03
4.937625348567961647e-01
0.000000000000000000e+00
6.733118265867232832e-01
6.898590276250615499e-04
1.860182926058769337e-01
1.029757672548293534e+00
8.102788239717483298e-01
7.129618041217326840e-02
2.045214874669910171e-02
1.658656048774719505e+00
7.257073856890200458e-02
7.062334098009159246e-05
6.955809026956558672e-01
1.595439618825911898e+00
3.456802696746308492e-05
4.100454896688461581e-02
1.571422809502109929e-03
5.557408720254898293e-01
1.658082169294357033e+00
9.094820082187652366e-01
3.115690709091722792e-03
8.713880255818366727e-02
1.705808532238006547e+00
5.392718896269798057e-01
3.534212567046780288e-06
6.042063432687429881e-05
0.000000000000000000e+00
1.117306187748908552e+00
2.576702274382114966e-01
4.016674458980559054e-02
1.186388802528381303e+00
7.451605111360549705e-01
2.811948108673095525e+00
6.825772672891616821e-02
3.964246734976768494e-01
2.350308448076248724e-01
7.729337341152131904e-03
9.326402284204959175e-03
0.000000000000000000e+00
2.493135188706219977e-03
1.828652822971343239e+00
4.176272358745336533e-02
3.769682049751280628e-01
8.323389858007430586e-01
3.889723271131514948e-02
2.562834545969962935e-02
3.714808762073517623e-01
1.702124983072279829e-01
0.000000000000000000e+00
3.046702653169631736e-01
4.389636844396592186e-01
6.835517406463623713e-01
4.093130142427981247e-03
9.701887398958211062e-01
4.709430068731307317e-01
8.443016484379768649e-02
1.162301546335220426e+00
8.024708065204323032e-03
1.731365494430064933e-01
1.222859323024750866e+00
1.002041143365203606e-02
2.651845128275453524e-03
3.122515901923180182e-01
1.247115981578827526e+00
0.000000000000000000e+00
9.812200348824261231e-03
1.064423888921737893e+00
5.829908192157745583e-01
1.096762061119080034e+00
4.377933018986368687e-05
3.190901234745979198e-01
4.870043769478797913e-01
1.677095880731938743e-02
1.182170156971550524e-03
9.236014783382413551e-01
2.032703757286072610e-01
3.028442552022171292e-05
1.995647508010733060e-04
0.000000000000000000e+00
2.303398586809635943e-03
4.408123075962067650e-01
1.860702669620514893e+00
5.706678211688995805e-01
4.128987789154052457e-02
1.379288410134904315e-05
1.050502210855482899e-01
3.965237230062483298e-01
5.790752638131380081e-02
4.208659484982489873e-01
5.496085450053216359e-01
3.344620183110237344e-01
1.161058979050722217e-04
6.358954794704914371e-02
1.695560443401337380e+00
8.398347139358520730e-01
5.765041977167129073e-01
8.376148082315922061e-02
5.457494035363197327e-01
1.674487753007270337e-05
2.501024276568840088e-09
1.021112183252626618e-06
1.995728862169698120e-08
2.321033930778503951e+00
0.000000000000000000e+00
3.166527382563798926e-03
1.444134485721588534e+00
1.006609079241752580e+00
1.665456247329711204e+00
5.342353483683837451e-06
1.708546085283160071e-02
3.106024436652660148e-01
0.000000000000000000e+00
0.000000000000000000e+00
8.132126152515410933e-01
0.000000000000000000e+00
2.053839445114135742e+00
9.412425875663756880e-01
1.676676586270333946e-01
8.963560248957948523e-05
1.335415061563252070e-01
0.000000000000000000e+00
2.353401578962802942e-01
0.000000000000000000e+00
7.743716984987257801e-01
5.411377578973769475e-01
0.000000000000000000e+00
6.174974381923675759e-01
7.883250899612902901e-03
1.310504293441771440e+00
0.000000000000000000e+00
1.030284602195024879e-01
5.757762789726257324e-01
3.011396870017050698e-01
1.065156975388525940e+00
5.523758947849273238e-01
4.754591640084981918e-02
1.799723500013352240e+00
2.189910119771957486e+00
4.729469165205955616e-01
2.415666915476321827e-02
3.171292677521705405e-01
9.225841641426086870e-01
3.905033401679246967e-04
2.169037148356438016e-01
3.765081819146871844e-02
0.000000000000000000e+00
1.116698503494262917e+00
8.893991768360137717e-01
2.795032441616057128e-01
1.163715841248631755e-02
1.221146841999142983e-04
2.086416432575788728e-04
4.132719244807957215e-02
0.000000000000000000e+00
1.143049042671918647e-01
4.224273521685973027e-04
2.029844382777809195e-02
9.078786069949275307e-06
1.059793396507302617e-06
1.508913747966289243e-01
3.417317606508731703e-02
0.000000000000000000e+00
3.070869421958923429e+00
0.000000000000000000e+00
2.233172282576560003e-02
3.615821078419686335e-02
1.398049964336678819e-03
8.172112284228205681e-03
1.806748718023299949e-01
1.044591604731976049e-02
0.000000000000000000e+00
0.000000000000000000e+00
1.797649383544921986e-01
2.566853702068331078e+00
2.958435088396073054e-01
1.243307933211326433e-01
3.490278527140617260e-01
1.785974681377410445e+00
3.794538883994391654e-06
2.772617787122726857e-02
5.490277439355850664e-01
0.000000000000000000e+00
0.000000000000000000e+00
0.000000000000000000e+00
2.819382911548019149e-02
1.495254004839807272e-03
3.155891761183740041e-01
6.391978764440862373e-04
0.000000000000000000e+00
1.838502615690231767e+00
3.181575346388854195e-04
1.292580473423004417e+00
4.561904919683001719e-04
1.413530790805815895e+00
5.647010821849107916e-03
6.199702441692351851e-01
4.285260125994682090e-01
1.225022835171784801e-07
1.143192397430538472e-02
2.795496797189116547e-02
8.540060510858893741e-03
1.290526608499931334e-04
7.454215496778486827e-01
4.499274969100952037e-01
2.020333714783191792e-01
1.212260391563176193e-01
1.066406352947524757e-05
1.559531706571578358e+00
1.230634760856628374e+00
1.608258751221001287e-02
1.043638666160404474e-02
6.076224416494369063e-01
8.611697331070899963e-02
6.103641211986541304e-01
1.431995812058449058e+00
1.568160049617289276e-01
5.188099071383477368e-01
4.489149374421685067e-04
1.334397628903389033e-01
5.617503434419633956e-01
3.083819270133972279e-01
4.305600967313694233e-07
4.605176800396294486e-04
2.348576104268432566e-02
1.293428689241409746e+00
1.232145869731901433e+00
4.035045370459556802e-01
0.000000000000000000e+00
5.682289530523122051e-03
1.659267134964466095e-01
4.584943670779466351e-02
1.747878402238711758e-03
4.982107251882553212e-01
5.958479225635527898e-01
1.745205651968717835e-03
3.264791056513786094e-01
1.119494307041168035e+00
3.129434421658515708e-01
2.597595313563943326e-02
1.234984266757964466e+00
3.564772289246320724e-02
9.181966334581375122e-01
7.591040316037833344e-03
4.633804276585579141e-01
1.246797967702149845e-01
1.924909396620932750e-04
0.000000000000000000e+00
5.053695306181908986e-01
5.492175168910761075e-05
1.122706621572433302e-05
3.532090959197376330e-05
0.000000000000000000e+00
0.000000000000000000e+00
1.689464367926121757e-01
3.633113250136374428e-01
6.902849927428177947e-05
1.013935089111329679e-01
7.496149651706218719e-02
2.382607962936162879e-02
1.741747346386547082e-05
1.239960853010416003e-01
2.757535889744758828e-01
2.029846139252185488e-01
7.611994594335555475e-02
2.828032258150870105e-07
7.472335081547499744e-03
1.167129445075989480e+00
3.327289298176764887e-01
3.110096856951714561e-01
2.105540113461758032e-06
1.437904947996139438e+00
0.000000000000000000e+00
0.000000000000000000e+00
1.218506161123514842e-01
1.800308579206465920e+00
1.493203952908516152e-01
0.000000000000000000e+00
2.640870928764343373e-01
1.923971137784974586e-06
2.775381878018379767e-01
5.771606892347336260e-01
0.000000000000000000e+00
5.912380695343018022e-01
5.765658511336368297e-06
5.189219973981381434e-02
3.440221976488828937e-02
7.570628349640174176e-06
2.410361894362722930e-05
2.001729816198349332e-01
4.883134603500365323e-01
2.378546978434314748e-05
1.522782198153437017e-02
3.947444990277291232e-01
3.197191888466478782e-02
0.000000000000000000e+00
0.000000000000000000e+00
1.819879508018493297e+00
1.668151969624886607e-06
1.714557744562625677e-02
6.845392018556595293e-01
8.327327035367489139e-02
7.466406345367431197e-01
6.805282354354857954e-01
1.121886479668319711e-02
1.595946234464644453e+00
5.083960627416672820e-06
0.000000000000000000e+00
1.065525954961776378e+00
6.271150633692741394e-01
2.533062353730201055e-01
4.597725439816713854e-03
1.331621434539557447e-01
0.000000000000000000e+00
0.000000000000000000e+00
2.348174206912517215e-01
8.960530385375024831e-02
1.205311530828475641e+00
1.675164222717284990e-01
4.198182377876946567e-05
3.409160312730819594e-03
8.999649435281753540e-01
4.552374869585038009e-01
1.262299001216889760e+00
0.000000000000000000e+00
8.119888573884963545e-01
3.902093589305877797e-01
5.174502544105051907e-03
3.593147054314613231e-01
1.633628290891647294e+00
1.684592902893201558e-03
4.086436286568641552e-01
9.146663308143615501e-01
2.289771789219229806e-03
5.570054560899734275e-01
6.456433441489935199e-02
1.142008459568023993e+00
7.167256146669387373e-01
2.991399526596068004e-01
7.558689191000666204e-07
0.000000000000000000e+00
1.505719665146899562e-05
0.000000000000000000e+00
5.650120144196080007e-07
1.027376630902290477e+00
0.000000000000000000e+00
1.202142584323883101e+00
8.625153102912007244e-04
1.204313480854035001e+00
4.665941596613266658e-04
2.750925794243813116e-01
2.625660918653011100e-01
2.232683319598435454e-02
0.000000000000000000e+00
0.000000000000000000e+00
1.230369067192078614e+00
3.714478516485542059e-03
9.743710779730469160e-06
4.920412274077535716e-03
1.708155167534641805e-06
9.537204429507255277e-02
1.615179455280304044e+00
0.000000000000000000e+00
1.422736458480358679e-01
8.258011745056135491e-04
4.121955573558806485e-01
2.875811529159545632e+00
2.363902837038040494e-01
4.236421257257463324e-01
2.120088464607761294e-06
0.000000000000000000e+00
8.114697635173797607e-01
1.950303901685401711e-03
2.011095397174359270e-02
2.627687916159630044e-01
4.153861652866907269e-06
0.000000000000000000e+00
1.967557412385940507e+00
9.388165593147276278e-01
1.346131102764047682e-04
1.980189955793320612e-03
5.506177723407745805e-01
2.885851999963051030e-05
0.000000000000000000e+00
2.591102584119653939e-05
1.762373644113540028e+00
2.927274601534009604e-02
0.000000000000000000e+00
5.380693823099137463e-01
0.000000000000000000e+00
9.441739600151783512e-03
8.107200741767883745e-01
8.733096756041050512e-02
5.974636763334274514e-01
2.173516333103179932e+00
0.000000000000000000e+00
4.187204665504396309e-03
0.000000000000000000e+00
6.019802819937466326e-02
0.000000000000000000e+00
2.782224797215348570e-07
5.914149922318756580e-03
5.232562452554703203e-01
0.000000000000000000e+00
0.000000000000000000e+00
3.265188604593277089e-01
7.359270728193223823e-03
0.000000000000000000e+00
4.616626426577568054e-01
2.866320520639419334e-01
1.443966780789196838e-02
1.302755907090614540e-04
2.665278874337672632e-01
3.319591265171766004e-02
1.858847028017043046e+00
5.267358139157296559e-01
7.193098892457783222e-03
0.000000000000000000e+00
2.055227187156560695e-05
9.530504234135150909e-03
1.023490959405899181e+00
5.889718905091285706e-01
0.000000000000000000e+00
2.763534816040191040e-04
5.763469189405441284e-01
1.454019889933988398e-04
1.107249809138010374e-05
2.070263155928842110e-06
5.169233330525458206e-03
9.837266325950622115e-01
1.591824177012313049e-04
4.286652818322181924e-01
7.069216342642903328e-03
3.471441721103473503e-06
4.875429630279540794e-01
8.865606822073458793e-02
6.868953845696523569e-04
8.127550661563873735e-01
1.338346242904662753e-01
1.016958765685558042e-01
0.000000000000000000e+00
0.000000000000000000e+00
1.142864006757735584e+00
1.690964168687968975e-07
1.983379405736922507e+00
1.426733262836931970e-01
8.204189827665686607e-03
1.676142424345016035e+00
9.989193566143511616e-02
1.060798075050115308e-01
3.495329337965813465e-06
2.038556419312953505e-01
4.750962421298027261e-01
1.281106930971146474e+00
0.000000000000000000e+00
0.000000000000000000e+00
2.045749038457870039e+00
3.844522051513195315e-02
5.346691425074823634e-04
0.000000000000000000e+00
5.248277192004026370e-03
9.421389818191527876e-01
0.000000000000000000e+00
3.099240071605890122e-03
7.836510241031646729e-01
0.000000000000000000e+00
4.409398134157526154e-05
1.188183957338333929e+00
6.267097860574722956e-01
4.074998229043557373e-04
0.000000000000000000e+00
2.057001534849404317e-02
2.484682774543761408e+00
4.314108693392882044e-07
2.803902862069663338e-05
0.000000000000000000e+00
6.444852769374846968e-01
0.000000000000000000e+00
4.502969294786452470e-01
0.000000000000000000e+00
4.530852958559988819e-02
3.910783459559752542e-06
1.618766170740127963e+00
6.240641325712203979e-02
3.751442462205886175e-01
8.547123283147811668e-01
6.286390163004398901e-02
2.006165377679281072e-05
2.121645993611311236e-05
0.000000000000000000e+00
1.299076657742261887e-01
9.811657071113591422e-02
4.124871082603931427e-02
9.851275056600575786e-01
0.000000000000000000e+00
8.802449971437453780e-01
1.515498012304306585e-01
6.771167129278182761e-01
0.000000000000000000e+00
9.793035596609115379e-01
3.332683488726617682e-01
3.476082868874071086e-02
0.000000000000000000e+00
0.000000000000000000e+00
1.125605067500146512e-04
2.788528993725776783e-01
1.739486033329740709e-04
1.195570828713243665e-04
5.142872899770736250e-01
3.340359963476658561e-02
8.343733668327329989e-01
8.173487884732821416e-07
4.691857285797595457e-03
9.445999494346320018e-05
1.382018375396729670e+00
1.947223901748658337e+00
5.447494157124310298e-04
2.091493452098802257e-05
4.433314843481639671e-05
9.236136647814416952e-05
2.968906670808791337e-01
4.397302530705929358e-02
7.122828662395477295e-01
3.893367826938628484e-01
9.536918729543681916e-01
0.000000000000000000e+00
4.263298592377396470e-07
4.692870095372200234e-01
1.673331759870052005e-01
6.937617748975755116e-01
1.611938297748566062e-01
8.631764940219002150e-04
1.280585378408430897e+00
8.603454125113785614e-03
2.600318761542437865e-02
1.514394289255143189e+00
1.617632314562797435e-01
1.202642071992158918e-01
2.895393259823321741e-01
4.787506532011320476e-06
5.310628831386565718e-01
5.909469444304704666e-02
3.428597003221511841e-03
0.000000000000000000e+00
2.206988267600537290e-01
1.211149376630783925e+00
1.539430789649487152e-01
7.826564282178878340e-01
1.750726789236070058e-01
7.788079581223428596e-03
2.237761758267879375e-01
0.000000000000000000e+00
2.425422845408320167e-03
7.097590953111648782e-01
5.551905203610658923e-02
5.397114939987660703e-02
1.867699247598649137e+00
1.168226790428161355e+00
1.862907521426677426e-01
1.521777647733689065e+00
1.016166484355926380e+00
8.928439393639565208e-03
5.673765212297440241e-01
8.864263963914709843e-06
1.327961254119873091e+00
6.212714821100234763e-01
2.152632600069046553e+00
2.793882094323634768e-01
1.454297196120024060e-01
6.962803155183791004e-01
7.743240654468536155e-01
1.085144437849522997e-01
2.942848891019819724e-01
1.114961022138596158e+00
1.270505345019045675e-04
5.949686355888843259e-02
1.287618765672960598e-05
1.018862687051295818e-01
6.124824993312358995e-02
4.070316608995198926e-02
1.535778328616287542e-05
2.463228520355187899e-04
3.979571018135174133e-04
0.000000000000000000e+00
1.374298483133317150e+00
5.497755890246480270e-04
2.974248336613527567e-05
5.256494492292403953e-01
5.363399490714073625e-01
3.633938476443290821e-01
6.617226009257137949e-03
0.000000000000000000e+00
0.000000000000000000e+00
0.000000000000000000e+00
1.375934821367265082e+00
1.538445247570051962e-03
8.946202549850572078e-04
1.469273634254932848e-01
4.342658852692693472e-03
1.794035047292709684e-01
1.249486570031876443e-06
2.842177536876988174e-06
2.902215853333472428e-01
2.504862762987612457e-01
0.000000000000000000e+00
2.254614472622051141e-03
8.750057294964790067e-02
4.935915112495422585e-01
3.995979582782638185e-08
7.132035084068774622e-02
5.331461414694785850e-01
1.333187788724899736e+00
3.974833879619836530e-02
3.738959103822708241e-01
7.930840292829089138e-05
1.054848721082635759e-06
2.399010017514229265e-01
2.053723394870758057e+00
0.000000000000000000e+00
4.492720320820807745e-01
4.843163937330247082e-02
4.029132217168808205e-01
3.791918148635886826e-04
6.087369024753571667e-01
5.004301875829696433e-01
3.189291536808014915e-01
8.500803750939667572e-03
1.328513361513614967e-02
2.603800386190414651e-01
3.432729317864869468e-06
7.168778449296950850e-01
1.451500037319418900e-06
3.858340173959732278e-01
7.488797783851623979e-01
1.002560096094384182e-03
0.000000000000000000e+00
1.261150020360945589e+00
3.206816300749779636e-01
1.636085617542267556e+00
1.313332904828713361e-05
3.227032517315819534e-04
2.140773564577102217e+00
3.357918307185172035e-01
4.342481588537339121e-05
2.608689655971830254e-05
1.191545313596725775e+00
1.120252849068492564e-03
2.443418045004363995e-04
4.340894788503646962e-01
0.000000000000000000e+00
0.000000000000000000e+00
1.399819660186096495e-08
5.235466035082935940e-03
0.000000000000000000e+00
4.237504854798317955e-01
1.398733356836602211e-05
0.000000000000000000e+00
4.166748851537704357e-01
6.534252077341079490e-01
6.338015586137771828e-01
1.204924717545509338e+00
8.794427802786230347e-03
9.465123340487477388e-02
3.394655103329567020e-03
9.526838101446628848e-02
1.744887777022085067e-05
2.800741314888000488e+00
6.586112137883901041e-02
6.778054181486367624e-02
2.317590460181234990e-01
1.859871581473272785e-05
1.458014121453742886e-04
6.684227926712082990e-08
2.071377617539838824e-03
4.502600342035293357e-01
7.899322174489498138e-02
4.954532653093338124e-01
0.000000000000000000e+00
1.701365590095520464e-01
0.000000000000000000e+00
0.000000000000000000e+00
4.262520706106442687e-05
0.000000000000000000e+00
1.716068279743194536e+00
2.443436561152338704e-02
9.992003833758636628e-05
3.708208814263344033e-01
2.112690265221318548e-06
1.300025802850721890e+00
4.615437328815459317e-01
9.158735752105711114e-01
1.861794066429138139e+00
7.842684276401992727e-02
2.706303037703036707e-02
1.786540567874907448e-01
1.011273670010269174e-02
7.680073322262615236e-05
2.739647611975669639e-01
4.838634014129638006e-01
9.105930626392365335e-02
1.992496177554131664e-02
1.172606066575099486e-05
9.507552415132518586e-01
7.979586030160135124e-06
9.794701814651489702e-01
0.000000000000000000e+00
2.319005085155366984e-03
1.069907075166702137e+00
4.676361707970500339e-03
6.954079598188400713e-01
8.807618431746959409e-02
0.000000000000000000e+00
2.712302066356643324e-05
1.751591640710832065e+00
6.260370939970016924e-01
0.000000000000000000e+00
5.424356877803802046e-01
2.932591304183005954e-01
2.945532321929932307e-01
1.717316675186157271e+00
1.214906358718872648e+00
3.954446441412072851e-07
9.361477755010125246e-02
5.172928425167811352e-07
1.714739328622817638e+00
9.296137094497680664e-01
3.821407645940781417e-01
1.730392403900623544e-01
3.081603711470962126e-02
0.000000000000000000e+00
2.147050166968255368e-03
1.008610302051238318e-05
8.670207023442344507e-07
2.760426595807076167e-01
9.258026082534344739e-04
8.679107099771499190e-01
1.005042940378188865e+00
5.792045681118907958e-06
4.159019231796264870e-01
1.367302276194094432e-02
1.467615768313408620e-01
5.447271109915162817e-06
0.000000000000000000e+00
1.222710441797972142e-01
3.982109397782105262e-09
3.731611043214797530e-01
4.370801702141761669e-01
1.061675542593001120e+00
2.285706636030226458e-04
0.000000000000000000e+00
9.457701802253722922e-01
7.463292151689528975e-01
1.315251845121383045e+00
2.860940873622895286e-01
1.192385298199951683e-02
0.000000000000000000e+00
3.480554779525846069e-03
3.592309847474097206e-01
2.473118054866790594e+00
2.901772901415825001e-01
6.644234120845794456e-01
2.723759471336961859e-05
5.069707640359409661e-05
1.021278402209282010e+00
2.890275195240975536e-01
5.461631826619850641e-06
1.457101609557867085e-02
3.819489404559135437e-01
3.848685310003930724e-07
1.384485054016113548e+00
5.189607739448547363e-01
1.010260947048664260e-01
1.610436975955963579e+00
2.080785334110260912e-02
2.366499579409265439e-07
6.230652570724487527e-01
7.030762972135562992e-05
1.077729481458662653e+00
1.804009938240051625e+00
1.214006200432778126e-01
2.748671793937683461e+00
3.444394475081935742e-04
3.695682789839338511e-05
1.452629216015339231e-01
1.161493068933486139e+00
0.000000000000000000e+00
8.675104254507461182e-07
0.000000000000000000e+00
1.097841870784760143e+00
0.000000000000000000e+00
7.909285157918930498e-01
1.296248648315668772e-01
1.551696366071700028e+00
0.000000000000000000e+00
1.217315334361046292e-03
0.000000000000000000e+00
1.091437636205227124e-04
2.319923165487126004e-04
0.000000000000000000e+00
0.000000000000000000e+00
1.278598475456238726e+00
8.459903474431485480e-05
3.502451598644256592e+00
5.831818707946467707e-08
1.985025055706501063e-01
3.778056621551514338e-01
2.816544981673361758e-01
2.910377830266951994e-03
6.705278515815734641e-01
3.621396750211716697e-01
2.045920300588476861e-04
1.161940783262253252e+00
1.462272483110427457e+00
8.143587894737722155e-02
6.703663080930708507e-01
8.586157888174057451e-01
7.819898843765258345e-01
6.953328311443328635e-01
0.000000000000000000e+00
7.217504666186868928e-04
1.781203764677046220e+00
1.404999884471180645e-05
1.198545402288436978e+00
6.649165768176316937e-02
1.801071798801421320e+00
4.479718729853630066e-01
3.122707307338715155e-01
1.894498109817506215e-01
1.991796237230300193e+00
5.621867091394959319e-03
1.382227851536299331e-05
2.265092234665644355e-05
5.707507767738206682e-07
1.751420333981514310e-01
6.888275347591843998e-05
1.499379950761794200e+00
7.874060429458040744e-06
1.170006996393203602e+00
1.648419398814440495e-01
1.842186801135540508e-01
1.083960855007172430e+00
0.000000000000000000e+00
1.257626014947891946e+00
0.000000000000000000e+00
1.003173482604324471e-02
2.751866266131400840e-01
0.000000000000000000e+00
4.959895391948521137e-03
1.202419377863405830e-01
2.128591358661651722e-01
1.797801986336707847e-01
2.950351864099501897e-01
3.324088752269745151e-02
7.109478652477264626e-01
9.981439374387256203e-02
2.265472005819901997e-03
0.000000000000000000e+00
2.751302570104598999e-01
4.764390856027604926e-01
6.240194244310258778e-03
1.956491634249687694e-01
3.230784684419631958e-01
1.258747828006744340e+00
8.948820650577544722e-01
1.695664429664611061e+00
4.012321740388869462e-01
5.150716824573464556e-05
1.010825425386428389e+00
3.089613720774648797e-01
9.752892492542742837e-06
0.000000000000000000e+00
1.135189031629124656e-04
1.032588370144366802e-01
1.252040378749370020e-01
1.440199530124663507e+00
4.168088465929030706e-01
1.174779075384140059e+00
7.251874864101411911e-01
1.177885092573660798e-07
3.992488056421280573e-01
2.770645841956138611e-01
2.327633546665310721e-02
4.652635529637336731e-01
3.971894204616546187e-01
4.938611923716962164e-03
0.000000000000000000e+00
0.000000000000000000e+00
7.245072070509195675e-03
7.751578725874423703e-02
1.110197871923446489e-01
0.000000000000000000e+00
4.809427142143248846e-01
1.241531025152654410e-03
8.728754594922065457e-02
7.482879012823105691e-02
4.349655676633119861e-02
1.938681880710646597e-03
0.000000000000000000e+00
1.209444802254437956e-01
0.000000000000000000e+00
2.849553510546683488e-01
0.000000000000000000e+00
3.599655812536184703e-07
1.595220253802835664e-02
2.602362108230589222e+00
7.511416405439377275e-01
5.086361959576606306e-01
0.000000000000000000e+00
1.493039831519126504e-01
2.044775458052755512e-02
2.885799296200275421e-02
7.462628423127170779e-06
8.201858729124069658e-01
0.000000000000000000e+00
0.000000000000000000e+00
3.001257088035344522e-02
9.043882817029953447e-01
2.433422179892659118e-02
0.000000000000000000e+00
4.818508744239806130e-01
4.057925805682316531e-04
1.407605195045472657e+00
3.305280230847529628e-07
0.000000000000000000e+00
1.899653983628013775e-06
1.272378998994827537e+00
1.440598967019468156e-03
0.000000000000000000e+00
0.000000000000000000e+00
2.583629393484442884e-05
2.907267653942108510e+00
0.000000000000000000e+00
0.000000000000000000e+00
4.666505888104438005e-01
0.000000000000000000e+00
0.000000000000000000e+00
2.280724388360977795e+00
3.509984955191612910e-01
5.956602543592451893e-01
5.396175995469092435e-01
2.242278553545475062e-01
0.000000000000000000e+00
1.152237969636917603e+00
4.139698758721351846e-01
1.097705382108686845e+00
6.162754464894533435e-02
1.637154243886471128e-01
6.272172838449477927e-01
2.178574696183205039e-01
0.000000000000000000e+00
3.848335128277539929e-02
7.123652100563049316e-01
1.538935706019401994e-01
4.225688680890017342e-04
3.769231304526329263e-01
3.257606252304867349e-07
2.311712108552456402e-01
2.871576115489006265e-01
6.920250982046127763e-01
3.458928025793285045e-03
1.297255313396453946e+00
0.000000000000000000e+00
1.341965782642364768e+00
9.452200129089759916e-06
0.000000000000000000e+00
1.435311669411021217e-05
5.097083806991576926e-01
2.570104545156938068e-04
1.095244899392126825e-01
4.736708669952350550e-05
3.755815520882607172e-01
7.468445420265197310e-01
1.602841913700104426e+00
3.782144397497175792e-01
2.232955864656106199e-07
6.199468050027685006e-09
0.000000000000000000e+00
5.895015219721245732e-05
0.000000000000000000e+00
4.839690491557122054e-01
4.503361761569976696e-01
4.808039665222167691e-02
4.385322004556656550e-01
3.912924603355350650e-05
4.305796083062887053e-02
1.477736040949822749e-01
8.813178271055222002e-01
1.079017579555512363e+00
4.275104820728302113e-01
6.877767801284788707e-01
9.323997437604705720e-05
5.564157527260250836e-05
0.000000000000000000e+00
2.416290029883383927e-01
2.002876259211915609e-04
1.079196534119547177e-02
6.543711572885511085e-01
2.651359274983404735e-01
1.050922532158438713e-04
1.178160440921783181e+00
8.553726494312288153e-01
0.000000000000000000e+00
3.730673849582672452e-01
1.011386230587959068e+00
0.000000000000000000e+00
6.155101001262665017e-01
5.505854889750479986e-01
6.284135961323044652e-05
3.292606472969054066e-01
6.607237458229065115e-03
1.388066369295120062e+00
2.082372702658175923e-01
1.668950344537734190e-05
1.049845847487451023e+00
1.038072249293327864e+00
1.878435188531875966e+00
0.000000000000000000e+00
6.407688744366168976e-02
7.497866690158844216e-01
0.000000000000000000e+00
1.106536656152456762e-05
1.800982058048249124e-02
0.000000000000000000e+00
5.105191722512245622e-01
1.378702324628828801e+00
7.014241622528061054e-04
8.181545808911323825e-02
0.000000000000000000e+00
0.000000000000000000e+00
1.476301670074462447e+00
3.758801624644548308e-03
0.000000000000000000e+00
2.031591004924848416e-03
1.937510915013263409e-05
4.730055679829092967e-05
1.655474276049061309e-03
5.315823659300805692e-01
3.072630505585038918e-07
1.846824232488870204e-02
2.350893557071686568e-01
0.000000000000000000e+00
5.467709586024284141e-01
1.537986635230481625e-02
1.283068853616713856e+00
5.770387619733809981e-01
3.943655744194983770e-01
1.924470859766005848e+00
2.682938268408178659e-02
1.321941918134690086e+00
7.095980597659944100e-03
4.228961110115050381e-01
4.556888684630394093e-01
1.007687515020370350e+00
3.147700786590575950e-01
7.153881937265397228e-01
9.509267001703842321e-05
1.046772679686545970e+00
6.748645305633544922e-01
0.000000000000000000e+00
1.524506607092917035e-02
6.733854323625563243e-01
1.071224710345267894e+00
2.796439841389656289e-01
0.000000000000000000e+00
4.379515558481217319e-01
9.390401537530122561e-05
0.000000000000000000e+00
1.315698218345642490e+00
1.160299038887023793e+00
2.441736507415771307e+00
5.901386857032775435e-01
1.118572920560835904e+00
1.762335592508315729e+00
0.000000000000000000e+00
0.000000000000000000e+00
1.789078369256457839e-05
7.798279464244842751e-01
3.198210941627619569e-03
0.000000000000000000e+00
7.900595733190129977e-08
9.589478522539144345e-01
8.404355384409427365e-02
9.204024225473403376e-02
3.708534204633906213e-05
1.060646750032901153e-01
1.866871525999158274e-03
7.102261304855345125e-01
5.936737265437841415e-02
0.000000000000000000e+00
5.919294953346252441e-01
6.532103806734085305e-01
1.004668265581130759e+00
9.829242387786502749e-03
2.157855130732059812e-01
5.759280810480049271e-07
2.000466454029083518e+00
1.086656743288040072e+00
8.392944365739822832e-01
8.435176797211170474e-02
6.164221167564392090e-01
6.498355942312628302e-05
6.124295175075531450e-01
5.455664172768594222e-02
1.178572320938109375e+00
5.177260283380748056e-03
5.020346447825432268e-01
7.601589828729629073e-01
2.588885717093944439e-01
7.468799944035708904e-03
1.731576882302760662e-02
3.050636291503906472e-01
8.471413612365722434e-01
4.176874746917746311e-04
8.789691805839539018e-01
9.783791631460190263e-01
8.606864372268319130e-03
6.188030421733855535e-01
0.000000000000000000e+00
1.596365940570830588e+00
5.415398910641671115e-01
2.389412903785705033e+00
3.647999110398814624e-05
5.192930884659289342e-02
0.000000000000000000e+00
0.000000000000000000e+00
1.659975536167621057e-01
3.826341839157977077e-04
2.177813485104707409e-05
0.000000000000000000e+00
8.156693809269199846e-08
1.722261677496136206e-02
4.546073436737059770e-01
2.256171555927720225e-05
1.284981739521025679e+00
9.931260728990305128e-06
1.491526556015014382e+00
8.720616519451140913e-01
8.080604093265719170e-05
1.247570544481276356e+00
3.630253970623015247e-01
1.076226999430218711e-05
3.179010182619094738e-01
3.494554536882788637e-03
2.003804934024810080e+00
5.332189008593558599e-01
1.035283531993628492e-01
0.000000000000000000e+00
4.432957753539084611e-01
8.894142694771289825e-02
1.057608422636986623e+00
8.784466597717254920e-04
1.663864087313413759e-02
0.000000000000000000e+00
5.305488228797912154e-01
5.977838695049285667e-01
5.154754271643469246e-05
4.252204626798629095e-01
0.000000000000000000e+00
8.613756479462608261e-04
4.248566902242600571e-03
7.194799780845642090e-01
3.323476621881126577e-03
7.822978545846126720e-07
0.000000000000000000e+00
2.049290606009889987e-05
1.540162447839975024e-01
7.969538331031797984e-01
4.847660690546036766e-01
3.920530647039413008e-01
6.852571772242300689e-07
0.000000000000000000e+00
2.375294370576738756e-02
2.471491279720794748e-06
0.000000000000000000e+00
6.740065465749011954e-08
1.090119284391402932e+00
1.363610540283842964e-03
1.125996619462967585e+00
1.543102133274078414e+00
6.144453853368758711e-01
4.938199347816409242e-03
2.023309981780130263e-08
0.000000000000000000e+00
1.359548655273101826e-05
1.650021708011626842e+00
2.405412159860134957e-01
3.430020913481713341e-01
2.927495822310448026e-01
2.932397592812777815e-02
3.772134035825729925e-01
4.454289212822915012e-01
2.461780923113109628e-06
1.763752542436123616e-01
1.703722700476646423e-01
1.202043765857751601e-07
2.721372395753860474e-01
1.809901431202889655e-01
1.491144686937332375e-01
0.000000000000000000e+00
2.161276504397392217e-01
0.000000000000000000e+00
1.145860278484178707e-04
0.000000000000000000e+00
6.213252199813725299e-03
8.436104059219360352e-01
9.033497929573058860e-01
1.686397932469844707e-01
6.127013093646383455e-05
3.841080918908119091e-01
3.498064696788788508e-01
0.000000000000000000e+00
4.893854744732379497e-02
5.881578743457793745e-01
4.062724132090807239e-02
3.239857673645020197e-01
0.000000000000000000e+00
0.000000000000000000e+00
2.292122785001992832e-02
7.575044572353363259e-01
3.753324151039122425e-01
5.335625282896216146e-05
4.895408228039741655e-02
1.341389137506484364e+00
0.000000000000000000e+00
1.209279330396384771e-05
1.627002871828153079e-03
7.298582717776298801e-02
3.491171523928641718e-01
2.207856702804565696e+00
4.369797781109809875e-01
3.792819440364837424e-01
1.241651195287704956e+00
9.999253839254379495e-01
4.760015308856964111e-01
1.362358987331390825e+00
7.761154294013976607e-01
0.000000000000000000e+00
0.000000000000000000e+00
6.239042943343519818e-03
1.417380431121273466e-05
1.002764704026049030e-04
2.097831547260285312e+00
5.778127044439316240e-01
6.138068988919258562e-01
4.495614883489907308e-03
1.190109467506409668e+00
0.000000000000000000e+00
5.932249993085861872e-01
1.375702404975892135e+00
1.824706530570985974e+00
4.292265474796295166e-01
1.717128151312862618e-06
8.305347255372906340e-05
1.871319012716413793e-02
1.417247601784765200e-03
4.892628595232962896e-01
4.435088296304456239e-04
9.154475748538967173e-01
0.000000000000000000e+00
8.241176283263485286e-06
8.198279363568873948e-04
6.367713888175785195e-03
3.647086862474680641e-02
1.098417514562607167e+00
5.686731010675429854e-01
7.660738900303840082e-02
2.903478145599365234e-01
2.989805784636700653e-06
7.000939734280109406e-02
0.000000000000000000e+00
1.040246665477752686e+00
1.044125089538282519e-03
1.177176441997289658e-01
6.145643914351238499e-04
2.368188291788100863e-01
0.000000000000000000e+00
1.971132540702820624e+00
2.699006065726280434e-01
1.374955251812935708e-01
1.177163237333296975e+00
0.000000000000000000e+00
1.912979912757873935e+00
2.599192298948765911e-01
6.889222472906112449e-01
0.000000000000000000e+00
1.214929121732712058e+00
2.013277856167404282e-03
3.865021765232087292e-01
6.881459939904742721e-05
0.000000000000000000e+00
1.520707078278065172e-01
8.962540388107299583e-01
9.511148976162071833e-03
1.320421315729617129e-01
1.530505744540278355e-06
2.547096460148168093e-06
0.000000000000000000e+00
1.739685476422892088e-05
4.569872748106718931e-03
2.471562892198563566e-01
1.289092153911041413e-07
0.000000000000000000e+00
6.245414124350645749e-06
2.441942254081366781e-02
2.113078609108924033e-01
0.000000000000000000e+00
3.563859286259683144e-06
1.279905904993938748e-05
2.801578550133854584e-03
9.205358475446706601e-01
2.410605736076831263e-01
2.553328290581702853e-01
0.000000000000000000e+00
9.496564924716951461e-01
1.266760486364364224e+00
2.067202329635620638e-03
0.000000000000000000e+00
7.873715907335279707e-02
9.207463979721068892e-01
1.555785369873045942e+00
4.863919578492642559e-02
2.669030936885975048e-06
0.000000000000000000e+00
3.334011398692381822e-05
3.414796963334083557e-01
4.717126622796058433e-01
3.875052005052565529e-01
1.926073724031448720e+00
2.141699206549674446e-03
1.084719616174698364e+00
4.235773032996803175e-03
1.235193198919295687e+00
0.000000000000000000e+00
3.392005055502522737e-05
9.128384053707122581e-01
5.289434209465980752e-01
0.000000000000000000e+00
1.380453968048095836e+00
2.475454710423947713e-01
3.900607243180276851e-01
1.964613187313078768e+00
1.115027066320180421e-01
0.000000000000000000e+00
3.693273094995674825e-06
7.497961223125457764e-01
0.000000000000000000e+00
2.689310841262340657e-01
0.000000000000000000e+00
6.607735599391160834e-03
0.000000000000000000e+00
3.481241226196288840e-01
1.952235077624208791e-04
6.407192647457122803e-01
2.937797931954264086e-02
6.793660342693328413e-01
0.000000000000000000e+00
5.536446142941714443e-02
0.000000000000000000e+00
1.530795890403170679e-06
1.036121126264333281e-01
0.000000000000000000e+00
2.557841874659061258e-03
5.960865528322754122e-04
1.352716147899628130e+00
0.000000000000000000e+00
7.696711719036102017e-02
0.000000000000000000e+00
0.000000000000000000e+00
3.710186196258291385e-04
8.853291958570480569e-01
1.222289705276488503e+00
0.000000000000000000e+00
0.000000000000000000e+00
1.602019434794784564e-02
2.933151822071522995e-03
9.380303907846608040e-07
0.000000000000000000e+00
1.816868200898171526e-01
8.820878210826779090e-05
3.427568048238754383e-01
0.000000000000000000e+00
0.000000000000000000e+00
2.125649955123663087e-02
1.354514500917502266e-06
1.427840787172315995e+00
5.391334835439920599e-03
3.927481904625892972e-01
7.782777220010759223e-01
0.000000000000000000e+00
3.052275434136390575e-01
8.076699996308888698e-05
0.000000000000000000e+00
2.956133231520652882e-01
6.188286364078521284e-01
1.150729179382323775e+00
0.000000000000000000e+00
1.160739674332943755e-06
5.657406384125350692e-03
0.000000000000000000e+00
4.108339905738831455e-01
6.641681380569934567e-02
8.288708925247192938e-02
1.046053033322096731e-01
0.000000000000000000e+00
8.025885492563247237e-01
1.299739801883697865e+00
7.579849928617476973e-01
4.195610150694847329e-01
8.976178877055647487e-02
1.050100818276406667e+00
1.119713258743286532e+00
9.659469723701479271e-01
2.347506466321647926e-04
2.229734279215336290e-01
0.000000000000000000e+00
4.622508073225617626e-04
0.000000000000000000e+00
0.000000000000000000e+00
0.000000000000000000e+00
8.378634601831436157e-01
0.000000000000000000e+00
1.259682173840700505e-02
1.104244381622265876e-06
9.827712830156083365e-03
0.000000000000000000e+00
1.827006287872791068e-01
2.578570638434030116e-05
1.192962903587613851e-04
9.896006464958191362e-01
7.049206383526325503e-02
3.305611461400984608e-01
9.507180584478189999e-06
2.954210191965104260e-01
1.258890535682440082e-01
2.487744837999343941e-02
1.923506772145629554e-02
1.787758428690722280e-05
1.872803799808024916e-01
2.644663663886603222e-05
8.607118614017963965e-02
0.000000000000000000e+00
0.000000000000000000e+00
1.073007068037987066e+00
2.559155155904590910e-03
1.677786395885049603e-02
6.147290378808974998e-01
3.776717618107796604e-01
7.476292282342911211e-01
2.369382634758948336e-01
8.131970435380935225e-01
1.554676840896718529e-04
1.428569000959396318e+00
4.622502774509484710e-06
1.452585652259585608e-05
0.000000000000000000e+00
1.249528253078460605e+00
4.330981282691938024e-05
8.721890389919281228e-01
1.671855741739271650e+00
4.381292670965194480e-01
1.135326351504773075e-03
2.904036730527878030e-01
0.000000000000000000e+00
6.422559797763824907e-01
7.907149493694305420e-01
9.691718832982590000e-06
4.373787671327590831e-01
2.008167110383510257e-01
1.908205185827682591e-05
1.729853503406047210e-01
6.977976620197295921e-01
7.342454433441161221e-01
8.775535796303301616e-04
1.328401219844818737e+00
0.000000000000000000e+00
0.000000000000000000e+00
0.000000000000000000e+00
1.638602411746979515e+00
1.626229830086231565e-01
1.727516478300094249e+00
1.833416241407393787e+00
3.507876084768214741e-04
1.993058077991008425e-01
0.000000000000000000e+00
1.360977441072465655e-01
6.883072055643423850e-05
5.831479892134667775e-01
1.192720510516664877e-05
2.837960089152602450e-08
1.179330050945282427e+00
1.618456677533686107e-04
2.607775762677192466e-01
1.961723631247877520e-02
1.693273967248387309e-04
3.442764922510832873e-04
8.881057202816011742e-01
0.000000000000000000e+00
1.340274747461080440e-01
1.050030481815337646e+00
6.082019297082297271e-07
4.388068765401840210e-01
1.341337163001298238e-01
4.878618314862251393e-01
1.201941645376792932e-05
5.247005879878997581e-01
1.306529577821493593e-01
3.144996589981019768e-05
2.078158874064683914e-02
2.172290039062500178e+00
7.097786362282931978e-03
1.571824592247140150e-04
1.250835716724394975e-01
1.770800597965718204e-01
0.000000000000000000e+00
3.997982963919639587e-01
1.403813948854805080e-02
1.594075489265377968e-04
6.060369964689016516e-03
3.055266633629797890e-01
3.379516740096732324e-04
4.374284341931343190e-01
2.881424543375032818e-05
0.000000000000000000e+00
4.805402942001819888e-02
1.098831304907799566e+00
0.000000000000000000e+00
1.094082361459732144e+00
3.148862063884735329e-01
9.701064467430114968e-01
2.398234209977091226e-03
5.800241557881235382e-03
5.240098835201933980e-04
1.172196459770203480e+00
1.175975971855222277e-02
3.074335709214210399e-01
0.000000000000000000e+00
0.000000000000000000e+00
2.086781196339870668e-05
2.248091466724872478e-01
0.000000000000000000e+00
1.023485250771046795e-01
4.175306424498558266e-01
0.000000000000000000e+00
6.882954016327857971e-02
5.350880980491637962e-01
6.660206586122512373e-01
0.000000000000000000e+00
1.893806618452071433e+00
0.000000000000000000e+00
0.000000000000000000e+00
2.139888596534730070e+00
2.628105343319475434e-04
0.000000000000000000e+00
1.352622854756190245e-03
1.079800315201282293e-02
0.000000000000000000e+00
1.844909705221653984e-01
2.332061484456062206e-01
1.403367136845191865e-05
0.000000000000000000e+00
0.000000000000000000e+00
1.977229982614517656e+00
4.171438142657279968e-02
0.000000000000000000e+00
0.000000000000000000e+00
7.965041436254978457e-02
1.259592201677151187e-04
2.993669971823693099e-01
7.468519965186715126e-03
6.266705691814422607e-03
0.000000000000000000e+00
6.322169125080108198e-01
2.215614475309848896e-01
1.581744545546826517e-04
3.660392671823501365e-01
3.861146506096702476e-05
7.734935879707336426e-01
7.957304269075392567e-01
0.000000000000000000e+00
3.301758097222773629e-05
3.316217675805092080e-01
0.000000000000000000e+00
9.536932967603206635e-02
5.470767831639023339e-07
3.706046533584595348e+00
2.918993420898913921e-02
8.613712757825850996e-01
7.079802483320235540e-01
6.977957934141160168e-02
1.123869168758391934e+00
8.699255228042602761e-01
2.031276690959929798e+00
9.748883094289341705e-05
1.673918500542639909e-01
7.878390460973605514e-04
1.466457038077350867e-05
8.672590926289558411e-02
1.562095123529434471e+00
0.000000000000000000e+00
1.058100329828448404e-04
1.235255883075296254e-02
1.013235181570052851e-01
1.908798227086662413e-02
1.956540065293666409e-04
7.985535174608230369e-01
1.669252042120207932e-05
1.630829349160196895e-02
1.578164446353913064e+00
1.776622295379638672e+00
2.403810381889343317e-01
5.193894558033208245e-05
1.828629700466990332e-02
4.224595248699187233e-01
0.000000000000000000e+00
0.000000000000000000e+00
7.613568664055492602e-06
2.429055430184234729e-05
2.551964783668517533e+00
3.535450996423605558e-05
1.947008156776427912e+00
3.890336118638515993e-03
0.000000000000000000e+00
0.000000000000000000e+00
5.472453936934471574e-01
2.230285332188940129e-04
1.305550435063195316e-04
0.000000000000000000e+00
0.000000000000000000e+00
9.134498686762522837e-05
0.000000000000000000e+00
3.100490095093845835e-02
3.535665450726810292e-06
2.938996985554696018e-01
1.478514775633811840e-01
9.686253406107428465e-02
4.073839396238326804e-01
2.344465356320143690e-01
0.000000000000000000e+00
4.231535794679074959e-03
1.443078827857970925e+00
7.847595661878584150e-02
5.785246789455411598e-01
9.268528461456299050e-01
1.588971493765712131e-02
1.044677872210740821e-01
0.000000000000000000e+00
7.742444518953562000e-04
1.974121399689466542e-03
2.324970002518966415e-04
0.000000000000000000e+00
7.246903218328952512e-02
2.174882938561496207e-04
2.216244792938231623e+00
4.716864344663918365e-03
8.447130955755710602e-02
3.379028854055831563e-07
2.382607249273858773e-07
1.775624543428419855e-01
1.847366279363632291e+00
2.616115128993988570e+00
0.000000000000000000e+00
9.459185928106306207e-01
6.448085010051727295e-01
1.165815395116805542e+00
1.665617577731609011e-01
1.584790110588075729e-01
3.041224688291550571e-01
3.938084182664169591e-06
2.725007981061935980e-01
6.511796004815550817e-06
7.124259531497953990e-01
4.735217675566673057e-01
8.612942472100257318e-02
1.725291943876072461e-03
1.203339052200318005e+00
0.000000000000000000e+00
0.000000000000000000e+00
6.191881513223052372e-03
7.213899977505207339e-02
2.972844004631042258e-01
8.748940318822860940e-01
2.125760533090214688e-04
9.416970191523432515e-04
1.311410319805146107e+00
5.166700761765240235e-02
4.777364875189959656e-03
4.464877024292945862e-01
3.104559853672981262e-01
0.000000000000000000e+00
6.349776609567924467e-04
2.678300425031919336e-05
0.000000000000000000e+00
4.159383277874440475e-03
2.114353382587433661e+00
1.354605401866137114e-02
2.174575951357837007e-04
8.038403876125813086e-02
0.000000000000000000e+00
4.668509382754564008e-02
5.293652802705764993e-01
1.252153706550597878e+00
7.669799625873565674e-01
4.723656699061393738e-01
1.027315455675124500e+00
9.071400701999664529e-01
5.013991519808769226e-01
1.350908452272413962e+00
1.109219567297259779e-04
1.058241289854049416e+00
3.218947017558094326e-06
1.546197950839997004e-01
3.861104115843772000e-01
2.034382423516945050e-05
6.493761777877807839e-01
1.500140875577927395e-04
2.645143009722231708e-01
0.000000000000000000e+00
1.114927309751510887e+00
4.256975680589675792e-01
0.000000000000000000e+00
4.486846752115526064e-04
0.000000000000000000e+00
3.201099723577498501e-01
9.214569449424745429e-01
1.642045006633453026e-08
3.185980573296546825e-01
5.122934028506278548e-01
4.824061378836631553e-01
5.862016323953866959e-02
2.850838054655468887e-05
1.191058915853500100e+00
4.212525546550751621e-01
0.000000000000000000e+00
3.303400516510009988e-01
2.438608273863791531e-01
0.000000000000000000e+00
1.666668194957309792e-05
5.347720707504775883e-05
3.994747370481490645e-01
5.038254767656327182e-01
2.148782405129168047e-05
4.083592739334562963e-06
5.030927836894990568e-01
2.724409013986587302e-01
0.000000000000000000e+00
1.110734501481056347e+00
1.260620056200423583e-05
9.826919808983806959e-02
0.000000000000000000e+00
0.000000000000000000e+00
2.298129601404070785e-02
1.737709484994411357e-01
0.000000000000000000e+00
5.575739089399576326e-02
2.035931110382080966e+00
7.820529788732529797e-01
1.419882737100125469e-01
5.732002854347229004e-01
0.000000000000000000e+00
2.743075996637344138e-01
0.000000000000000000e+00
0.000000000000000000e+00
0.000000000000000000e+00
4.385284885764121898e-01
6.752389250323174649e-03
2.120001651346684890e-01
2.049938070774078192e+00
2.050377922132611691e-02
5.092813506722450034e-01
5.241744339466094527e-01
8.566574156284332275e-01
0.000000000000000000e+00
1.522390455007552046e-01
1.050661444664001964e-01
9.756379477039447631e-05
1.105011707544327537e+00
6.550204992294311745e-01
8.608910381793977162e-01
1.119261002168059002e-02
4.134920090436935286e-02
1.901595906019793366e-05
1.499818731099367662e-02
2.034823065996170577e+00
9.885257303714759525e-01
2.096901379525660525e-01
6.868244588375091997e-01
6.120096743106840931e-01
1.596634618937969319e-01
1.342397146800067167e-04
6.228260546922683716e-01
2.174893420934676858e+00
4.756315704435108704e-02
1.551613542251288613e-02
5.774686962366104570e-01
0.000000000000000000e+00
5.380757987499237283e-01
7.097135107869689988e-06
2.708865702152251642e-01
2.986321225762367249e-01
1.061673793196677984e+00
1.163714293390512439e-01
5.876561073819175796e-04
7.557941079139709473e-01
1.433536946773528720e-01
0.000000000000000000e+00
1.429834038019180742e+00
3.154792881011961647e+00
9.033391445875166292e-01
4.807881087064743153e-01
0.000000000000000000e+00
4.003350436687469482e-01
9.705905914306642845e-01
4.726420510560273847e-02
3.815567106008530551e-01
2.052344009280205293e-03
1.290439167860313082e-05
1.254182934761048362e-01
1.953576430678367198e-02
1.568832408338494811e-05
1.436559401452542351e-01
9.185381382703784459e-01
1.095550516247749240e+00
1.648284310102464234e+00
1.983171589672565460e-01
0.000000000000000000e+00
1.934431725740433095e+00
7.354904141720908228e-06
2.167908314731902019e-05
6.667905263602733057e-02
2.225403243210167647e-03
6.979495853185654353e-01
0.000000000000000000e+00
1.204582405090331543e+00
1.543883480131626462e-01
7.141418564060586505e-06
2.114300751686095658e+00
1.192425537109376155e+00
8.059300307650116017e-06
1.132008868455887551e+00
1.232317718863486844e+00
0.000000000000000000e+00
4.485901445150376476e-01
1.237738052010535439e+00
2.881958074867725303e-02
1.344545614719389937e+00
0.000000000000000000e+00
4.771305754780769126e-01
1.158409309387207653e+00
6.226290879567386854e-05
0.000000000000000000e+00
0.000000000000000000e+00
5.895798683166504350e-01
7.779927730560303178e-01
1.181273884139954350e-02
6.911440721069085095e-07
5.181032358692050862e-09
6.610450387001037820e-01
5.285830609500409560e-02
0.000000000000000000e+00
1.485712514258921355e-02
2.196658482716884518e-04
6.020430117845535500e-01
5.662524372951338380e-07
2.639455646276473999e-01
2.316472155143856003e-05
4.287826800464244856e-06
0.000000000000000000e+00
0.000000000000000000e+00
3.230236515402793440e-01
5.688017502427100691e-01
3.713366857027722374e-06
3.737142449722341765e-07
1.028509405255317866e+00
3.833110937989659486e-07
2.023945694418217183e-06
9.203537613153457420e-01
4.084651265293358369e-02
1.633924146881326252e-03
8.750673621892925969e-01
5.618196919560431990e-01
3.268832400441169517e-01
9.393835037946700606e-01
2.879019675674498470e-05
6.871390879154206655e-01
3.932409480214119069e-01
1.348477178812027111e+00
3.069209215027513254e-05
2.014917200803756803e+00
3.244442850351333396e-01
7.146215528249740823e-01
7.411536574363708496e-01
4.253153979778289129e-01
1.970782063901423131e-01
1.341575005790217497e-03
8.215554744005203469e-01
8.970285154646262960e-04
5.834457218647003396e-01
6.590152643620968143e-02
1.265333895571530906e-02
0.000000000000000000e+00
3.372169494628905473e-01
7.006073296070098877e-01
5.242802302518611911e-07
2.405879057943821064e-01
9.955283931049050457e-05
1.889567881822585560e-01
3.918989910744129744e-04
3.633710406720638136e-02
4.932673051953314486e-02
1.731538817286491505e-01
0.000000000000000000e+00
2.701701316982508400e-02
3.805070300586521626e-04
2.650904893875121737e-01
7.049067258834839089e-01
6.694324440559284783e-07
4.167013078927994663e-01
4.217010717839003719e-02
2.424575146287679533e-02
1.450475019216537875e+00
1.809830531477929216e-01
6.112934678792953935e-01
7.975382506847381037e-02
0.000000000000000000e+00
3.288431435823439553e-01
2.297555506229401523e+00
8.176656998693940942e-03
1.330011701838884026e-06
3.713217623531818168e-01
0.000000000000000000e+00
0.000000000000000000e+00
8.638814360892866349e-05
0.000000000000000000e+00
6.977032780647276500e-01
1.052206024527550243e-01
6.675366479903462047e-02
8.675675839185714722e-02
2.544202148914337935e-01
5.341447220416739149e-04
4.744354650378227456e-01
1.038670405745506731e+00
6.059102743864059892e-01
4.701165139675138605e-01
2.777873436571098647e-04
0.000000000000000000e+00
2.368643052875995247e-01
1.211832535266876398e+00
8.207969725131988303e-01
8.622631169855594913e-02
1.578876646235584380e-02
0.000000000000000000e+00
4.021884946268984053e-04
1.635964930057526856e-01
0.000000000000000000e+00
2.839082605987641219e-06
1.385484792292118184e-01
5.200938380767183505e-06
9.060264332219958305e-03
0.000000000000000000e+00
6.063528754651769685e-08
3.309700894169508023e-03
2.474085843563079479e+00
2.711269967257975977e-02
3.526738539338111766e-01
2.084916418790818238e+00
0.000000000000000000e+00
1.321907780038599983e-05
4.946707129478454812e-01
3.071639866902843033e-06
9.810999274253837665e-01
2.266560398042202495e-01
1.152903851121663548e-01
7.282310416911741678e-08
2.100383408105698736e-05
5.200805440545080982e-02
4.976231884211303191e-02
3.066285989916650578e-05
3.903158903121947132e-01
4.043382808566092779e-01
1.688541531621012945e-04
0.000000000000000000e+00
1.278376434929669181e-02
0.000000000000000000e+00
2.386055064201355602e+00
2.066969353472814051e-03
2.066323004662989626e-01
7.230632560094819774e-04
1.618046313524246216e-03
3.079336180235259452e-04
5.120791593071771277e-06
0.000000000000000000e+00
1.751368120312691012e-01
1.219104391336439663e+00
0.000000000000000000e+00
4.045055672526359780e-01
5.354882791638374551e-01
5.932844251394271406e-01
9.557948401197790406e-03
1.254121470451355247e+00
8.141407044604421096e-04
1.361930388212204024e+00
7.432928740978240745e-01
5.179201334714889082e-01
5.060121126007289562e-03
1.377552056312560946e+00
5.892857104539871438e-01
1.616521097719668398e-01
8.269084006547926524e-01
2.150409659407160457e-06
3.453982295468449593e-02
1.079444465041160761e+00
2.408752891369657908e-06
1.449335855431853858e-02
8.910860568284990624e-01
2.349008997271085486e-06
2.662910416722296669e-01
5.331845837645232677e-03
9.087208062410354614e-01
1.126108056306837524e+00
3.219014247879385671e-02
9.136422630399465214e-03
2.077282764017581995e-01
9.298064589500425470e-01
1.187046664953232300e+00
2.155890185385942598e-02
9.029216945171357755e-01
9.187992401421070376e-02
2.832055717706680187e-01
6.643561869859695435e-01
1.445305153727531322e-01
4.535495190793880515e-05
1.525525681674481104e-01
4.117619097232816938e-01
0.000000000000000000e+00
1.376498895883559781e+00
4.338243496022187824e-04
1.459665529429913788e-01
0.000000000000000000e+00
2.477918751537799835e-01
4.323895856738090293e-01
2.944947009382303872e-05
8.001684516668319258e-01
3.748209968209267329e-01
1.297678840160369829e+00
2.231152102351188771e-01
9.246459193527697962e-02
6.580119967460633656e-01
1.467545808964133422e-06
2.926291495561599842e-01
1.588815516233444747e+00
0.000000000000000000e+00
1.078001153469086537e+00
0.000000000000000000e+00
1.970442113815807294e-04
1.091602313518523770e+00
0.000000000000000000e+00
1.301143223047255937e+00
4.074338451027870178e-01
3.850915357470512390e-01
2.584397697448729048e+00
8.141559988260269609e-01
5.675191640853881614e-01
5.223199471831321272e-01
7.569885492324829324e-01
3.667858392000197254e-01
3.360715418239123035e-04
3.498198881745338551e-01
1.870274610382693216e-06
3.946122946217656136e-03
8.861922770738600574e-02
4.015014485503342997e-06
9.749001897871496791e-02
3.758657854050397734e-02
1.078433316946029397e+00
7.927347347140312542e-03
0.000000000000000000e+00
1.301053137285635482e-03
8.350301116704939020e-01
2.227984316647053653e-01
5.532090575434267868e-03
0.000000000000000000e+00
6.417177822440864321e-02
1.279496574401855380e+00
4.034515395760535084e-01
1.888818933366564763e-05
2.730738436803222674e-02
1.616957360506057650e+00
0.000000000000000000e+00
3.699137032032012162e-01
4.607864215970040034e-01
5.015941515564918962e-01
2.515441374271175671e-04
2.798263707859404305e-07
0.000000000000000000e+00
1.546934217913076282e-04
1.651181316375732067e+00
3.386303409934043884e-01
1.217630825703963681e-03
8.382525382330637464e-04
1.032651250716297864e-03
6.497345805168152078e-01
5.120441392064093572e-02
7.857621103525161965e-01
1.721577672287822160e-03
3.203187286853789173e-01
9.707316939966401846e-06
4.136776215091230263e-06
2.718800360526074113e-05
1.090959677100181047e+00
1.553156957030296104e-01
1.896884638071060891e+00
1.219302132725715443e-01
5.289849303662776808e-02
2.410310111008584413e-03
0.000000000000000000e+00
1.324797212873817540e-05
1.791432477533817236e-01
2.220768101513385662e-01
1.770155340433120728e+00
9.445625245571139805e-01
4.592124861665069536e-03
7.375680834054947344e-01
6.070806193747558784e-04
3.067067354917525357e-01
1.549531742930411460e-01
3.129637449979781882e-01
1.411093091964720880e+00
7.783603876829147117e-01
1.447318904101848602e-01
7.151058197021482599e-01
1.786265449482015615e-04
4.354891240596772128e-01
5.288692131638526028e-01
4.182182431221008190e-01
8.664136558771133867e-01
2.309023268520832006e-01
1.545833863317967183e-01
1.120272302068769151e-03
0.000000000000000000e+00
2.853905662894248296e-01
1.491006038850173311e-03
0.000000000000000000e+00
0.000000000000000000e+00
2.375544205307960066e-01
4.507907673716545216e-01
0.000000000000000000e+00
1.782782904803751900e-01
8.151835128664968178e-01
2.763495504856110507e-01
1.930600879713893075e-02
3.666231799870729724e-02
