6.841562660294584930e+02
6.004976870171958581e+02
1.691209450866152508e+02
4.581060243668616749e+02
4.707072106182749849e+02
4.110699123724771198e+02
1.531083049349036251e+01
1.319010170125693548e+02
3.412536768257268704e+02
7.253802715116763693e+02
1.821387312596925199e+02
1.031050151303134470e+02
1.205481601523933705e+03
1.730705248763114810e+02
2.229775068492017454e+02
4.239583872549702370e+00
2.278591089130976508e-02
1.661299710822849562e-03
2.922990899967318157e+01
7.603763671977503691e+01
5.792224648915045293e-04
8.153897254992159560e-02
7.014705544395837933e+02
1.809739862112635933e-01
9.517722248510838767e+01
1.718426229675969807e+02
3.347075455881167727e+01
1.574670865280495775e+02
4.065139608006575145e+02
4.289778230387453206e-04
3.475104763900162652e+02
8.597331234941518119e+01
4.084752340269915862e+02
9.142450792969610518e+01
9.247487436150546500e+02
1.026999121035432859e-02
4.764935000372360285e+00
2.821087479955167510e+02
5.681118452407929453e-01
2.428762476379232993e+01
2.115649251404505549e-01
8.581298732984574826e+02
6.447422672630636953e+02
1.722870175494790246e+01
4.908237595389192132e-04
1.038603020152367662e+03
1.108807464199343968e+02
2.055959056019673881e+00
4.912171820695220958e+02
5.712291753734461963e+02
5.267900749910040759e+02
7.939632610086846398e+01
3.130879594800719534e+00
5.713810309453391800e-02
7.487485514673153375e+00
1.423622841819849882e-01
3.313722919469001909e+02
4.557384659201488830e+01
9.514718185873786638e+01
4.377387148786509670e+02
3.829999324487288277e+02
1.251303484235540054e+03
8.492376488034025783e-03
2.282172940758754578e+02
1.199420802795429530e+01
2.763551042356261235e-03
4.492468826734693721e+02
6.059081031373352744e+02
1.875494879765029168e+02
6.409142733144108206e+02
1.045831358426952129e-01
4.131920082883767664e-01
1.421758498144908966e-03
1.265871804844209692e+01
3.948380938081363922e-02
4.108470158724229577e+02
5.171590074931620151e-06
1.051660337134662920e-01
4.885968570636123331e+00
8.873569683870298377e+02
8.499401166394816300e+02
3.311225765064590405e+02
5.535554297192434329e-04
9.826132175458042184e+01
4.337216833242563325e+02
3.710026080537553463e-04
3.815829286466509984e-02
7.739009189113858156e+02
3.517573735383611178e-04
6.198444329605021230e-05
2.933404376258841239e+03
7.676678592935787719e+02
1.038900072793694278e+02
7.071964813894735968e+00
9.454120576526945426e-04
1.717327817227220620e-03
4.672632014126065769e+01
5.219869219406973571e+02
3.741206533356945307e+00
9.235091725058735790e+01
3.679622294730506837e+02
3.639174611598717775e+02
5.598365365352946128e+02
7.550511403998825699e+02
6.985121054498221183e-01
7.823561146365068386e-02
3.827166191185824573e+02
3.198064034135314841e+02
6.329515189587253872e+02
1.001774163024674408e+03
2.425872346913820365e+02
4.558466394228162244e+02
3.233760960174549837e+01
9.236994477323607953e+02
2.176207142689238481e+02
3.879758385281205646e-01
6.982129989657552187e+02
3.761681795766664038e+01
6.239553297695235869e+02
3.253905654244589414e+02
8.368813814249733696e+01
6.898745385173242539e+02
6.556379307430688641e+01
4.434968378940538969e+02
1.177077383331380211e+01
3.746883798543422017e+02
5.351651592616690323e+02
7.087852372249471955e+02
3.282492115677086986e+01
1.329343902799901000e-04
2.492045303766644793e+02
1.676431799140231549e+00
4.606170704546456562e+01
1.364912957094930448e+02
3.553252052814059425e+02
7.109655951368040405e+02
1.222928565423444525e+01
2.138132643944118740e+02
4.146674478579371907e+02
5.293910475629672874e+02
4.340330991064547561e+02
3.726021151787789876e+01
1.218927817243918880e-04
9.470822122784738895e+01
3.343630333103646990e+02
2.172246605725376014e+02
2.410260549964731922e+02
6.059006458628572318e+02
3.838941514404723421e+01
2.017338917150368172e+00
1.646658273384673237e+02
3.471734835904499050e+02
3.037521706719417125e+02
9.689697466837975526e+01
4.182867840960113881e-01
3.464916069042374147e+01
4.569862902244495899e+02
8.531099430154429228e+02
1.949197317590005696e+02
7.009634224887124674e+02
1.319292125012906425e+01
2.974167646227215300e+02
5.845528976660718001e+01
6.295118195557733998e+02
4.145833642200159375e+02
1.761632538122627212e+00
7.010272797037034707e+02
4.890933004635371617e+01
2.663873563593371045e+02
1.885377274244092121e+02
2.068541694183068103e+00
3.991561247756179114e+02
8.306180746716563590e+02
8.471597587753622316e-02
1.560991140591795272e+02
2.150788422273564593e-01
3.245541603871970437e+02
2.262521480861323653e+02
2.838399834820258625e-03
3.723215447988260929e-02
2.001083247963834140e+02
1.714057241677836851e-01
9.181243835962961839e+02
2.081788598929960443e+01
4.886966433732595760e+02
1.852217284188384383e-01
1.642492241790695058e-03
1.049245148565524982e-03
1.186731418498311541e+02
3.386887114167622030e+02
8.390702671604231000e+01
9.875241576111875474e+02
5.907001289227054031e-01
4.037841164870770285e+02
3.500557330829906277e+02
3.354374155719597184e+01
7.186926365189717671e+02
5.867722848207356477e-03
1.653013548454397297e+00
2.109279192538116368e-02
7.153344048667353849e-05
1.655386898433790179e+02
3.238497075195481898e+02
7.890632845708751120e+02
1.742256687034568685e+01
4.205921738287266010e-03
1.100670525675320754e-04
4.135264246309816372e+02
2.195947766975291614e-03
6.952072957283237429e+02
2.000591479228708714e-03
4.947181097293196217e-01
1.917242569124956095e-02
7.268189726437412901e+01
2.434333482798932913e+00
1.124617914940983621e+00
1.099575021384225977e+02
1.095421279409536028e-02
3.289737686020089313e+02
1.307528677862138011e+03
3.645578775511237950e+02
5.536485331962467171e+02
1.149081265201676842e+03
1.926862558244466470e+02
6.386324649196467362e+02
9.432276528650614722e+00
9.104675897397098652e+02
9.214752655381627244e-01
9.739295784825688918e-01
1.351561414328442901e+01
4.912486675428226590e+02
4.298500494064396186e-04
2.213639261772187581e+02
4.488698150960369372e-03
1.417773677877403942e-03
5.361263933373265900e+02
4.551417692346149124e+02
1.001735458336042939e+02
5.702323385485215113e+02
6.521153749257791787e+02
3.384245425577249444e-02
1.254315660960855467e+02
1.203691385267303076e+03
1.396357211027862206e+02
1.041097562309856173e-02
5.626428035713615827e+02
2.264816026854532538e+00
5.173094841971760616e+02
9.068454077828391746e+00
2.494250011113762469e+02
3.292822511298254540e-02
3.768921880906717092e-02
4.394992942055978347e+02
8.332224044512261116e+02
9.758247379737442770e+02
1.032798025298689481e+03
4.358022044643803383e+01
2.502135935465049101e+02
2.553429414063430727e+02
1.538605951427599052e+02
3.901645935147826094e+02
1.489410813628637698e+01
1.104587374646143445e+02
2.351654087979112262e+02
3.011796103157394100e+02
2.369915368504734943e+02
9.776792036828014891e-04
4.449460291795047651e-01
1.935363239867911034e+01
8.675443539871704468e-01
1.653669065064604808e+02
1.295112871566743991e+02
7.680370111495801733e-02
1.712882240863109473e+02
2.868257422778697219e+02
2.998715000421724852e+01
2.858339864563254711e-05
4.757247101166286711e+02
1.043426144357363228e+03
1.748130322559405814e+00
2.130898541625469544e+00
1.042032244952861220e+03
4.012146784724279769e-01
1.539258220941520650e+00
1.899375030177906751e+02
6.024697460437892005e+02
2.159827432900783606e+02
6.216394903894979507e+02
1.943241420126469876e+01
6.919320005457848310e+02
1.033291917719180219e+03
4.925852922111516818e+02
1.671960848711023289e+02
3.204883883736328585e+02
7.169257256791753434e+02
3.016889624191207986e+01
1.708484734862577170e+03
5.266616836699543001e+02
5.582453805906553105e-04
5.789369415609257885e-01
5.637539711697172606e+01
7.218978019842836602e-02
4.853249620084821615e-03
9.881416034459104480e+01
3.213667133320994935e+02
9.989207746184548853e+01
1.322332124183958229e+02
5.176353337492402318e+01
2.714829765442119651e+02
1.253847246605438841e+03
1.949781014238396324e+02
1.879957492074026391e+02
1.384367519219330267e-02
8.199230265745427459e+01
1.152876323810779468e+03
2.208360873828495698e+02
2.149073132455669679e+02
5.571915488348167855e+02
4.771311406104360913e+02
5.188115657088928856e+02
4.178197324297798332e+02
6.331671514280968438e+01
6.129299459244064963e+01
8.254545459640212357e+02
1.467086369684621749e-01
2.496239382489875780e+01
6.468634258882957511e+02
2.175609232403985871e+01
2.545658898205146556e+02
6.581805422547404305e+01
3.505050833464339348e+02
4.026212190663499086e+02
4.931934186487296756e-02
2.542854977342357756e+02
1.856058903729262965e+00
1.104440168764996955e+01
5.631951954419491813e+02
1.063454249677307928e+02
2.389776485371840806e+02
3.819103601133974735e+02
2.043347329556127079e+02
7.151197587983913309e+02
2.977287508147129103e+01
4.560347921942594667e+02
3.277050745504084261e+00
6.471025835489854217e+02
1.617086473850121919e+01
2.585030120180817903e+01
2.274608001880551456e+02
6.138820089865475893e+02
8.132897551575979378e-01
3.728903191185963806e+02
4.459026587915104756e+00
1.029200806388871570e+02
6.347901639165343113e+00
2.772375042928614448e+02
6.578128789042239077e+02
3.457153813549666665e+02
1.575956686075685297e-03
6.447086568250597338e+01
2.630521491468244903e+02
1.329284871020716707e+02
1.679514064565524212e+00
2.173623146889440250e+02
5.336006646648456808e+02
2.871146872843382880e+02
3.060521646993663025e-01
5.838717755807465437e-01
5.365913095296548363e-02
3.002012361607740942e+01
3.419566160100657726e+01
3.739302432149997912e+02
4.212908369969226214e+02
1.957319363463105432e-03
1.172308687549957114e+02
2.507627796853738289e+01
5.757714102210228191e+01
7.564525716516072862e+02
6.418550056216191706e+02
2.435147937949295738e+01
1.887359855198157277e+02
1.892647635543198981e-01
2.446540211720195021e-02
4.395352942205476232e+00
2.831456863139465554e+02
2.134694080341432709e+01
7.800939702516186571e+02
1.052919798131408654e-04
3.540360918949936320e-02
1.347267251985974053e-03
9.675930771685671061e+02
8.175499138924352849e+01
3.678102158010005951e+02
2.547993103627633690e-02
6.873632611823269656e+01
1.874229903729428486e+02
7.183389724086737260e+02
3.694826659186218194e+02
2.786776189907413936e-01
5.762179715355157441e+02
7.041098247966348709e-05
2.750630336700864674e-03
3.780247658898588270e+02
1.530781513738475041e+02
6.205712214796221815e+02
6.993767420297558601e-01
1.760528897128097583e+02
3.725942423763627289e+02
1.555694256680339727e-01
1.078563720847470070e-01
6.327574462586198933e+02
4.378646668104920536e+02
7.660740654955588980e+00
4.586080896733619738e+02
3.281201516016153619e+02
3.201980341932539886e+01
1.434291335796089029e-01
3.721336986274081937e+00
8.036913680640282109e+02
5.340964907333044520e-01
2.727966112957801101e+02
2.382129537985746595e+02
4.470843992748996243e+02
1.227949787344605735e-04
1.118925537233734815e+02
6.360252526166732423e+02
1.174659622010949533e+01
4.835127495503855483e-02
9.148332108725296052e+01
5.054539646799582897e-01
1.445777664280286423e+01
6.232751804462168366e+02
3.378556750598363578e+02
3.790021157337729839e-03
9.686892907804574406e+02
3.730048054909274811e+02
1.787980003579286176e+03
3.635827471312950365e+02
1.399734374987194295e-02
2.151578525714284638e+02
2.978058977532782592e+01
2.374240351076878994e+02
2.994649018313793931e+02
4.158214955015864689e+02
2.639626794923969442e+02
1.192324374356759051e+02
5.611208656322560273e+02
7.034548347917734645e+02
6.369741104848799296e+02
4.095707850887264385e+02
6.247133490990819382e-02
4.179883743898244575e+02
5.792235313638228718e+02
6.061954032411451010e+01
8.129360275887620446e-01
4.174556396079425440e+02
4.707189558255777229e+02
1.962121034049246759e-02
2.522044743036530292e+02
4.904244852652483360e+02
1.179623448201994572e-02
6.416162064837407115e+02
4.115944025637872983e+02
2.684999534598318860e+02
1.403316046478267687e+01
1.531390743674254304e-02
2.016180392587557719e+02
7.752248375312778990e+02
2.627417456537841645e+01
7.112968444009311497e+02
6.784910455064618873e+00
4.261559143670101690e-03
4.927890235157974530e+02
1.074405567011853691e+03
4.839996933842486442e+02
9.476946112176035586e-04
7.754136270392336883e+02
1.766935301976247374e-01
3.481248095296904239e+02
6.848791656128014438e+02
4.266156115630794332e+00
1.011913806279324935e-04
6.212064894833019935e+02
5.514989569774115807e+01
3.252545189243392088e+02
1.487167428840620573e+02
4.252668492394151372e+02
2.091338529604057861e+00
4.513913825678173453e+02
4.885538186408666661e+01
3.727830116782849786e-04
6.848554036675835732e-03
2.329076881167565602e+02
4.271315521953511052e+02
1.281595162619488747e+03
7.407065463282958007e-03
4.266772062750532086e+02
2.690896905005502049e+00
7.496819228530512191e+02
2.073304886191181993e+02
6.336503319488427655e-02
2.081683129361522333e+00
1.148327868233900972e+03
4.294501937896711752e+02
5.155898718436215209e-05
5.551859966071788222e+02
3.387004910600232037e-04
5.362902411303366534e+02
3.552076896490063973e-01
9.052787378488574177e+02
5.572700581600656733e+02
2.713902955292725778e+02
2.226297689417152270e+01
8.335045303538211670e+01
4.374728318072129696e+00
7.567687506773723705e-04
1.302720097895448091e-02
2.751622738738660701e+02
2.274376252735237358e+02
1.704907811570591889e+02
5.467651504848615787e+02
6.108453186225231946e+01
1.087408692739017724e+01
1.912813162477505671e+02
1.051990643780696955e+00
2.453449023323006628e-02
5.251748608890919741e+02
2.124913997517068651e+02
2.780208307449355516e+02
4.377066701097646728e+02
9.868186865470700189e-05
1.017140604753308253e+00
1.124329694979679033e+02
3.443988468708993196e+02
1.821324395001600385e-02
3.579761272514589336e+02
1.095077041764896681e-04
4.615440846035199911e+02
3.367984577948844649e+00
2.211227821096883872e+00
6.936749778367811814e+02
8.662825792173789322e-04
3.127290655975228333e+02
6.345086999814952833e-04
5.410728637303691357e+02
1.681394619293860615e+03
3.869336667759737934e-04
4.280053884482186959e+02
7.172261147337849252e+02
2.619806752782949388e-01
7.122590352395264945e-01
2.221285233976233542e+02
1.190177027074242631e+02
3.008077203397989479e+02
7.361947105731815100e+02
5.846683369920353925e+02
2.323923022537200325e+02
1.185186459002808412e+01
4.584348356758711134e+02
3.385197822799454315e+01
1.771746545284259469e+02
1.011106878933787101e+02
5.155507620183925610e+02
9.352148542647600264e-04
6.215537308366947400e+00
2.193752632421819158e+02
6.481480454783651979e+00
3.593788557693099704e-03
9.472656999510951437e+02
5.362464382473262958e+02
6.700515171189636021e-01
1.631705801599658183e-03
2.778017632685077842e+02
6.747404158508288674e+02
1.789268279295356479e+02
1.255543411812776178e-03
1.181313955970836957e+02
4.504358920275990386e+02
4.401914612135441303e+02
6.889805808887102501e+01
5.739094718344858848e+02
6.549417966802138835e+02
7.880395445492016648e-03
6.625649883448204491e+02
3.345653233533085427e+02
7.842138617236702521e-04
5.119184002999601149e-03
4.491455454837705474e+02
1.253794316569134884e-02
1.662553230216144129e+03
6.652218159026233479e+02
2.891578026639762697e+02
1.193400938910293974e-02
8.617609894645286204e+02
3.018790022753819358e+02
7.462984656405751593e+02
1.734640266073257351e+02
3.869523295106773020e+01
6.608915745178819634e+02
4.481270984499019505e-01
4.879102766477443538e+02
9.353927526645209808e-03
4.172969656352166767e-01
2.424798972639109707e+02
1.029210485429212213e+03
2.006027284704030365e+02
2.084222000808038899e+01
2.832512598091852283e+02
1.012379956150835255e+03
1.323890429242964615e+02
1.623379845474914873e+00
5.990895757684484124e+02
1.360927302022900562e+02
6.341312224947614595e+02
1.647701928807236982e+01
1.923574531199846547e+02
8.501034374039593899e+01
9.685052364625331478e+00
1.287698126605126342e-05
2.633024529231990485e+01
6.758072535376413725e+02
2.847086679445055779e+02
3.527110311824798394e+00
2.408291937059403267e+02
9.461415031285920452e-05
4.472489339976164047e+02
1.005724712977098676e+02
3.971131929596596137e+02
1.966862869441684438e+02
1.040555532515281584e+03
3.843965422856854275e+02
1.472427654083395543e-02
1.028078224368123017e-01
1.913595527371398219e+01
2.207311499070783611e+02
8.473135928637932466e+02
7.396520492984562907e+02
3.623915823380228858e+02
5.014158585609039420e+01
1.384740838897413937e+02
4.686138500592279144e+01
5.176044351777818520e+02
5.311959245344041847e+02
9.640182720293520333e+02
8.985759014992749917e-06
3.895129438868024181e+02
7.461459815865964629e+02
8.505431431860003416e-03
3.256090477916586678e+02
4.473555142249095979e+02
9.117527592141416335e+02
4.948825703373142782e-05
3.397913076310033809e+00
1.621539941138507857e+01
3.380952486069872975e+02
3.626381929709168617e+02
2.079916864266123753e+02
4.206835950799359125e+01
3.164856001332261846e-04
1.828066047619359438e+02
5.463689053372945637e+02
5.482010529878607485e+02
9.513653767498906291e+02
7.064278241671217984e-01
1.338039851978009764e+01
8.647892108027010636e+02
3.633833740299450028e+02
1.119773677439661242e+03
1.653346347254113502e-01
2.547352388526656283e-03
2.342102985033455917e-02
8.517297047641480958e+02
4.746372057408735827e+02
2.574252670559802310e-04
4.705178141311989748e+01
6.701593375662924927e+02
6.364290410841931589e+02
2.958349354031497569e-01
1.029665123904123675e+03
1.623937351987115562e+03
4.417061010623000357e+02
2.230483106565372409e-01
2.471601766592357876e+02
1.048986503321794544e+03
7.277795262431027368e+02
7.220414460869506001e+02
1.373031620114489328e+02
7.912850762470042127e+02
1.193585589488066461e+02
2.293718006287236335e+02
1.028029990991853566e+02
1.136290014535188448e+03
6.543598223754088394e+02
8.762278868380237284e+00
1.224624227204185672e+03
8.817497347161406651e+02
3.182227292803872842e+02
8.317078372033392952e+00
3.417092612630769111e+01
3.348209776120824599e-01
8.250286581504042260e+02
2.305734573496142324e-03
2.839493230832886752e+02
1.179778711547213632e+01
9.393209391382694662e+01
3.265820672291737310e+02
2.808860914996103464e+00
1.551662249272389160e-01
7.686201544544246644e-01
2.601028053368281689e+01
5.809555120431467685e+02
4.897507535002660006e+02
8.856869088995154016e+02
1.153504607073046628e+02
1.155111527825283702e+02
9.064378784042764758e-02
1.386093332143900625e+00
1.671843597410771451e+02
4.858262916506816964e-01
5.042147117037529824e+01
3.754742819342936855e+02
1.435189530195202110e+02
5.322030971042224223e-02
2.942575351671194994e-01
1.461968302498562466e-01
4.964777105578832561e+00
5.772319756874821906e+00
5.827219395941938274e+02
2.829466285334093101e+01
1.248395227498258464e+03
5.507638213018140050e-01
3.957649363772360971e+02
8.117684868494734474e-01
1.708790718038245782e+00
1.578811136900186511e+02
1.220215003089330846e-03
2.929192694782613415e+01
7.943465066568933253e+00
7.370680965213978197e+01
5.278470389932010676e-01
2.316464995161368279e+02
2.956856108762621460e+01
7.030226630844182978e-03
1.092589012235111340e+03
3.480300662915398107e+02
6.456834610787609563e+00
1.263718685344429957e+02
2.817458985307894181e+02
8.010721093945903704e+02
1.090044871265127313e+03
1.381795681558287185e+02
2.325301184224373117e+02
6.838402783643687144e+02
1.360009061399796728e-04
1.346820417767347622e-01
3.689572880248305751e+02
4.735098909921362065e+02
5.472106882167281583e+02
5.898518970861915989e+01
1.766008998072266634e+00
6.965724157897057012e+02
3.976893704435724430e+00
8.186163292673856451e-02
4.362659160760814530e+02
2.470920544568798505e+02
9.773203381100755394e+01
1.559000643454055535e+02
2.998169181708361748e+02
1.871955137439726968e+01
7.005055633557688566e-03
9.590398386106247699e+02
2.039428863227498834e+00
9.079774082678682134e-02
9.647412748672647353e+01
1.343643720374528527e+02
8.037601908199576428e-01
3.440901917143491460e+02
4.546427915265668673e+01
6.901647189934010385e+01
9.212690617481712252e+02
1.369588568702511111e+01
1.190979006751149711e+02
1.623810699683677044e-04
2.506489169634733685e+02
6.127751859676210415e+02
4.770808169145311695e+02
1.218091597907643847e-02
2.407159012145711188e+02
2.901528941998549840e+02
1.242671825983051832e+02
6.746458547422660956e+01
7.095603262569055687e+02
3.321882367707474915e-01
3.649011724646698696e+01
2.533290053917392360e-03
8.037795331256347708e+02
5.311807042551209612e+00
8.806619822426002031e+01
7.462610229522397276e+01
2.886158853958477266e+02
3.874488015924269835e+00
6.577264003339223564e+02
1.574763012813491869e+01
5.409158522503277027e+02
4.640200567183683233e+00
2.379075733893841402e+02
7.463428220828063786e+02
1.126839484736308128e+00
3.901721074358648025e+02
2.376770959244822734e-01
5.324639872217318270e-03
4.317233904665046111e+02
1.035145994058984343e+03
4.231148117614794728e+02
3.015719140315314527e-03
8.159438778232441791e-03
1.169829018303061474e+02
8.076728269850718789e+02
6.372071908253928996e+01
1.526609607858517847e+01
1.307974963472588570e+02
3.030137613917758017e+02
5.853202289814361166e+02
4.929383927235904821e+02
6.136447167200458352e+01
1.931280290667927488e+02
2.843814986699727569e+02
6.943547686372767203e+02
4.837720260211426648e+01
4.057575680162699427e+02
1.738195761173847131e+03
3.118604154317417432e-03
9.997321117407406632e+01
4.123206105956343777e+02
2.737428261338208699e+02
6.922771260768058710e+02
6.996781511769967210e-03
3.089391530077812559e-02
1.791468622327487686e-02
5.784201333706732839e+02
5.322237362961459439e+02
5.285162859627234866e+01
5.774228749229223467e+02
3.432609843810497523e+02
3.076058936516346876e+02
2.540386709569020240e-01
4.419012596383710800e+00
7.259458770990022458e+02
2.304532129848666955e+02
1.157076679641022787e+00
1.830268195113602303e+02
5.975029832596192136e+02
1.381139204779174747e+02
1.222364846562413376e+01
4.703258886242110748e+02
3.986085916061711600e+02
5.673578345827991143e+02
3.504458274132049382e+02
1.492642673957434440e-01
9.119498662272471634e-01
7.843897612690399868e+00
6.476039504530490376e+02
7.031470127301985285e-01
2.680076457101676510e+02
7.238434954786043818e-01
1.670418475285372906e-01
1.831213562403718527e+02
3.368695125345767316e+00
1.491469830301639377e+00
5.737998843178503421e+02
3.458389040258680325e+00
6.995989764502157868e+02
1.477402025155948994e-03
2.137989019705855753e+02
4.722471578752447385e+02
6.119768245029263198e+02
8.537468352151635857e-04
1.879054308577906056e+02
1.778406798644827438e-02
8.588932687503984198e+02
1.438123877908758629e-03
7.210278820217354223e+02
2.235747322126834490e-03
1.632166729719027444e+03
1.098725579561232957e+00
5.238365310862718616e+02
1.502668621502378983e+02
4.070174114393013269e+02
4.829769740805204492e+02
1.734923067074305436e+01
2.818202640493836952e+02
2.015952553133503145e+01
8.833392126165563241e+02
2.699098788340052124e+02
3.702626910926483106e+01
4.704357199363585096e+02
2.411171836076391060e+02
2.029694228771403743e+02
1.933529802666810208e-03
4.091178560505796327e+02
1.749691419390728129e+02
1.852636598239769228e+02
2.149300188700187676e-03
6.461681194977586529e-01
5.271959400226478465e+02
1.208265954648623554e-02
2.121370662793196402e+02
6.406024892396546377e+00
5.415252506820252165e+02
1.457593161772819599e+02
2.676567795118899085e+02
2.826317051432853305e+02
2.404030434536252017e+02
5.166554797913703396e+02
8.059142267040443812e+02
6.526920824212467664e-02
1.725626787479996551e+02
1.369209682333166938e+03
9.561915200628767764e-04
7.191944445783526874e-03
6.021846429677680135e+02
2.617785025955525384e+02
6.145969662476601092e-02
1.688392042375198798e+02
1.212251722576912471e+03
3.282085074768348321e-03
1.684545507060830914e+03
4.134807918475418091e+02
1.171487976848766621e+01
1.803742802449050942e+01
2.903167749769635861e+02
2.629683616487453968e+00
9.625510159894474782e+01
3.232803544236939066e-04
1.460107453567616744e+02
1.223538202093549216e+02
3.213491830007115482e+02
4.051743991134570706e+02
9.062184978422008044e+02
4.310667071782519315e+02
5.412639678615960293e+02
7.546775051348959096e+02
5.436215892211747835e+00
5.869886090472675733e-02
6.455113790027097593e+02
1.964243177486225123e-01
8.015228442731313407e+02
2.925825631384212784e+02
2.164430464254109410e+01
2.641999606446917142e+02
4.729699983471391533e-01
3.493258176227698186e-01
7.543113644307597951e+02
2.589070639998679439e+02
5.299770423425798072e+01
8.741501352866182515e+02
2.233091096168208480e+02
3.852069988759467378e+02
3.421547106190702152e+02
5.577843663035309874e+02
8.365060403084498830e+02
6.904805740050505847e+01
1.221207727633101259e+00
2.844593368405185174e+02
3.102912381138594355e+02
8.121455051805240828e+02
1.163031773565307958e+02
1.119746411062805720e+02
1.098012168821877594e+03
1.523316817838348527e+02
1.295105654054395483e+00
2.887896241161797093e+02
2.348649146961179213e+00
8.739721387493773364e+02
2.302610498892931457e+00
1.103835197372973376e+01
5.908885442840983160e+02
1.677744233512612926e+00
3.672781536079127704e+02
8.149872968078852864e+01
8.518982599616721529e+01
3.258155712719597545e+02
2.548986321752978235e+00
3.908251588880376630e+02
4.802990338313974235e+02
2.362078482903597774e+02
2.051869352698076909e+00
1.664972859081899514e+02
4.230631146890857818e-05
3.710570781527167128e+01
1.132493734080345121e+03
6.345066819238128346e+02
4.880036101742007304e+02
4.331480826782353688e+02
1.861644895282096712e+01
4.436817983783839736e+02
4.600569610220190953e+01
4.654872004061871849e+00
5.414015509904857026e+01
1.383859968426986143e+03
8.709298413056568849e-03
7.900002280090121758e+02
1.261145491577852010e-02
9.831866535794377138e-02
5.730104084825143218e+02
3.651812444348935038e+00
8.019612521962928842e-01
3.634816035439143320e+02
2.142370173615404383e+00
6.481690072988044449e-01
1.943908044893760803e+02
1.517598634443401728e+01
9.450734017955251431e+01
8.184324504362236528e-05
6.192799657219438814e+02
7.962835525249829516e+02
1.183189592259167355e+01
3.857339126814623000e+02
1.605588974439342564e+01
2.821177838459333742e+01
5.912474399592611007e+02
3.373844301668213319e+01
2.558645512253860943e+02
3.782706150203011930e+02
8.729036461212672293e+02
8.039009232132229954e+02
1.828102423343807459e+02
3.271472943956723611e+01
3.688971967334509827e+02
5.805278966901637749e-02
9.277391651761720368e+02
1.690888709188583903e+02
1.066873793644844284e+02
1.555732663436514729e+00
6.176904387039030553e+01
3.646667236425854526e+02
3.761384397061192431e+02
3.895380649163725922e-02
3.493004090551040264e+01
7.639323577768664109e+01
1.354765418415126987e+00
3.860627182541065849e+02
5.834987610083771870e+02
5.320334954878489953e+02
1.088721232287426059e-02
1.307999588751940501e-01
7.246090774715412408e+02
1.961319411242585034e+02
1.905339308112160950e+02
7.723380835581339170e+02
6.406318739653471539e-02
6.175862862424498197e-04
3.110798248126229737e+02
7.908176461711491356e-01
6.370707288505528254e-03
7.269116027484415099e+02
1.830995150979220609e+00
1.557946156161051192e+02
4.201887837654793429e+02
3.190314090315951034e+02
1.056890115754503995e+03
1.852220998596748700e+02
5.714261535424157046e+02
4.448464267472445499e+02
7.097380904713644441e+02
2.690140870026880293e+01
1.393262659025822892e+01
1.123552978254155960e+03
1.674210240548746143e+01
3.058492501881120234e+02
2.654599984424494395e-04
1.980270776475663013e+02
8.268251098357723095e+02
1.482441677997121815e+03
4.450289879969203639e+02
2.150464731577812074e+02
7.630438385807792656e+02
1.867860279904562617e+02
1.040064235799945465e+02
7.344795618228090461e+01
6.774831460120367410e+00
1.593475950741663483e-01
6.648583282672916539e+02
6.714521873163903365e+01
6.994878315104870126e+02
3.247162222436372203e-01
5.594188000963188188e+02
2.093465441499464132e-04
7.904399675979334461e-01
6.514600009628338739e+02
3.767022596794233360e-04
6.335605201471480541e+02
1.832000485915158805e+01
1.741557047694187177e-01
3.307893438941392787e+02
9.093069194626878016e+02
1.190298997968784533e+03
5.190415753015258815e+02
3.954515415491188151e+02
5.009520860003250391e+02
8.375756486595489605e+02
4.139108045109198386e+00
9.031872942216523370e-01
5.512950030300999060e+02
8.244602532169662936e+02
5.975875774340237285e+02
2.696015263742996583e-03
5.440176740194148763e+00
9.441902686876343154e+00
8.992519905414154380e+01
2.891492416770233831e+01
2.960414535504243077e+02
4.196354183201577185e-04
8.929975045248281162e+01
4.925512135423558391e+01
2.693733561297761980e-01
2.716401335845147855e+02
6.322684268801822327e+02
6.200143433603144683e-03
2.614696925571479937e+02
4.969214047654531896e+02
5.584763841659878381e+02
5.005267775595713147e+02
4.014145001194264069e+02
8.376034427819831762e+01
1.975842403095157636e+02
3.584444240113954265e+02
7.474176447896750233e+02
3.456849513728228658e+02
1.078295201070431403e+03
5.787033864689873326e+02
3.489772046843427233e+02
2.796700638324490108e-03
1.207492634905382722e-03
7.513952287961728871e+02
1.030847982440900068e+03
6.587065730185713619e+02
1.731573354387364532e+02
3.117277687488239621e+02
2.231622613901862884e-03
1.343788316043522410e-04
5.806139509179077118e-02
8.658012518630127943e+02
4.655567880705347079e+02
7.720346080702711333e+00
8.359532468923131319e+02
6.091427269219740204e-04
4.975586503809608985e+02
3.001019352013828438e+02
5.548844158227439038e+02
5.272220146696781740e+02
1.186364844488196251e-03
7.057334480312418918e+02
2.672512350991064489e-05
2.584208575914090034e+02
2.261080293647356812e-03
6.874128284595215632e-04
3.468747179271304049e+02
5.854680178206764367e+02
2.699384463755726514e-03
6.992484216738147351e-01
2.315784848706242940e+02
1.033870431729866646e-01
7.481236708554206416e+02
3.644887959417246748e+02
3.727584831103740726e+02
3.650483969890045728e+02
4.207422899249650072e+02
2.730134537796403720e+02
2.693289212998934090e+02
3.727298715559300604e+02
3.097703245461162282e+02
8.191569493719725870e+01
4.675196415757909563e+00
5.984130489596282132e+02
4.220566768201040571e-04
2.227645321094315136e+02
6.252566987386671826e+02
4.275156505900666843e+02
7.090145082605886273e+02
5.026814250835741404e+02
2.728945201110946073e+01
5.233253324020471497e-01
3.224661310623559984e+01
5.359908508903443725e-04
9.089365452484565733e-05
4.695127663776331450e-02
1.350715572074477961e+02
6.675688869217992760e+02
3.659421154829032048e+02
1.473181231682247585e+02
8.347875615982047748e+01
9.211542111166633049e+02
9.064136647539268665e+01
6.176632465412694728e+01
5.119830692547113316e+00
2.684445394570502117e+02
2.125612446561716595e+01
5.036964648286812007e+02
1.731670865421619112e+02
1.213098712602445339e-01
2.332068832904043632e+02
1.292081497334150564e+00
2.299499924170333998e-01
6.867196123494068161e+02
6.731911340939404909e+01
5.964244358592621609e+01
7.485668251276363208e+02
3.076584961185290013e+02
3.876312211359618232e+02
1.677538065418048916e+02
2.179446217029180843e+02
9.016286085010506213e+02
2.091422132642152487e+00
8.320582620777172700e-04
2.877162221903973638e+00
4.303414072846864258e+01
6.704800290506682359e+02
6.476025335708981174e+02
3.458340810873779674e+02
8.257373975167865865e+02
4.174879095291545354e+02
4.055324085202300921e+01
7.315690062372598277e+02
5.129710871355200652e+02
2.334356399802573367e+00
8.624462049840531108e+00
6.400328894393169321e+02
2.993050121302076150e+02
6.813254034714333329e-02
8.167423376744407904e+01
1.055966916646866061e+01
1.179431047943580495e+02
1.481953592929130252e+02
2.637479231463401574e-01
1.123755092262399558e+01
4.964316970232175663e+02
4.096376051362314001e+02
2.265379717930045445e+02
3.950871131499296780e+02
3.598671715953968260e+02
8.802634172577762997e-03
3.132872860009404707e-04
9.687684482898720260e-05
9.136659365832631215e-04
1.214479259222571272e+02
5.978856819812790491e+02
1.419735069189301591e+01
2.351637058145569767e+02
9.772115313104734469e-02
4.700827556625881698e+02
1.109058548479878539e+02
1.275720193748622604e-04
8.129561568071949296e+02
5.070729925122577697e+02
5.998002759766141168e-03
1.397992048517336343e+03
4.521132696827407926e+02
3.636808260656833909e+02
9.806107765791239217e+02
2.008690205715538752e+02
7.987523486713143939e+00
1.193547284910891051e+02
6.709324099074365222e+01
4.015902465675026178e+02
1.852694851026172955e+02
8.536168283026196946e+01
5.791586559440474957e+02
4.162345582371925730e+02
4.007151798643461689e+02
1.215604189749797115e+00
2.709595527790042285e-02
7.591345488675868864e+02
2.207888911458511655e-02
2.790374996876344147e-04
1.792986528784013434e+00
3.707657573948380332e+02
6.943715475048519465e+02
3.432073551919157515e-04
8.749766422261016032e+02
1.626998302155698752e+02
4.060128993580292445e+02
3.293424677249277011e+02
1.026004353599274054e+03
1.503752057719794166e+01
4.805812737450343430e-04
3.274353737348077806e-03
3.149561548067139825e+02
6.225558818659917506e+02
2.182381801809241608e+02
8.197962842791639559e+00
4.388525649446818306e+02
7.075705637342442119e-04
4.435761933331377804e+02
1.605973828958668435e+02
6.510566312499578316e+02
9.078615662983793300e+01
4.406627337128156796e+02
3.921781558254621158e-01
3.100362237062654458e+02
5.260886473388382001e+00
2.883162218793701159e-01
1.957952738634049865e+02
5.331256706987915095e+02
1.067684241098377021e-02
4.842294964677421376e+02
3.326537037437447708e+01
7.412308518236386590e+02
4.158039192792786025e+02
3.591693378655236302e+00
8.647945800403249450e+01
2.892907176914150558e+00
6.961199370562098920e+02
3.221293701899905648e-05
8.160731358003661118e-01
8.833798046933847344e-04
8.346172417514026165e+02
1.737744693586138851e+02
3.027563735631703139e+02
1.584880221090860914e+03
1.004849473645207603e+01
1.533812733323091932e-04
1.000913523279451454e+02
5.678582492502755485e+02
7.590711178465880948e+00
2.104782493501260774e+02
5.210965113083483623e-05
4.764968922456320115e+02
9.992983278207243814e+01
1.245779614395203100e-01
6.354716457745988520e-03
3.980222357940873934e+01
9.350812620497888474e+02
3.340316118353830988e-05
1.498038947422628908e+01
2.453790675990603631e+02
1.218801344965957440e-05
3.109548337219165433e+02
3.654407819603245657e-03
5.349736464144370984e+02
9.979753212828658206e+02
7.228467227396323551e+02
6.458243349989061244e+02
3.414558879936522544e+02
6.983250932738883421e+02
8.325896150950024222e+00
1.060141079427921369e+02
4.343799211674196386e+02
4.854377828763972502e+02
1.075320979004027322e+03
5.946072504411858972e+00
4.261723287156202105e+02
3.224595668682014775e+02
1.236178554093931552e+03
5.405918206954907212e-04
3.590909166472555967e+02
4.361849372457071468e+02
7.125351907961885445e+01
2.339699316922634011e+02
8.826324955787945292e-04
8.494864504784347901e+02
3.554151185002411921e+02
8.512693127151578665e+02
3.752313612181752092e+02
1.034490568356716267e+00
1.580249792141330829e+02
3.642860618033317275e-04
1.527333040565281408e+02
3.495679844886581122e+01
1.685147897626394098e+01
6.557499332693623728e+01
3.031745187181514325e+02
2.144541999266949119e+02
1.916828271991108750e+03
5.061999851641303394e+02
4.063118844373094021e+02
5.120365787843182659e+01
9.861522652576676026e-03
3.963312360647250330e+02
6.221429797486052848e+02
8.186916871491119991e+02
5.984342964608648597e-05
8.158817832576461342e+02
4.471310115426605307e+02
1.788139854963333830e+00
7.563075420039240271e+02
1.729744368779150693e-02
3.258641339038150022e+02
5.930791157938074321e+02
6.483209431041814241e+00
1.609693959795777785e+00
7.208634864058693665e+02
5.614098952501079793e+02
6.347500188849152458e+00
3.568812817626167089e+02
8.213213343755342066e+02
3.394088075912015529e-02
3.396294566307915943e+02
2.007126988894015369e+02
2.904041010951913790e+02
8.651378183072667980e+02
1.217681434731096986e-04
3.956114439330349342e+00
2.979382598937263538e+01
5.677429942050366662e+02
6.876909245909246238e+00
5.092427711891888168e-04
9.741103193550769035e+00
5.267668277388060094e-04
4.022681697442466731e-01
2.993971051677362993e+02
4.189145090822422617e+02
5.020361844093712307e+02
5.590327054465888068e+02
3.989286965472275028e+02
7.112494476852587013e+02
7.703903203970519087e-03
9.475147733448846532e-05
1.143610164406893698e-01
7.187932667016865480e+02
1.386097948125097332e+02
1.393694335190230049e+03
4.238527753977903956e+01
4.369080892291094642e+02
4.744726344488299219e+01
3.881480062239007545e+00
1.785061888898780751e+02
6.973966195786488242e+02
1.237976894477469898e+02
5.244719696683830534e-01
1.159621310980583253e+01
1.844057102368122951e-03
1.414068619848273499e-03
1.111722598166886566e-04
6.166944712967961095e+02
3.833871167935321012e-02
3.846255853008188410e+02
5.241908692194556352e+02
3.815343056709253666e+00
6.578064599118080196e+02
1.011999815847957734e+03
1.311808304430451471e+03
5.140524579030171708e+02
1.526247024776238526e+00
1.074115359288044544e+02
7.337603693653363734e+02
1.136901889642467268e+03
5.162587958118821234e+02
3.202267455963011571e+02
1.907064068022365228e-04
1.606437766385470766e-03
3.906213989015668631e+02
3.747140687308274209e+02
1.347022174042649851e+02
3.000824369032707370e-02
1.090712647943803626e+00
2.268423250343402842e+01
2.594143221507692942e+02
7.596713942703559042e-03
8.678069976929691620e+02
2.465406026331037879e+02
1.416681216696815682e+01
2.208662950808503354e+02
2.336801914821990067e+02
1.490103412477309597e+01
1.077751517001890079e+03
3.721463894246213044e-03
1.868599823550902784e+03
1.841300613605878489e-03
1.235615446335031642e+01
1.025359200404636510e+02
2.352035491716379454e+02
1.305316810097428970e+03
3.792498369024543763e+02
2.689858794502341787e-03
1.578570252593636383e+02
5.515067996639118064e+02
4.366722744351136498e+02
4.768481370439985767e+02
1.845077194953773585e+02
7.150618014347855933e+02
8.563034003469514346e+02
1.218626200800644483e+03
3.365649083272728603e+02
1.196434519425832306e-04
1.028492425001914790e-01
6.940851652194396593e+02
3.928916126686090138e+02
5.405609921079303604e+02
7.730244855192722753e+01
2.077287701762543861e+02
5.925545166115625761e+02
7.646679928075172938e+02
2.349756986704670000e-04
2.374262991344267437e+00
4.752479708615281879e+02
6.269680185326362842e-01
1.023279361174901325e+01
1.544641725980908973e+02
7.601685343921417370e+02
2.454203800933420134e-03
7.791138426512134174e+00
1.559642289791774534e-03
6.116067056296744795e+02
3.112471967056080757e+01
9.607682864061648331e+01
1.723652782615658241e+00
4.084240828604379203e+02
5.366702957462621271e+01
2.449287557774368054e+02
5.914756727128404918e+02
4.284900008642580360e+02
9.187057383736826068e+02
2.666574322192084151e-02
3.742820860294160070e+02
7.375669551998726092e+02
3.968506127684179319e-01
7.306917575642728480e+01
1.703163611393997980e-04
1.187783152983845625e-02
1.794034367938459012e-04
8.078494353219866753e+02
2.228940100010844833e-02
7.657538580169784836e+01
2.309343412762244441e+01
2.352522645342105534e+02
2.694076500411027837e+02
8.306079901420162059e+02
3.953812558674663080e-02
1.821258574225793438e+02
3.760481593599252506e+02
7.792129535038840231e+02
3.931145564936741152e+02
3.451546115233214778e+02
7.419718869248756619e+02
9.529009012694585579e+01
2.495200763416505083e+02
1.573982936639595653e+00
9.488478123588720337e+02
5.730827182313078083e+02
1.992500728130835341e+02
1.016162724597961301e+03
8.169113546493460944e+02
8.024790819748887998e+02
4.506774646979464478e+02
3.185560884512597113e+01
4.501146848445713999e-03
3.456928991065069567e+02
9.102342487531137749e+02
9.331964983084620258e+01
3.347983710682455438e+01
1.404889264472876675e+03
7.588394128892105073e+02
2.518368285207542954e+02
1.165999623491120957e-03
5.148006664182958048e+00
5.528225367932463996e+02
6.911434253197513726e+02
1.224094575718482929e+02
8.397317793924230500e+00
1.695994484308016581e-01
9.926065798543279470e+02
4.776569845838821493e+02
1.577395986414558493e+01
1.072169485692029589e+01
3.025565589409779932e+01
3.655762859765673056e+02
9.976397941245525658e+01
8.425745464460390939e-05
7.730357443466381873e-05
5.587289427819541743e+00
3.850452262129691690e+02
3.381148096115794033e+02
4.418210076233663131e+02
9.987811457584032269e+02
4.930785450269468129e+02
5.445276354323140140e+02
3.685742494235454956e+02
1.948580662065602792e-02
7.424012703359039733e+00
7.833351455352385528e+02
4.080085563560714377e+02
1.668308820626407112e+02
1.115942681220985406e+02
5.341044566172059831e+02
2.874010502095189850e+02
3.086133068994967061e+02
1.733125267701688472e+03
9.734082253882659188e+02
2.772146644178973940e+00
8.228006086073368054e-05
7.751014365654784743e-05
1.833012604774921783e+01
6.783095789053559255e-01
1.123983759904149053e+02
5.339044768952589948e+02
1.037932559549516753e+02
1.421869696782706704e-03
1.107454101535041389e+02
3.172112202679271604e+02
2.734404895832995521e+02
1.175361365880235780e+03
8.309920500515488584e-02
3.793410192920418922e+02
2.274673539850482484e+02
1.527476973133161380e+02
3.814346741983172251e+01
1.686743130138029518e-04
3.428209937141218688e+02
3.965748674013280795e-04
3.015274030772161495e+01
2.133545476328890800e+00
3.358059571241027470e+02
5.376415967839420773e+00
3.875871790734207956e+00
1.059952016008536901e+02
1.404053760044916999e+02
1.935834849737147465e+02
4.039345583951217122e+02
1.382882681133923825e+03
2.923075905165717359e-01
4.192103592380589134e+02
4.400929821676982101e+02
7.644191435581890346e+02
3.906525617043370175e+02
1.052134279110759735e+03
5.935293728258626833e-02
2.197639736743440722e+02
2.945597077385654627e-05
1.826077486504800333e+02
9.577984834919334389e+02
9.186414451949528939e+02
6.102703914420999354e+01
7.397522664628921802e+02
4.015839164887439097e+02
6.143259524122868243e-01
5.644951331880292855e+02
2.582445798125262826e+01
5.545184006772176100e-02
9.432452882436334676e+02
1.144428511036675445e+03
7.895952148275682703e+02
6.214153476641512270e+02
2.551030086641503214e+00
6.982254393487892230e+01
1.063341904537651317e+00
5.855098757174347668e+01
3.597520743001949768e+02
2.361250097480255272e-04
7.303291955452095863e+00
4.439235574805933311e+02
9.393700241602687129e-01
2.677326670942647535e+00
1.251993300767934869e+02
2.488584900001145506e-03
1.802199738194757970e+02
4.887410026836732868e+02
5.838643682305701077e+02
4.055397008742147591e+02
2.649189781430324047e+02
1.122352936436072923e+03
5.583158706060423193e-05
8.112032821035178786e-04
2.155393194087082520e+02
6.775984711484852596e+01
1.505721051555611822e+01
3.665282543886861504e+02
4.559943550103139585e-03
4.075943227297786464e+00
9.873019179249243393e+01
1.863330487591155986e+02
5.188130677413055336e-05
9.506510300867375918e+02
2.852943730376865616e+01
5.734254172799410298e+02
1.723499248022619668e-01
4.094848446611648995e+01
5.380635738307319116e+02
8.554512710201576595e-03
3.521915305083211045e+00
2.906195288480377030e+02
8.748519635726210563e-04
1.579095323591899955e+02
1.617040603545320323e+02
6.077091295737773180e+02
1.868176683456112430e+00
7.925074426083257295e-01
5.292757466268085409e+02
4.316100617643314763e+00
1.416977453340223008e+02
3.552103197499434373e-01
4.123512223487557637e-04
1.968391990743841120e+02
1.453314235041032703e+02
6.526386404031654820e+02
1.966548522018456069e+01
3.683118480119445621e+02
1.822262000699993507e+02
6.727128967314031959e-05
7.507302578946107587e+02
2.365924602591995551e-02
1.830183606585933723e-02
5.807383565688724048e+01
5.276952683919144960e-03
2.958622461584069566e-02
1.996842690343327433e+02
3.059107554707896082e-04
2.357884133341592737e-03
6.029846450328477658e+02
3.256863094575237483e+02
2.396254343648252316e+01
4.604762688664779375e+02
6.156924143797368743e+02
3.748259066951504082e+01
6.842140112595984647e-01
1.536166281136684120e+03
9.419501805168689543e+02
6.543223839893472586e+02
4.936744908767831674e-03
6.323747848233324476e+02
1.692336833017180595e+02
3.051833564488333650e+02
8.381047767019479124e+02
1.094743622472742800e+03
4.074416902025405989e+02
3.465514770766731090e-01
4.115716693493594676e+02
7.408532227146444796e-06
4.881458490803197492e+02
6.993551034975097309e+02
2.100419199181487784e+02
1.604646840562828219e-02
1.326163510475454075e+02
8.337235304279602133e+01
7.339587712507975592e-01
5.779063931273412891e+02
2.914163931214715717e+02
4.768798491037159692e+02
1.260004196132650122e+03
2.153767225017872988e+01
5.282790933802682630e-03
7.517312851341557689e+02
9.815472218946290628e-01
3.188004659385180713e-04
6.123708879579581321e-03
8.057040979183511809e+02
2.205377486955149933e-03
6.413589219097048044e+02
1.568824362089799820e+02
9.204022138219445424e+02
3.319935877340185471e+00
2.590544335466801584e+01
4.423388963341494673e+01
8.388316835059583809e-02
4.625132408008880702e-01
1.170395779050886404e+03
4.305316706799203530e+02
7.452288037018693287e-03
9.540171333610486215e+01
2.979312669062892382e+01
1.223890455797516513e-01
1.078492205770089107e+01
4.617097809401457198e+02
5.570299396582413465e+02
9.546607320007751696e+01
1.636277545642315800e+01
1.014087383036893897e+02
4.299084214700598094e-01
9.241964375714675772e-02
9.645578330855641980e+00
7.257590212390141460e-01
3.415309196476300713e+02
7.029327365302151520e-01
5.892343372412142344e+02
3.633510877208006055e-04
3.365220777581271250e+02
1.609418285242282536e+03
6.524036817616433837e+02
8.294348805575278902e+02
5.116127062274243542e+01
1.583880376976594562e+02
5.974166308893471751e+02
4.413593703350215947e+00
1.680760396742698504e+02
5.224421446162544336e-05
6.260243391006952152e+02
1.723087713154382527e+03
2.955078095546923578e+02
3.925787322422991110e-02
5.923858976868492943e-05
5.184464863588686412e-05
5.422559560240188148e+02
1.456602934443718350e-03
1.006504000619633547e-03
3.391999778526951559e+02
3.487548058139508385e+02
6.784099073126983015e+00
4.801457595931424294e+02
2.027744323586374833e+02
8.446161991669214331e+01
2.030522489963005217e+00
7.591017856189864688e+02
8.182419635289761572e-02
4.871520894566855731e+01
1.149751364413533565e+02
2.031548616309009674e+02
5.957704891756293364e+02
3.392138971423265730e+02
5.818020962600712664e+02
5.477303914114600047e+02
4.174993449727480765e+02
4.185313069945549387e+02
1.745198994117344569e+02
9.645827877073312493e+02
6.172083043975364092e+01
3.640410683525261106e+02
6.994966913262032904e+02
1.164213411690434896e+03
2.792608621974068228e+02
8.868986582744040059e-02
5.836527259856438832e+00
1.151701463200879516e+02
5.343877885905385483e+02
3.134487750448898424e+01
1.340139658095873109e-03
3.107757142912304289e+02
3.560316192688331682e+01
1.012557871645114460e-01
4.347800656090839766e+02
5.255068716556706931e+02
8.170759997970889117e+02
2.708408396019876108e+01
5.466639233411840770e-04
5.378236374584957957e+02
4.362949349124392029e+02
5.268010457890338785e+02
7.693794749584981219e-01
5.897356381770805456e+02
8.677780376543523744e+02
8.580680209430281593e+02
3.227734837055322714e+01
1.488330003590818080e+02
1.735263148228582408e-01
4.789881297688225459e+00
2.867743973297365301e+01
9.104147147954793127e+02
8.970504973513018854e+01
4.481713472232512459e+02
1.611392157645219481e-04
5.140190349724435919e+02
5.407959523235916777e-02
1.973934981875505123e-06
8.132248481429999174e+02
8.024973817466474202e-02
4.029600890913571902e+02
1.033668722325818862e+03
1.456600275869278605e+01
2.844061894189508166e+02
4.489520076996996067e+02
4.457837803354778998e+02
1.891593957920045159e-03
4.831299586323439144e+02
3.150501164651359431e+02
6.414116907311836258e+02
6.174443611944298027e+01
2.203488584673323558e+01
1.372989686390156372e+01
7.932058865888393484e+02
5.165849755634553730e+02
7.188967306487029418e+02
6.167176777613349259e+02
8.107712442215415649e+02
1.931776012988849516e+02
4.124130621559743304e+02
1.321725194540340453e+03
2.762078337696039831e+00
2.091593056992025468e-01
7.099237307149451226e+02
4.180418215364624075e+02
9.076044053712985574e-03
2.056027313385130526e+02
4.695911635244556237e+02
1.067775201018957659e+03
6.422491569959672688e+02
1.817776879880739216e+00
5.208866441142165513e+02
1.057693644967003621e+02
4.136775276550906710e+02
1.018601431179558290e+03
8.301790850004181266e+02
1.331862343856482312e+03
4.857533417482045479e+02
5.323579801435699892e+02
7.540639263272169046e+02
2.773715430652374607e+02
5.951797038142103702e+00
2.263431357887522155e-05
2.083443230105331168e+02
1.874142494075385912e+01
4.289175431262036930e+00
2.517157245343697127e+02
4.142444296609027106e+02
7.429793104851700747e-03
3.856697457027622704e+02
3.962693534589334377e-02
4.031728031850435379e+00
2.754359458085673396e+02
6.352397644064923243e-01
6.497458919286145829e+02
1.400959704596969857e+01
7.325164931142353453e+02
1.054744944705453236e+03
4.684627832459226511e+02
4.281405083741417900e-02
4.275553648789353929e+02
8.565250133353404181e+02
1.599746925894579022e+02
8.669451547451901661e+02
1.725859888256308761e+00
4.075342736992751043e+02
9.812519232155210002e-04
4.498391695284226444e+02
2.610205803528515389e+02
5.017132112858236042e+02
1.207558338455782865e+00
8.176916523007091655e+02
1.304901413736843629e+01
6.829976378983701579e+02
2.747697308496556134e-01
1.717397577536757467e+02
5.045540385573489583e-05
7.232907632802380249e+02
8.929921669245664047e-04
1.322137836228322620e-04
2.021938351723374418e-03
8.396862495050297639e+02
7.767202849368914030e+02
1.904061840883597965e-04
7.860889764589956030e+02
1.651269840269834077e+01
2.149874924356254269e-01
2.039543689345010193e+02
4.141282682699966244e+02
4.910230849898653105e+02
4.367830063565634191e+02
9.081296739590472953e+02
8.133956885649240576e+01
6.916436793690081686e+02
1.885547988465987146e+02
9.692868305288818848e-03
4.633810235529381316e+02
9.056215774384329507e+02
7.965169049843096900e+02
6.635722151608206332e+02
3.858598768030788051e+02
3.096002743084682152e+02
2.215113698306959577e+03
7.815556826997749340e-01
4.391174674114154186e+02
3.221475441068833767e+00
6.856540280583431013e+02
1.234974090255491603e+02
4.959984695306046660e+02
8.861173341778337544e+02
6.867065925935094128e+01
5.276774203834065702e+02
6.398006157751296996e+01
4.375612733347225003e+01
5.825529606227063084e+01
6.311638209663215093e+01
4.062033136017363155e+00
1.639478628888467460e-01
4.816593984462089111e+02
2.155168062012436381e-01
7.567268693878759223e+00
1.939757344741790845e+01
3.120137444693682482e+01
7.645533601802867452e-01
1.042476308438926480e+03
5.167057938967900554e+00
2.753259596145653063e+02
2.333304101739485645e+02
2.347418391927930372e+02
6.810526344372192398e+02
6.889078670847084140e+01
2.036596171955951649e-04
2.195225931722234236e+02
5.394849920121487230e+02
1.031276683941541705e+02
2.213994447275435384e-03
5.404089698313327972e+01
3.285274994836072437e+02
1.670032223850537526e-02
4.999829013228010126e+02
5.652191771761863492e+02
5.367794010497163981e+02
1.135514939844142418e+03
1.214336316177652435e+02
1.139546691090345654e+01
5.111322781311173458e+02
1.129533327720588570e-03
7.383027042407775298e+02
1.685789892240663335e-02
6.035119058884446304e+02
1.265068642042024578e+02
1.079393630711820684e+01
7.442092384910209830e+02
4.657409343501727221e-04
3.996512763282225364e+02
6.726725884902834407e-05
4.973329645734339692e+02
3.435625307472945451e+02
2.712480963808910905e-04
5.060755476326448843e+02
2.088590914237631671e-02
3.465494561844196797e-01
3.276763821042551399e+02
1.701417963072343298e+01
4.408137713211510156e-05
5.565747464034155297e-04
3.754557176231173798e+02
3.079596234164227120e+00
5.486687990567588713e+02
6.204977995930674695e+01
2.985305942529521417e+02
1.258251407596638893e-04
6.628664328905870207e+02
7.784673117430425293e+01
4.727560953469948402e+01
8.803876907804804830e+01
1.585104421179857809e+03
1.749364883256277203e-01
8.311559535388366839e+02
3.821527183072250011e+01
1.137916182226037165e+02
1.161988337821994871e-01
2.127087445260258391e+02
4.268691952405787333e+02
5.616110753064276651e+02
2.255973212289974583e+02
4.870181872815009001e+02
1.991855608682158163e+00
2.247023470691722133e-02
5.964207204873672481e+02
4.598065755024435930e+02
7.129354424417755354e-02
2.658295529454334201e+02
5.298030791869679206e+02
8.237631959578720853e+02
2.017280921380005623e+02
4.949890140471778999e+00
2.843184316392580513e+02
3.646991211979183163e+02
3.135307004203014447e+00
4.745432513425384968e+00
9.922016313862517478e+00
4.222642077867930084e+02
4.057209943872294389e+02
3.046669236991873930e+01
4.352482347086406023e-03
2.577206862031744095e+02
3.399017845534535454e-03
7.919192715504323132e+02
4.408557096468258552e-01
6.235832967513842140e-02
7.365908409934489782e+02
1.276273179018971007e+02
8.405735905951589757e+02
7.995494909791887039e+01
3.339618878730105962e+02
3.461161152081332375e+02
3.683215625460433102e+02
4.629737043527711648e+02
2.514322887798431925e-04
4.345928572413448876e-03
4.712096244089480024e+02
3.474670549752772786e+02
2.736099067536911233e-01
8.233334389660743682e+02
5.087508550766574863e-06
2.959635795275970622e+02
4.140041448044941603e+02
6.504429534899825285e+02
7.908101604389230488e+01
6.999213056667940691e+02
4.169986678665736690e+02
3.935227135616513383e+00
1.547145418048785004e+01
2.494454605741339606e+02
7.553450235286972595e-04
4.292039165829919511e+00
8.545473362786990545e-01
2.504222882409522413e+02
1.254174632427748577e+02
2.789518040612165350e+02
2.207612055914070481e+02
6.263050660472801212e+01
1.005111961640068898e+02
4.029316481937713093e+02
1.648414956285704989e+02
6.965523345739410566e-04
4.415508327201678185e+00
5.168261983155389316e+02
1.286298976063606631e-05
9.553809440971242566e+02
1.407129378098761890e+03
7.530271425321188872e+00
2.327288010536677554e+00
1.090703319919702835e+03
9.079569003821231945e+02
7.935992832166505195e-02
1.227977812296011280e+03
3.720839941452140920e+02
5.360377321025567854e-01
1.116604370204731367e+03
1.415364982654865571e+02
2.163571717234134915e-03
1.040369330107933820e+03
4.653034072493734442e-03
2.342266078530883888e+01
4.145584741323544904e+02
3.388567318775130843e+01
6.800876769901265106e-01
1.852141006779675081e+01
3.927284417666668332e+02
9.534006715369965912e-01
4.375538994167981199e-01
3.521966922060527736e+02
7.832667562333881506e+01
1.924447627461632138e+01
6.246579656435642391e+02
2.710748270052135922e+02
7.195883957247133367e+02
1.887230794156494369e+02
1.661411654012567185e+00
8.434593285146547714e+01
1.194985912187258464e+03
4.564057786927151028e+02
1.863030239077488091e+02
1.336615916731176135e-01
1.440745608397263879e+02
1.356436438116360819e+02
1.130232866285950877e+03
1.025981148748086547e+01
2.688678810416604392e+02
7.935385935915750810e-04
2.163880203443113004e+01
7.067434949876769679e+01
