4.067924842660431750e+02
3.310306397848762572e+02
2.385086232588944881e+02
1.520176193862425293e+02
2.431681551183828560e+00
3.922181203968647196e+02
2.413132790934469085e+02
3.547063816267125025e-02
2.043758865343079734e+01
1.929462006377434307e+02
1.689948777104291366e+02
5.633717880985234091e-04
9.309395434320318827e+02
1.051814544882290363e+02
3.886931222325529234e-02
3.115020607128826668e+01
1.281871835390120395e+02
7.763509576820069924e+02
8.520976201562007191e+01
1.134035638871864222e+02
5.953047207185589718e-02
3.066734446554619922e+02
1.833656637227249178e+02
6.938648431372486103e-01
5.851754037365709538e-01
1.127258226513161432e-04
1.540219053113105474e+02
3.342564507530232376e-03
2.003437241352656051e-01
2.080535086101066022e-01
4.184783933298602960e+02
1.552004482373012706e+03
1.589909452889695785e+03
1.252317545213372796e+02
2.351832123236818006e+02
6.406913663443702944e-02
3.715820120160061037e+02
2.017395741895598746e+02
2.370544125252393441e-01
1.814100462329548344e-02
5.091148215120483655e+02
4.960171467764668307e+01
2.662837637026314042e+01
2.110998425767319873e+02
5.215021446041646414e+02
3.877479145747202551e+02
1.340781614844671665e+01
4.287298053000994287e+02
5.968234792773728259e+02
2.290651144190579934e-03
1.639259445295464559e+02
2.423758531765684565e-01
5.189442723141370062e-02
1.163556838827207230e+03
5.553005145295173861e+02
6.891696126651304351e-04
4.202269961126604836e-02
1.332815882160165791e-02
5.289911842031870037e+02
5.597741801864231093e+00
6.316422796968254261e+02
1.218307637507677100e+03
5.236123101133216551e+00
8.044779366827015110e-01
6.096983453732218727e-04
1.158113940540351905e+03
2.071042627473928741e-02
5.581190466309635667e+01
3.519689513457707335e+02
5.584159286154317670e+02
4.447928630806928396e+01
3.425889322954390082e+02
2.010601003232294488e+02
1.316400815454255024e-02
2.045402437747533518e-03
2.099604619220371760e+01
2.370179251265369658e-01
1.252021731122709425e-01
4.469739079222561884e+01
2.097447349370897274e-01
6.651028204505138319e-02
1.536797230733099617e+01
2.530686393140513246e+00
7.286077082011618131e+02
1.129141205020654082e-04
9.586374899707150234e+02
1.990492993216320485e+02
2.085570194469710259e+00
1.044930042862688850e+02
2.037713345579561519e-02
1.844256557749758372e+02
5.621310598174708573e-05
1.876135928733367944e-02
6.098791935786723570e+02
7.319771600785313694e+02
8.985630764109373558e+01
5.709566664867453483e+02
2.989596899830360144e-01
1.770413491424703833e-01
2.100375696023547789e+02
1.027304331522315844e-01
4.953982249033289236e+02
3.159445032455550972e+02
1.942283299913861658e-02
1.658605578420678864e-02
2.902811828937499783e+00
7.098787002498283982e+02
8.397381377944836913e+02
3.217641172253933632e+02
6.378707532476823872e-01
2.739901747859222070e+01
8.091394168895928374e+01
7.706531209943932481e+02
1.236976339770991729e+02
3.863581284152539652e-03
1.258987593018011907e-02
6.342906592919915987e+00
4.140804138103248988e-01
1.351225621683988265e+03
8.504522478324361145e+02
1.438616708906011432e+01
4.579692661093304196e+00
5.330303447266260264e-02
9.017724354839625533e+00
2.470087194145890805e+02
2.351064174545172136e+01
4.221112705599808805e+02
1.067214176098331535e+01
2.598379717064743843e+01
1.627513714549422730e+02
7.493852294515818357e+02
3.788186228739503747e+01
8.445760560847702436e+02
1.644469369723084071e+02
9.477349639075425321e-04
2.780869134454633684e+00
2.600505086898921263e+02
3.010057410931038930e+02
2.393075581808261987e+01
5.370856885216198862e+02
1.103581221247441817e+03
3.246647861858945703e+02
2.363288457954694977e+01
1.892582636477868618e+00
8.465970269444368057e+01
2.659981069308425816e-03
1.380171365279238671e+02
4.645969375680182312e-01
8.311973672258318402e+02
1.635205498798313215e+02
4.050447916830306667e+02
8.245094798330683261e+02
1.901426827545947162e+02
1.473282442671917067e+02
7.001720966756693088e+02
5.071814671740867198e+02
7.634035947106895037e+02
5.610547300047981878e+01
5.896548672899371013e+01
1.087027099308525337e-03
1.346947909627487263e+02
2.652183798258193974e+02
7.605808270207489841e+02
6.251397744112182409e+02
5.456746786157965801e+01
3.362277387759605496e+00
5.984516288823215291e+02
7.118174867377646819e-02
4.590936608690297405e+00
7.247052117782004643e+01
6.442694029953344170e-02
1.007274313270301036e-01
6.388508512027328834e+02
3.996146275336842635e-03
1.997528286345186075e+02
4.659143830249377061e+02
6.413489635800942779e+02
1.975741607991948854e+02
1.575945076863718555e+02
1.603439495738712139e+02
3.439188909491350046e+02
5.728637783890007995e+02
8.545695811626501381e+01
7.687993515501148067e+02
1.468246404552785989e-01
3.864978645608062493e+02
2.682086621456391207e+00
1.160431858652444664e-01
6.224147400396759622e+02
3.848180037766723238e+00
1.865532936244564066e+00
2.244156529879546724e+02
5.647888275461809826e+01
5.283786869099416084e-04
6.686685194072197191e+01
3.536382303291247808e+01
9.640831531854928471e+02
1.099415484469500825e+03
2.300695634607109810e+02
2.731570278247089689e+01
1.622782110641766806e+01
6.858837146639372093e-03
1.902034394643124244e+02
4.566251247357656223e-02
6.120802576169809583e+01
6.773959857106092386e+02
5.189333774193073623e+02
1.301712698407300195e+01
3.110773811211400925e+02
9.816987083140706716e+01
1.536605157738790250e+00
2.615151417769085356e+02
1.698696452262992596e+00
3.253292870640505896e+01
1.167102612223244023e+03
3.197654636488777236e+00
3.242404703155444601e+00
1.993294906351366365e+02
4.499583984405036290e+02
3.555958570199436508e+02
4.959555235535263035e-02
9.428517519207701980e-02
1.867847144579326546e-03
9.302198028660052520e-02
6.069038496943902317e+01
5.440543202850367521e-03
5.181310829593711276e+01
1.602601972110279291e+02
1.465817601570053030e-01
4.996906148837296087e+02
1.263697961297438055e-01
7.225339410177333832e-03
2.076637719063968157e-01
8.603680028591043083e+00
2.698676348081790977e+01
4.784882441017543897e+02
4.065988460955851451e+02
2.808969652724044153e+01
9.031769624009027666e+02
2.771782508244768906e+00
5.011940329684875906e+02
1.646945638381112076e+01
7.805297635127319111e+00
3.872804395490675233e+02
6.774979646561403968e+01
1.520569228030677414e-02
2.498245511166176380e-01
8.128193928357063669e-01
1.829997867961452931e-02
9.125428685592847700e+00
5.528693455315076335e+02
7.122357417883904418e+01
9.212667109981254043e-02
2.226760608693440133e+02
1.402338149517162833e+02
7.936726087165880017e+02
1.655400377098887432e+01
3.913283891892049143e-02
1.818320462083988120e+00
3.839280734347995576e+02
2.740365205395889348e-02
5.414722096745093749e-01
1.174197082908890188e-01
5.930750142928446849e+02
4.375753421619777983e-01
4.598807009283945035e-02
3.131133126447593451e+00
5.436840075944928685e+01
1.636081689111961524e+01
4.747128841700032353e+00
7.552198770099494141e+01
1.092037463257255758e-01
4.011096825462344917e+00
4.021175845055041265e+01
6.803131022636077887e+02
6.281972053198842332e+02
1.358029271311677515e-03
3.479449916965676266e+02
8.375668647442324755e-02
4.922227768896847238e+02
6.603579520335188136e+02
8.756067331603846924e+02
7.665253847662825137e+01
7.353805278553414837e+01
6.357774961448740214e+02
6.947185412702339136e-02
9.494836683399628328e+02
3.906300876570866443e+00
8.841909350479681962e-01
1.234294564044830906e+02
3.767212888065841980e+02
7.007936777124996297e+02
4.576526765740710800e+01
1.862166077204165049e+02
2.746901638653071132e+02
8.697150421130572795e+00
4.733846016104507726e+02
4.889907396354830098e+02
9.526113583589795875e-01
1.130740322162181499e+01
4.548711676892708056e+02
1.256815497115894402e+02
4.003667186370876152e+02
5.139353098573337775e+02
9.039753554156047812e+02
4.658993378532372970e-02
1.480319711870680711e-02
1.194489767436834438e+00
1.115512098909676695e+02
8.980685974471271038e+02
3.443716980895259212e+02
4.211012443978688680e+02
1.074726041948451893e+02
3.262873862747150966e-03
6.634852633404080962e+02
5.294864587739314121e-01
6.636169502031406182e+02
2.684803619359853677e+00
8.610861397357894020e-01
8.089601554838736774e+01
3.283541041945170491e-02
1.575128692636554284e+01
1.643141912740731236e-01
2.916219887447369956e+02
1.372414732858306252e+03
6.895089384655880167e+02
7.938219004834536463e+02
8.307568868167436449e+01
2.236690658024598974e+02
3.522354815060678561e+02
5.185398724615878052e+01
5.698875113084795885e+01
1.158079408340199450e+02
6.252110785035256413e+01
1.669892931261073854e-01
4.017694319663860369e+02
1.897221799536055897e+01
1.656408417761666696e+00
4.722887535377751078e-02
4.296475429065083063e-01
1.179814605282558659e+00
1.913184113164906330e-05
9.353245929160038941e+01
1.687798084803943510e+01
1.386649273580786434e-01
3.383061392088393404e+00
1.087243066403971170e+01
2.240938837840075593e+01
1.499894199896515374e+02
4.677977191284297760e+02
4.709978343854004379e-01
2.415468280232745713e+01
6.169750876194868283e-02
2.704808764251538378e+01
4.447788308563757482e+02
5.848207650024916937e-04
1.765396503975352971e+02
4.864335846459653112e+01
3.236984376030704880e-01
4.738765054197457277e-02
3.921094277531666421e+02
3.038841476734611274e-02
4.028349032779489081e-01
1.811412107317665487e+01
4.953675827653116315e+00
2.433735870759847444e+02
3.421178912086375590e-02
5.349891553942141442e+00
1.070241548275225568e+03
1.277575373307628013e+02
5.114068850933108479e+02
5.549270284100202844e+01
1.466602277672147004e-03
7.510128947146197387e-01
1.277100986483148404e-02
4.175392299184751437e+02
5.217434447971754707e+02
1.151785493777425415e+02
1.528141559698269702e+03
1.632009109403531610e-03
9.109118272886007617e+00
5.501034015560435364e+01
1.836619397406202489e-02
9.290466003512848658e+01
1.956331447335201701e-01
2.474952493898854655e+01
4.864362416585207711e+02
1.794030303264859249e-03
3.849991599754503824e+01
9.451588295816829716e-03
3.716837536194360609e+02
3.941802741552237990e+02
1.518952301179865572e+00
3.431981941299453638e+02
8.646182269716518931e+02
4.017871089336041024e+01
4.224059005730396166e+00
5.739323983823396702e+00
7.646777410427603172e+01
5.414456098587835697e+01
7.603324768351740204e+01
1.168747629609424393e+03
6.207595233965549824e+02
1.391471317724607992e+01
1.757519578546634875e+02
7.538612691569142044e+02
6.344628417544300873e+02
6.786025304154463811e+00
3.752765275186220606e+00
3.814465821749762426e+02
1.093155190024845353e+02
1.954204327293495691e+00
1.012198486244596779e+03
1.078937589695669708e+01
3.379523821949169393e-02
4.803717098420533238e-02
7.224141319835325703e+02
4.439916610397631302e+02
1.660597461032011779e+01
2.196015735964465989e+02
3.270423474190466777e+02
4.444477092263696250e+02
1.577658493231866146e+02
9.895918379655206376e-01
5.957844063141237712e+00
6.538243144195803325e+01
5.237121304826361268e+01
1.269241130521550431e+01
3.270367359320403011e-02
1.038549783458620652e+02
8.598837841011120418e+02
3.337605469631909072e-01
1.145254450434549121e+01
1.747404086876485394e+02
1.638954751435050816e-01
7.322499980891734594e+01
1.905716513547304558e+01
3.248479707989026383e-02
2.559255440223751954e+00
4.741607246221974492e+02
4.235616387413756456e+02
1.183611546719020602e+01
2.857207692366499714e+02
5.182442306075246279e+02
3.296418100721892586e+01
2.463878145517810481e+02
9.808249048660403702e+00
9.030574359148886288e+01
2.992374766504327610e+01
5.084424357761463398e-01
8.386471356701806599e+02
4.207847325724287657e+01
1.017159565008113873e+02
7.699340922417975686e-02
3.325661370567103745e+02
8.113672741771882357e-03
4.926995763766171876e+02
2.080704614172645961e-01
2.339816503688781779e+02
4.033940462115026548e-01
2.660412129092292743e-01
1.947152093961790065e-01
6.758964696985001908e+00
3.260937531547371204e+00
5.759122749092057347e+02
7.607105776810385578e+00
1.025653862656738663e-01
2.055187560094928062e-02
5.519167590260622092e+02
1.049804305853996311e-01
5.587417726993226808e-03
3.666118934583209921e+02
5.575197797325071036e-03
5.400010483128426131e+02
6.591609849070664495e+02
2.594267650434629786e+02
1.215283257382908033e+02
2.422439060766919283e+02
6.802968071273340911e-03
4.536209283753123600e+02
1.982806321502720550e+02
1.437256324479661927e-03
3.139237367438910269e+02
8.176592791249277070e+02
7.236338756111404535e-03
3.790117404692865648e+02
6.114409074725698474e+02
2.614152553945812696e-01
3.265976211139332896e+00
2.904110745431352143e+02
3.722507045075929000e-01
5.855854132597039215e-04
7.130973510283133976e-03
1.940853394688021183e+02
5.725234731971796975e+01
4.825490484232433346e+02
4.024236769409979786e+01
3.137042720241880716e+02
1.813154844409581301e-01
4.677734370954567567e+02
1.364238194700106988e-01
3.138540771957195261e+02
1.856380945444159047e-01
1.108427960632980387e+02
3.435810546630335693e-02
2.547802893299377160e+02
7.093515440828923602e+01
1.173838400414751959e+02
1.431008444338659160e+02
1.697092107497156519e+02
1.943826452272332688e+02
2.681562786017366307e+00
5.561937583392135593e+02
5.695332978353231327e-04
6.408892684994498268e+02
6.996713234853816630e+02
2.704151766788066152e-02
1.736869673760188526e-03
3.637351609148025773e+02
3.309958860176266171e+02
1.922229554384104588e+01
1.110299166475670063e+02
2.897447507557443913e+01
1.604890525786827893e-01
5.313344590035740111e+00
7.348164657087181695e+02
9.091098886973014714e-02
3.975713636013096561e+02
4.543962941868813914e+02
1.703246160160051204e+03
1.009272040748782651e+01
1.085928822314175413e-03
3.462044553986798334e-03
2.616423616694873555e+00
3.719352933639897586e-03
6.669235429930270129e+02
1.034782068129516297e+01
8.204050857031575106e-01
8.448248166445182505e-01
2.656987593422855287e+00
4.635416001838166267e+00
3.220777155152064353e+01
3.430332162730337018e+02
1.629116261323361243e+02
7.034229979661176912e+02
4.418355808586056810e+02
1.511159802629846581e+03
5.901792965323694773e+01
1.275140781133814443e+02
3.618480317379990652e-02
1.944197250904836238e+01
6.372417232944371790e+00
2.342389421133703422e+02
4.554748498332627378e+02
2.105220923876913375e+01
1.685977180145848547e-02
3.101975261665756989e+01
3.228329169282915956e+01
7.410986027971375734e+01
3.857323638629168272e+02
2.260932269504412929e-03
2.880106659060402308e+02
1.175941453100222489e+01
6.375064224717341688e-03
7.806223640393000096e+02
3.247368521391764489e+02
1.274094375323108971e-02
3.100072192472326862e-02
5.419060807827918325e+02
1.444256269368793921e+00
1.113467949550250296e+03
2.536415771410248112e+02
2.175492936567025595e+02
3.409365763058303855e+02
7.033245986019664997e+00
1.496366770140866442e-01
3.109511108210426755e+02
3.002625304754474200e+02
2.878943259595699855e-01
4.745098683872585710e+00
1.395608439721399918e+02
1.113637740217382543e+03
2.658399149717297405e+02
1.292430585113634733e-01
1.252835305931512949e+03
1.137245794761838802e+01
3.145673037971974395e-02
8.385201103210420115e+01
1.002670759739704181e+03
3.112396342046849895e+02
6.108118835021741688e+02
7.992330838424096839e+01
4.764749277041119058e+02
2.314107743528439585e+02
1.676934862127748844e-04
4.952112526046548169e-04
4.734640488313742708e+02
8.732261617697076872e+02
7.953688891284400597e+02
5.460993291671910299e+01
4.920597235832245175e+00
4.240261624072446267e+01
2.682841426253617811e+01
2.155896644087107461e-01
2.412273770278260940e+02
8.015578418358928730e+02
6.386919424199732020e+02
1.605654793849680004e+02
4.246096009192115162e+02
3.379420317323820768e+02
3.538324521635161091e-01
2.618533205699350219e+02
5.813243818229238968e+01
3.416635401037638076e+02
2.228108104131933231e+01
1.228721326941013103e+02
3.677360302608577740e+02
1.854255533637605424e-02
1.981284151845841002e-01
2.921476276431347969e+02
1.774862775368091548e+02
3.595788274255441730e-02
9.971346713355169413e+02
1.534830275995772908e+01
5.911253054662779505e-01
3.815874443534995919e+01
3.779803396253100800e+00
4.835726783749123570e+01
5.335398357519950674e-02
3.393019689880021588e+02
5.413765210789279081e+02
1.610222061096067414e-01
4.438501397842741225e-01
7.003183754168276209e+01
7.331589172332313638e+02
4.560384527121641440e+00
7.575058256261398526e+01
3.562854713454725442e+01
4.270270212844478692e+02
1.643840088649817233e-03
8.269794081272152653e-01
2.518893174241477323e-02
1.037374262091180071e+03
1.419840388491865497e+03
8.223662161253741942e+02
3.602572817006148398e+02
4.768868618099077139e+02
9.013864173340382369e-01
9.320608735219341329e-03
2.169284582604900924e-02
1.937130148959908538e-01
2.505431756795587717e+02
4.631309885594347975e-04
1.958809192266926686e+02
4.090412784462388345e+02
1.547317044711235212e+02
6.822958796881721355e+02
9.740259141221944361e+00
2.659709722684056601e+02
2.227098229624971282e+02
2.075591328224390075e+00
3.508488285646308213e+02
6.829591583620640449e+02
4.460031761410743201e-03
8.650758241560652095e+00
7.576311453080797342e-04
7.585458281494084076e+00
5.579401659764698707e+02
6.593889537878567353e+02
4.965428353862932909e-01
1.773042167849781094e+02
6.479661570002459570e-03
1.040774238018116638e+00
4.132084392767863790e+01
6.015289276911062188e+02
1.928148135000810726e+02
2.003157196663779160e+01
2.989407423325474600e+00
1.464882901229884737e+01
5.360942463894389221e+01
7.484392695232600090e-01
3.488955646656702325e-05
7.742966719492816452e-03
4.035364035757992296e-01
5.264240131618862506e+01
5.179719110208681059e+02
6.864721656413166784e+02
1.615080846153431821e+03
9.336034683074102247e+01
3.530697540496475995e+02
2.731460218914435245e+02
8.856140714051434770e+01
5.536235040017344033e+01
9.110093589379175683e+00
5.644143623008858413e+02
6.024893174161327636e-03
1.337105220832745090e+03
2.369629510452498505e-02
5.213935695559484884e+02
2.983703632380639874e+02
1.048069512395159393e+02
2.754775613439050019e+01
1.240923474435112666e+03
5.079170928831443916e+02
1.761384328298731150e+00
1.309439844657389926e+02
1.068301805060765219e+03
3.724862596078310162e+02
8.510822871394339018e+01
6.138230405886133667e+01
5.989868969863893255e+01
1.450197044116066820e+02
4.226238519644543758e-03
5.048170307440159377e+02
2.064733739373991739e-01
2.274989635072415695e+02
9.995447880533001594e+00
1.807001462890185621e+02
3.725505434649676317e+01
4.772611151682214086e+02
3.752391929697295403e+00
2.994291333101272823e+00
2.288962918239122359e+02
1.983094595354486387e+02
1.065848750934037170e+01
3.921089780787313100e-02
1.740892703131975736e+02
1.782428761132905777e+02
1.192760982719482399e+03
6.739521159703144804e+02
2.733822652994604141e+01
1.192055350491045473e+01
2.363369541109606661e-02
1.634413973646589113e+02
2.698938262160054807e-02
7.089972045156173408e+02
2.252392264937952859e+02
5.170937298636599788e-01
3.838728670615410010e-01
2.709064259724981838e+01
4.270538058066449594e+02
3.038609120747423731e+02
2.914828460416174494e+02
9.500245903487663099e+02
1.679751778858189368e+02
1.084616611755962579e+00
5.259916260243358010e-01
7.375601935499798145e-03
6.585574140816063959e-02
7.456486695755302208e+01
2.116206392660386939e+02
1.107018895623922694e-01
1.627152037808609480e-02
2.597095866203602554e-02
1.382341196961352125e+03
1.066092045410187893e+03
4.016260427846417791e+00
2.654014430074313395e+02
2.054355256768045429e-05
1.171108941154670902e+03
5.486563566430291417e-02
4.128008088788192254e+02
3.040877695348171983e+02
5.908150671850307845e+02
5.946479875956355521e+00
1.825793075736328319e+01
2.848796302641859484e+02
3.355634107057995266e+02
1.043224796053010273e-01
1.119816310104215972e+03
5.622987306633149274e+02
4.816789088710748956e-02
7.692040341735264519e+01
4.616101011117736519e+00
3.146611636715533677e+02
1.160124071821338248e+03
3.153691429695755915e+02
1.794787104568484892e-01
1.511581596831401697e-02
1.032438386764261168e+03
1.388929572762573571e+03
1.010969241509174221e-03
3.681258694516742480e-02
8.861651926708876204e+01
1.445920949714491144e+02
2.965756076793013118e+00
4.808168483279587235e+02
2.035637891644001343e+02
8.325082126699271612e+02
5.861239984042185824e+01
6.413058307762184995e+01
6.585219689059158554e+01
1.345260686935944534e+02
6.268458950194144563e+00
8.861534673854087885e-03
9.774964524025565424e+02
3.185017506443273305e+02
1.257545033673523420e+02
4.021881880442379043e+02
2.203263558951106038e+00
9.846751037457583067e+00
1.433409673813731160e+03
2.746346372863627039e+02
5.088881065352934829e-04
1.752717524010222689e+02
6.330932473283610307e+01
2.721661374591348590e+02
1.001071965265509256e+01
3.571820910059614107e+02
1.731382792342628818e+02
1.318734211532501490e+02
8.847102009793161415e+02
2.151524801519145047e+00
1.088547168033983041e+02
6.717622701107756029e+02
3.317180186982683354e-01
2.079674739470645761e+01
4.316299346837693918e+01
3.869707862650102470e+02
6.900054470270333695e+00
7.134532042298812939e+02
5.786052458686755244e+02
1.045641129836440541e+03
1.036342091143005462e-02
1.300750957744510328e-01
8.261796081569627859e+02
2.087260917240202218e+02
3.864033056593997317e-01
9.006664393979010583e+02
3.023406835724018151e+02
9.780984323670695660e-03
8.797547138271966105e-01
5.309848248689377215e+01
4.286440437754208688e+02
4.404548492799220867e+02
3.747258211085863877e+02
8.423925754840411173e-01
1.288255864444476893e-02
3.379175632227316761e+00
1.447615206623594588e+02
7.473814972649963195e+00
1.272843529010425073e+03
4.440163015955478159e+02
1.774529592948965160e+02
4.188882040114803862e-02
4.277771158986070077e+01
1.064567049988545932e+03
1.802176470064296154e+02
8.969979479457833804e+02
2.570384642594945745e+01
5.549618137272773311e+02
1.622817422617829075e-01
1.711491733667003912e+00
3.164383320275465650e-03
5.516986310194483580e-03
6.051341413010959513e+02
2.195735600860616865e-01
6.290126009203960393e+02
5.567780042445519939e+02
5.063284553601987454e+02
7.803398754768764434e-03
2.693804883529082872e+00
5.201493973778781310e-02
2.840774741940550712e+02
1.148614588964847144e+03
9.668147442222104928e+02
2.381992438862654637e+02
3.417600301238721272e-02
2.618390560228363739e+01
7.533437830672481823e+02
6.896871314733289182e+02
7.591109394234081265e+01
5.240985424250538927e+02
1.251230025925309519e-01
9.766042554794697708e+02
3.149656666857936216e+00
6.720914370744139887e+02
3.165765488462055828e+02
1.245352757029467739e+03
1.994629708289722032e+02
4.038466629426693544e+01
1.983049540509820190e+03
1.044223599476390973e+03
2.376058714242390693e+02
2.904110163279937318e+00
1.112609250130481996e+03
2.622101941764412913e+02
5.299944029694358960e-01
3.870847434576717774e+02
1.706801371310574922e+01
6.703728766209678724e+02
5.588796420197468251e+02
1.135921870405582439e+02
3.519393802946525485e-01
1.907487349864567527e-01
1.191603316387458422e-01
6.443705124502230319e+00
1.378473292791113991e+01
1.017306424914750451e+01
1.482050024361569518e+00
6.368351659713502103e-03
1.112377970710621156e-03
1.676171147006243132e+02
2.565201933185790928e+00
1.449294821461081483e+03
1.179484176094547587e+00
1.807933566628890176e+01
2.761181050331628084e-01
7.551956361062650558e-02
4.392268871393753216e+02
6.436110849494982133e+00
5.421786753541035043e-05
1.869786644481791313e+02
6.371258602841406855e+02
5.799193237544386648e+02
6.738735715098300716e+01
1.783388878051481754e+02
7.997214765229728073e+02
3.655743286440360507e-03
5.606718957615156285e+01
3.863202580963844639e+02
6.345025689501198940e+02
1.606632091181380417e+02
1.252791256222351435e-01
2.322465548433683580e+02
2.170250033418597901e+00
1.094247260547126871e+03
4.470992415591013014e-01
4.242843404201266821e+02
2.757970646612762922e-01
5.626827114625484683e+02
1.307815254108390723e+00
3.243359963882539319e+02
1.345623339930170914e+02
7.571748727707472426e+00
1.274459585775388870e+00
8.013937143950897735e+01
1.617824640948128945e+00
2.498911357000645206e-02
2.590545796447258340e+02
2.554790603280708581e+02
8.799623235419858247e+02
1.086732386511357902e+02
6.544087204529702717e-03
1.456097559485350530e+03
4.900704024003063068e+02
4.014640618983378317e-01
2.797823904525103700e+01
1.173820248404808382e+02
1.254441472441386018e+01
2.726333256665384397e+02
2.737756571432327490e+01
8.023194762237835675e+02
1.043063185901701928e+02
7.789231554315990957e-02
2.257614665959409095e+01
2.691423345560905318e+02
2.426986341823067050e+02
3.829284739048644513e-04
9.202455536942581205e+01
7.444447063917891683e-01
1.054040025758149113e+03
5.034046788874547929e+02
1.308287563097109967e+02
1.985312324250116944e+01
2.014513496346808807e+01
8.590743136278431891e+00
6.783033313652708785e-01
4.093230085396499476e+02
1.386520230633323933e+02
1.907866753828812989e-01
2.310587558622501092e+02
4.379974851712177042e+02
4.139961397071601823e+02
3.737650460429620125e-01
4.940899780325709116e+02
1.969412384310088981e+01
3.026786443835588898e+02
9.924475735533627940e+00
7.968222803741809912e+02
1.215453688371781027e+02
8.401724677895572313e-02
2.332036766623787685e+02
6.983589657920674654e-02
7.045134545027309514e-02
2.208744400020804335e+02
2.269801716774964575e+02
7.022673233459498476e+01
2.974369683270695203e-02
1.630754017726304639e+01
1.258462895093544098e+01
2.806951859452055231e+01
6.197249689621209257e-03
3.431479214339105077e+00
6.314938942756270990e+02
8.331246883419225924e+02
2.380928855845922243e+01
8.113333322379290280e-03
4.052096627001446194e+01
3.502834395250829971e+02
2.292276844971638639e+02
5.017146711907115559e+02
3.387017570171124703e-02
6.383892229670890401e+02
1.018786506019886190e-03
2.894983147234596572e+02
1.062435393815394491e+03
7.856886154695530422e+00
2.689408389996970072e+02
4.767723064219352658e+00
1.701850257330079899e+02
6.700511239090701565e+02
1.277677179445162921e+02
6.116098891539856197e-03
4.465669119304038759e+00
9.199969471424651601e-01
3.415564305686570080e-03
1.270817834824190459e-02
4.522117021206212684e+01
1.706382301166739808e+02
6.965117015145241841e-02
2.240560049526720476e+01
1.982357415090518202e+02
3.778084902305636916e+01
1.738479164369976238e-01
7.700532119444687851e+02
4.693378340407672322e-04
3.319377657322773789e+00
3.899027456624026513e+02
1.130518497824596125e+02
4.320007809998061248e+02
7.217685069728759117e+02
1.834334678929395723e+00
9.094937041110824794e+02
9.592383584276834796e+00
6.154145811954061032e-03
1.487417290558367426e+02
5.422440774462302215e+02
1.012657995610424422e+02
1.241139399996881920e+01
4.432247174668189516e+00
2.028273766441213494e-05
1.010638117528288120e+02
1.056763697743008663e+02
6.144981605539214797e+02
9.766604661199380644e+01
1.240742456424469981e-01
2.280928827669726489e-01
5.794695009579299949e+02
4.511667723287247327e+02
4.548125334345969577e+02
3.263225827591668349e+02
1.946198238420037683e+02
1.003045496095466671e+00
5.412022675198385286e+02
8.089862107706723009e+02
4.614226891380894813e+01
1.638061599071079684e+02
1.373835131400845512e+03
1.041145375678752742e+02
5.951074399563367479e+02
2.558960252707720429e+00
4.400062511973375194e+02
1.077280208650336419e+02
1.986077956884400919e+02
3.052258068192426933e-03
2.364561281525956894e-03
4.311001023660222505e-04
3.903187791926000273e-03
4.978171754439244978e+02
3.198209264555771938e+02
1.712836269275613432e+01
4.383256296277977526e+02
1.373762654289123475e-01
5.622217396821724833e+01
3.716856724335231092e+02
1.008857425362919225e+00
2.599034386440735922e+00
6.200300700162187013e+02
8.439148612406910388e-02
7.536665813934195768e-04
6.584642167069886254e-01
2.838465876192630688e-03
2.023712680793322960e+01
7.258624273294117302e+02
6.038300794671160077e+01
3.729281109521309645e-01
7.817468256635038415e+01
8.410274862108053640e+02
2.022762591757781649e+02
3.737575155289960662e+02
3.597302525459866035e-02
5.517771731887478381e+02
1.097043933916097558e+00
9.369152044655491451e+00
1.158683393794489547e+02
6.400030555020475020e-03
7.408412149685318582e+02
3.601943566449334639e+02
1.030460080119155908e+00
1.708561297050436301e-01
1.382506395668313814e+02
6.407962653398600536e-03
1.623207411582949788e-03
4.816427084922908080e+02
1.080947271389050535e+01
6.405951736713177525e+02
1.013178566363138078e+00
3.240152418038633186e+02
4.430946369655431454e+02
9.391823700716483359e+01
7.978374276761314832e+02
1.144773336349658610e+00
9.437421113964167404e-04
1.778436335357582010e+01
9.755187202531428060e-04
1.007925550459976439e-03
5.574475548044686979e-02
7.604897765675558503e+02
2.895135949376736149e-03
5.994878085664823857e+02
1.466821754052944300e+02
1.610203078769700937e+02
1.109722487552789289e+03
3.486066183421599796e+00
2.736078905880567208e-02
1.469294543247088427e+02
1.188078584095820389e+01
4.133970394846983254e+02
2.097268522225930099e+02
6.045301988919504765e-01
1.705426508733510690e-02
2.416871402278047185e+02
4.056762363994494081e+02
4.235636220895684119e+02
2.692497763977286795e-01
2.648363450884063468e+02
6.762187046795986589e-02
4.308492199891487962e-02
3.176326403547814238e-03
1.671336944905732758e-01
7.536058546378626488e+02
2.889367590098117944e+02
1.006097558774854122e+02
1.480703950466022878e+00
5.081830106864799745e+02
3.261701216506481416e+01
1.043910274918744108e+02
6.274349020628733342e-01
5.078422103746561334e+02
9.756623206867516274e+01
3.992426564072956552e+01
3.002032357202201159e-04
5.338694255274668322e-03
7.813062706816708669e+02
1.665278803073544367e-02
6.858764584787421654e+02
1.179359092415325421e+02
3.629997967033204986e+00
5.718046933994630763e+02
2.807871595946380694e+01
1.103602942710494261e+02
9.898620857384800645e-03
9.303613626570952988e+01
5.884183909496641718e+02
7.112136470313998871e+02
6.814350492088124156e+02
2.550606447124437182e+00
1.308940119429281568e+00
4.250977100082309335e+00
3.960633478200179525e+02
3.753796173525115716e-04
1.274337525563852047e+00
1.304370533593464643e+03
3.240080549620216743e-02
4.681852808535039685e+02
4.341927995075820945e+02
6.548487039186312586e-02
1.014237451722692462e+01
1.606382549265981197e+03
1.415916968622310534e-03
8.296187746381633588e-03
1.010876790466136640e+03
1.664464294473872599e+02
1.027284184171653865e-04
1.121744500817385237e+01
2.243366019399894561e-03
9.584450521346292362e+02
5.477867526315094437e+00
1.265309906382753553e+02
3.004406904990901808e+02
7.155707424917636672e+01
1.029445559996844568e-02
4.753818885239180503e-03
7.820396240731497528e+01
1.300031074049456059e+01
5.747146301746401065e+01
6.174761657530323191e+02
8.278732785227475688e+02
1.405042745220270888e+02
3.548457570279424544e+02
1.964699775400953713e-04
1.147906641216832895e+03
9.986524876963809447e+02
1.000551397313756894e+02
2.947316329886007225e+00
3.028079516491644085e-02
2.599491141365434146e+02
5.811023104547174967e-02
1.899369983773268808e-02
1.012720726346742453e+02
6.460753069049472996e-01
4.686663496300752740e+02
5.572890134963870423e-03
2.300145678372445546e-01
1.327965324984248241e-02
2.926178604262530598e+02
7.573012897963052410e+02
3.203242785900784623e-02
6.218484376030452253e-03
1.130504356907646030e-02
1.064649261470762831e-01
7.383049186569223821e+00
4.935435419429267334e+00
1.169868502420285949e+02
4.033727800388077611e+01
4.305002784225508776e+02
2.664905510543212966e-02
1.180089708126616443e+02
6.477896100568614202e+01
4.170016091877187137e+02
1.069473216681217025e+02
3.715776493535825897e-02
9.930615883247808142e+02
1.838977431697231157e+00
1.448881342480490941e+00
4.463980159569473471e+02
6.730498111799931849e-02
8.285290002528194009e+02
9.253250905458115483e+01
4.412243349588607089e+01
6.000723556309822015e+02
3.755494595070559427e+01
5.285673015180237799e-01
9.335176702134049265e+01
4.454534273783792742e+02
1.785044436008319053e+02
7.470523588039213791e+02
3.934177448943955824e+02
4.802836317810488254e+00
7.714810534205751082e+02
6.269783904855330547e-01
2.734687469172058627e+02
1.010271597865540016e+01
1.275412717101061872e+02
4.164446698137908243e+02
4.229935837262019049e+02
3.637576331246236805e+02
7.083134814369259402e+02
4.597235724522761302e+01
1.862568899318262527e+00
1.261675574984110426e+02
2.607553246175564176e-03
2.429836992549098795e+02
1.018845708545995876e+03
6.034953019800013863e+02
5.936320841690758243e+02
1.727510304996030754e+02
3.743097654245502213e+02
4.242861215614537969e+02
8.709030486788833514e+01
1.107393944992508921e+02
6.766963184054475278e+02
4.051519829900486203e-01
1.157659236635026012e+01
4.426142712143922055e-03
3.115924756843923404e+01
1.213118700109136050e+01
4.500140917325551726e+01
5.370899052603573566e-03
6.428917167710324065e-01
1.436282835481249853e-01
8.654650750613654964e+02
3.485779656472230759e+00
9.785565555464618287e-03
6.033117354323621839e+02
4.143167752619774546e+02
3.316487589254393242e+02
1.765991648929344793e+00
1.960076825996415195e-03
4.191138506335846614e+02
7.895204161945112986e-03
1.027095512991848814e-01
1.375898337144008643e+01
1.246840407768345510e-01
1.688272037619753405e+02
1.429852403903031149e-03
4.175461838045180230e-01
4.126602220458152033e+02
9.390318478544944014e+01
2.010762611647010090e-01
8.718669946210866328e+00
3.278796616701582707e+02
4.256465830838607189e-02
6.609027432205039077e+00
5.069942178801284172e+02
8.612599667423637584e+02
5.811319733857089886e+00
9.491942845015731223e+01
2.695795209262107778e-02
5.601898714777120425e-04
3.194895409527816241e+02
7.630464629677589983e+02
1.288443558523796071e+02
2.794853260695618680e+00
1.880040898820880386e+02
3.559765334152587002e-01
7.340827014500973746e+02
1.089965036122522690e+02
8.721571076948748669e+01
3.430543965571076770e-01
1.341458295280517277e+01
2.902252699168458321e+02
8.843062521246560295e-03
1.668780973657703441e+02
1.306978125226177477e-02
1.427053421455639750e+02
2.943705149649758823e+02
1.260538363482055502e-01
2.461287567239197358e+02
4.741450170207826886e+02
5.766394194026361220e+02
8.438272235955501799e-03
3.491555145607172506e-02
1.074315009886048301e+03
1.271351908477299730e+02
2.659098246273750021e-02
5.064650416353178031e-03
8.932599862455390394e+02
9.960396634582483477e-01
1.533521686500449455e-01
2.146378023266151160e+02
8.109680986120859636e-04
1.065051321695876130e+00
8.003068725694902241e+02
5.166544004220342823e-02
9.759505300044115472e+01
2.600467499367368305e+02
5.481246567960624816e+01
8.681064818360024447e+02
1.392946445267285727e+00
1.601953190127005300e+01
1.591810871371279190e-01
9.011591400885663461e+01
1.514639150441698424e-02
1.119047178287292354e+03
6.368566415612804121e+01
5.678062182687425263e+01
4.759086853802729706e+02
3.489413488235725697e-02
1.487997645059912187e-02
2.774161022101041298e-03
7.351530730570488004e-02
3.604211825550009962e+02
3.504788645732332242e+01
1.292138275919568287e+02
9.144928866789996391e+01
2.652165986844921690e+02
1.923509580255001183e-01
2.445784000806305869e-02
5.061726599895337131e+02
8.572402431298085101e-01
9.759588056912347695e-03
1.208107778249540843e+03
5.558140654426946270e-03
7.112966522327042185e+02
1.432154290414472939e+02
2.610646994529814719e+02
9.180120885153885411e+02
5.387383306124320370e+01
6.149960886864390908e+00
1.319570571754411503e+01
1.335098521869894661e+01
1.313009431240796943e-02
5.675321024828009513e+02
5.430354950411128812e+02
8.540704062670556596e+01
1.040312923845654325e-02
5.194428518517923109e-03
1.500041939976654817e+02
3.580003432182010670e-02
6.007309849810553715e+02
3.294175509165597759e+00
8.209741489348942878e-02
4.984425109316363205e+02
1.614262367256742436e+01
7.477217151565125732e+02
1.946308814025541949e+02
1.636224131065232637e-02
5.488447663548868150e+02
1.144447790959383383e+03
8.141443100088508800e+02
3.954909991356545333e+02
2.170272414205101654e+02
7.003478588987491094e+02
8.430413576017601827e+02
1.116983147425587141e-03
9.029764886345219566e+01
3.828580697098904473e-04
5.704965899378294125e+02
1.484745429143340990e-02
4.850589820147432079e+02
1.081034598617857875e-02
1.849896277531118516e+00
7.567089477288392985e+00
1.197827684660257921e-02
6.401990925761213980e-04
3.045432985803926158e+02
8.707960802610157369e-01
4.401927060047453892e+02
2.070898896967265443e+02
1.434566494176172172e-02
9.157504233662618844e+02
6.195288074422931057e-01
2.179589088369540661e+02
1.292228990432685819e-02
1.944850106603553002e+02
6.300328050518055889e-04
1.159457645317161223e+02
1.170330634739001425e+02
2.161040903549292693e+02
1.259762658765595233e-01
3.291165883150824811e+02
4.826220723494772074e+02
3.748417802926269928e+02
4.413352780502464157e+02
3.280631263973192517e+02
1.643770460648852794e+00
3.512174184277228939e+00
4.822845675793358851e+02
9.826727846768335439e+02
1.719990271099959216e+02
1.097107988632342767e+03
1.452682163420871211e-02
1.806354645261798106e-02
6.330459567354409955e+02
1.392287744078203389e+02
9.606036483056360625e-03
1.068399197065445705e+01
6.502588807081336881e+02
1.203964711576910752e-03
7.955359750994830392e+02
4.493533022825431544e+02
4.706434584504676621e+01
4.353045299867517315e+02
3.994490006261914061e+01
3.020327732067284131e-03
4.528482471825554967e+02
1.945900870357065993e-02
5.542658592843508814e+02
7.964010390162002295e+02
1.373713893506191575e+01
9.012862909206891118e+02
4.463543214878740173e-02
1.465180282457367422e+00
1.981964639009675579e+02
2.283882004659972722e+02
3.335178681042328926e-04
5.928554611034363674e-03
2.613445982118717552e+02
4.748911818664055318e+02
3.737988144886912778e+02
8.286110295550315641e+02
7.408401040407851523e-01
1.070066394101231860e-01
1.519844567299255544e-02
3.150300354302083827e-02
1.932384325813473822e+02
2.699241544799058090e-02
1.005963877808244433e+03
1.537151961045423842e+00
2.807273509984952966e+02
4.557785903591139913e+02
3.400460256298632089e+02
2.472660260377779196e+00
4.588498401710239705e+02
1.960420522849744316e+02
1.284660345429956552e-01
5.306109960016329978e+02
5.032713671993404887e+02
2.825555097242612845e+01
3.863740293476437841e+02
3.232035447246745434e+02
1.436421923677698658e+02
2.690378194201911128e+02
2.067052594334199256e+01
3.480138258019849218e-01
6.175125113615650889e+02
1.248831791038628944e-02
3.702569203094752766e+02
3.481081629570326896e+01
7.907062913611298427e+02
4.306896216689892753e+00
2.457405503748304909e+02
3.619803624096675776e+01
1.066339994050212908e+03
5.212303226471703077e+00
1.911095010163066377e-02
1.571996646914098489e-02
2.622983523981049260e-03
1.098781474163843512e+02
5.115397434041213387e-03
6.287148577641344218e+02
3.095897388649682114e-03
6.920900861601695624e+02
1.197690363764195354e+02
2.402048072281105462e+01
3.838572364977153484e+02
7.201428612912424114e+02
1.775709062414421724e-01
9.608402627287434825e+02
4.522304407635147072e+00
1.712548284034709809e+02
1.877495713115422760e+01
3.292795469715201762e+02
9.872367133812085171e+01
3.328729709173786233e+01
3.425498099277319852e+02
6.491880019538599500e-01
1.700091125606207343e-01
1.137393261916485931e+00
9.370628656706684012e+01
9.645583135061316682e+01
5.467956499308002094e+00
2.858267672228977290e+02
3.973952614986046683e+02
1.030267904004722141e+03
4.874628502177073415e+02
6.077521150247775950e+02
2.458498266936657330e+02
1.096547256580038265e-01
2.498242578505596612e+02
1.006892677221457433e+01
3.783579212853282137e+00
1.975768096329489840e-02
2.465299745828814082e+02
2.360098913541151688e+01
7.372616457781987265e+02
2.651228524982798262e+01
5.455605037997881936e+02
6.249588236460114103e+02
5.719617693529523118e-05
2.756959035286853350e+02
1.623143414693914224e+02
1.151378956694771105e+01
1.466083928447915810e+02
5.045471562829334289e+02
1.235134137303362190e+00
4.566803806635988394e-02
1.497709455995846284e+01
2.238983069014466665e+01
6.610000513532554578e-01
1.221698202076367807e+03
6.484677156208819293e-02
3.396011516133511776e+01
2.563331414362438565e+01
8.195107051744800586e+00
4.021103482827470543e-02
7.605633619405125501e+01
1.359687677135298429e+02
2.752750433249185214e-03
1.838703492259696759e+00
7.535627716686576605e+02
1.819497861528362535e+02
1.572845941147534745e+02
3.865198434432386421e+01
6.248923311090948118e+00
8.335879330672923970e+00
8.837380293558185287e-03
1.985271510013262173e+02
1.823335199424569453e-02
1.971861139927568374e+01
2.886409748221923337e+02
5.717445555001176238e+00
6.452902306598842870e+02
2.094632006419488945e+01
2.747127178183290539e+02
1.968839775387532399e-03
1.023305107594297159e+00
5.488155998071306385e+02
2.307387211916648084e+02
2.035753850357480688e-01
1.139178079267731619e+03
4.863355684530688450e+02
2.132010772340659993e-05
1.629363299315446056e+03
1.841286174745618496e+02
3.840863755969621138e+02
3.728272520878817318e+02
2.497137008882419593e+02
4.301679478536243550e+02
8.861080692313407781e+01
3.268278589959663805e+02
1.270956348466824970e+01
2.068828714549454162e+02
1.630259404137177341e+02
4.105398878886035163e+00
2.585817450612148093e-03
2.418937880258909878e+00
3.063788378567552400e+02
9.031042088008689461e+01
1.198128140080799778e-02
2.498062255872354740e+02
4.248304103567079881e-04
6.430771611267118715e+02
1.264028893621798204e+02
4.074919837825292461e+02
8.993090997520877261e-01
5.582402008105420919e+02
1.542184894162689250e-03
6.114411455317167565e+02
8.820108658436076610e-03
5.653650954146047843e-04
1.267822786374939517e-02
2.490299018027143916e+02
2.233227808758897828e-02
2.401450970464792647e+02
1.714437186577378106e-02
2.318993190470791887e+02
3.915559961664258140e+02
3.732237467673257925e+02
6.752530948666390032e+02
4.460235616465980435e+00
4.316232051380582846e-05
3.099973266085243040e-02
1.535041374227147912e+02
6.805905903151143548e+02
2.211206729311924235e+01
2.500499234015479644e+01
1.007812808090874768e+01
1.416572391578938195e+01
1.246898489052000514e+02
7.867831196446784361e+02
5.921763123318668249e+02
1.265931402091155604e+02
9.264321444534289185e+01
1.820619873007674698e+02
1.936745041541954385e-02
1.814271824154277749e-02
2.390786365256644217e+02
1.163208674546466259e+00
2.626762630308121960e+00
3.009941780153893660e+02
5.188664125285866930e+02
3.367653557058147840e-02
3.061371045681879650e+02
4.173794621150591411e+02
1.657887752905652101e-01
7.778158345645353222e+01
7.191157450637547299e+02
1.679389541750423973e+02
1.301616516237844280e+03
2.209568090158597897e-01
1.332054068949218788e+02
9.708498976426223337e-02
2.969857753880206133e+02
1.319588661022862652e+02
5.154215318547983316e-02
6.549110870502772741e+02
6.421768701926339418e+02
9.216182256801405401e+02
7.707271394629060524e+01
2.808436457598871812e+02
1.547765275244916174e-02
1.082261209316470740e+00
9.204624528247222770e+01
7.177338518711621873e+02
1.553576913387644531e-01
9.035312489068019204e+01
6.648532200342742726e+02
1.852212755036931613e+00
1.359133988762195877e-01
4.908359044608624246e-03
7.429021647965326380e+00
2.238469681154242608e+00
6.843260394874957910e+02
1.658882674714588501e-01
7.655310714937966665e+00
1.078800252154906474e+02
3.739734423455956858e+02
6.592033204458402906e+00
7.831186207025893964e+02
1.030155869928421680e+03
2.779246505473565776e+02
7.455241424133416785e+02
1.753508620727188827e+01
8.468511357234092429e+02
5.103006202944015968e-01
4.667318473020712588e+01
5.146087031767820008e+02
3.689242895852657966e+02
8.499312675794499228e+01
2.437825992208671835e+02
3.648740938109185095e-02
2.428976057381078704e+02
1.916828315013844701e+02
5.192061071560601704e+02
4.826865704239935440e+00
8.094804215594194829e+02
3.729708763261443210e+02
5.776668575836082198e+01
1.915617907599641376e-03
1.423784625574627114e+02
2.091530691878950785e-02
4.866559602123744526e+02
7.325479484716197476e+02
8.258455997012790704e+02
2.613786937312397640e+02
8.812342678269485532e+02
4.240386977988235913e+02
5.478682046158867003e-04
3.581222917414806674e-03
6.312204589659812655e+02
1.151870469061578195e+00
1.016466254385312289e-04
5.234363672657754707e-05
2.864929212497372646e+02
2.320222916543571898e+02
7.645360349015390966e+01
1.920920255965938139e+01
4.637790821088857030e+01
1.242892482432579904e+01
1.723664886121696611e+02
2.575559085812528082e+01
1.800302788263069715e+03
4.353619323570454753e+02
4.775451713576331940e+02
5.790702722731564833e+00
9.165714907976507675e+01
1.180502047914978522e-02
6.492939265997846405e+02
3.715725498819666655e+02
6.401080989206093363e+02
3.190005446990653581e+01
6.793292382280924357e+02
2.246583360482645730e+00
3.359572623550774324e+02
7.608088062090698322e+00
8.361088945515803061e+02
9.789122612929184175e-01
6.661835318329394795e+02
1.341059609847434899e+02
2.981785535339440685e+01
4.121547653824109148e+00
1.619325139581633621e+01
6.834634479440865107e+02
2.302721833446412347e+02
9.458258631980243081e+00
2.266988180330373837e+02
5.531487925516557880e+02
3.083226504507761701e-01
1.008140665549945254e+02
5.417953059944079252e-05
3.318657727832032833e+02
1.747580587656557611e+02
1.214459815813461546e+03
1.444348346184564855e-02
2.500296041212095588e+01
6.688434650525820757e-02
6.904381302820183919e+00
1.304608778735172891e-01
1.317869209700451606e-02
4.264273886100955480e-03
7.398472447883719383e-03
3.030516224762322963e+01
1.118861189559538616e+02
6.239260221514440763e-02
3.716187118450761773e+02
1.387432722950165953e-02
5.199714128175401129e+02
2.986300384422065690e+02
1.970605945542658333e-02
4.558417477375768385e+02
9.216377049415314104e+01
3.896048993103917724e-02
2.063415392960450276e+02
1.841238360574948940e+00
6.497163295716743505e+02
5.507435404506395571e+02
1.975892237765947925e+02
8.218943398736882955e+02
4.650512608677673398e+01
9.136496632549096830e+02
1.430499793685157499e+02
4.999009042876424225e+00
1.261203257032320835e+02
9.798480207318785062e+01
8.979840330525232783e-01
2.747020194976357175e+02
6.690729008714697557e+01
2.884830386221893583e+00
6.312207888069679029e+02
2.514034015494104324e-01
3.994149946184854215e-03
1.362080245372876072e-02
1.402614190570603228e+02
4.728785237166449633e+02
3.423254499375617144e+01
2.937659193048604038e+02
2.909659407364985073e-01
6.366656628458144951e-02
1.193995076681275691e-01
1.951921996634631284e-02
2.485632569739633065e-04
9.188241627605748363e+02
3.639578264449382095e-02
1.245843944753869664e+03
1.594879283195040784e+02
5.002518550973036326e+02
4.624035062114728589e-01
5.351492752670310438e+01
2.579548440839972301e+01
8.398188656588899903e+02
3.956538000420550816e+01
5.028543965650897007e+02
2.119319394246304711e+01
1.965798321998590392e+00
2.343171079737657578e+02
4.387702423708105925e+02
3.062245753521208001e-03
4.808742761533721932e+01
1.399558158259425156e+01
3.222565148746526220e-01
1.783061252735932811e+01
2.840900048352069440e+00
1.947955918014486940e+02
4.051669698037585476e+01
1.076413938662881549e+02
2.412731453707018386e-02
5.674629259544873960e+00
1.067779225078993022e+03
9.183677001215980908e+02
2.797362729910447321e+00
3.347372999984443709e-02
1.100958826220449254e+02
1.737320037656901945e+02
1.110038427175823870e+02
4.462355692710843869e+02
2.040367499475906143e+01
1.224657030607341312e+03
5.874408759946162206e+01
2.747992164659081027e+02
2.488963377145411116e+01
1.553152912021626107e-02
2.817546154751652665e+01
5.772394976753275841e+02
1.313916679517302885e-02
3.427613965904184878e-01
7.840846516342026007e+00
7.628319867344544036e+01
6.908864074866869487e+02
7.093537131459015654e+01
1.397987704654951528e+02
3.397596649454500266e+02
5.103825847039843211e+02
2.493628554842871381e+02
1.376486341623240605e+03
3.450541878497460857e+02
4.016554416797976645e-05
1.270930906791818060e+01
6.691674966741167907e-03
1.979568662207498164e-01
9.886694228800482733e+02
1.417316092476539779e+02
2.824529714831440970e+02
1.066725946007863683e+02
5.618797408285901156e+02
1.901139937592234332e+02
6.210537759747238624e+02
8.989666626715913935e+02
1.895205273642204418e+02
9.864951853025270053e-04
9.776130558520893521e-01
1.231417146005696424e+02
2.830739399837510994e+00
2.928136640744923511e+02
5.871093149949047074e-01
5.425673416903009638e+02
2.141028736918870713e-05
4.383631293212602031e+01
1.568800198100462229e+00
6.202702718297814499e-01
2.502311333787475434e+01
3.556496067598345689e+02
7.683332518179668114e+02
8.431876076610934945e+01
3.792422014421391907e+01
7.376535967951179315e-03
9.736798257781632060e+01
3.649956140390486770e-04
8.203973493858939037e+02
6.792976814983830991e+00
1.008235968083680945e+01
2.344954874693883917e-01
2.829740169872821909e+01
4.164433533180273912e+02
3.970366999667021446e+02
1.546200339369534618e+02
1.711469037156348918e+02
7.732987726791177465e+02
1.169350931719235831e+02
4.551492594931914937e+02
4.795407911574456339e-04
3.015996111847926500e+02
3.701964273381008752e+00
7.432276145060313866e+02
1.502773743464746667e-02
9.983826749012217761e+01
5.983128432679222897e+02
9.074369407315433511e-01
5.421987049503513845e+01
7.157402904256484136e-03
1.599211403662259209e-02
6.691727156493687545e-03
3.651786123732848194e-02
2.479157943173049716e+02
1.138435575609441546e-03
1.895878922603123603e-03
2.027421822234032778e+00
3.154208080337639331e+00
3.856303326743928950e-05
2.157026783089487608e-03
2.402012610733806480e-02
7.154535491153525273e-01
3.018553806414273595e+02
4.756732764340995345e+02
2.702069709128409158e+02
2.166866081803165685e+02
4.457713510666508228e+02
2.643673644350030827e-01
1.101607094619793337e+01
2.087750021230022810e+02
8.979243536814465187e+02
1.418910968654926918e+01
3.349537955649183572e-03
8.458789395326959948e-03
4.898753989749820903e+02
1.564365399543021908e+02
2.584235665897721219e+02
5.975975042136271895e+02
8.762188923969915777e+00
3.353404568420957048e+02
2.380923397336118441e+01
8.584202337529859506e+02
2.068755152809243750e-04
8.557088279959044683e-03
3.755614832865831545e+02
9.250323839180057348e+02
1.096970989895635284e+03
2.996227307434309068e+02
2.359322173870169337e+01
8.928102953854249790e+02
1.798588409619697615e+01
6.605589359498507604e-03
6.811345547484958729e+01
5.326040013649615048e+02
5.265032305696877302e+01
1.813224723362509394e+02
4.961945976980074446e-01
1.113404597135377571e+03
1.243716518432847380e+02
1.139642749210906487e+02
1.663578103166399913e+01
8.230388607768923670e-04
1.593601830565604303e+02
5.791299539051331102e-04
1.381356293478574804e+00
2.771903323709921807e+01
4.773804831871530041e+02
6.368572585391252261e-03
7.289765772638929775e+01
1.538542435526325676e+02
8.097533463325817138e+02
2.824221600327290957e+02
4.581521665215859684e-01
8.979586871703304496e-01
3.651956093830844609e-03
1.420555360418804582e+02
1.655004182503035111e+02
8.223333073165122187e+01
6.770315185909561251e+02
8.564375755372566346e+00
1.294175383890978992e+03
4.600034144637277223e-01
1.148640101448109618e+02
2.433854133094427539e+02
8.356403630466889456e-05
2.532868847873032792e+02
1.149605737181148973e-01
1.537489124188141432e+02
2.184263852966977879e+02
6.454119964793790132e+02
3.834761996134027377e-04
8.046113603867866004e-01
2.130883269674086478e+02
2.012408506195661681e-02
3.524842063479810861e+01
1.256514449096357389e+01
4.751032883828359976e-05
3.571759566806576913e+02
8.956320420023985207e+02
4.543049411404354032e+02
2.781185153042315505e+02
2.123604539556253314e+02
5.759186637857055757e+02
9.768267633407958783e+02
5.778446153446566314e+02
3.719856423609612522e-02
3.051894986616389360e+02
3.655634719856511882e-05
2.295075934739543647e-02
5.108698844949799422e-01
3.854126662037742790e+02
9.843592677097339101e-04
8.350614264181785984e+01
1.089745386703700565e-03
2.111119886125379708e+02
7.785672768659424037e+01
6.987109054734654337e-03
5.426230094291993600e-02
1.994763537684775940e+02
2.158082609486200010e+00
7.784139725117710213e+02
4.357824202793381119e+00
2.608208766934695291e+02
8.820094005986902630e+01
7.989435937020061829e+00
9.612252918486772657e+00
1.040685613384884425e-02
8.951002264730050229e+01
1.663306826951149731e-02
5.360728129994640767e+00
3.373542491452025116e-06
4.520603560180461500e+02
1.236508365042966046e-01
1.366086476426175533e+00
2.506085551824071445e+02
2.847326260521185759e+01
1.467891586122278227e+02
1.266422972717919038e+02
9.352450467427840977e+02
1.463636820921987436e-02
3.648542138638732126e+02
3.713226184931529318e-03
2.452391907084461309e-01
5.319366785537567921e+02
1.795515676139557842e-02
5.477466454016393982e+02
4.904285552162036765e+02
6.207520833311718889e+02
9.203513413396533505e-01
3.223493028190206644e+01
2.732759735037690234e+02
5.457487583917099983e+02
3.234811060814912764e-03
4.356383878628548700e+02
5.022728553558408748e+01
4.040810867311783738e-03
8.103511020945006749e+01
2.411389402059286056e+02
2.644040985142056570e+02
2.250602569256443530e+00
5.746943442369229160e+02
8.308333721966928986e-02
7.112328839313704520e+02
3.663385657055187039e+02
6.866593288898003493e+02
7.632721573798335157e+02
7.432954622199619554e-02
4.937860378095138003e+01
3.520635137577859952e-04
2.456093489519844866e+02
1.779680241735803400e-02
7.585757150591234677e+02
1.149227535660047195e-03
8.940803733798929898e+00
3.647972804414165466e+02
5.596492629962311616e-02
2.632600486376758795e+02
3.519725940719808932e+00
6.104312988046700639e-02
9.882547621522520809e-02
2.683781833380634225e+02
1.624771101087390548e+02
3.685418389613914201e+02
6.117589767862252614e-03
3.572913257361506680e+02
8.723138968907733215e+01
6.141303563039400615e+02
8.470652771608300213e-03
1.241888320986618481e+02
1.780101905063928882e+02
1.691793652569552331e-02
3.421257314442982533e+00
6.655216729093810955e+02
1.316100719781942430e-01
5.465972372448392180e-01
2.102402970431284643e+02
7.065733257204556139e+01
2.896409695160401725e+02
3.419042945914442799e-01
5.294625298271071756e-02
1.009102170399955645e+00
3.743272326559234671e+02
1.273884228962796072e-02
1.172419476835057594e+03
1.646290534296212388e-02
9.528516463692679461e-02
6.506305918708221725e+00
2.322500210419092923e+02
2.666555428950233022e+02
5.556783649471982756e+01
6.661475045926637222e+02
2.100762475362215831e+00
9.238137412194194553e+01
1.013786573435026206e+00
3.944128479030040921e+02
1.127936149437118907e+01
1.019812214341072689e+02
3.026630037474831170e-01
2.326681654980510688e-02
8.992112268562777899e+02
1.008302196080917165e-04
2.877179280867495237e+01
6.953840259629942011e+01
3.461167318673687987e+01
4.011984915596259498e+02
2.731897179346561444e+01
5.367877159107592888e+02
1.180168892908840917e+03
2.485873862276832477e-02
5.851005496704252649e-03
5.199971274180369640e+00
4.131516873565033166e+00
1.000622108767856986e+02
1.572406485396642211e+02
2.402870290780789730e-02
8.819544090044042443e-04
7.784329684844124131e+02
8.252714945240313682e+00
5.176041777668061172e-02
3.289978058535324656e+00
4.124704618737596445e-02
4.549352285452187061e+02
5.027437885132712836e+00
1.766366568557485861e+00
6.645512692542981767e+02
6.631844340197858401e+02
2.875957596111256009e-02
2.915278070429395019e+00
4.280536388046039462e-03
1.162184883886947773e+03
5.473767531148042735e+02
1.294779867981876720e-02
6.313748733067769763e+02
1.197990286022103135e+02
1.068156734512770495e-03
1.355865073218592443e+03
3.964342585469183278e-01
2.831385717872763053e+02
8.498208002478349954e+02
1.538583920200835209e+01
3.867111928040685598e+02
4.761130419487017207e+02
1.269674726575613477e+03
1.850362926480998010e-02
3.838975323105842108e+01
2.799077345649435555e-01
3.229313236918772943e-03
8.463550413706499853e-03
1.067884825821966160e+03
4.448995234490382700e-01
1.186681590997977764e+02
2.175207256627798813e+01
1.788995559283536041e+00
8.616519720607843102e-02
2.324466786914854879e+02
8.579442080969279516e-03
7.274320623366747895e+00
8.919613678634050302e+02
1.703131656578624870e+03
1.634407613451912482e+02
1.183338181303117582e-02
1.012141634363672882e+00
6.622669196498464999e+02
6.230370247517490710e-03
8.081705106932624005e-03
1.022628955979598345e+03
1.873718394360678052e-02
9.683937159701602013e+02
1.196760387634299150e+00
5.307046249508857727e+02
3.437998463597935483e-02
7.868503683062046505e+00
5.873796825088817286e-02
7.990267969871638343e+01
4.092711557532324740e-04
2.355549058291216511e+02
2.302922439507711516e+01
2.082519859982311417e+01
6.972524496686675377e+01
2.642699258335596824e+01
5.665147227489342185e-01
2.360593667850478994e+02
4.493132753729867090e-01
2.857018263253849000e+02
2.004699481130955689e+02
2.294086734450501908e+01
6.508542379524442367e+01
6.734722903996016863e-02
1.348110075437603417e+00
4.559305690667869726e-02
1.137329191649314097e+01
9.751699111166088230e+00
2.634620013792777354e-02
6.625078641882282682e+02
3.777079944939031320e-01
3.064177447522524034e+01
6.086323916917990573e-01
1.579723117667297238e-03
5.118208340973069426e+02
6.317121600950486027e+02
8.824982070145779289e+02
1.166591490630527232e+03
2.754592225435770843e+02
8.763041202604654245e+02
2.443544649750039355e+01
4.057760132978728507e+02
5.944653313374146819e+02
8.520718477789124279e-04
4.645709801243356196e+01
3.459615181183872679e-03
6.087522330504726824e+02
6.607020765688503161e+02
1.868755938679099504e+00
3.766369165577997613e+00
6.650715288764331490e+02
4.288805936392138876e-03
7.707224091535456664e-03
2.464488071695086546e+02
1.246624440489085606e+00
2.828879750977649365e+01
1.540490849256456158e+02
6.258018250548502692e-01
5.402526018997378943e-01
4.234888141538248192e+02
3.944054964375710348e+00
5.337067484276758478e-01
3.948520498197467532e+01
2.631295660530667391e+01
7.132534283673663822e-02
6.609686397307523720e-03
7.884774232513791503e+00
9.223485280424938537e+02
1.196967583568949678e+01
2.586090014165876028e-01
2.559534057263590512e+00
6.510013038976580901e-01
8.744500475058886479e+01
7.961088199794176035e+02
3.671574275045712739e+02
8.237303294547018595e+02
2.497113597342831781e+02
4.840466971589195282e+02
1.787142339409910505e+02
3.887116339305067640e+02
3.625807889928722716e-02
6.711776914962683804e+02
7.668544154282308511e-03
1.032583607146080169e+02
1.467722040684748777e+02
2.360968057985245672e+00
1.515247007137077446e+02
2.239320140677847348e-01
3.467260327808617149e+02
9.166764074790989980e+02
2.160514154664269881e+02
1.654929076227995132e-03
4.859389607703157310e-03
1.242173852138875390e+02
4.900100515384112327e+02
1.246189110439445358e+02
2.346442500005650231e+02
1.745844713419502057e+02
9.406396111353386402e+01
7.188071440966670167e-03
4.931670628749997149e+02
3.182278174361272249e+02
2.011978039157838793e+02
6.951084043812443269e+01
3.409546982586775243e-02
4.022632071443155155e-02
3.246025595326500479e+02
4.495625318930251524e+02
3.526360097677593529e-03
1.914679297015026904e+01
4.332590340156457387e+02
3.065158552366482922e+02
4.278151250708406295e-03
8.175234477384947240e+02
1.689142526930532268e-02
5.722203690493188333e+01
4.468996219957263349e+01
5.333961775941133965e+01
1.329855860724364902e+01
8.829001455043910482e+02
1.847021571717050676e+02
1.139046977514226988e+01
3.730008846854616422e+02
2.970973808769096156e-02
1.853563738230149625e+02
4.480538197483951990e-01
6.413693420166964643e+02
1.418214679262063127e+00
7.669950030413019704e+01
1.422479013129487385e+03
1.418490744067640108e+01
1.369389236293500517e+03
2.050892904617286661e+01
4.685574160590477959e+02
5.437880611658840735e-01
8.384040959244883595e+01
2.949476328990385809e+01
7.937774802577735045e-02
9.468219060741832891e+02
1.885314798058970496e+02
7.027387872964027338e+02
1.296461869523923560e-01
2.617887203164173826e+01
8.868206603063198343e-03
3.354996811249293387e+01
9.445860717765751815e+02
5.354366814935929142e+02
7.521147360366740031e+01
5.657942276884567718e+02
2.669419251804357032e+02
1.822221164951769765e+02
1.022982107951265068e-01
3.694715258978249040e+02
1.374904487351887383e+03
8.663904977274796693e+01
1.732454789889742486e+01
4.896515186883335673e+02
2.699213603477800816e-01
1.411099988119531758e+02
2.473355604166726021e-02
1.216941869954098081e+02
4.775717077820445411e+02
5.160861441327142529e+02
1.960078995812182967e+01
1.570607650240417319e-01
6.502591130309157279e+02
1.059926048201304383e+01
5.795039879842080381e+02
1.006558624129684745e+03
9.252778687892714515e+02
1.233441017314908549e+03
2.899126724434608491e+02
6.855064199146000874e+02
1.655308402553146818e+00
1.405023714829439996e+02
1.581568939013066888e-01
5.582248072751100665e+01
1.575153224559925391e+01
3.993295819855191553e-02
6.185225619032280520e+02
1.219944394528283283e+03
2.981328949368615895e+02
7.602470996469490956e+02
6.666298009513411671e+02
7.016051467711804435e+02
6.977750725303266677e-02
1.670584351466005302e+01
1.381044859172230431e-02
5.991887130621762481e+01
9.860913620668729607e+01
3.901599886477924883e+02
1.272631340152656492e+02
2.675004037278050362e-03
1.092495839326875512e+03
5.922685473444289528e+02
1.008708318302523992e+02
6.154657935447174850e+02
1.043403398953159495e+02
1.231455013185041452e+02
3.899117919099809342e+02
6.032678305496121496e+00
3.168787204762338661e+02
3.663009189329089769e-06
4.095467798353639637e+02
6.638762970003881492e+02
2.260519351184875000e-02
8.293387924106811582e+00
2.984192442381754518e+02
2.436260287238837918e+02
8.123606376898351300e-01
9.531025513945249250e-04
3.954192720648562753e-01
5.868618369160685688e+02
5.285921744862207561e+01
3.504877515414506206e-02
6.017989132942602737e-02
9.608551744095163372e+01
1.680913599061417251e-03
6.268427875229463098e+01
8.286740197638309269e-03
1.002612197644748432e-02
2.250710749929566532e+02
6.057886834911188316e+02
1.176341730304562849e-02
3.716671097012125280e-04
7.801491856327630785e+02
1.188721666462697080e+01
2.880218993346340267e-02
2.894471807660011109e+02
2.738649353733535907e+00
1.342857000604879558e-01
6.197360569312877487e+02
4.954690317244968583e+02
1.131866801732031718e+02
1.420955027308082492e+02
1.714014646086781113e-01
3.984381398229742217e+02
8.516382305369917560e+01
2.655877873898134567e+02
1.707249513200892466e-02
6.731818655622191727e+02
1.775443266822549617e+02
1.768321411946089086e+02
9.289788739581128993e+02
2.428275066409697445e+02
5.834534638022887520e+02
3.867275279212379346e-01
5.735627831440069713e+02
3.634163027368231269e+00
6.714415183945675381e+02
2.449384609899425982e+02
6.118711321573755413e+00
2.018492821698600892e+01
9.206465686293088311e+02
7.454191644565288932e-04
3.074083253541175509e+01
2.478140982140609669e-02
1.979703421297018622e+02
2.412431850828511415e-01
2.308951148472716319e+00
4.978309168166106247e+00
8.673407050755486125e+01
2.959917393432987751e+02
2.165116587284500582e+01
7.145831604850627627e+00
9.438277537246906945e+01
6.796613708924271577e+02
8.183893500159911127e-01
2.077038216493748024e+01
5.873024512334267477e+00
3.653013361321199248e+00
7.127425144994049333e+02
3.392143919038062450e+02
5.726011188409756869e+02
7.491250452346776001e+00
1.433324719503161759e+01
8.896491366569534875e+02
3.055863469342058103e+00
8.370725632345088485e-03
1.493982879366739951e+02
3.789760252558949660e-01
1.820498046956345775e+02
3.902641137108730618e+02
3.769225247924623545e+01
5.772742780180805111e-01
1.969624721237778999e+02
5.481249393568533856e-02
1.794108394613431869e+02
4.246050189976813272e+02
2.295065571637679227e+02
2.027681245082931412e+02
6.736200907283773631e-01
4.522575131346921029e-05
5.378208409805665724e+02
5.653613931368454359e+02
1.366900967518449988e+03
2.630052866301410859e+02
7.612670868724080719e-01
1.642152571843526199e-02
2.312309818179869580e-02
4.087408685973059619e+01
9.546275036864667468e-03
4.103431106268543545e+02
1.139127710199083418e-02
3.712414924275434203e+01
1.227157891420575027e+02
7.628527028995448518e+02
2.515433241796927177e+00
5.294762684352464248e+02
7.418835296950419433e+02
1.592987891377990164e-04
3.146535661274762162e-03
4.991075062127491719e+02
2.187704420712179498e+01
5.424472709666588344e+02
2.454839398236799752e+02
1.439854263324376973e+02
3.118861908235627881e-03
6.751788852410454608e-03
2.578399645914032590e+02
4.491681092065391567e+00
1.369942748661311452e-02
1.388854845135936671e+02
2.130321564814948943e+02
2.812077654135158866e-02
6.643896856672878992e-02
4.974123716398025863e+02
3.240482729586346977e+00
3.686165120925579117e+02
1.150063186379669117e-01
3.966602326039847526e-02
2.452688017572653791e+02
7.278421158873893404e-03
1.882512368651078134e+02
5.423588993959128857e+02
3.239668240152240060e+02
1.365565862986841239e+02
2.449689110493636690e+02
1.156129361897183571e+03
4.333188944183348212e+01
7.070056131662569214e+02
2.812257388202786881e-02
1.134882310568355479e+03
1.856537641928299820e+02
4.476336002924655304e+02
3.582662347989539441e-03
6.235422139725413899e+02
2.824850478020380251e+02
2.293053948361212929e-02
3.268910350176156498e+02
5.262055023873557502e-02
1.414822867482142854e+01
8.204624743375461549e+02
1.832801864716239459e-02
6.422174270941383156e-02
3.853800535347545519e+02
2.981823915206405218e-01
3.509678179834736511e+01
7.253393002642385401e-01
5.104447403697122354e+02
1.194188947527436994e+03
9.797351254837849410e+00
2.341886252742142460e+00
1.088478819245210616e+02
3.912690803990700488e+02
9.685309556341960615e+02
3.120946115302557722e+00
2.166576115723729004e+02
1.157596979148820537e+01
5.312949721974293027e+01
3.343911328942339196e+02
2.843004043952533522e+01
1.927912959875931198e-02
3.907661288241796456e+02
1.470905117346773920e+02
5.980873321478341609e-02
1.307098674206645455e+03
1.021055240405743803e-01
1.455784894609678588e+02
5.683741046773604921e-02
4.699263809190597385e+02
2.631248962934477618e+02
1.101603816446860076e-02
4.606719663919648156e+02
1.568732200215889350e+02
2.861273584843728486e+02
3.028487591553131324e+02
7.276343252215156099e+00
4.410299585899338126e+02
1.192350281509213343e-02
1.490791377418646277e+02
6.408148248228824286e+02
6.681544177728939076e+02
8.114944136661250695e-03
7.338426030255504884e+02
6.097978834732201676e+02
1.521769454895547540e+02
8.845004780414456036e+01
1.080453040881547622e+03
1.435728639512672999e+03
1.846696735708974870e+02
2.272173359513543858e+02
1.218897350168846003e+02
6.947801588212315949e+01
5.585966939403165521e-02
3.733154214087333855e+01
9.226800149669806125e-04
3.766372795621464320e+00
1.946137911355095396e+00
8.729362473469670647e-03
1.206666656371452895e+01
7.077233414165675640e+01
3.648770144805894802e+02
7.699201297109539155e+01
2.798650703503824388e-01
2.215766047771467129e+02
2.894647202397209185e+01
6.795209851907202392e+00
2.065087557693913567e+01
3.355461887040291344e+02
8.770388582670420874e+01
1.024280993382476260e-02
3.448855376436766562e+01
6.710766024043550715e+02
7.305373955678078346e+01
5.017933257176991901e+01
3.891653502847475465e+02
4.682890797056415977e-02
1.172769348309343545e-03
1.729156443886381289e-01
1.187590854323934536e+03
8.337453745058153345e+02
4.675220551625612897e-01
9.640621063951477776e-01
1.003880299656145503e-01
4.896742404300310909e+02
1.604558992180499644e+01
2.351862325198453618e+02
2.312770281911014914e-01
1.184151828943867940e+03
5.700393157803684829e-03
3.188949408788888974e-03
8.611073628025930427e-04
1.292568352713715512e+03
2.788825008847197040e+01
4.669833532054326497e+02
2.228884825876776077e+01
1.219168019654262380e+01
3.284479450895715080e-02
8.970023930432450415e-03
2.195329817292076200e+02
2.807496339082717896e+02
6.305695794450002722e+02
6.814103512893780135e+02
1.061028872211977170e+00
2.073135147151334081e+02
1.144791997742090339e-01
3.263195037652621977e+02
9.377559189470048295e+01
1.991108634247211455e+02
6.262722160361590795e+02
4.706544934240808971e+02
1.400751872508407985e+02
4.938245578588974922e+02
2.787538535797828149e-02
6.314233699704345781e+01
3.748667033643870354e+02
1.058688362922111565e+02
4.966128542975638993e+02
1.029783963460430840e+02
4.403746107991538139e+01
1.781024412939587620e+01
2.426990170846693218e+02
2.088902441325756476e-01
1.050523357243945632e+01
7.652391053052269854e+02
3.677390579860003328e+01
8.931209313805084093e+01
3.185515864803164163e+02
1.439797481377808275e+01
5.642187874798309188e+00
