1.768816736306690132e+02
2.591360202524811598e+02
2.132675080640182728e+02
2.959951338372775922e+02
3.746437179506757502e+02
2.621810434036887045e+02
2.165031821736194217e+02
1.079016807103471649e+02
1.147243974182856903e+02
1.922506592130957586e+02
1.183513851941825124e+02
8.384516073674600989e+01
9.039632972402952271e-01
2.354536303053465929e+02
1.143388703101662998e+02
5.263853428914444521e+02
5.833643371825019130e+01
1.759507343740551732e+02
4.323579295933085831e+01
1.639802600184337678e+02
4.942918398487261555e-03
2.201742388632798707e-03
1.372308571475287842e+01
2.849704098015770626e-02
1.729614266312751614e+00
6.759303136917083066e-01
1.749413499677756931e+02
2.244417290690761604e+02
2.074128298361756606e+02
5.114147482156113256e+02
4.163664274087750528e+01
3.464585346089733662e+02
3.110288285279238174e+00
1.727707076655861158e+02
4.512828537690438679e+00
1.396216391782444388e-01
1.961261911354085328e+02
1.548717212528571281e+02
1.064816306519786906e+02
1.203663425507329947e+02
1.242750575518584100e+02
1.434387736950156409e+02
1.524808864296574029e+01
2.480401042146696113e+02
1.559707849749237047e-05
1.598440318190113771e+02
2.233024539993492965e+02
1.169953282309506477e+02
4.347189890970183797e+02
1.680211103943292983e+02
5.845911229795941466e-03
6.146090954142063856e-05
2.084854282675223658e+02
2.358780675356684355e+02
2.202356046964268899e+02
2.840675631894555409e+02
2.689653598088626723e+02
6.668584811413893476e+01
4.838500032761318126e-01
1.990641055966989654e+02
2.463997634000406833e+02
2.032097507562866667e+02
1.658389840687050025e+02
4.327487155140261166e+02
1.910732258435020299e+02
4.924323802601975331e+01
2.646403270435256445e+02
4.908443043632360769e+01
2.206545407527302700e+02
1.742819010345556876e+02
4.379191568551733305e+00
2.058155727077974859e+02
1.616455879280919161e+00
1.468651156954006720e-04
2.473495498423289405e+02
1.796094166420516274e+02
1.934251561232224761e-04
1.691719829599607294e+02
1.714218296108501751e-04
2.370629861445195274e+02
2.254842345297219595e+02
1.617124669974145377e+02
8.125476391969145562e-02
8.458941985436470645e+01
3.498802639162468253e-03
1.016125858593568125e+02
1.036464552045799792e+02
3.323947151107857394e+02
1.305212028937602895e+02
3.235461921460229178e+02
8.278459755765652517e+01
1.033279241786658815e+02
8.725927631039662913e+01
2.559288352617840445e+01
1.775157990221487694e+02
6.655432070442659054e+00
3.337432966941378254e+00
1.129516491100730207e+02
1.552289978390036254e+02
1.629740291788038746e+02
3.242513534547470613e+02
7.622589878465648727e-01
2.047928741983923828e+02
1.230690258931644649e+02
8.239127284728057532e+01
2.022487706310193215e-02
4.079754481637110075e+00
2.301024607968429336e+02
9.755235765041450069e-01
2.321104668967510342e-03
2.687640764979733490e+02
1.524956184905022099e+02
1.176687991705876613e+01
3.183566919562962561e+00
2.463228925240401566e+02
1.038457071252195902e+02
3.942848362576113885e+01
9.150120087719768383e-03
1.357319171471317816e+02
1.453445228520650403e+02
1.875452473686890471e+02
1.069069577359187377e+02
2.397787864025302156e+02
1.988836840111617335e+02
1.722038784399046563e+02
3.005160663349670358e+02
1.473225337158510229e+02
9.395768150761793436e+01
4.779827886035491247e+02
2.190799609092210289e+02
1.251670709112659523e+02
1.556709087541095755e+02
2.496167111461544721e+02
2.528245796605915530e+02
1.450648742300586491e+00
1.698686680723767211e+02
2.496570614544908153e+02
1.554521876107172602e+02
2.042242061092111385e+02
9.847770676333313133e+01
1.161080595624298439e+02
4.847291668418621384e+02
3.144752724620048525e+02
3.809627226568408105e+02
1.621172614799433518e+02
4.957120241451775655e+01
1.041246047352866960e-05
1.773780122523021987e+02
5.365932187196449377e+01
1.950159227122639436e+02
1.090923614978238163e+02
2.380530547758099260e+02
9.873653110321354731e+00
2.197834823346055089e+02
1.414440108528650910e+02
3.228708257859124409e+00
3.799213835181668684e-03
4.127584042347734794e+02
9.734651674152705425e+01
1.424204255014046794e+02
1.026123205345356126e+02
2.061140694790083785e+02
3.140619974808942061e+02
1.485010749209322114e+02
2.087731263316528327e+02
7.719454680955095682e+01
1.263489087335984777e+02
1.945130844305822677e+02
1.799740171321901983e+02
1.556651261396836219e+02
1.343645392573588303e-03
4.819331526618953809e+00
5.796672445731019252e+01
1.878713188463734411e+02
2.679708913856302388e+02
2.243184976083286131e+02
3.323735027501243167e+02
1.560050928859709529e+02
7.255422836678917520e+01
6.404961827445276867e+00
6.505428985356049054e+01
1.033423737235352036e+01
3.255332854681910248e+02
1.996039384132016892e+02
1.974396007346513500e+02
3.505583878009929322e+02
2.597489544361451408e+02
5.307342873356901691e+01
2.800687926359388484e+02
3.200310667140003034e+02
3.410486505366861820e+02
1.781926779003698016e+02
5.905108351244054177e+01
1.157343163820768694e+02
2.522351875188177530e+02
1.921648761770483986e+02
2.607965645445801215e+02
3.122915903266402893e+02
2.174100138186077658e+01
2.798950331212836318e+02
1.190596566882960587e+02
1.555017198675158951e+01
2.155262060783570632e+02
7.062910858076065779e+01
2.113323539415431753e+02
7.859580588069550799e+01
1.449669625605664591e-01
1.214187163517635071e+02
9.305907970895074044e+00
3.207104158143919790e+02
6.963071666314135655e+00
2.818240091786718722e+02
2.415272734720927872e+02
3.298281571434927741e+02
1.356446412220976754e+02
1.194624699737687052e+02
4.670857146948036132e+01
1.948319448524804000e-04
2.068919650275347522e+02
1.997235021855885861e+02
1.138741024902628567e+02
1.300366603896692084e+02
1.866731442150922078e+02
1.749999031962943548e+02
1.226915712846676314e+02
2.714341765702556586e+02
2.887975116180313080e+02
1.998672483216069509e+02
3.836692773285903968e+02
7.940087091528766905e+01
5.645994934420740208e+01
2.497820274486003314e+02
4.184104604275490829e+02
5.846229004774272653e-01
1.230927986892993875e+00
1.473218532395549687e+02
1.346300575180065664e+02
1.621353159716819050e+02
4.966759485760121606e+01
1.821086678447158658e+00
4.601782888666861027e-02
1.581148999619471738e+02
3.833251517625058113e+00
1.175041438049447180e+02
2.246852176853280412e+02
2.207014581458110192e-01
6.088352443466646946e+01
6.237320000394674935e-01
2.486909823015595578e+02
2.926243941459688358e+02
9.351212100955308415e+01
2.105604650841997483e+01
8.181609873427078128e+01
2.983166321413592641e+02
3.459872463346982272e+02
2.852172748582235045e+02
1.478275453628158118e+02
3.799925108114620542e+01
3.334019555506529855e+02
6.462895512440169909e-02
1.281026832975840080e+01
2.335549207436997676e+02
1.406372617469969555e+02
8.712898589401447680e+01
1.346902337792925266e+02
1.799535876060872113e+02
3.430982422723901664e+02
1.083128511625545514e+02
8.859431245377887620e+00
3.199105096541643434e+01
2.857244720602466828e+02
2.257949870447191074e+02
5.600312717855558731e+02
4.185738487735761737e+01
7.293820737340865890e+01
1.325802201941770022e+02
6.155890540458130999e+01
1.773410374362356379e+02
2.547089949177460824e+02
3.030881227619742200e-04
3.853679239909978378e+02
1.310033655234291814e+02
2.323213928950281115e+02
1.003140976210033415e+02
1.594813992605850785e+02
3.367585640653488355e+01
1.119300068088706155e+02
4.419436267271522638e+02
1.321820694978668769e+02
3.203359616833041628e+02
2.535093869122647448e+02
5.533569828353181175e-02
3.122200750643970650e+02
9.916722360859071052e-06
2.597580157416815609e+02
9.929879821575009657e+01
2.607325865074017202e+00
3.100836290264851414e+02
1.846379419716867432e+01
2.482173822721961756e+02
2.341621149771526689e+02
4.354894517506181728e+02
2.330303022012231793e+02
2.200297638435586123e+02
3.419788766914280131e+02
8.520484774344369328e+01
2.234271489502135353e+02
1.853792913181678728e+02
1.289627981654118969e+02
1.298448263059981400e+02
1.406477062335397932e+02
2.699684406670713770e+02
2.513189021650759116e+02
1.977956547580106417e+02
3.211324235148823192e+01
2.550555796366097070e+02
1.980351594687817283e+02
6.894600137256929884e+01
3.231289196355647597e+00
1.380208397100431625e+02
1.412969021313983262e+02
8.807802481624092650e+01
1.754835497518797922e+02
3.619273598313158118e+02
2.137442301100236364e+02
2.050322942977799912e+01
1.649937837274251695e+00
3.818386198332745174e+00
2.396778249447380063e+02
3.708190178855375607e-01
6.308916017660521902e+02
1.782792382138723610e+02
1.968885224916447783e+02
1.191553528800795476e+02
1.846883686235091223e-03
8.223643804885796271e+01
1.960187332442728447e+01
1.680420947344828733e+02
2.407352729191187848e+02
1.314023074795841808e+02
8.702611279259143373e+01
1.270460479443902551e-04
1.240638851062612531e+02
2.453548737626989293e+02
2.404245318768516881e+02
3.528647464037932195e+02
1.035469317425707636e-01
4.212172418510682845e-03
4.960900936202962441e+01
2.029114289442078984e+02
3.390516053383180406e+02
2.219383672007096777e+02
1.645165681971775200e+02
1.289113842016375884e+02
9.355547947342837071e-04
1.556263579925143290e+02
2.515956875118716596e+02
2.591031729302811826e+01
1.883066453242654426e-03
3.102485807112316252e+01
1.653442889324453074e-02
1.366521021534936722e+02
1.143203461591469627e-01
2.457441119404393248e+02
1.233388928252679335e+02
9.738491654883926762e-06
2.217506962839252935e+02
1.379191447145785503e+02
3.182260492016212083e+02
8.025838676162490515e+01
2.319466089229536010e+02
1.045902342386397947e+02
1.185789404740945185e+00
4.576654973498079926e+01
3.735139709831855725e+02
1.221954484937668610e+02
3.360645409848076497e+02
2.991560229565947111e+02
5.329809346812906767e+01
1.884814034907323617e+02
9.357969700240576572e+01
1.727614896855812106e+02
4.701193499411990951e-05
1.832335351598886461e+02
2.227540044455962800e+02
1.217589742185737123e+02
1.766870685241884189e+02
1.887426712532032411e+02
3.301506598851120771e+02
1.134156810619060991e+02
1.505526299275515498e+02
2.108829323320607330e+02
6.580216843822199735e+01
1.294077436175938658e+02
2.126119261578423902e+02
1.748154460779916803e+02
1.630983340568491542e+02
2.639439337686781073e+02
2.342180158539123624e+02
4.845540686926596230e+00
2.298377289869677895e+02
1.366325522631085789e+02
1.389373258365593529e+02
1.450462852928467896e+02
1.234348346051774143e+02
1.947631239756447030e+02
5.133341158616531175e+02
2.995769260483029939e+01
1.059487904643902283e+02
6.062676169058249798e+01
5.803595180623234739e+01
3.820317774487194242e+02
9.788916360357680446e+01
1.511231150103412801e+02
1.022174033554619967e+02
2.597895341990806628e+02
1.486581961089541721e+02
2.499708117579757971e+00
9.222625420825352194e+01
1.552467353965766108e+02
1.477126502744795857e+02
2.139315059346700423e+02
1.250881396046680720e+02
1.964551013967139284e+02
2.595735858711123001e+02
1.282050325971795530e+02
1.012994733791573010e+00
3.298361220862715300e+02
9.501524080333174993e+01
2.135468876818777062e+02
1.947837182429793188e+02
4.076344421698186978e-04
2.890076418378157541e+02
7.465190052116668085e+01
1.461087891559146215e+02
1.464779507732601438e+01
1.244918624804539675e+01
3.686180141350803297e-01
1.175707035648883902e+02
3.780524911759130759e+02
2.648280976296517792e+02
2.160935949581473210e+02
1.699158350085383240e-01
1.295686866587857935e+02
2.130872506819287082e+02
2.356337847913891892e+00
1.741760550619800938e+02
4.989936124649706727e-03
1.370431800910409663e+02
2.449811259215493351e+02
2.451715639173926320e+02
1.805644898617174476e+02
2.516414170964707750e+02
5.881519458883141538e-05
2.762209078417072305e+02
2.082593531042221855e+02
5.568608807361670188e+01
5.358394654866316387e-02
2.723202119203051552e+02
5.981603557869696886e-03
5.066636899638979230e+02
3.988110919675592392e+00
1.062842295157225436e+01
1.335301023620558567e+02
2.978896072278301999e-01
2.836128026928451699e-04
2.026430418150085089e+01
1.878187974056345695e+02
8.349934325669892132e+01
1.083765237382976494e+02
2.396847544736373834e+02
1.177129772477200653e+01
2.968875616490548737e+02
1.026225832500131219e+02
1.461953817380456499e-03
2.323707908850336992e+02
4.153353486079139429e+02
1.315065795370174540e+00
3.613682521114243400e+02
5.261279674318757316e+01
1.959372306120712608e+02
4.702813159030938550e+00
1.919620182339713210e+02
5.581138387538570056e-05
2.189330482997319507e+02
1.824685177507489868e+02
1.393172936899645151e+02
1.598318879343423760e+02
1.280399131237572590e+02
2.405481391420244419e-05
1.780599943442211099e+02
2.401678937194446561e+01
5.904846091807486630e+01
1.474469117325497223e+02
7.710272624935896602e+01
2.080197637820673719e+02
1.146313578805348072e+02
1.701008420672222599e+02
2.571716164049576037e+02
3.812014006579489411e-04
6.701084460598847770e+00
3.763735842417191435e+01
1.056401528754576731e+02
1.173691409647289703e+02
9.634489399559244305e+01
1.767868396862468501e+02
1.231758836171138967e+02
1.978026285868850653e+00
7.052241219207644463e+01
2.947625080319995163e+02
3.235425911429047119e+02
1.640291854753741063e+02
3.490895427879877388e+02
3.592111322141136043e+02
4.116423313273116946e+02
1.093325674792140489e+02
1.465969480796047151e+02
1.156793099301012617e+01
1.669241783027245276e+02
1.811419216825015326e+02
3.684277211505104788e+02
2.084253828670627229e+02
1.175615680451301159e+02
2.112780484912946690e+02
2.152276849275948791e+02
1.719387565572106382e+02
2.297291066137403845e+02
5.535844913420079649e+01
6.886210111906621023e+01
1.013999306306345050e+00
1.425339187655480941e+02
4.515396166027584313e-01
9.732903570702549700e+01
1.616095910278090741e+02
7.487286126693103938e+01
2.546426022294326685e+02
2.296902606671211231e+02
1.497893660534827731e+01
1.295445387133441102e+02
2.615497607395809609e+02
1.138384884475272152e+01
2.463010276518616593e+02
1.949416475414181491e+02
1.074605406192858510e+02
2.749738292382454194e-02
7.125897866499144584e+01
4.504722577134089079e+02
3.224842396910390221e+02
9.924639759719863719e+01
1.325665168249090087e+01
2.471423634533494607e+01
1.130701763930118915e+02
2.156995176187592289e+00
7.051812318368320120e+01
1.340245971008698973e+02
2.357699829466581889e+02
3.316016648030199576e+02
5.208632087328622262e+00
1.340355546335558188e+02
3.086367313459051047e+02
3.301811823073207142e-02
7.241674644067885858e-04
1.753739923511602967e+02
3.446889764367371072e+02
1.001532057589429598e+02
3.036526390031211804e+02
1.392224565188371628e+02
1.177483935651253688e+02
1.122983737856132203e-01
3.717283251753542572e+02
1.915536686392443357e+02
3.003726055831065196e+02
9.220460534606900183e+00
2.834578435213187504e+02
7.351671583819553746e+01
2.310655807024887167e+02
2.551348956381844744e+02
1.060378478892744880e+02
3.904928584350273582e+02
3.882880441136649097e+00
1.820900546175834620e+02
1.222099439295562036e+02
2.257476106976241681e-01
1.817300688762202743e+00
2.926834170393705108e+02
1.694473266865315679e+02
2.336553135843132623e+02
2.895676057101809988e+02
2.466126404815582873e-01
8.988544335588817091e+01
8.568598177116653858e+01
1.504108843488210709e+02
1.037791459311846722e+02
3.557977914082584903e+02
2.781576129338644705e+02
3.097997854411005392e+00
4.580016519230412086e+01
2.469977314074640162e+02
2.958866075481638518e+02
2.220651881918457207e+02
1.417186163809674895e+02
2.064320283025153913e+02
1.867577921679184954e+02
8.913423524550267985e-02
1.202917973225794412e+01
1.907253762561596204e+02
5.374724328146839980e+02
1.752462901109538222e+02
2.683427827956620604e+02
2.934395144009613432e+02
1.346260607057047878e+02
1.147875103399201180e+02
4.995409753945522224e-01
1.062253080842765200e+02
4.465085650317632826e+01
1.606850890482746195e+02
2.584080074168015244e+02
2.373473162453593375e+02
1.802173759631840255e+02
1.890270429426891781e+02
1.955264462889317372e+02
1.104518106246359110e+02
8.319794744934477858e-05
3.495386476873817205e+00
3.712630543479463086e+02
6.863134741233807290e+01
1.455230618343194067e+02
9.901496637478855722e-02
2.086881908435316859e+02
2.020490259837969802e+02
1.584875120028300159e+02
1.798968917049931520e+02
2.896285309256198843e+02
4.409541824185225778e+00
2.701349231783999397e-02
2.771135127637535902e+02
3.437236595033026560e+02
9.844955160842808084e+01
1.667661550713092993e+02
3.137904078466818447e+01
1.789039957628119168e+02
2.230545627229730599e+02
7.474566354359613030e-04
2.803586907753015822e+01
1.201900841320821485e+02
1.573533587899873396e+02
1.731945328974689176e+02
4.589870066964067519e+02
2.748947520394722233e+02
2.275339825813716743e+02
6.556266139705256535e+01
2.261390800300432602e+02
2.488174132198765278e+02
6.406159645155895532e-03
1.830032789035613519e+02
2.388494795002771411e+02
4.182867896979303168e-01
1.516569791390793398e+02
2.111694490635272814e+02
2.344998499189387644e+02
7.527978222388043150e-03
3.295468099524442778e+02
1.033523987383886436e+02
2.664350943887256449e+02
1.793204988833167874e+02
1.045300063500689873e+02
2.477127499423659174e+02
1.035835642085658890e+02
1.735041747087961994e+02
1.274334900728717059e+02
1.460839973035035371e+02
1.756361014770390361e-01
4.560858200289658271e+02
1.355160136345147635e+02
1.092192667418202774e+02
1.848753910919185444e+02
9.667173934476521424e+01
1.858545943308854476e+02
1.509010639070764910e+02
1.529755270872556139e+02
2.048009259036917626e+02
2.368264679287676699e+02
2.717961684484180296e+01
1.736067280078715100e+02
1.211756719452750986e+02
1.290492802579201390e-02
2.925035303698678035e+02
1.512770388919306583e+02
2.402357230086635411e+02
6.436893258307918586e+00
6.385732949422616933e+00
1.072586148355184577e+02
3.138232126839284319e+02
2.270584838151990823e+02
7.381150476649052905e+01
1.966422395486006849e+02
3.158582369207579177e+02
3.361959037429186310e+02
1.261824236467875124e+02
3.336153325530176517e+02
2.227939058833727017e+02
2.251986990751902908e+02
3.093873038261562680e+00
6.171095183560295142e-03
2.274883971229428425e+02
1.036439717170651136e+02
1.455124720339996403e+00
9.504914594708681719e+00
1.391581005986153912e+02
1.090848945432298507e+02
2.319183766856439490e+02
5.210730602011608426e+02
1.642264389898628565e+02
7.332672599586658180e+01
3.717991233919747742e+02
1.286627554438383072e+02
2.503650307138742335e+02
7.855641251455836027e+00
2.194738082562252544e+02
2.290279385320901895e+02
2.406908870780172549e+02
3.425016782402962008e+02
3.266993744589854032e+02
3.255020986443923903e+00
3.845924276771256700e+02
1.112483022136075022e+02
3.331546280065822430e+00
1.937089371247567158e+02
3.507723504503701406e+00
1.534392110927001625e+02
2.380394151339714881e+02
1.062340000216863984e+02
1.922284759726607888e+02
1.886182337217178997e+02
2.977846538426092593e+02
2.828110984853992704e+02
5.788084784680904704e+01
6.184293775222613476e+01
1.106531091727446636e+02
3.688946702231986308e+01
2.493144534706516424e+02
1.556901406347607235e+02
1.201868014524051986e+01
1.265769245808769057e+02
5.710537895993182644e+01
7.134118615304032573e+01
1.545885262352385041e+02
1.027686245627657631e-03
1.696193312320247628e+02
5.790792439563929861e-04
1.608197222514717737e+02
2.736158366369635360e+02
2.041243739982747059e+02
1.635076842887428938e+02
1.860437803650710862e+02
5.827460072305255778e+01
1.481239992710471256e+02
4.444711910364277401e+02
4.312969275822978261e+02
2.585759645982760730e+02
1.655618475488152512e+02
1.398733561170956818e+02
2.164272950842131991e+02
5.013519626254492323e+01
2.855745607659629286e+02
5.013542966089516284e+01
3.832920654400367084e+02
3.869492691599589307e+02
1.441371323919155429e+02
9.749569127143330149e+01
1.066539955128973531e+02
1.499324700751457442e+02
1.684324601079425179e+02
1.245767286840419530e+02
1.238892697976552597e+02
2.855797313819492729e+02
1.557800409467745624e+02
4.527857351451530121e+02
1.538742184718102806e+02
2.744492788417119300e+02
5.916827942091913428e+01
1.879443206786390430e+00
1.065688965383742755e+02
1.862814802720095599e+02
4.243890104378806427e+02
7.942589214247067209e-02
2.057974572671810876e+01
9.225656118346137191e-01
1.821695857328450927e+02
9.938942848020818133e+01
5.388127796668413794e+01
2.398324622867222899e+02
1.762668905448663281e+02
2.727485635026823161e+02
1.851869101286866055e+02
2.256422979156923816e+02
1.967201107032451546e+02
1.833871858470956226e+02
2.046549768242584122e+01
7.884722690378112020e+01
2.979882467574499287e+02
1.691008853767927178e+02
3.656255756926839808e+02
1.446851386322122721e+02
2.589860614539247763e+01
1.002877958915237688e-03
4.097629140574101103e-01
9.172783973954207681e+01
1.156074552363861940e+01
2.460259295134165427e+02
1.299762163118431317e+02
1.163975486272648112e+02
1.249602840735520193e+00
1.127883674245822050e+02
2.558776287034561960e+02
9.692134489796444541e+01
3.661249363030947279e+02
1.383486019813062740e+02
2.510411817907878742e+02
1.543503114895429746e+02
4.056697496462219732e+01
4.186230917024660130e+02
3.140432668151335065e+02
2.335547321607008655e+02
1.231430285866736085e+02
8.508940303963754559e+01
1.674045522620872077e+02
2.075374380245195027e+02
2.400667275451269234e+02
2.424046318530599819e+02
1.925446056127838972e+02
1.314661435417292523e+02
1.661713636656259752e+01
3.330150319961830974e+02
1.680336522393190251e+02
1.179737337566620710e+02
1.555495236858404837e+02
9.561808561729780820e+01
6.865103067320889352e+01
1.405405253012759204e+01
2.170041618730464563e+02
2.181489115861040204e+02
2.420507583654398900e+02
1.844994469400263029e+02
2.197177285339421360e+02
7.140312204428482801e+01
1.998121254393482218e+02
1.097528566006077000e+02
3.115863059207150921e-05
1.450999493457856602e+02
1.283346107458504647e-03
8.052969414875407494e+01
2.730613831257642943e+01
3.460341884434456006e+02
2.201993487185972640e+02
2.781952571120199309e+02
7.474836240754097162e-05
1.897054713565013628e+02
8.674788546704803593e+01
5.171602928166976199e+01
5.154714119571509912e+01
4.460999243165134942e+01
2.404830254113220889e+01
1.542092040814168286e+02
2.012349024222203866e+02
1.662797149059769879e+02
3.207968570983212544e+02
1.216262408277545148e+02
1.296066140699622338e+02
2.587619627320015799e-04
1.556856246814276972e+02
3.001046599747496657e+02
1.013366734259762758e+01
1.506542532184539311e+02
1.435927721493499121e+02
1.254879800189881962e+02
6.119460546411573887e+02
1.671190232609660029e+02
1.800050322235620683e+02
1.543221581272518677e+02
2.742240942490752786e+02
1.070181277722440001e+02
1.687006236981688403e+02
5.563183192025461210e+01
2.919695235490506775e+02
1.363846158128580726e+02
3.361525569009246510e+02
3.298397908502010267e+01
1.711587041354504777e+02
1.708405409539410016e+02
3.643964132177643478e+02
1.026193432793660776e+02
1.678337426309894909e+00
3.309109813624671688e+02
1.501067896024323716e+02
4.653631398614380288e+01
3.218178770039230585e+01
1.802366938893101178e+02
1.833531935822975925e+02
1.662806484993780600e+02
1.390261695818481371e+02
7.688726049309480004e+00
2.904992444447996718e+02
8.882636374419234926e+01
2.782328840810805559e+02
2.258460679408017882e+02
1.433767026406713399e+02
1.726127555470302957e-02
3.447695486196582530e-04
1.485398319538943781e+02
2.701988410495687276e+02
1.233516239703021711e+02
2.251222017799591981e+02
1.744814620445734460e-02
2.223948147817282006e+02
2.186112991730625197e+02
7.765377939576865174e+01
2.162545150538789187e+02
1.350175941464840434e+02
8.489738288262742572e+01
3.408221716767003500e+02
2.614567168995563406e+02
2.778781544409868047e+02
9.253515638702080537e+01
8.198996974952022754e+01
1.020234871505635965e+02
3.415234681095170117e+02
3.051500812296580989e+02
3.439333738366258331e+02
2.330465398786145315e+01
2.480873313490520218e+02
2.924620202402365976e+01
2.918928784976060786e+00
3.904361082177274511e+01
1.536285097030487066e+02
1.073342405617949709e+02
1.957821998921360218e-01
3.746618620731170495e+02
2.950916520501776859e+02
1.542589369317283854e+02
1.597774360467819161e-03
1.095989366627691481e+02
5.770924430908054319e+02
5.261250374041992472e+01
2.289890337877294826e+02
5.633274829648371451e-01
8.796462297541435760e+01
2.476731711751200180e+02
3.434556809108472066e+02
2.106032066490071998e-03
1.147764560060749943e+02
1.599133665455156290e+02
1.597346024109357074e+02
1.206685763844688211e+02
7.789165197835679066e-04
3.113747901565488974e-01
9.277939046182840599e+00
1.608499916153959362e+02
3.038134737704240251e+02
1.940247957216343764e+02
2.588478042181208694e-01
1.270723547057059903e+02
1.063410739348909146e+02
1.122397451524647927e-01
2.383941333013353301e+02
1.528032769536366402e+02
3.920661348688555847e+01
1.673169106437854623e+02
3.269774734333622064e+02
6.853301536084472900e+01
4.968710414527777175e+00
1.817893357219873280e+02
1.554912389909078172e+02
9.485169632062027745e+01
1.554263255677142865e+02
7.927350550726259826e+01
1.991521523457778926e+02
2.071178093021445079e+02
5.198398300860773702e-02
6.628659366950159892e+02
9.807626267647717100e+01
2.575850419656490544e+02
1.033517047803744586e-02
6.031431210785741825e+01
1.847495775498828721e+02
2.720476650301861810e+02
2.007842998385968656e+02
2.212182167702848687e+02
2.912527876898820978e+02
1.719811841467162594e+02
2.318723093725565718e+02
1.398268341970834285e+02
2.237399536497832742e+02
1.030336794879985263e+02
1.794181769892020952e+02
4.542508436334174604e+01
2.133714552997844862e+02
2.248515217181193293e+02
3.199965201169162055e-01
1.590098252436292512e+02
1.528703458159725130e+02
1.328765812450000894e+01
2.067908174964032639e+02
2.286632885658037253e+02
2.703954635639091748e+02
1.421004266831004657e+02
1.267709911860947898e+02
7.414307446038037597e+00
9.253616311907535419e+01
5.635599678521785449e-02
2.500045302906073630e+02
2.443439455571933081e+02
7.541590483447180304e+00
2.102610705718689132e+02
1.583809561550879437e+02
1.273635021178051545e+02
8.444385811401385666e+00
2.225844898410286135e+02
9.360052896756340191e-04
9.666849130735496942e+01
2.179006911857868545e+02
7.013286209948999783e+01
1.269637746381704346e+02
1.143039431168724630e-03
1.379541680909823356e+02
3.814921217424854376e+02
1.092631087038170961e+02
1.723417261586290010e+02
6.439984012657076846e+02
1.058047973061548390e+02
3.141759259917308214e+02
2.122001852958420329e+02
2.982712962148070801e+02
1.155303298091893822e+02
5.050268088943994371e+01
4.104633892937271185e+02
2.259536625803803545e-01
1.444976711771232942e+02
1.277837561039632419e+02
5.156838094976021747e-01
1.859833203329798579e+01
1.123446757266719942e+02
1.566846549489127653e+02
1.050893736404759977e+02
1.556282961668330245e+02
1.230301118272109022e+02
2.261503147008625945e+02
1.080687473211582983e+02
1.409155543236920778e+02
2.398382603176287375e+02
1.544960216135224016e+02
3.691133644773799460e+02
1.590510417430778602e+02
3.053883026772619136e-05
2.186149338773248019e+02
5.941247280338757264e+01
9.081753723521617871e+01
5.190628547843800789e-01
1.870069017048080866e+02
4.917267218595952727e+02
8.047689341874502134e+01
1.112677040340714001e+02
2.141035854114306289e+02
4.624130793643415700e+02
1.128128914604530593e+02
1.026630072347871021e+02
3.106714572917554165e+02
1.708807292099664323e+02
1.333577983841926530e-02
1.437478067346091279e+02
1.155338888651387208e+02
2.697947468965367523e+00
3.196117240928288084e+02
1.916496387424558066e+02
3.037811178037371747e+02
2.747379398981137228e+02
9.804412612575106323e+01
1.913422239852026127e-02
1.590937274690076890e+02
1.818045335039641373e+02
1.060506243986481412e+00
1.074332229736683360e+02
2.553493725885346635e+02
6.656332668541153907e-01
2.172034145107318182e+02
2.175786043306287922e+02
1.737592479141312651e+02
1.495664577221759828e+02
4.726030249097012102e-03
1.232074196421309296e+02
2.178473157437110785e+02
1.147039203879103013e+02
2.861683777962752515e+02
1.362458735797189888e+02
2.409475313303119037e+02
1.450495698083336684e-04
2.796537128509953050e+02
1.637772902162395781e+02
7.182653820163977798e+01
5.955129794492675899e+01
1.985702249178303447e+01
6.274790535869103625e-01
1.152133368461364000e+02
1.663249712404650040e+02
3.148047649643558543e+02
6.960546612560847279e+00
1.596165189792372416e+02
1.611814273113849936e+02
7.201412684864294533e-01
1.848854340329125989e+02
1.610585945280036526e+02
1.048131713156028722e-04
6.413345121529800963e+00
3.333978339724126272e+02
2.830151180423854385e+02
1.829313843241834263e+02
3.522096895136606932e-03
1.870614312318138843e+02
7.309220170473051326e+01
3.592499000027602278e+02
1.099588964336362125e+02
1.230314197184270313e+02
7.032875752956897486e+01
4.165509743370421347e+00
1.893063924446323085e+02
1.517843465189798451e+02
2.166456361934251618e+02
1.190656791544824529e+02
1.380823073704960109e+02
4.440595523534283302e+02
1.910281824715639800e+02
2.067816174913804893e-03
3.640029473390313797e+02
4.274169679032637532e+02
2.844060295177768580e+02
7.037858072762900008e+01
3.049362883408322205e+02
1.582476960942584299e+02
1.450939695438136425e+02
1.618459626077311100e+02
2.881561903152032187e+02
2.399552319700887040e+02
1.973592410731725977e+01
2.934204897464951500e+02
5.450016667646197277e+01
4.724777181589161046e+02
3.345188050185242901e+02
1.140310763254091881e+02
2.717874975742233801e+01
1.376520201234597778e+02
1.775006383472827665e+01
3.253039032904780470e+02
1.986011687527933987e+02
2.851505989368888550e+02
3.616743187332757543e+02
2.808731633911066616e+00
1.657226543513387753e+02
2.119597753149718358e+02
1.757657380374438389e+02
1.715708497697051769e+02
2.764012369283590829e+02
2.495645152441285006e+02
1.674847724581922535e+02
1.787632110252162079e+02
1.789822218550398816e+02
1.513125089877576102e+02
1.635197345989581379e+02
2.486636393800836231e+01
1.955685748704127604e+02
2.552233417816751739e+02
8.514203849063051166e+01
7.124731269123003585e+01
3.113104481963090961e+02
3.723976442415732890e+01
2.370625293864576690e+02
2.575255745039612520e+02
1.784926546537462855e+02
3.168767278064478887e+02
1.804096080743988750e+00
6.044312666508632503e+01
8.848037847546949308e+01
2.668729927165258573e+02
1.702529306705401382e+02
2.222012067271862747e+02
3.827298428739594556e+02
1.649310775723279789e+02
6.323180690242226376e+01
1.534834879428671570e+02
9.555418161507989794e+01
1.760252808773455843e-02
1.135841783579962367e+02
1.802623877851147540e+02
4.653879998331831302e+02
1.872760290043515568e+02
1.907749850575782489e+02
3.822146083075494971e+02
1.107089340426681900e+02
2.767694563477563179e+02
8.316751282709446969e+01
3.892455532717575579e+02
5.041432077321772454e-02
3.387632658768779947e+01
1.878055985675927886e+01
1.112632691068938584e+02
2.066011449467623606e+02
1.536803447518650216e+02
2.310754214310151156e-01
9.058265215161620532e-04
8.679458507992880101e+00
1.878830077655948685e+02
5.635506376461307809e+00
9.292094851963248833e-06
2.316443670224543041e+02
1.450108704095327425e+02
3.459669611140270717e+02
5.419721364596625790e+01
4.829925741250918918e+02
1.111581986191594780e+02
1.607669078975960701e+02
2.965865874852171373e+02
9.824220890350264312e+01
1.728478883052957258e+02
1.209051860109333805e-02
1.553928826208278164e-04
2.634451138106669532e+02
2.387934050984768533e+02
1.732862652610492660e+02
8.927223777045580277e+01
1.856526065226717606e+02
2.051671282849554800e-01
1.207844805352580124e+02
1.791135451756417183e+02
2.019793413390289061e+02
1.522706633524648794e+02
1.341313028111472647e+02
2.047397260597790023e+02
3.483209310084019705e+01
3.365607365558390711e+02
1.295437069404214867e+02
2.424793415535533256e+02
1.715515949435938836e+01
1.145644360125514822e+02
1.717813448760806949e+01
2.260090796586154624e+02
5.640969204672729802e+02
1.626968451546418066e+02
2.185649156428552828e+02
1.649843433064233977e+02
4.464043847561696339e+02
1.003378908977538231e+02
2.305047595516641068e-01
1.999382164780398341e+02
1.760130879443750587e+02
8.410570571722928435e+01
2.589295799494720427e+02
3.048578492860543747e+02
2.063237547719835732e+02
1.519659257746752701e+00
6.334261429292384094e+01
1.643750818304396546e+02
1.555032914522598730e+02
7.477774776434671367e+01
7.296376789872738300e+01
2.840475361052086214e+02
8.531742516106533003e+00
5.629585832932207268e+02
1.976671121403343250e+02
1.918560810061363808e-01
4.617160414654790657e+01
1.781280247647372619e+02
1.582546177356562680e+02
1.721256487624486908e+02
2.363778124825330451e+02
2.041667836616397267e+02
1.824323632348749413e+02
1.689391353007521559e+02
2.592825392039229655e+02
6.224842160241676083e+02
3.240718410830594394e+02
2.807114880894799880e-01
1.975531126419808743e+02
2.785353138475329615e+02
1.382615773807628443e+02
2.635657065435225377e+02
4.176803072106851005e+02
1.748953902115317760e+02
2.004275850576959499e+02
2.475550916871724496e+02
1.269527776679752549e+02
3.236739639396545272e+02
1.068343810332805344e+00
4.545435323350830004e+02
5.759603958409570623e+02
1.648156568895502403e+02
1.934750063681349843e+02
2.025771636965601474e-01
3.521669548899808433e+02
2.642083672875742195e+02
2.415750100673903944e+02
1.945021968098444347e+02
1.381152039895823975e+02
1.333321074223931362e+02
4.316769105832920062e+00
6.793181867624298320e+01
2.769338892499945928e+02
6.282125866655405844e+01
1.386867234106829869e+02
1.900567491389666941e+02
1.975537580647946257e-03
2.041141317185974344e+02
1.402194720449756016e+00
1.728404837336711637e+02
1.122547997942093190e+02
2.123976808132284191e+02
1.047574202935663390e+00
2.124427980408655117e+02
2.958448855315509718e+02
1.640740359620394315e+02
1.650774645873751467e+02
2.975197399031457053e+02
2.218846296505944338e+02
5.090219483288819902e+02
3.231450094222965390e+02
3.314698316629801411e+02
1.125876591842825007e+02
1.879419643322762283e+02
3.005573409151110127e+02
3.924517252562509384e+01
1.437531906716686478e+02
9.795768484182192992e+01
3.736611001404526178e+02
1.525512142643492552e+02
6.034220141809782945e+01
1.139529195177145660e+01
2.573713448936198155e-03
9.478351228262021791e-04
2.277807122438389911e+02
1.574417418334632828e+02
2.336779249009850901e+02
2.449352077539515449e+02
3.923454604604081908e-02
1.825344891747591305e+02
2.302085806808463531e+02
2.681838517844879561e+02
3.073665316329423831e+02
1.828101648934535319e+02
4.008054652970828059e-03
1.246913602581115867e+02
1.817963183122628834e+02
6.853350752303411753e+01
6.069598276535545267e+01
3.038039731848130476e+00
2.967828170585563043e+02
3.336345292984333355e+02
2.194079547862203583e+02
2.284333112402237020e+02
3.392659044613536707e+02
1.795165197963798676e+01
2.830687322606536327e+02
1.883746848736337256e+02
2.585252070897696512e+02
1.940365265880245431e+02
1.537603112930809743e+02
1.890013859747342906e+02
2.805814738028856823e+02
1.799964075988099523e+02
1.782312885663942126e+01
1.743209735675918353e+02
3.295354906702414155e+02
5.601577117309712616e-05
1.755284403930999986e+02
1.714121439108567415e+02
1.471599902288290025e+02
1.549641209618357163e+00
1.248588589800730952e-04
2.068862537591485307e+02
8.689511752036196413e+01
1.357786416325325547e+02
5.201770944862798842e+02
9.069674785259850580e+01
8.068280454208434094e+01
5.093507409947052622e+01
1.481736053611370618e+00
2.210967729042750705e+02
1.348209336287254700e+02
4.130956430286048670e-02
1.606026732584722936e+02
2.078433985236186459e+02
8.014183108525685384e+00
9.548279291138892688e+01
2.200446998142523647e+00
2.405364763224497437e+02
8.597591269821071649e-03
3.756379447295330465e+01
1.309522167769046064e+01
2.978967703999232263e-05
1.423647612497007060e+02
2.898329267522968422e+01
1.412657784076145617e+02
4.453067916381315605e+00
3.475201952263887506e+02
1.629748380062665660e+02
4.419346521841362119e+02
1.042928879671307669e+02
1.131107027360486228e+02
8.211945133843983058e+01
6.833058388065182953e+00
2.203126447951945011e+02
1.811369701239528354e+02
1.381151021691038352e+02
3.445776328753708384e+01
1.876167812741186651e+02
1.790689893947272537e+02
1.167971206872606871e+02
7.996571563317901934e-03
9.587477522272823194e+01
1.363736518267614883e+02
4.306583013402587312e-01
5.192118060554092551e+01
1.233617940076328097e+02
2.031847624333749991e+02
2.107765912394826557e+02
5.220019483487702701e+02
1.692610629717819961e+02
1.436680117465585624e+02
1.969016085742624114e+02
1.319163442913051654e-01
5.921754726714425487e+01
3.109996044372564383e-01
1.435615620215684771e+02
4.182512172326369182e+00
1.411670516225057952e+02
1.929386695075664022e+02
1.482525734387309058e+02
1.575528878487602356e+02
5.220312106221172144e+01
4.961377570769401473e+02
1.177173992680763632e+02
3.401465827635548749e+02
3.208119222268577460e+02
1.414266748408407750e+02
2.729690026873868192e+02
1.846687220513557293e+02
4.204043936479138921e+01
2.037107684591319696e+02
1.047245512247173167e+02
1.849193008147267392e+02
4.182989791934232926e+01
2.042699672438175469e+02
2.759577822140271337e+02
1.659988868559593698e+02
1.231567840313801128e+02
2.215126435905403355e+02
1.882277421482285149e+02
9.779116282716125852e+01
2.047732710197535354e-03
3.245634449600132143e-02
1.381131769016065505e+02
2.609754509354389143e+02
1.073668152273966427e+02
2.501089393037546529e+02
1.101188115899276028e+02
2.833511442644521594e+02
2.414172334996692939e+02
3.538681520836689742e+02
7.884860040467174258e+01
1.357702030811197744e+02
2.803729243549923034e+00
1.398469684796509966e+02
1.533033166062523946e+02
2.340654916453785859e+02
3.339329479116713060e+02
5.299009372713044286e+02
5.043773143470387765e+01
2.167985827418306997e+02
2.125095808019977994e+02
3.913121848796436097e+02
3.224266042809177861e+02
2.299455611759185558e+02
1.195753415593570281e+02
1.564884888341112799e+02
3.768712694750320225e+01
1.444122154724026927e+02
1.428719580932010444e+02
5.836164952388570271e+01
1.075847207313926646e+02
6.048609060471788723e+01
1.308804735837839246e+02
1.317487706592145855e+02
2.227868221896642353e+02
6.892828138261393178e+01
1.296939412637583757e+02
1.139640983832679744e-03
8.610196001427536316e+01
2.270368161305669332e+02
1.474051402397889774e+02
1.817304340092959478e+02
2.877424506885291748e+02
8.464071268224415689e+00
1.066027963042870397e+02
7.507477431123454892e-03
2.388085218542982204e+02
3.861037544165810687e+01
1.028414443069323525e+01
3.026359902076363824e+02
2.013805953371049213e+02
3.559019635152038674e-03
1.276151279470468154e+02
2.032882400042580855e+02
1.919395015673216562e+02
2.269294141689897515e+02
9.198332954838404873e+01
5.194665293424804986e+00
1.872863809920091285e+02
1.116964546523376640e+02
1.522861379140522899e+02
2.483238493855423457e+01
4.291769692914384677e+02
3.552370344834342859e+02
2.674063757076510228e+02
1.928036218519991394e+02
2.525797774167586454e+02
1.178465243060601075e+01
1.128346456387135177e+01
3.503355916873260867e+01
4.483529373606742752e-02
2.282282892534567509e+02
1.940200847318918989e+02
3.745204807535629925e+02
1.676627539374749176e+02
2.596024842438056339e+02
2.365904456472223681e-04
1.652131615277539254e+02
2.606490668258629171e+02
9.993695470047461726e-02
1.284836993820590934e+01
2.675235989983092200e+00
2.155113478174826582e+02
2.594333647313761162e+02
1.458515110352892066e+02
1.513909996698203599e+02
1.323193131056542597e+02
1.644164110853126317e+02
6.057099404793708786e-04
6.412459090521238636e-03
8.773443806512658227e+01
1.824487287256488059e+02
2.708929964250273201e+02
1.601931156659474498e+00
1.185158740259794712e+02
1.238820199286238051e+02
1.889359831679029753e+02
1.698924417200032053e+02
1.650490516545687854e+02
6.413274461165201501e+01
2.564777471307024257e+02
1.179960675652334906e-06
2.965380449306395576e+02
2.255871456345631998e+02
2.437236458808911834e+02
1.409959985069235344e+01
9.693291944840893848e+01
2.774380024387937169e+02
4.020039280686660277e+00
2.331950864558165790e+02
9.346525526616461832e+01
2.421237814149296286e-05
1.512000805363641120e+02
1.935908002731593456e+02
1.566768922129995758e+02
2.373731994412082145e+02
2.101803860887229547e+01
2.749996264152286471e+02
1.726690596366097168e+02
1.456358846608055160e+02
2.662414275364426999e+02
1.959697375168616986e+02
2.191936807597813583e+02
1.834494218219335266e+02
1.142701606681839905e+02
3.235378916258923709e+02
1.569640998179239659e+02
2.359217521061508762e+02
3.899492933960573282e+01
1.347888454785789065e+02
1.423859002924473600e+02
2.899750353353738319e+02
1.636693504704453517e+02
2.429828732183523243e+02
5.620078162910429853e+01
4.417633829689293634e+01
1.470848868702887913e+01
1.996544987341620470e+02
1.726199190659827138e+02
1.177706138930645179e-02
8.878630141930447195e+00
2.342037158130552541e+02
1.506675340771229123e-04
2.278649643874815069e+02
6.879422804524892854e+00
1.897281343004578673e+02
4.138079998425382655e+02
1.824612677024562117e+02
2.347313502494217232e+02
2.914914391163619598e+02
1.219791925532263122e+02
4.599565513308336051e+01
1.749982145538523923e+02
3.263068278327409644e+02
1.126474460897952952e+02
1.164285624638068413e+02
2.282992237087453873e+02
1.778943639757927144e+02
8.391617621819023043e+01
8.619434902323863668e-03
6.737084645847063769e+01
3.784408344807162621e+02
1.561557685508888085e+02
1.380668665100530745e+02
1.187313096663274052e+02
7.496438362577467274e+01
1.717423570440587923e+02
3.170154804367484189e+02
4.968990343761105350e+02
4.026439666216903106e+02
9.708345600647592732e+01
1.287624233513271008e+02
7.162806074049316019e-05
1.539328568494966305e+02
2.462243510952247902e+02
1.184416196494567686e+02
2.073865049290190762e-02
2.186393263353238581e+02
2.118474709124712660e+02
2.183842459595324783e+02
2.026800684690882050e-04
1.795001969698205357e+02
2.491353684581553551e+01
1.513324328174349489e+02
9.323009047402592842e+01
2.138918052696682537e+02
6.886271946335909888e+02
2.854211976140503566e+02
1.419476780392868420e+02
1.154631217951874511e+00
2.661482488918408080e+02
1.348043540998333469e+02
1.108955075211269730e+02
2.228427883175755255e+02
1.119425056311229412e+02
7.165422904620299960e+00
2.275893334841384785e+02
7.849866170490713557e+01
3.185247058740061448e+02
1.258214272968416481e+01
2.478496482926858278e+02
1.401241987532557687e+02
1.828112956744005828e+02
5.704374655824723561e+01
1.832912594836671474e+02
3.092371996914154124e+02
6.440538030787138268e+02
1.046251073340276339e-03
3.416122742099105380e+02
3.551311297131179572e+02
1.775888638199830325e+02
2.029938820203825003e+02
1.973462406775070690e+02
2.931896713263995480e+02
5.861688592432301448e-01
3.038780417568887060e+01
5.878093696037866049e-04
2.654043427399300867e+02
5.785657558743384499e-03
3.450475191461919167e+01
1.307860770371917170e+02
2.716930365327385744e-02
1.249877937305426769e+02
6.029560762489672961e-04
1.477540700563621954e+02
9.150682440867964829e+01
1.041839866631561762e+02
1.228735298574976014e+02
1.973268180627201787e+02
6.738068110891504148e-01
2.233310641197022051e+02
4.804142761105634207e-03
6.734899727166521188e+01
1.972424977997434894e+02
3.265105777805729304e+02
1.870664437392406114e+02
1.506926789763382715e+02
2.226623545422625625e+02
1.603793335345925497e+00
1.469404452000161996e+02
2.425315180953477068e+02
3.168943578071776983e+02
1.587122979181003473e+02
9.677721536661465507e-01
4.969478307648387272e+01
7.297548478272801731e+01
2.077941036313290635e+00
6.882491490023401326e-03
1.981374876155314269e+02
2.061521367140813368e+02
2.755968773770291023e+02
2.414082360111935088e+02
6.204002652548295060e+01
1.885678196780646090e+02
2.044922026278073588e+02
1.387339516647489654e-02
2.002146472457751543e+02
1.741964019485749304e+02
3.247439078681054525e+02
1.938921179018508383e+02
2.401594752453093520e+02
1.601139930426144247e+02
1.701714936480128983e+02
2.082001111533826929e+02
1.850649456875542853e+02
3.162491227516994741e-01
2.123200312256812197e+02
1.248148796126770321e+02
3.237488823004240430e+02
2.520644173673645128e+02
4.835215813256964895e-02
9.068658229680288230e+01
2.680879082119644181e+02
5.005414205274973938e+01
6.815647301364151645e+01
2.801643895617189184e+00
1.551365039729716386e+02
1.192764299772533434e+02
1.607674740051151616e+02
2.946401599714590702e+02
1.863990499405188928e+02
2.473516414644109886e+02
2.998689183194073848e+02
9.162528285523877969e+01
2.593415169234505129e+02
1.156576829378082394e+01
1.470150330027537677e+02
2.603062480306107318e+02
2.996197478336397353e+02
3.784787342856361647e+01
1.969012686946371957e+02
1.223685709133860229e+02
1.807774007844272717e+02
2.386032517697456967e+02
2.086993294302375546e+02
4.284794697048254442e+00
2.285761861658102987e+02
1.189298083305401121e+02
2.535428263348875930e+02
1.203315400243809137e+02
2.102632582780643133e+02
2.273635666504560504e+02
1.137764172139213770e+02
2.050213701077155406e+02
2.299260517986112404e+02
1.237026468430485409e+02
1.830764899787027957e+02
1.591173849160298220e-02
4.827485276473453268e+00
1.426906226330176253e+02
4.444891422735963715e+01
2.927624132385972189e+02
3.229551744618219118e+02
1.797092258075282132e+02
9.270588656318080822e+00
1.855921040056273057e+02
8.960821272376055902e+01
1.742585726722608683e+02
1.746217928495753142e+02
1.322466735158741358e+02
1.378087684946737411e-02
4.229060242096239763e-01
1.292559271330900685e+02
4.295302289880055469e+02
5.160681140205271333e+01
1.245547375222031228e+01
1.969439580057951957e+02
2.885042523725206420e-04
3.025329397942755350e-01
3.105649242102117569e+01
2.693284681270597503e+02
2.036908747453708202e+02
2.888009892893022652e+02
3.955028153304737515e+01
4.830940733334898596e-01
2.864362359250661711e+02
1.358031402132838252e+02
5.498183420293401014e-01
2.000921339062188338e+02
3.414708527358014862e+02
1.975123600710503524e+02
1.460045654990607886e+02
4.030489453849440906e+02
1.357772297697011084e+02
9.203706709849937795e+01
2.819101751170817920e+02
2.994020599529903279e+02
1.699621722556911152e+02
2.122607533553379611e+00
1.397279306602285374e+02
1.874377091684437460e+02
1.107920327287957107e+01
6.791430645025684498e+01
1.559915643862040895e+02
1.536867732451356119e+02
2.233701911482057767e+02
1.219036387793969757e-02
1.613215738169303552e-03
7.226383994748175610e-01
1.420289365174539569e+02
9.696626601362366671e+01
3.035382682672200768e-04
2.333126478895054812e-02
4.758764643526093296e-01
8.610661507445911411e+01
3.041268800712713301e+02
3.937569804587930172e-06
5.986666283348541784e-01
2.104554089373778680e+01
1.275570840001818880e+02
1.976844732489554701e+02
1.864565440926526492e+02
1.801880939710827079e+02
1.297894402679958716e+02
1.820602821662760675e+02
2.162175086878051289e+01
2.061586819065268230e+02
1.422847274854574948e+02
2.062331492455996909e+02
3.107834599973102030e+01
9.446798979133744467e+01
1.241781787725813047e+02
1.425779589906597096e+02
3.239599877022556029e+02
6.347651467549439985e+01
4.060071558225899935e+02
1.063324206283141393e+02
5.649596031651073602e+00
2.233097355976497056e+02
4.337734646553749495e-05
9.979340947447786903e+01
1.673147279569093939e+02
9.945494637286169848e+01
3.539531198388430084e+02
2.525195090151100885e+02
2.977505970437050564e+02
1.517232657046405961e+02
7.032108185867969041e-01
4.489068381277319304e+02
4.602162523486184682e+02
5.150283530520026432e+01
1.984833373626315165e+02
4.625590253963311227e+01
6.345977065633633174e+02
5.555982619880523998e+02
2.437437568594760648e+02
3.205804081268581185e-01
1.183646003450121498e+02
1.063839891154203343e+02
2.680265656759730746e+02
7.406320570626121480e+01
1.180403515973012389e+02
6.274704059046598559e+01
5.626140422643199912e-03
3.042073139469720786e+02
1.373169067004709518e+02
1.133852243698129598e+02
2.467301020162266809e+02
7.833277360339252482e+00
7.784304480069895106e-05
5.624486534719710940e-05
7.667010537734311981e+01
1.051780991964790524e-01
8.321984532631176990e+01
1.319624857485904954e+02
1.414157571041868948e+02
3.056354972745794640e+01
3.783429132963647135e+02
1.909353465747699374e+02
2.726753918650503010e+02
1.516560154297621352e+02
3.237809514488617992e+02
1.478225203070905422e+02
1.097659885741449699e+02
1.449611834501410499e+02
1.440311838818161050e+02
1.272367749700151407e+01
7.880522559789824300e+01
2.035930890826420523e+02
1.593679486606559976e+02
4.502142991164873820e+02
1.760842884235898396e+02
9.623220776629752038e+01
7.751584957532030273e+01
2.701076349974755431e+02
2.826198925336940420e+02
2.720640624294901500e+02
1.103609682939350307e+02
2.948560172346332138e+02
2.684075621313240845e+02
1.199312019803982565e+02
3.129149879089255570e+00
4.592709952146377894e+00
2.514806676575972233e+02
1.896850990935200487e-04
2.065408163132816242e+02
3.323574987074139585e-03
1.146459127414800427e+01
1.409682629133385774e+02
6.642706437696688226e+00
1.969395782911306583e+02
2.226379176274350300e+02
3.012833481741836295e+02
9.568287427455290128e+01
4.461754802807804676e-04
2.822728381499474040e+02
1.747625252428405815e+02
1.662211408831354049e+02
2.332180032339238949e+02
8.593420018840445262e-01
3.180622974927246105e+02
2.046285074212051303e+00
5.564640157026586564e+01
1.382495428455513888e+02
9.296625963197584497e+01
2.542849534966080682e+02
1.818343195791384233e+02
7.761303327824862208e+01
1.279467054388077543e+02
2.013249174615338291e+02
3.127729028987233164e+02
1.426954517560262126e+01
3.112437622363358969e+02
8.418322256170540641e+00
2.422569448342984231e+02
1.794306349398538885e+02
2.105107107225194341e+02
1.427898237438056981e+02
2.802730681782121565e+02
9.577514424308903074e+01
2.131036158141797330e+02
2.699752576198080760e+02
2.208349630553130396e+02
2.083528849610161604e+00
1.846037017883645319e+02
6.522466383730716188e+01
1.786281576332838767e+02
5.972257934990921058e+01
1.557222105002437615e+02
1.541578084023057897e+02
3.331226992646405733e+02
3.094202413616585545e+02
2.212277491747953775e+02
1.825850118508242019e+02
3.165123101629432085e+02
1.456586659172899658e+02
1.810630961401328136e+02
1.560495439782244489e+02
7.758335009912116220e+01
3.043101368552016197e+02
3.115541271881738794e+01
2.253621137726441646e+02
2.625327799609067814e+00
3.449847458703025893e-02
2.416986165429988489e+02
2.069901780494546983e+02
1.157026567675245865e-01
2.167646542940928214e+02
1.781616560418796125e+00
1.115679256585280399e+02
2.329249072503444040e+02
2.280135613371385830e+02
3.005893871180887800e+02
2.773920310544103485e-04
3.686285541567486348e+02
1.893337341112783747e+02
4.882407794110088517e-03
2.481016080859262729e+02
1.674777432599512679e+02
3.614327460629283451e+02
2.704710917998454534e+02
2.480779721110593528e+02
2.516952535988821182e+02
8.354708752662529658e-01
2.143911708993982757e+02
4.192159880461987314e+02
3.726008463665492627e+02
1.825786014629557030e+02
1.986144118684023567e+02
3.086773930313028202e+01
2.639593194166083094e+02
3.568783748596615624e+01
2.682984457136627725e+02
2.791945506336325402e-03
1.149125137888533951e-04
7.767643947154284945e+01
2.022923002034077058e+02
2.355480229081877042e+02
1.613775808778884198e+02
3.628067058627493680e+02
3.555893697289320698e+01
9.758756417035384378e-02
5.547017070185233933e-01
2.160027022549911635e+02
1.163561964269320015e+02
4.986057420654107091e+02
8.796577951153409375e-03
2.856651255103770826e+00
1.786723577595693939e+02
9.970815941801745754e-05
3.131573081889655441e+02
1.818404883226322397e+02
1.944988116374589993e+02
2.570493845058081774e+02
2.886245738376600798e+02
1.503503144294882645e+02
1.859620091992838127e+02
3.769542020754670375e+01
1.811211058480693339e+02
1.616523757060348316e+02
1.677523659971483312e+02
3.591525896684543383e-03
1.115862103219115227e+02
1.575989024589943881e+02
1.547018231455588033e-04
1.786011630167193971e+02
2.405810156113148821e+02
2.848302925060123698e+02
1.011575798089324678e+02
2.456374702264838206e+01
1.966214918335027733e+02
4.082971213283599354e+01
9.024263676474220119e+00
1.599230767773406114e+02
2.354685957645415897e+02
3.112295188420830527e+02
1.824619417253416884e+02
1.663239085788517855e+02
1.598407563546061283e+02
1.681500760689233118e+02
1.813696639768750742e+02
2.052452539795922348e+02
3.154511772911065464e+02
2.925222151447088095e+02
1.031193814978905294e+02
7.269298637493193382e+01
4.193549561487088795e+01
1.442519783626267156e+02
1.855558553775152930e+01
2.162744023142295191e+02
1.773950442369824430e+02
4.569980339976609685e+02
1.937523305747162965e+02
4.250562156536034308e+02
2.272317471342830686e+01
1.622515827682946394e+02
2.154057171378554969e+01
1.012802254434063656e+02
9.344436485898768296e+01
1.987168941799608888e+02
7.714797397929942235e+01
1.657397873498211993e+00
2.390254611393175423e+02
3.616671554475032053e+02
1.026751943214549101e+02
1.200215976140838858e+00
2.913331347582469810e+00
1.150771297277970007e+02
2.864389069200115756e+01
1.466733012486656378e+02
7.958395793866657186e+01
2.670147590895794565e+02
9.881270043970286565e+01
1.196611428408544536e-01
1.857121666176907993e-01
7.920202609730040422e+01
8.847728263099270407e+01
1.488415288997204300e+02
2.455710558475403218e+02
2.512952783799847225e+02
9.272347623009406448e+01
2.221747111743751191e+02
1.261646613511402819e+02
1.843277984076847815e+02
1.452228936297614155e+02
1.818770927846345842e+02
2.356075878880801042e+02
1.112354990054883075e+02
6.491439819628791952e+01
2.105022381114394534e+02
1.394644163938210397e+02
2.545517484708169853e+00
1.499901004659477337e+02
7.575188507598795695e+01
1.456240763534879079e+02
6.628024605897736876e+01
9.873428361333938597e+01
1.601593167793909060e+02
2.520934964278520596e-03
4.057912886832326649e-01
1.079881793579260574e+02
9.174064007947889365e+01
3.882599855358421905e+02
1.305609634320717873e+02
1.389250338819692843e+02
1.338131873131714826e+02
1.389949408108804789e+02
1.621546618625872043e+02
1.119669690766386623e+02
2.163379468973288908e+02
1.022587629573301626e-03
2.158293435688391071e+02
7.266939650609856471e+02
5.871497500938859559e+01
1.005771710836143384e+01
2.707697886267850436e+02
2.171584023302785340e+02
9.767849775071231022e+01
1.515724344408227182e+02
2.311783612232830762e+02
2.892037725484897237e+00
2.378682001369369914e-02
1.163663533781800368e+02
3.326686315580445807e+02
1.424071888392064125e+02
1.792614085876265904e+02
1.755794710959889358e+02
4.492967775760916993e+02
1.547547102525185991e+01
7.911038179588556929e+00
1.421222496081099962e+02
1.282993209595132456e+01
4.561675775036633240e-01
1.780781434859817693e+02
1.549439752513536632e+02
1.605540934175223811e+02
1.331509390338397338e+02
2.968559994070575137e+00
1.877038062331848209e+02
1.631885545297336932e+02
2.162261515972205359e+02
1.678653508759453530e+02
1.483145025180420475e+02
1.083902383114036212e+02
1.893111851775757373e+02
1.851184991671916968e-03
8.330456821040569082e+01
2.192425079814712205e+02
2.048770938340992998e-01
2.600316919786564540e+02
5.095072810172496247e+00
3.381437237592763836e+02
2.186164282004027939e+02
2.842341988558472394e+02
8.141119868743103977e-03
1.189902362748398446e+02
2.011179931527294116e+02
1.129522754494246328e+02
8.834500922494044062e+01
2.757559295689134160e+02
3.220370878894755720e+02
1.958631329100172422e+02
3.078153383758035488e+01
1.823122706413413994e+02
2.414404084142006468e+02
3.432171657230356345e+02
1.014415313096833131e+02
7.174180782743011520e-03
5.258860754969646223e+02
3.826871528457560316e+02
1.857064376472408753e+02
8.078591283447167370e+01
1.479677184899053609e-02
1.819567988590277992e+02
2.554949529272563211e+02
2.554014609337173169e+02
4.735134531067332064e-01
2.036604497825465216e+02
1.821971496836341942e+02
1.662744804729300085e+02
1.727386440574462945e-01
1.338581439225891359e+02
4.184319259053154383e+02
1.832288944406173812e+02
1.638845896402926314e+02
5.104587060964504985e-02
3.421442105445982040e-04
1.665696659274543663e+02
1.940780965909652025e+02
9.921019934154170983e+01
1.379172850567555884e+02
1.593738248495355379e+02
1.489651662082906682e+02
3.899768093047894695e+02
1.756033315061359588e+02
1.623344972633276484e+02
3.089122288787622210e+02
2.411139296546025435e+02
6.450614979462443443e+00
1.491637272554725655e+02
2.063782484467083123e+02
2.657757515782577684e+02
1.968769622821127996e+02
2.026470542230526917e+02
2.991157420224224595e+01
2.190130633087506773e+00
1.424034856570869181e+02
2.019218199391615940e+02
2.609179653878528597e+02
3.834774847439349266e+00
2.697833604361222797e+02
5.739980685575574171e+02
9.227774453738676641e+01
1.586930251658486952e+02
1.862983202677241650e+02
9.123923660608855357e+01
8.632264133632363112e+00
1.699191574058204139e+02
6.133882832791640283e+01
1.723869939658471537e+02
3.531891249367618570e+02
2.712166163237270666e+02
1.246057285186907819e+02
1.131216221980935632e+00
3.835420963805518113e+02
2.746006866102107438e+02
1.309122863884112462e+02
1.107349810834421504e+02
2.661008464398036040e+02
4.660995299411297310e+02
2.180564686303114854e+02
2.948690337638253709e+02
1.439657050681489636e+02
1.830758170313858102e+02
7.263618954966656815e+01
2.902897874423187463e-05
8.243310860525525641e+01
5.012819929550458937e+02
1.176417371965499115e+02
7.595842182163323741e+01
1.674781024998083296e+02
4.498526557224978433e+02
3.401962331536196871e+01
1.852043070895887809e+02
3.749643706697726175e-01
1.582413992684906034e+01
1.325276987534380737e+02
2.507702572668080165e-01
2.193174471365637999e+02
8.268983410778218968e+00
1.299000675007846439e+02
1.195897064928431064e+02
1.360847978850870277e+02
3.111532717957743444e+02
8.324726442268115534e-02
1.139509733662635398e+02
2.227942299879941288e+02
9.924729507991909741e-05
6.361353886732102580e+01
2.383307142012200188e+02
1.012248591241586411e+02
1.876521079608210130e+02
3.746794137293036464e-05
1.275365668152516321e+02
1.284373051857984080e+02
2.400771663849355253e+00
2.180486313216534313e+02
6.804633857045701006e+01
2.989692160461742132e-01
1.432047486468945579e+02
6.927511312369460938e+01
9.907095123271582793e+01
3.282526256011806964e+01
6.321127761734715023e+01
8.935268347460834093e-02
2.336386967690486927e+02
4.024116879381836043e+01
1.164817031188910841e-04
2.368984421002095928e+02
1.510105951356308083e+02
4.981037684315124973e-04
5.903654020125159718e-02
2.578418095497910372e+02
8.919469923534961708e+00
2.159998928702408136e+02
2.593819439556682482e+02
3.300228206891915761e+02
1.400448512016737652e+02
3.733181572963075610e+02
4.732320214723584968e+02
2.855641930033016820e+02
6.081615459243037591e+00
1.325802538953212206e+02
1.379288094140064516e+02
1.307114802713841186e+02
1.399272030166684715e+02
6.073068927929853089e+02
1.634606349816749571e+02
2.703417647342574810e+02
2.072242224578076275e+02
3.878596603986806599e+02
1.840405470629775664e+01
7.936941663347172948e+01
2.659136229594878387e+01
2.459101424203253714e+02
2.377768436929273754e+00
1.524593137535703704e+02
1.795751970737910597e+02
3.123126542588580037e+02
1.511869148616824248e+02
5.002779967880998413e+01
1.362356997778989296e+02
2.360109898680094034e+02
2.010958170827506137e+02
1.173300157288394701e+02
1.635618660486215958e+02
1.405928633575968831e+02
2.410874111563317115e+02
1.995615144089244097e+02
7.732074930402177415e-02
1.958824658941011307e+02
1.516082544549134639e+02
6.867802672386460472e+01
2.523559114710223525e+02
2.599341314682533834e+02
2.405946968417992480e+02
1.125545614338989537e+02
2.213114348523959052e+02
1.262148427134889488e+02
3.147314255380479153e+02
1.223869168505586635e-01
3.730381093919276054e+02
7.173046354421332538e+00
7.559444731232360937e+01
3.036759673654158860e+02
1.947719386174868816e+02
1.359602431166422605e+02
3.159545992479252163e+02
1.817996271192897950e+01
2.240226596422870955e+02
1.064120316941624935e+02
1.568295232613309622e+02
2.199628221671901684e+01
1.193232425696351306e+01
1.671710241265827790e+02
9.848882688611415404e+01
2.810485981932289974e+02
1.272995000595982873e+02
7.073893285689791810e+00
3.002784171375615400e-04
1.859654302239505910e+02
1.516101524746773066e+02
5.293991038506362656e-02
3.789598278002813458e+02
6.071408226571151090e-02
3.262773027621733490e+02
7.102972824441168287e-01
2.703174547042940315e-02
3.332712897608871003e+02
1.450754052326375074e+02
2.232001179650979452e+02
9.796230046449633733e+01
6.673781922236230457e+01
2.742146012820738861e+02
2.140136832032984450e-04
8.344652567611774430e+01
3.016690455806384534e+02
2.246796598647052292e+02
2.507307854457963003e-02
8.885258269665433772e+01
2.205539977134664209e+00
2.477114707329747034e+02
2.636429603218857665e+02
1.902955826950347387e+02
4.199038728576850872e+02
2.582008694284012904e+02
3.194534409813043485e-05
6.132397526562272105e+01
1.007174650931119260e+02
2.977785693519763299e+01
1.654985761600982528e+02
2.821411892906326102e+02
1.534312518862860202e+02
3.177048886970900181e-04
2.824492828183978316e-02
2.353726117564590098e-05
1.007609635902553578e+02
2.022770615498301368e+02
1.226954917316105593e+02
1.481107066792901321e+02
1.792257656838046671e+02
7.249122587018064223e+00
2.071913638421391965e+02
1.360015657388430839e+02
2.756343724096952315e+02
3.409282456697837915e+02
2.974677519443504252e+02
2.452650064347835155e+02
2.044138858293080432e+02
8.824904951889035942e+01
2.495685471916658003e+02
6.345688698565936647e+02
4.124460315551913681e+01
2.105068444125208771e+02
9.923507186158527782e-01
8.350166558821007357e+01
2.160716849120945540e+02
2.944228765045408536e-01
1.605866501569834952e+02
4.599183098536741454e+02
9.218614626133785350e+01
2.022717740554070645e+02
2.654966336820508559e+02
1.847801014650030424e+02
4.748598469726858866e+02
1.313897996942614554e+02
3.623866777459626860e+02
2.574378418208653443e+02
1.317519780042858599e+02
1.397371260532962367e+02
1.843569663895323743e+02
3.067648335541890674e+02
1.490462554636905850e+02
3.328881606325922604e+01
2.525430446035898910e+02
1.870721098337526200e+02
7.035660738383131552e-04
2.206297539196383184e+02
1.929522553709829680e+01
2.303410950142279034e+02
3.343582319728737957e+02
2.132332490582484752e+02
2.293681537346855350e+02
5.595756710354180541e+01
7.923966525613653289e+01
2.586942606340016937e+02
2.464744924607656742e+02
3.234572268615012263e+02
2.395544041839456497e+02
1.335505772412944054e+02
1.765988177756299535e+02
5.287157837403810845e+00
1.510615297544064219e+02
1.125660667894408107e+02
1.920614064936672207e+02
2.907573328269792228e+02
1.681010964750386734e+02
3.692986306472221969e+01
1.559475499747350682e+02
2.445766304470453179e+02
2.722833686821103356e+02
1.777588115201070309e+02
1.550773082715750775e+02
1.243246996958985875e+02
1.846989326175389010e+02
2.208769511406671882e+00
2.780832954573270968e+02
1.662856570630537192e+02
1.761853811007313482e+02
2.554755245761044478e+02
3.451925030822167173e+02
2.765605737873556791e+02
2.543643706016156045e+02
3.792590107841534746e+02
1.189528172490100530e+02
1.658277294998697187e+02
2.114450921566457851e+02
2.416193388137345188e+00
5.934953277937893290e+01
1.097347221582821959e+02
2.016588707047048388e+02
1.583422181238348116e+02
2.655856563302222639e+02
2.597926669714070869e+01
9.845547645596915240e-05
2.553470034697965332e+02
2.377764788063358878e+02
2.046019936614573015e-02
4.671233506269345526e+01
3.407721973612752464e+01
1.205513790418989686e+02
7.218079459162254352e+01
1.160374596089241805e+02
1.396530442079892680e+02
7.456843820327777905e+01
2.911680665984022198e+02
9.618575217300528379e+01
7.106689613621597346e-01
2.590585146566582786e+00
2.415555465810029432e+02
1.239759778225561320e+02
1.156597791310560126e+02
1.842111888632644536e+02
4.326334170537404766e-04
2.389143659894443328e+00
2.597281727370058871e-02
1.678501817757933168e+02
5.514904456458680215e+01
1.374148787950616395e+02
4.697919112022644583e+01
1.389669107804366490e+02
5.174856818462103547e+00
1.117723367224244129e+02
1.158648796343186689e+02
2.175535729849797804e+02
3.555143891644548830e+02
3.640512116799073397e+02
2.264656441180704292e+02
2.231768663266848876e+02
1.872108438208670123e+02
1.631776493413780997e+02
2.723448300235986608e+00
3.176797393120069160e+02
1.659369409260761472e+02
2.613028855168522568e+02
3.080315276311011985e+02
1.729241727500151926e+00
1.748205249121384099e+02
2.142201770297107544e+02
1.710089842923479750e+02
1.324579974373590971e+02
1.879363950389232798e+02
1.645263856273231227e+02
2.762025120362521875e+02
6.555385912424755190e+01
1.115522216423415784e+02
