6.711183696985244529e-01
7.073549747467040572e-01
3.371088966727255887e-01
1.843764498829841836e-01
6.446629166603088379e-01
9.226245194673537986e-01
1.189922425895929975e-01
1.305203431844711881e+00
5.309567719697951826e-01
6.212510704994201882e-01
1.623311579227447177e-01
3.707509711384774920e-01
6.183824360370635542e-01
2.195599779486656078e-01
4.747301459312437966e-01
9.745475441217419377e-01
5.753647059202193770e-01
5.357358708977699724e-01
4.238006517291069142e-01
1.274384403228760565e+00
9.807657659053804489e-01
3.879737313836813251e-02
8.436348102986813285e-03
2.415823352336883723e+00
7.675360113382339033e-01
3.573524534702302025e-01
7.450274586677549937e-01
6.079573720693588479e-01
6.873039752244950451e-01
7.253247117996217241e+00
8.626386165618896706e-01
9.848256289958952081e-01
6.471360504627228227e-01
5.584895849227905495e-01
2.258622057735919508e-01
1.173794305324554532e+00
4.871155962347984980e-01
5.088543742895126343e-01
7.822565078735349564e-01
3.802926987409592230e-01
9.641593880951401796e-02
2.993678554892539312e-01
7.361672550439835039e-01
2.495053142309189287e-01
2.289464920759200495e-01
3.752061709761618791e-01
5.440044775605199501e-01
1.067323738336564354e+00
1.674681776762008356e+00
2.381542451679707351e-01
1.435904533195753208e-05
5.006448507308960405e-01
7.131370216608048374e-01
1.238518941402435569e+00
9.288200408220290694e-01
4.128671601414680703e-01
1.102496188879011241e+00
4.037801802158355602e-01
7.327240169048309104e-01
1.356450510025024370e+00
1.234376877546309315e+00
3.768274605274199440e-01
5.383876115083693348e-01
6.478399455547332320e-01
2.886087715625763050e-01
5.878710925579071489e-01
6.866033911705017312e-01
2.614648953080177529e-01
9.864129841327657910e-01
6.656773716211319414e-01
6.769396632909774336e-01
7.070191800594329834e-01
6.562011867761611272e-01
6.458610922098160234e-01
9.243627488613128662e-01
2.849267214536665427e-01
8.571056157350540605e-01
6.749100714921951738e-01
4.791342779994010037e-01
2.675648427009582608e+00
1.001362156867981579e+00
1.366549521684645718e-01
2.501123748719691897e-01
7.971863329410553423e-01
1.105208406448364222e+01
2.057987272739409956e-01
6.697473436594009177e-01
1.190812237560750220e-01
6.037163972854614480e-01
7.964052200317381924e-01
1.860276423394678635e-01
8.976513177156449919e-01
5.618505388498306052e-01
5.538754895329475181e-01
7.351727455854416560e-01
5.077060312032699585e-01
2.577615432441234811e-01
4.882370904088020325e-01
1.430746816098689700e-01
1.783155679702758678e-01
5.029047250747682440e-01
3.486406356096267700e-01
4.960269123315811934e-01
8.184578180313110130e-01
2.518861994147301719e-01
1.563286906480789273e+00
3.950652599334716908e-01
5.691657721996307151e-01
8.939724974334239960e-02
1.937152363359928853e-01
4.422827094793319591e-01
3.239305987954139709e-01
2.340921945869922638e-02
3.327361389994620833e-01
5.458213567733765093e-01
5.373835206031798428e-01
7.352204531431197898e-01
4.407158717513085522e-01
5.819151192903518899e-01
6.006967514753340787e-01
7.929425895214080589e-01
4.132595658302307129e-01
1.288953512907027532e+00
2.997837975621223672e-01
3.738878786563872292e-01
4.017540946602821128e-01
3.959018349647521751e-01
5.367933869361877219e-01
6.287638350386260387e-05
6.636398196220397727e-01
4.475662767887115256e-01
1.160647225379942693e+00
1.067035454511642056e+00
5.175763025879860368e-01
5.326823562383651289e-01
1.641659274697304105e-01
1.169873405247926074e-01
9.218082070350647195e-01
7.424365937709807017e-01
5.506536602973938210e-01
1.013313975930214106e+00
1.383053317666053939e-01
6.261415064334870939e-01
3.055058613419531777e-01
3.243581667542456692e-01
2.062994843721390748e+00
2.938950046896934287e-01
7.350629240274428877e-01
5.209608018398285134e-01
1.739047819375991732e+00
7.151158809661865012e-01
3.310884848237036771e-01
1.255809932947158147e+00
3.662193194031715393e-01
4.517246022820472495e-01
7.432488232851028886e-01
8.631911545991897139e-01
1.145858901739120528e+00
6.873540788888931052e-01
8.504115412506506083e-05
6.194354772567749468e-01
9.174796462059020552e-01
9.468133226037026007e-02
2.039320632815361800e-01
2.189732015132903054e-01
4.135260224342346413e-01
2.698737509548664315e-01
5.706841349601746716e-01
5.784088641405105147e-01
7.976994723081588523e-01
8.400090634822845459e-01
6.067570984363555020e-01
1.493730835616587926e-01
8.877533912658691628e-01
9.411417216062544222e-01
2.027515046298503376e-01
2.877137944102287070e-01
5.180602744221688427e-01
8.954018175601958784e-01
6.293399363756179143e-01
3.274840235710143044e-01
9.758483886718746225e-01
5.918342232704162376e-01
3.107073694467543667e-01
2.142374205589295144e+00
5.562627181410790822e-01
3.160801365971565025e-01
1.272628203034399941e-01
4.653806880116462819e-01
3.996212437748909996e-01
7.366820812225341797e+00
5.645200550556181973e-01
3.324838459491729070e-01
1.466516280174254616e+00
4.448795929551124795e-01
2.062264852225780543e-01
7.016684114933013916e-01
9.003471165895462480e-01
4.300958022475242504e-01
2.496183499693870600e-01
2.691708125174044897e-01
6.269482612609863503e-01
1.741404151916504883e+00
3.772596985101698830e-01
3.694423913955689476e-01
1.971768878400326497e-01
1.071826267242432351e+00
8.530018657445908037e-01
4.837786599993706416e-01
1.071939185261727490e+00
3.393387705087661521e-01
3.754027381539345454e-01
8.796270370483398882e-01
7.261859208345412542e-01
6.072525799274444136e-01
5.560406565666198286e-01
1.164096525311469454e+00
5.885794550180435403e-01
1.731948447227476873e+00
9.137846052646636519e-01
2.370598152279854154e-01
2.803698658943176159e-01
7.287285059690475908e-01
5.750741630792618464e-01
6.674921512603759766e-01
1.398359552025793262e-01
1.606093630194664612e-01
6.296397954225539939e-01
7.916149526834487249e-01
8.145181685686111450e-01
2.326615013182163350e-01
7.781889557838439497e-01
1.892357623577118675e+00
5.796609997749329057e-01
3.748466774821280212e-01
5.783827096223832509e-01
7.349838346242905107e-01
4.425461992621421703e-01
5.196852266788483110e-01
7.501099854707717896e-01
9.519447952508925948e-01
5.141379043459892717e-01
3.074589923024176885e-01
1.196665760129690809e-01
4.294975504279135992e-01
3.906725001335144665e+00
6.901574164628982988e-01
1.073222022503613482e-01
1.234785795211791992e+00
3.404943883419037087e-01
1.902559220790862371e+00
6.866043478250503096e-01
1.898635111749172044e-01
8.072515398263930830e-01
9.267943054437637329e-01
3.720991283655166737e-01
6.199099838733673762e-01
5.897714197635650635e-01
1.822310024499893544e+00
5.809811726212501526e-01
4.289103358983992753e-01
1.919783800840377530e-01
3.153836682438850292e-01
6.034756839275360329e-01
1.523816447257995677e+01
4.728818506002426258e-01
4.740768581628799216e-01
3.343994304537772910e-01
1.272221773862838523e+00
2.198294475674627546e-01
8.843333214521408303e-01
3.752848714590073520e-01
6.271084666252135786e-01
4.211794480681420039e-01
4.125899359583855563e-01
2.516967803239822388e-01
4.927544087171554787e-01
4.348118200898169472e-01
7.066228151321412021e-01
1.756701421737671298e+00
2.010146908462046578e-01
9.900049179792403953e-01
5.995282444928307222e-05
9.527651429176324793e-01
1.229691207408905251e+00
3.301049366593360457e-01
5.874383300542831421e-01
7.727625340223311934e-01
1.681777052581310411e-02
5.500752493739127225e-01
8.949927747249601939e-01
1.384384751319885032e+00
6.170834243297577126e-01
6.052193939685821533e-01
1.155268726870417898e-03
3.738406524062155567e-01
1.096704950928688360e+00
7.086425364017486794e-01
9.020989358425139937e-01
1.181329488754273571e+00
1.645356297492981623e+00
7.263811826705933727e-01
1.624054086208344128e+00
3.770058855414389898e-01
3.648720934987068065e-01
6.134435832500455543e-01
1.435077065229414917e+00
8.537948191165923850e-01
6.664360761642457165e-01
5.253325914964080724e-03
1.917444534599782591e-01
9.300340086221696723e-01
1.613378614187240601e+00
8.584137737751007524e-01
1.109799131751060708e+00
2.170676045119762088e-01
5.339565187692641990e-01
4.352761983871459850e-01
9.826378971338265433e-01
2.388865619897841963e-01
4.687603637576104876e-01
1.477454751729965765e-01
9.248824357986450417e-01
3.537364497780800532e-01
7.644221782684326172e-01
7.458076059818268266e-01
2.936739981174468772e-01
9.108338147401809914e-01
1.541845887899397471e+00
1.611517734825610448e-01
1.450109846889973408e-01
4.456791475415229908e-01
9.031362861394882646e-01
7.624488204717636552e-01
3.365195348858833202e-01
7.122054159641265647e-01
2.439665809273720287e-01
8.847663812339305600e-02
7.068792104721068892e-01
4.756257265806197454e-01
9.036923557519914718e-01
2.180913656949996504e-01
8.665118776261807043e-02
8.950762748718261719e-01
7.656017363071443427e-01
5.742493212223054311e-01
2.133072569966315835e-01
2.844016104936598621e-01
3.161052927374840005e-01
2.104425466313842701e-05
5.630938112735748291e-01
3.495422303676604114e-01
9.868091732263565286e-01
3.124675914645195229e-01
1.217445272207259510e+00
4.167760983109475292e-01
1.440174475312233360e-01
9.661447286605836515e-01
2.600249260663986539e-01
5.369933381676673667e-01
3.703234001994132885e-01
8.379104995727539418e+00
4.809478297829627991e-01
5.423473566770553589e-01
1.468613511323928700e+00
1.541799709200859514e-01
7.622134059667586836e-01
4.234583005309103809e-01
3.538758188486100242e-01
2.318796321749687639e-01
1.265015874058007528e-01
7.523266583681108566e-01
9.089249372482302025e-01
6.093095570802687932e-01
6.644390165805815762e-01
1.599622815847396018e-01
2.545164935290814556e-01
8.323003888130188210e-01
1.880423679947853810e-01
3.556230500340461509e-01
1.592276865243911876e+00
5.782164409756659351e-01
2.827286079525947460e-01
8.750074595212936623e-01
7.800590574741363969e-01
1.057524536736309875e-02
7.438443183898926225e-01
1.919835351407528923e-01
2.941393002867698780e-01
7.307347357273101807e-01
1.397815115749836967e-01
1.229462671279907937e+00
7.047472923994064775e-01
9.602350711822511542e-01
1.230085080862045377e+00
6.811839103698730247e-01
6.355736613273620383e-01
4.167182609438895291e-01
1.382296159863471707e-01
6.829852044582367387e-01
3.188463402912021516e-02
7.129815518856046364e-01
1.765068590641022395e+00
2.421828903257846888e-01
6.788353443145751509e-01
6.702867984771728738e-01
3.516740605235100237e-01
6.424855202436449142e-01
8.073170959949491632e-01
7.919260859489440918e-01
3.864880487322806535e-01
1.962407447397708782e-01
4.785899072885513306e-01
5.812639772891997625e-01
6.813874781131744607e-01
8.316276043653487715e-01
2.074178405106067158e-01
2.484645821154116696e-01
9.413726866245269997e-01
2.465717071294785345e+00
1.077702689170838779e+00
4.249281644821167880e-01
1.082809004187583746e+00
2.377460263669489982e-01
2.176382966339587277e-01
7.492971479892730491e-01
9.886079937219619529e-01
4.000457331538200267e-01
8.111179411411286733e-01
6.048715502023698232e-01
7.438953787088395941e-01
5.079302400350570457e-01
3.066062778234481812e-01
5.378595054149627464e-01
7.847248136997222456e-01
6.875421315431594627e-01
3.776867032051087203e-01
4.460518717765807883e-01
3.300275385379791149e-01
4.159412398934364541e-01
4.568744823336599592e-01
1.562634575366972811e+00
3.779116988182068537e-01
1.449132137000559983e-01
5.830008000135421531e-01
1.152357769012450017e+00
1.433450467884541668e-01
7.062746733427046619e-01
3.912778794765473522e-01
8.841659724712371826e-01
3.885973498225211431e-01
5.150882631540298906e-01
2.166439846158028648e-01
6.996268033981323242e-01
5.495303571224212369e-02
6.145092509686946730e-02
1.419558805227281173e+00
2.221202321350573550e-01
5.849971160292624095e-01
4.794718801975251243e-01
2.255799181759358396e-01
6.869831919670106313e-01
2.611059546470642090e-01
4.946485802531242482e-01
5.522564396262168440e-01
4.194193020462989585e-01
6.360741853713989258e-01
6.452043026685714278e-01
3.200696066021919139e-01
9.000612586736679299e-01
9.417776435613631758e-01
5.411255300045011429e-01
5.205609545111655745e-01
4.320949718356132396e-01
1.087172949314116899e+00
3.881542980670928955e-01
6.237813144922256248e-01
8.626089990139007568e-01
1.184247440099716053e+00
1.778512907028197088e+00
2.407891392707824263e+00
1.886588312685487934e-01
6.869711011648178545e-01
6.639317631721496360e-01
8.440244436264038308e-01
5.828388690948486106e-01
8.127887547016143799e-01
3.202595904469490717e-01
7.217015951871872392e-01
6.563676204532384317e-02
3.380200609564780745e-01
9.608917206525793286e-01
5.003429204225541271e-01
9.500165432691574097e-01
4.513256400823591474e-01
6.071904152631759644e-01
8.944272875785828081e-01
2.552491061389445814e-01
1.089419248700141729e+00
6.114397859573363903e+00
1.802272073924540974e-01
9.242155373096465620e-01
4.943297803401947021e-01
2.468494817614555470e-01
2.110757999122142015e-01
7.430174082517624345e-01
1.379272902011872137e+00
7.601023584604262862e-01
7.094477981328963789e-01
4.437717735767365279e-01
4.151909515261650307e-01
3.906557929515839245e+00
3.040669322013854203e-01
3.884216532111167131e-01
2.160387544427067822e-03
9.960243910551074276e-01
3.574982970952987893e-01
1.159095788002014293e+00
4.465248584747315563e-01
1.070287860929966250e-01
4.714961826801299938e-01
4.426887497305870278e-01
6.627356290817261186e-01
1.018487161397934049e+00
6.076191604137420876e-01
4.884823530912399403e-01
2.153647780418395941e-01
6.266361713409422940e-01
2.585314325988292694e-01
3.292084738612174322e-01
2.626393578946589757e-01
8.491376012563705000e-01
6.503175765275954756e-01
9.539534896612160697e-01
4.084189414978026678e-01
4.869629859924317072e-01
6.478251278400420921e-01
7.780656278133392112e-01
4.402245664596557972e+00
3.606377586722374073e-01
4.150294318795205162e-01
1.262462403625250196e-01
7.138298153877258301e-01
2.684675373136997112e-01
8.552707004547119851e+00
8.596250236034392866e-01
9.038977861404419167e-01
7.731371489353477781e-03
1.224348699906840704e-03
9.433325409889221635e-01
3.444754675030708979e-01
6.688690602779387984e-01
2.983693697024136261e-03
5.100961327552795410e-01
5.583188444375991599e-01
7.675590515136718750e-01
6.943210482597350630e-01
5.542120769619941489e-01
3.446568921208382763e-01
1.868692353367804870e-01
6.251429736614226851e-01
2.741811558604239640e-01
4.948035761713983627e-01
9.887474834918978939e-01
4.001566126942634471e-01
6.271026939153671043e-01
6.322210341691971713e-01
2.805699348449706143e+00
1.377307778596879029e+00
6.573865890502930132e-01
3.213659152388571583e-01
1.431604695320129350e+00
2.142536334693432298e-01
7.782207988202571869e-02
4.623407244682312123e-01
1.143421721458434792e+00
3.236288446933031915e-02
8.253533393144607544e-01
1.061469170451164068e+00
1.044034892320632180e+00
1.090579438209534180e+00
6.765000522136688232e-01
8.261694908142089844e-01
3.351184368133545144e-01
4.991133123636245505e-01
3.992825850844383129e-01
1.618413195014000439e-01
6.522284686565399392e-01
7.642805188894271629e-01
2.762550607323644991e-01
7.932449728250503540e-01
8.350950390100478904e-01
1.449113917350768554e+00
5.052603200078010781e-01
5.106301918625831826e-01
1.365896433591843095e+00
6.298641443252563921e-01
2.110888347029686030e-01
4.934069633483886830e-01
2.741133823990822838e-01
3.694332510232925526e-01
2.509617581963539124e-01
3.331070356070996163e-02
2.012679703533649389e-01
3.568473353981972407e-01
5.101921394467352489e-01
5.760790914297103660e-01
9.892055928707119694e-01
8.973632365465163963e-01
1.296342200040816461e+00
1.692904248833656811e-01
1.705958545207975352e-01
9.249025315046314200e-01
1.805024042725563160e-01
4.137708261609077676e-01
5.585960298776626587e-01
2.099906444549559659e-01
1.184708034992218550e+00
7.975280165672302690e-01
2.061804816126822926e-01
7.379678219556807806e-01
1.013018095493317228e+00
3.900576740503310935e-01
1.385744321346283670e+00
5.154921427369119069e-01
1.893743991851806197e+00
1.161052924394607722e+00
1.012775983661411833e-01
9.619826942682265791e-01
8.725680977106093916e-01
5.871870368719100952e-01
1.027425539493560525e+00
2.552181586623191722e-01
2.494780667126178797e-01
2.636017680168151744e-01
4.682565540075301902e-01
5.363427340984343594e-01
1.935786056518555398e+00
5.167931914329527032e+00
6.606310158967971802e-01
4.386201441287994607e-01
1.056960001587867959e+00
1.083150243759154474e+00
5.908896952867508379e-01
9.917607963085173228e-01
5.667765825986862405e-01
2.249642528593539803e-01
2.397441104054451877e-01
3.047148689627647289e-01
8.134032458066939864e-01
7.655724763870237481e-01
8.041126757860184160e-01
2.008241283893586804e+00
4.617928132414818032e-01
6.630808055400848611e-01
9.387782245874405351e-01
1.084667214751243502e+00
4.121694788336753845e-01
3.894978702068329079e-01
4.389458760619163735e-01
7.496275931596755315e-01
5.712843894958495872e-01
2.666481494903563121e-01
2.057087063789367620e-01
1.058057403564453436e+00
7.784952259063720348e+00
7.327011615037918313e-01
1.236190069466829577e-01
2.558682642877102009e-01
4.302087649703025818e-01
2.170689299702644459e-01
2.483600944280624778e-01
1.058680754899979037e+00
1.356045866012573597e+00
7.930728256702422874e-01
2.560004465281964237e-01
6.325566798448563066e-01
3.306540623307228088e-01
4.708974331617355458e-01
8.720301091670989990e-01
5.688292920589447244e-01
6.115013271570207687e-01
1.062956625223159923e+00
7.537435531616211160e-01
1.179390949010850065e+00
2.163703209161758956e+00
7.881585061550141491e-01
3.379809251055121422e-02
3.026484906673430619e-01
5.303689926862716897e-01
3.917648181319237088e-01
1.704467900097370037e-01
9.818021535873413530e-01
2.508147902786731498e-01
9.759814180433751263e-02
2.147935226559639921e-01
1.206484115123748868e+00
3.453567102551460821e-01
5.894281387329103339e-01
8.127362310886383501e-01
6.365793585777282937e-01
3.371459171175957281e-01
2.143375217914581743e+00
2.138874873518943343e-01
1.492652274668217760e-01
3.419629573822021706e-01
9.541002810001371071e-01
2.964082822203636947e-01
1.490310651063918357e+00
6.591905355453491211e-01
6.203987181186676469e-01
6.911636382341386220e-01
8.934193277359009144e+00
2.239369623363017536e-01
3.056979760527610002e-01
4.994500592350958890e-01
4.847804650664329640e-01
4.508855506777763589e-01
1.258464217185974121e+00
6.344937592744827048e-01
8.336285084486008135e-01
7.485338151454927758e-01
5.380473002791406056e-01
6.225934863090515359e-01
7.792198479175568293e-01
1.793669231235981432e-01
1.539034359157084864e-01
1.900982297956944067e-01
1.522476561367510361e-01
5.509573191404343318e-01
6.777622789144516213e-01
3.908400028944016280e-01
1.498124963045120994e+00
4.167281970381736533e-01
6.104628562927245650e-01
9.784874022006991856e-01
5.926372826099395308e-01
6.390444099903106467e-01
1.541370965540410087e-01
3.930101379752158897e-01
9.751102477312085792e-01
1.846969380974770591e-01
5.730299264192580955e-01
1.015093109011650840e+00
8.232400566339492798e-01
2.533730730414390231e-01
3.364461570978165006e-01
2.453147977590561801e-01
6.954624384641647783e-01
9.586859345436098412e-01
7.343210279941556617e-01
1.349814064800739233e-01
6.825352549552916592e-01
3.046215355396270086e-01
6.361301153898238914e-01
3.214179068803787453e-01
3.036687433719635343e-01
2.850980795919895797e-02
1.901483781635761039e-01
1.183183699846268144e+00
6.698568314313888550e-01
3.166837140917778126e-01
9.363439142704004237e-01
2.906666055321692754e-01
5.687956541776657549e-01
5.073212966322898643e-01
4.199960231781005859e-01
1.006313505768776428e+00
1.020453828573226751e+00
2.484323270618915003e-01
7.980599671602248701e-01
4.572175011038780434e-01
1.827037394046782948e-01
3.265970200300217785e-01
9.895323336124419722e-01
2.550278887375468810e-08
1.309059369564056885e+00
1.326314091682434526e+00
6.674090892076491865e-01
7.678417444229126421e-01
3.045064195990561662e-01
2.753606811165809631e-01
3.086902797222136341e-01
1.366953294724225776e-01
8.078209608793258667e-01
1.063635423779486500e+00
5.174729943275452326e-01
7.251492202281951682e-01
5.516836017370223555e-01
8.031367480754851851e-01
1.804588899016380810e-01
1.164966553449630959e+00
1.138149291276932207e+00
1.314707177877425082e+00
3.690359950065612571e-01
8.632636696100236540e-01
2.332903236150741244e-01
8.492447942495344737e-01
2.721291154623031727e-01
3.136180713772774853e-01
1.320103291422129177e-01
1.087270745635032565e+00
2.418103545904159435e-01
2.285902060568333061e-01
1.102171221375466192e+00
7.283440642058849890e-02
2.176059012981568654e-06
1.561502337455748790e-01
8.618806093931198342e-01
1.184765750169753717e+00
3.972744628787039933e-01
1.177670639753342074e+00
4.956509336829185708e-01
1.368551093339919866e+00
3.403213948011397649e-01
4.143156945705412930e-01
7.239592880010604636e-01
6.989763408899307695e-01
1.064015951752663280e+00
9.815069019794467886e-01
2.447490319609642029e-01
5.321696609258650401e-01
1.273457203060389120e-01
9.250161558389666805e-01
3.199197396636009327e-01
4.677349522709846608e-01
7.044819355010986106e-01
5.945609003305435403e-01
6.649292826652526411e-01
1.303964376449583962e-01
1.325106281042099265e+00
8.339186832308768949e-02
1.192332163453101446e+00
7.842096745967864768e-01
2.668309966102242956e-02
3.770410969853400518e-01
5.762001782655714610e-01
1.839072960615158125e+00
5.022278213500976918e+00
5.954010039567947388e-01
1.758284740149974879e-01
8.452175676822661909e-01
4.479920223355293163e-01
5.538428172469138655e-01
1.462153770029545052e-01
8.921263039112090620e-01
1.414223825931549383e+00
1.902347207069396418e-01
9.754528015851979816e-01
3.913646489381791271e-01
5.250478446483611839e-01
1.942560844123362718e-01
9.469553291797637717e-01
4.246934372931719659e-02
5.740035086870193259e-01
6.623660713434219582e-01
7.905094593763353217e-01
2.258509352803230175e-01
1.874150067567825761e+00
2.596162609755992001e-01
1.041884201765060025e+00
3.137039333581924661e-01
1.404089641571045100e+00
7.614728450775147817e-01
5.028082504868507385e-01
6.992465704679489136e-01
4.850948393344878262e-01
5.907766073942184448e-01
5.489905074238776717e-01
1.321118096821010356e-02
9.624070197343821409e-01
8.499352157115935835e-01
2.314935415983200573e-01
5.272028386592865212e-01
1.923312735557556108e+00
5.845212861895562328e-01
5.030490696430205411e-01
1.477249121665954901e+00
3.129135761409997801e-02
6.440645188093185869e-01
5.450928375124931557e-01
4.006990939378738403e-01
4.806446462869644054e-01
1.020962676405906766e+00
4.424766123294830988e-01
5.902525007724761519e-01
6.558205485343934216e-01
2.736272156238555020e-01
1.897277575731277866e+00
1.398244023323059748e+00
6.806402876973152716e-02
8.873547047376633135e-01
3.188988268375396729e-01
7.107909917831420898e-01
6.471246927976608276e-01
9.133083224296569824e-01
6.726267278194427712e-01
7.556664824485779253e-01
5.333212748169898765e-01
7.095837086439134023e-01
7.062538594007492510e-01
9.471335142850876299e-01
3.747609421610832436e-01
6.566218256950377974e-01
8.282461017370223999e-01
2.136101588606834356e-01
1.449524825811386419e+00
3.939072191715239923e-01
3.230943843722343667e-01
3.415447652339935192e-01
5.383383110165594898e-01
2.791452527046202614e-01
1.803415261209010967e-01
4.795553922653198464e-01
1.974762022495268887e-01
3.336318105459213923e-01
7.532280206680297407e-01
2.252571724355221794e-01
4.167653873562813804e-01
5.262181490659714189e-01
5.925251173973083318e+00
3.809614613652229087e-01
4.530768960714340321e-01
7.838308125734329002e-01
7.283001869916916338e-01
8.033731400966646063e-01
4.829236760735511891e-01
1.564640253782271229e-01
8.917324811220170844e-01
8.308494716882706133e-01
1.794294007122516355e-01
4.502590253949165233e-01
6.856200814247130904e-01
3.490550085902214272e-01
2.783606186509132718e-01
9.394456267356872115e-01
4.611542731523513572e-01
4.124761819839477539e-01
6.616611570119858010e-01
6.709843277931212269e-01
5.064638829231261852e+00
1.317639136314393555e+00
1.157803410291671220e+00
4.525859951972962536e-01
5.150893345475194840e-01
3.404332503676414379e-01
3.214493975043296037e-01
4.613888133317232271e-02
8.463128328323363814e-01
6.321367830038070457e-01
3.015322342514991649e-01
1.593325048685073630e-01
8.520018672943114879e+00
3.945024371147154985e-01
2.607900284230709187e-01
9.528159916400911200e-01
1.618075549602508989e-01
1.330966639518737615e+00
5.014804691076278909e-01
4.321073234081269088e-01
9.753556966781610882e+00
4.019780978560447693e-01
8.442510575056075828e-01
8.668730080127715620e-01
1.454515813348325086e-11
2.588853970170020835e-01
6.892508417367934070e-01
7.774231046438215831e-01
3.709362983703613503e-01
2.426356956362724360e-01
5.144231408834458730e-01
6.870028316974640115e-01
2.172903440892696714e-01
1.168194854259490878e+00
2.939221763610839311e+00
4.858212411403656228e-01
2.288205498456954867e+00
2.893648594617845293e-01
6.294888257980346680e-01
9.041844755411147794e-02
4.530088081955908619e-01
3.446246966719628269e-01
4.317742794752120750e-01
7.464594006538389781e-01
1.017003601789474576e+00
2.355554759502411777e-01
2.261461108922958874e-01
6.872111141681671587e-01
1.283121167216451104e-03
6.787191897630692194e-01
1.584113843739031746e-01
9.571715533733369252e-01
3.734269011765718738e-02
9.210167407989500177e-01
5.591564655303955522e-01
6.705690473318099976e-01
5.276236921548843606e-01
3.965343892574310081e-01
6.173501253128051980e-01
1.258452206850051713e-01
5.701183015480636163e-03
3.691800013184547424e-01
1.116865962743758933e+00
7.583726406097411887e-01
9.861378550529480425e-01
5.428987205028533714e-01
6.257917904853820268e+00
2.418012291193009367e-01
4.970459654927253945e-01
6.519072747230529430e+00
6.239125162363052812e-01
4.272747933864595171e-01
9.154278188943860695e-01
1.889207903295754901e-02
4.104947373270989575e-01
5.197024390101432356e-01
3.068496003746985501e-01
8.847668170928955078e-01
7.196903198957443903e-01
7.392675825394691425e-03
1.422569340467453092e+00
8.169670283794404630e-01
9.292531937360763994e-01
6.470282435417173961e-01
5.298438757658004983e-01
4.233525648713111766e-01
3.747467651963233282e-01
7.107553035020828247e-01
4.955898404121398815e-01
7.201989054679870383e-01
2.384744055569172350e-01
1.589336925745010953e+00
9.743375658988948640e-01
9.038854241371154785e-01
1.867274934193118409e-03
7.675986975431442483e-01
2.479904666543007452e-01
2.425330668687820934e-01
2.934646949172018959e-01
6.916251540184020774e-01
1.357901722192763061e-01
8.733411908149719682e-01
4.461338207125661870e-01
1.592394545674325201e-01
7.225132554769515547e-01
5.261107891798019187e-01
5.375436902046202725e+00
6.937952805310487400e-03
4.168964713811874612e-01
3.250338420271873252e-01
2.596115708351134366e-01
6.156440556049346258e-01
5.931530535221100076e-01
2.942468568682669594e-01
2.839745387434959301e-01
6.599356502294539961e-01
2.711404234170913807e-01
1.072224962711332719e+00
4.476159319281577953e-01
2.437350437045098239e-01
6.137382179498672707e-01
6.842623740434646828e-01
4.849962264299392811e-01
5.888534486293792725e-01
5.754282593727111372e-01
2.672926194965839497e-01
2.267025373876095651e-01
8.389773662202060439e-04
3.662469461560249884e-01
7.666504526138306019e+00
8.420041918754576082e-01
1.756832964718341439e-01
5.584721028804777720e-01
3.989835351705551258e-01
3.975860312581062095e-01
2.845973700284957775e-01
5.597263157367706743e-01
1.683464932441710804e+00
1.099749088287353127e-01
8.750162839889530364e-01
1.024000555276870505e+00
2.828089132905007297e-01
5.291023269295691556e-01
5.540886789560317549e-01
9.606758326292034189e-01
8.256027638912201150e-01
1.463657271862029319e+00
6.247144460678100142e-01
4.969395279884338268e-01
9.249493747949599776e-01
1.727378359064460009e-02
5.088547468185424805e-01
1.318550175428389704e+00
3.407819956541060513e-01
2.566539542749523423e-02
4.973488330841063787e-01
5.217815056443213528e-01
8.731154203414916992e+00
1.165856140851974754e+00
2.439657256007194963e-01
7.062922753393650888e-02
1.116886281967162997e+00
2.668936155736446603e-01
9.452077269554139960e-01
2.413138590753078072e-01
3.279143214225769820e-01
2.238532096147538009e-01
2.674250438809393504e-01
8.520400762557983620e-01
2.020705682039261042e+00
1.039361962676049522e+00
7.046064078807832143e-01
1.277008458971977400e-01
7.249408394098281194e-01
7.081462591886520386e-01
6.163560569286348212e-01
1.079454356431961193e+00
6.460351407527923362e-01
6.468544661998748557e-01
4.995480656623841886e-01
9.593598276376720246e-01
5.038714706897737816e-01
1.275585472583771640e+00
1.314184808731079457e+01
8.509762734174730614e-01
8.727715045213697564e-01
1.311101728677749767e+00
2.895783826708793751e-01
1.395838439464569536e+00
9.258213430643079667e-01
1.091773495078086631e+00
6.934035897254944292e-01
1.893311113119125366e+00
1.136745721101761336e-01
1.379651153087616100e+00
5.089748263359070712e-01
7.298993647098542814e-01
3.728770747780800199e-01
5.635582417249679343e-01
1.109069728851317604e+00
4.720182642340660095e-01
4.257172748446464428e-01
7.860686421394348367e-01
1.299537044763563687e+00
1.160532408952714034e+00
6.613541990518569946e-01
8.758204072713852151e-01
7.225254625082017101e-01
1.606599926948548140e-01
3.478410765528678894e-01
1.485353857278823575e-01
1.304717504978178955e+00
1.674550659954548160e-01
1.893112406134604964e-01
9.166343837976453912e-01
1.105160620063542487e-01
1.856889901682734142e-02
3.366627275943756548e-01
2.542664427310228903e-02
6.250487297773361650e-01
1.286473840475082620e+00
1.289404809474945290e+00
1.681270554661751793e-01
7.329804629087448564e-01
2.757978960871697027e-01
1.307427853345870528e+00
4.673216491937638439e-01
5.878240466117857776e-01
1.054354578256605723e+00
2.002239488065243600e-01
1.011265654563903027e+01
2.926670596003533298e-01
3.191074132919309858e-01
5.567773093935103439e-03
5.255441993474960771e-01
2.290639743208884860e-01
4.460849106311798318e-01
7.607553958892822266e+00
7.042742669582366943e-01
5.155147314071655273e-01
2.137907013297081771e-01
6.263842314481735674e-01
2.568072922527790403e-01
1.030547682195902259e-01
1.403151416778564142e+00
5.288618445396423562e-01
6.151584297418595249e-01
4.193197622895241672e-01
1.146047149086370934e-03
4.699848517775537249e-01
2.980415359139443887e-01
9.265881538391115280e-01
9.867089837789532192e-01
8.576502352952956876e-02
2.956134192645549219e-01
6.321574211120605469e+00
1.465850509703158222e-01
7.075320839881896751e-01
1.258254331350327160e+00
2.659047752618789451e-01
9.377119779586788884e-01
1.666846776008605868e+00
2.580540925264359631e-01
4.056757166981697083e-01
2.765024378895760693e-01
1.337332183122635687e+00
9.505068719387056442e-01
3.422548726201056768e-01
4.098518788814543568e-01
6.792631059885024802e-01
6.457239806652068648e-01
6.273691028356552790e-01
4.862107977271080683e-01
3.789820045232772938e-01
4.557652130723000572e-01
8.837766230106354204e-01
2.780135415494440765e-01
4.232468992471695168e-01
1.298018991947173850e+00
1.032577595114708036e+00
1.669500814750788861e-02
3.922659650444985102e-01
2.701061800122260270e-01
3.068013086915016285e-01
1.331387338638305984e+01
8.430158078670502153e-01
8.454136848449704811e-01
4.143601246178151010e-02
8.010183542966842207e-01
4.598176002502441517e-01
7.903005599975585493e-01
1.784727203845977828e+00
8.076419085264205933e-01
6.722653329372405562e-01
1.008661200396776908e-09
1.725930541753769365e+00
3.488236337900161854e-01
4.451630666851997264e-01
9.577701777219769230e-01
6.343587696552275279e-01
1.942175185680388605e+00
3.251192808151245339e-01
1.929001435637475170e-01
1.176634585857389892e+00
8.126580744981766191e-01
1.565303295850755672e-01
3.848060682415961331e-01
2.383038990199565776e-01
5.896770864725112693e-01
1.503130905330181677e-01
1.447745606303215693e-01
7.042143642902374268e-01
4.409064427018165588e-01
1.388342010974883411e+00
1.680547267198562456e-01
5.141981795430183855e-01
7.724873304367065874e-01
7.868660628795624001e-01
5.781517207622527410e-01
1.850712984800338301e+00
1.620312467217444874e-01
1.221902698278428456e+00
1.527671344578267754e-01
1.148666076362132998e-01
7.163509786128997581e-01
1.592465353012085583e+00
5.964007496833800825e-01
4.973566934466363554e-01
1.025095281004905656e+00
1.776216872036456285e-01
3.029171645641327015e-01
6.962279748916624378e+00
6.453269314765930353e+00
6.208164244890213013e-01
1.256303299218416991e-01
4.035402595996855912e-01
7.704439473152160822e+00
7.559259891510009544e-01
7.803027629852294922e-01
7.040914326906204668e-01
5.246287196874618308e-01
4.519417300820349759e-01
1.031370624899863531e+00
5.130652740597725359e-01
1.653502553701401978e-01
4.188018143177032471e-01
7.240086704492569858e-01
4.799373775720595647e-01
7.440704375505446944e-01
3.875572457909585711e-01
2.403967484831809609e-01
8.571970254182815774e-01
8.928939640522004506e-01
8.836874753236768631e-01
1.100165513157843833e+00
3.967988431453704501e-01
2.354929275810719036e-01
7.055470705032348411e-01
3.454011425375938527e-01
3.842652320861817405e-01
7.616181552410126177e-01
9.549086183309553055e-01
1.794761878252029375e+00
1.565351068973539761e-01
5.024428874254227573e-01
1.652740038931369004e-01
3.439232498407364669e-01
7.246951967477799350e-01
5.205053925514221413e-01
5.341693848371505959e-01
3.557459920644760465e-01
9.559460133314132690e-01
1.246460819244385121e+00
2.362863466143608482e-01
2.339312259573489948e-03
1.581051170825959196e-01
1.021468383073806274e+00
5.742214679718017356e-01
3.697816514968871537e+00
4.813649490475654380e-01
2.215681594610213079e+00
6.671723395586013350e-01
8.275046169757842573e-01
2.621558070182801181e-01
1.636245913803577312e-01
2.203435629606247392e-01
4.051971152424812539e-01
5.266852065920829551e-01
5.023999959230422974e-01
1.319499373435974565e+00
3.403968140482903637e-01
4.571492508053779380e-01
1.701482671499251920e+00
6.456769794225692971e-01
5.846986949443817583e-01
4.592226929962635318e-02
4.638903364539145313e-01
8.830132007598875399e-01
4.609367519617080799e-01
2.544827453792094518e-01
4.877849683165550454e-01
9.495597034692760952e-01
8.346102803945540938e-01
3.491393193602562173e-01
5.060210317373275979e-01
2.428844042122363933e-01
4.462300166487693787e-01
4.308494091033936435e-01
5.523024082183838335e-01
2.926690608263015636e-01
9.796832710504531638e-01
6.024541407823562622e-01
7.426724016666412798e-01
9.120834290981291170e-01
6.045658290386201061e-01
6.424747514724731268e+00
1.053109383583069825e+00
3.945186018943787620e-01
5.734098017215729648e-01
5.195028424262999600e-01
2.297721438109874836e-01
8.694104522466659102e-01
4.024079710245131447e-01
7.326482713222504106e-01
1.979644455015661109e-01
1.271651554107666282e+00
1.429766292858404314e-04
7.681145876646041648e-01
4.239409074187279747e-01
3.355411708354949507e-01
1.758479440468363898e-04
6.741617321968078613e-01
8.757380574941635576e-01
5.459293699264526012e+00
5.034579664468765703e-01
4.021963909268380100e-01
8.073249042034149614e-01
4.980537012219428128e-01
9.219022780656814797e-01
8.833485573530195367e-01
2.074530951678753288e-01
3.748180299997330711e-01
1.023436227440834623e+00
4.574152916669845803e-01
3.299904942512512096e-01
1.712733514606953888e-01
3.937925681471824979e-01
7.537998795509336381e-01
7.583182603120803833e-01
6.034115582704544511e-01
2.197204345464707220e+00
6.188804835081098688e-01
9.507687985897064209e-01
3.691978469491005721e-01
9.742538899183271761e-01
6.191242128610612294e-01
3.601112410426139943e-01
7.295791208744049072e-01
1.034438991546630104e+00
6.921505957841873613e-01
1.020105689764023271e+00
6.783176273107530685e-01
3.042155966162680136e-01
6.824959546327591386e-01
7.455959081649780051e-01
1.272080427408218029e+00
4.343001842498779297e-01
8.270999133586883767e-01
6.390567719936370850e-01
1.305441451072692383e+00
8.087205260992049727e-01
4.215197488665580750e-01
8.889336854219436201e-01
1.115789610147476463e+00
5.090719446539878623e-01
5.409370005130769155e-01
2.212092831730842202e-01
5.334678485989570174e-01
8.060503363609313743e-01
2.149214178323746172e-01
6.991295158863066739e-01
5.699188232421874556e-01
6.227787107229232344e-01
6.473087489604949507e-01
9.377578318119053069e-01
1.725706744194030806e+00
6.036072850227356401e-01
7.196136295795440008e-01
2.561655655503273232e-01
2.652189753949640294e-01
4.576115936040877630e-01
1.101803725957871460e+00
1.134754753112792391e+00
3.183366730809210621e-01
1.768507860600948278e-01
6.950063884258268487e-01
6.836315631866455300e-01
2.295615643262863603e+00
4.159643072634935934e-02
7.419728457927703413e-01
7.430207729339599609e-01
9.479809194803244798e-01
3.862520086765290017e+00
6.699643760919571367e-01
6.356762737035750455e-01
3.769263163208960710e-01
1.942620456218719649e-01
3.090069159865379556e-01
1.541940338909625341e-01
7.151426941156386885e-01
1.312336748838425660e+00
8.819433212280273215e-01
7.338178634643555132e-01
9.049185276031493919e-01
3.531451612710952981e-01
1.006339213252066767e+00
3.266971632838249207e-01
1.202925264835357666e+00
4.187590554356573347e-01
9.413908928632735984e-01
4.940693333745002080e-01
9.553687721490866647e-01
3.637764796614647023e-01
4.324338331818580738e-01
5.021543074399231754e-02
6.219346046447753462e-01
1.952938258647917980e-01
6.723112910985946655e-01
7.072387903928756270e-01
4.553324893116951211e-01
3.508298963308335017e-01
5.492322623729706255e-01
2.276472046971321217e-01
1.027432540059090460e+00
5.476298555731773376e-01
5.434894770383834617e-01
1.516556978225708008e+00
3.274681910872459523e-01
7.069132894277573298e-01
9.000693470239639060e-01
1.794350510835648338e+00
7.833507150411604947e-01
3.529426172375678683e-01
2.554005332291126584e-01
9.049564123153690076e+00
5.610622707754374383e-02
2.692345075309277580e-01
4.151999101042748164e-01
3.531125530600547902e-01
4.056033790111540638e-01
4.215885594487190358e-01
3.166251227259636591e-01
1.035652816295624667e-01
1.478083939291537433e-02
9.629149109125139105e-01
3.383641719818114568e-01
6.748010367155073963e-01
1.185035170055924979e-02
5.828108608722686323e-01
9.066337823867798296e-01
6.866009771823881058e-01
1.760280229151248987e-01
7.683198571205138716e-01
7.530122160911559837e-01
2.977788254618645158e-01
1.129397332668303111e+00
6.966925054788589700e-01
5.340116277337074724e-01
1.438212946057318697e-01
5.200421571731569381e-01
2.648259684443473039e-01
1.216731727123260720e+00
3.278970330953597800e-01
4.405180662870407104e-01
1.204317933321000123e+00
4.236568868160247026e-01
6.203361928462982622e-01
8.135396599769592063e-01
6.429407477378845659e-01
4.580522850155831494e-01
5.141025036573408924e-01
7.885694831609726396e-01
2.842311508953571098e-01
3.306011646986007912e-01
2.933287069201470088e-01
3.992205664515494634e-01
5.377351939678192139e-01
4.419865012168883167e-01
9.514347434043886054e-01
5.239369988441466841e-01
7.699901580810546431e-01
2.901510819792747498e-01
1.159165388345717806e+00
5.399034142494201216e-01
1.195307564735412553e+00
3.858792960643769199e+00
1.286668241024017556e+00
5.497628390789032204e-01
7.674280017614365512e-01
5.005647554993630788e-01
2.269468314945698728e-01
5.490169852972031084e-01
1.818323600292205411e+00
4.887057825922965226e-01
4.963719502091407665e-01
9.959338515996931651e-01
3.665936067700387158e-01
5.140221104025840537e-01
9.209331810474395974e-01
2.532218679785728233e-01
8.730700075626375289e-01
7.236108273267746194e-01
1.001460635662079213e+00
8.856492668390274492e-01
8.983827888965606467e-01
2.065117776393891325e-01
7.551123142242431863e-01
4.661887913942336370e-01
4.208939969539643444e-01
4.141092360019683616e-01
4.659594148397444568e-01
2.805614382028579490e-01
6.506626941263676800e-02
1.591688108444214489e+00
4.509030759334564098e-01
7.820814788341522439e-01
6.215270400047302468e-01
2.304786406457424719e-01
2.440087616443634977e-01
1.016517072916031550e+00
9.737646877765653297e-01
6.051516383886337280e-01
7.594912737607956155e-01
9.150703735649586001e-02
1.576747409999370297e-01
3.277841567993163840e-01
7.483338880538940252e+00
5.952580034732818381e-01
7.088612645864487138e-01
5.204715415835379222e-01
2.678553365170955880e-01
6.011049032211304155e-01
5.228808686137198514e-01
3.042469188570976479e-01
1.506904441118240845e+00
1.783094860613345101e-01
4.831348612904548534e-01
7.596768945455550925e-01
1.509360480308532981e+00
3.441879063844681119e-01
6.854733794927596602e-01
4.057841196656227223e-01
7.650331348180771096e-01
4.848487034440038812e-01
9.888481259346004748e-01
5.777485102415085283e-01
4.709139266196870905e-05
7.021861642599105391e-01
7.442607671022415383e-01
9.937013149261467726e-01
7.321868240833281360e-01
5.080828690528869984e+00
1.117057394981384677e+00
1.815992392599582450e-01
4.480307534337042985e-01
5.136815488338470903e-01
6.139521449804307140e-01
1.124576887488364818e+00
1.448057502508163896e+00
1.752560749650002303e-01
5.199170678853988203e-01
3.528014779090882236e-01
4.012637957930563770e-01
7.969606101512909380e-01
8.007624685764312966e-01
5.949270337820051768e-01
9.272351413965227440e-01
1.410499475896359323e-01
9.202472209930420144e-01
1.405593115836382689e-01
5.263064026832580122e-01
1.145146530866623769e+00
6.996779412031173262e-01
1.624161608517172284e-01
1.409304048866034109e-01
6.983693385124207786e+00
7.713343411684036033e-01
1.179192028939722164e-01
5.699796259403229204e-01
1.235067699104546862e-01
2.004372632503509610e+00
3.854891151189805409e-01
2.960153058171271501e-01
1.793435841798781405e-01
1.025715060532093326e-01
3.820478156208991227e-01
5.929064035415650968e-01
1.004464024305344205e+00
1.032001411914825306e+00
5.970279455184938078e-01
3.826384276151657549e-01
6.383409798145295300e-01
1.125141054391860518e+00
5.102271452546119912e-01
1.600420191884040777e-01
3.068212881684304061e-01
4.313749027252197443e+00
2.361699241399764393e+00
7.896517306566238625e-01
6.092295140028000100e-01
3.793171569705010016e-01
1.097983881831168906e+00
1.578454595804214211e+00
6.419266849756241067e-01
8.561371564865112305e-01
5.998053461313247459e-01
2.608874076977372308e-02
9.477070096181701908e-04
1.013021394610405634e+00
6.205211788415909702e-01
3.754578411579130859e-01
1.739912964403629303e-01
5.822209388017653975e-01
6.395321696996688621e-01
8.934369862079620805e-01
5.458264783024788791e-01
2.494080148637293770e-01
8.422459989786148515e-01
4.217990219593049095e-01
5.422052741050721325e-01
4.181178942322730796e-01
1.509761196374893366e+00
3.209950700402259827e-01
5.059970721602439214e-01
2.124271028151269948e-04
2.477604165673257253e-01
3.999393090605736778e-01
9.567256093025203745e-01
3.145256817340850164e-01
3.736604973673820496e-01
4.270302608609199413e-01
2.244026675820350314e-01
5.828496605157852395e-01
1.114770883321761552e+00
4.484804344177245383e+00
6.701236546039581743e-01
2.352181471884251529e-01
3.077963355462997978e-03
3.205040171742439270e-01
5.363363340497017129e-01
1.238820988684893043e-01
8.800889730453491655e-01
1.100723870098590379e-01
6.856842666864395586e-01
1.868044100701808374e-01
7.931782543659210427e-01
1.254081016778946012e+00
5.927816748619079146e-01
8.308581650257110818e-01
6.804286260157824118e-02
7.599122285842895286e-01
3.992081861943006654e-02
3.205036014318465853e-01
8.464150846004485640e-01
6.383337646722793135e-01
6.685955494642257246e-01
4.791942566633223821e-01
6.711291581392287986e-01
1.348312962055206121e+00
3.030014932155610241e-01
6.636780917644500288e-01
4.513363897800445335e-01
9.050289690494537354e-01
8.982866168022155540e-01
1.050722903013229237e+00
3.591304808855057540e-01
9.051178246736526489e-01
3.574913412332535456e-01
8.547934651374816672e-01
5.223654583096505322e-01
5.375975638628005537e-01
5.659755781292914456e-01
3.195269942283630593e-01
1.249911475181580078e+00
3.389044404029845775e-02
4.276873424649238475e-01
5.320753335952759233e-01
8.577854514122010832e-01
6.860654175281524214e-01
7.938791245222092119e-01
7.193192511796950850e-01
2.764139443635940108e-01
5.481076031923294289e-01
1.526145309209823719e-01
9.973548740148544534e-01
1.294414579868316262e-01
7.636668384075164795e-01
7.741274654865264448e-01
1.575700707733630190e-01
2.174604296684266025e-01
7.038305491209030373e-01
2.935671418905257957e-01
2.417712733149528503e-01
2.394992060959338642e-01
1.010143032670021146e+00
8.567853510379791482e-01
1.024960938096046936e+00
5.874463051557541338e-01
7.034636855125426802e-01
4.689259305596351624e-01
5.479465842247009943e-01
3.463338702917099221e-01
4.910433009266852444e-01
1.814717423915863659e+00
7.749973595142365390e-01
8.013669192790985329e-01
1.395414394140244152e+00
2.130225574970245894e+00
9.062014400959015337e-01
7.725900888442993608e-01
7.873631775379180686e-01
6.442878156900406772e-01
1.475829593837260645e-01
9.943665564060207851e-01
4.782302185893060331e-01
1.474004739522933427e+00
7.647422403097152710e-01
1.179014003276823486e+00
1.608087614178656810e-01
3.289139363914729552e-02
4.203735515475272022e-01
1.022250625491142095e+00
1.890174046158790699e-01
5.533820301294326560e-01
5.898195505142211914e-01
7.051759690046310869e-01
2.862632581964136280e-02
5.175352990627288818e-01
3.135806381702422874e-01
7.649969398975372536e-01
3.377914056181907654e-01
1.015923351049423246e-01
1.632068507373332922e-01
4.380833402276039235e-01
4.150812223553658198e-01
8.260591417551040871e-01
8.738549619913100752e-01
8.647558778524399026e-01
2.992985382676124351e-01
1.168816554546356024e+00
4.412802293896674888e-01
9.216885901987550977e-02
6.759094685316086037e-01
5.880441367626190186e-01
1.000491076707840321e+00
3.329168155789374306e-01
9.949502259492872813e-01
6.534201800823211670e-01
1.769114017486571877e-01
1.156643831729888605e+00
5.957361429929733943e-01
5.040904637426137785e-02
2.991751313209533025e-01
8.673090666532514703e-01
5.811505764722824097e-01
1.343439884483814128e-01
4.329936966300010903e-01
3.567847594618797635e-01
5.142714709043503252e-01
9.540430791676043909e-02
9.134459197521209717e-01
6.843413591384888139e-01
4.518820121884344898e-01
5.027961432933807373e-01
6.222342289984227059e-02
7.628304958343505859e-01
1.183296507596970137e+00
2.328108735382557748e-01
2.313681408762930380e-01
6.676499187946319802e-01
6.635265409946440318e-01
6.851177483797072920e-01
2.227248795330524500e-01
7.916745781898499867e-01
8.846940100193023682e-01
8.862856656312942949e-01
1.597857111692427168e+00
2.443168930709361530e-01
5.852853327989578913e-01
1.048861727118492571e+00
4.510830104351042924e-01
6.149971246719360130e-01
4.317982599139212896e-01
3.771138951182365640e-01
6.059937059879304533e-01
5.730696961283684443e-01
6.508831121027469635e-02
6.172257900238037331e-01
1.136942481994629661e+00
4.485323186963798003e-02
1.669588673114777322e+00
1.373266351222993231e+00
2.290646485984324521e-01
9.112212121486663596e-01
1.430132025480270075e+00
3.607709556818007313e-01
4.394034653902054721e-01
9.860084345564250688e-03
9.694382026791577289e-02
5.473035365343095204e-01
8.382998203160241458e-07
6.418564729392527146e-03
5.348945200443268044e-01
6.752926915884017722e-01
7.438643962144851907e-01
8.185552477836608443e-01
3.202503219246864985e-01
1.769950997829437656e+00
1.899007409811017885e-02
2.325737662613392431e-01
1.760662615299224409e-01
3.714390825480221731e-02
5.300602287054061446e-01
8.221554040908813921e-01
6.805824905633925948e-01
3.842089861631393100e-01
5.462989702820777449e-01
2.043060101568699438e-01
6.853668808937072310e-01
7.480344265699386819e-01
1.047582867741584600e+00
3.998232318554072878e-03
7.833279061317445446e+00
7.954168289899825606e-01
9.833122253417971859e-01
1.311796627938746629e-01
4.255683749914170311e-01
6.866888016462324718e-01
8.387796252965926680e-01
6.141404479742049727e-01
7.788180381059646162e-01
7.811850041151047197e-01
6.611446350812911765e-01
6.004688352346421176e-01
1.060667410492897450e-01
2.871963962912559287e-01
3.287781566381454690e-01
2.932756215333938710e-01
3.524944856762887158e-01
2.776901140809059365e-01
6.250462055206298384e-01
4.899318888783454895e-01
6.726222753524779829e-01
4.588720917701721302e-01
9.763051420450213902e-02
4.665939897298811978e-01
1.655387073755263949e-01
8.963585019111631746e-01
6.107468754053115845e-01
2.323659025132656653e-01
4.498555809259414673e-01
8.638460904359813730e-01
6.911298573017121694e-01
5.641542464494705422e-01
6.474744856357574907e-01
1.023982623219489962e+00
6.377393871545791182e-01
8.333063274621961281e-01
6.709173470735551037e-01
7.474110126495361328e-01
4.175192281603813393e-01
2.999861881136894337e-01
6.668353468179704091e-01
1.641974955797195768e-01
1.142291462421416437e+00
1.176277059316635398e+00
9.109792262315749567e-02
2.021686479449271712e-01
2.816946581006051220e-01
2.222139999270439092e-01
5.182686567306518111e-01
9.386860341464853052e-07
3.749950885772705411e-01
4.478275597095490168e-01
3.996510550379753224e-01
4.175019979476929377e-01
1.564483922719955622e+00
5.941169857978823021e-01
4.956635549664496487e-01
1.268633019924164440e+00
1.099670815467834739e+00
6.828224152326584084e-01
6.688485205173491099e-01
4.354185342788697288e-01
8.930281937122345193e-01
1.038361498713493258e+00
4.283818118274210912e-02
5.132440537214277843e-01
2.046431308984756114e+00
4.721561565995217036e-01
7.360670447349548784e-01
5.126046463847160339e-01
4.061063632369041332e-01
7.742813885211943248e-01
6.669072240591049638e-01
3.010666683316230996e-01
4.319836452603339483e-01
1.105522996187210616e+00
5.440736472606658714e-01
6.362038969993590865e-01
9.054873108863830122e-01
1.600757092237471702e-01
1.129243114590644748e+00
4.575011491775513583e-01
1.282931407913566121e-02
3.020410865545272161e-01
2.233629925176501205e-02
9.266369611024858344e-01
4.034459590911865234e-01
4.578206449747085349e-01
1.106176674365996898e-01
1.023123769760131374e+01
3.671219065785408242e-01
1.156728124618530362e+00
3.414339154958725975e-01
7.181842505931854692e-01
8.078715741634369119e-01
8.803832173347473367e-01
4.003685936331748962e-01
2.077447021007536421e+00
3.084120228886605974e-01
5.197499811649322066e-01
3.803391262888907720e-01
1.158551144599913929e+00
8.427800387144088745e-01
2.762867175042630352e-01
2.303469705581664861e+00
5.876091122627258995e-03
4.420700564980507563e-01
6.126020401716231190e-01
2.091855943202972357e-01
4.470373347401618846e-01
1.534204614162445024e+00
3.979524210095405357e-01
1.618294411897660767e+00
4.307611659169195972e-01
1.034872591495513972e-01
6.319005310535430464e-01
2.337079957127571606e-01
3.840900555253028981e-01
7.683614045381546021e-01
5.046677142381668091e-01
4.010544478893279807e-01
1.376710802316666538e+00
3.319351285696029441e-01
4.246403783559798972e-01
4.521395310759544484e-01
7.516284376382827981e-01
1.000988191366195323e+00
7.826919585466384222e-01
1.348056640624999503e+01
4.460832893848419300e-01
1.164044228196144726e+00
1.790235318243502127e-01
3.056766271591187523e-01
3.508633777499199358e-01
7.689905911684037365e-01
4.304774329066276550e-01
7.116822910308838068e+00
4.743745103478430591e-01
2.452522630846942690e-06
5.912244543433189392e-01
3.488766670227050892e-01
1.414266294240952515e+00
6.895950734615324818e-01
8.459191359579562586e-02
1.070360091328621310e+00
1.746366733312607167e+00
8.125355869531631914e-01
1.006895345449447809e+00
5.110915273427962813e-01
2.947902642190455835e-02
1.625641748309137047e-01
4.733270276337862847e-02
1.111029523611068326e+00
7.471207678318023682e-01
3.990289270877838690e-01
6.680533528327942117e-01
5.472805529832840410e-01
4.046987339854241084e-01
3.561126396059990928e-01
3.075824156403541010e-01
4.123765572905540577e-01
6.067339390516280906e-01
2.789565950632095226e-01
7.399804890155791126e-01
1.373266810178756403e+00
1.787506736814975239e-01
5.191446527838706748e-01
2.245856232941150776e-01
4.501860395073890020e-01
4.773878812789916770e-01
1.677222375292329408e-04
1.717971760034561868e+00
1.228185659646989558e+00
8.856306046247480745e-01
2.403229020535946336e-01
3.822590634226798456e-01
8.743153423070907371e-01
1.858982861042022816e-01
3.443567007780075073e-01
7.723749101161956343e-01
8.162266016006469727e-01
1.344597035646439398e+00
1.602284866571425326e+00
3.768147304654120844e-01
4.146860197186469921e-01
5.549676716327667236e-01
3.135142236948014194e-01
1.092282485961914462e+00
5.836866199970247582e-01
4.133967965841293113e-01
7.279967479407786768e-02
4.230953022837637967e-01
8.237693756818771362e-01
3.690643966197968417e-01
5.231828153133392112e-01
4.108096972107886380e-01
4.511305943131446727e-01
7.715195000171661821e-01
7.427116572856903298e-01
8.344693601131438765e-01
6.043425410985946433e-01
1.040604498237371611e-01
6.617996037006377286e-01
4.307589665055274741e-01
3.973829716444014504e-01
5.177683308720589794e-01
6.729688525199890581e-01
5.218518435955047385e-01
4.738907769322396324e-01
1.591026043891905939e+00
2.271109126508236431e-01
9.799768239259722957e-01
5.224470525979996172e-01
7.653547376394271851e-01
8.544163435697555986e-01
2.893540769815444169e-01
9.722305983304982968e-01
8.551405131816862681e-01
7.061748623847960982e-01
8.981511652469633677e-01
3.096262067556380115e-01
3.143206492066383806e-01
7.388479292392731157e-01
7.523604929447174072e-01
8.094768732786178367e-01
8.849178373813628706e-01
1.771389245986937366e+00
3.255279809236526489e-01
5.368001088500022888e-01
8.528637826442718728e-01
4.649697579443454881e-02
5.298016831278801186e-01
4.698916390538215859e-01
3.447044894099234869e-01
1.059697011113166498e+00
6.280971258878708108e-01
9.312921464443210118e-01
4.308013722300531034e-01
2.855583414435386991e-01
1.516548946499823858e-01
5.261705666780471802e-01
8.551281243562698364e-01
4.041960790753365562e-01
2.011990505456922929e+00
6.233452200889587624e-01
2.065127409994602647e-01
4.458166316151618846e-01
1.470562055706977622e-01
1.082310625910758439e+00
6.226253598928451760e-01
9.681820690631864901e-01
9.137273520231247170e-01
7.104634732007981679e-01
9.333378195762633833e-01
8.490124493837356567e-01
8.598687738180158524e-01
8.732895821332931074e-01
1.451826149225235119e+00
1.759892448782920948e-01
1.293209022283555054e+00
5.586449205875396729e-01
1.367086090147494604e-01
6.669834852218627930e-01
2.176598316431045621e+00
8.538891166448593362e-01
2.667574360966681324e-01
2.246224761009216198e-01
7.106994897127150157e-01
5.572438389062881470e-01
4.592237442731857411e-01
1.036579054594040095e+00
2.330763541162013675e-01
3.513063862919807434e-01
2.432446278631687497e-01
6.179981052875518355e-01
4.426654845476151179e-01
6.016976028680801614e-01
5.415609300136565718e-01
4.782471776008606068e-01
5.759650290012359175e-01
5.979402810335160412e-01
1.726023117953445600e-04
1.890887930989265109e-01
4.942741647362710045e-01
1.036134257912636025e+00
5.914937525987624678e-01
7.356804460287094116e-01
8.030779689550400224e-01
3.661337375640869030e-01
7.913772851228714211e-01
7.289834648370742132e-01
5.548925220966337557e-01
5.228616401553154436e-01
3.631680145859718101e-01
1.686118222773075048e-01
5.284079477190971597e-01
1.170001331716775672e-01
4.833594992756843345e-01
5.035902142524719682e-01
2.086034707725047954e-01
1.255522120743989556e-01
6.315696090459824719e-01
9.223900467157364336e-01
6.164845824241638184e-01
2.281633240636437351e-03
7.660092979669571589e-01
4.926870632171630682e+00
4.425596341490746211e-01
8.842504501342774992e-01
3.266429096460342629e-01
6.390585601329803467e-01
3.167710661888123447e-01
2.097871430218219424e-01
2.979344442486763223e-01
7.603765040636061290e-01
3.602295815944672741e-01
8.039083421230316384e-01
3.720720618963241355e-01
6.471039712429045299e-01
1.921531394124030012e-01
1.434764705598354229e-01
5.582367151975631270e-01
7.957196474075315384e-01
5.645546615123748779e-01
1.179898422956466408e+00
2.162361688911913493e-01
9.741569450125093718e-03
8.448172135103954386e-04
6.925889909267427536e-01
5.256027787923812644e-01
4.833528742194175831e-01
9.583626836538317040e-01
9.085803031921386719e-01
1.771779531240462502e+00
1.551672995090484508e-01
4.647464424371721137e-01
1.200902843475341708e+00
1.614585138857363988e-01
3.861838325858116261e-01
3.245863646268846159e-01
4.295277607440948664e+00
3.192506715655326066e-01
3.438348755240440147e-01
5.987349689006805642e-01
5.513756483793258445e-01
3.878412803169339982e-03
1.115957528352736539e+00
4.197088986635207908e-01
6.018966674804687722e-01
1.452246409654617931e+00
5.842212319374084917e-01
3.481399968266488121e-01
5.154776722192764282e-01
8.256458789110183716e-01
5.864355683326720747e-01
3.880648031830787881e-01
3.365428566932678889e-01
4.497442627325653162e-03
5.221284076571464094e-01
4.894434094429015447e-01
3.747363328933714932e-01
9.323962658643726309e-01
7.542193293571472168e+00
2.547195009887218697e-01
1.039071479439735324e+00
1.226367384195327537e+00
3.339542120695114802e-01
6.257863759994507502e-01
4.307307317852974160e-01
4.162176415324211343e-01
2.984355473890900473e-02
5.167411938309669495e-01
2.673270463943480668e-01
6.852401047945021473e-01
1.178856277465820446e+00
6.232133567333221214e-01
3.785528957843779518e-01
8.043277591466904131e-01
4.237798075337196582e-05
6.048059999942779763e-01
8.499978035688400269e-01
7.201631963253021240e-01
1.064089512825012296e+00
8.142076879739761353e-01
8.577158182859421220e-01
4.779734581708908192e-01
6.495804280042647427e-01
6.802096188068390559e-01
1.247187614440917969e+00
6.992967993021010908e-01
1.482243075966834522e-01
1.088875910639763633e+00
1.562692545354366636e-01
1.131345373392104836e+00
7.052102178335190041e-01
4.712003469467163974e+00
3.098755404353141785e-01
1.156213843822480047e+00
2.995077490806578591e-01
1.049169924855231972e+00
3.844106391072273921e-01
1.614305235445499531e-01
5.316048994660377280e-01
6.510829389299033481e-05
1.838631942868232394e-01
1.600551617145537620e+00
4.945956960320473383e-01
1.543307083845137928e+00
3.849042207002639771e-01
8.278993517160415649e-01
1.234246855974197254e+00
7.383457452058792558e-01
2.797403693199156938e-01
5.862055033445358054e-01
8.412292033433914629e-01
4.907783567905426025e-01
6.859647417068481801e+00
2.896176353096961975e-01
4.449740380048752830e-01
4.192987397313117093e-01
6.866775453090666614e-01
2.337101437151433703e-01
6.023468405008316484e-01
4.396327421069146091e-01
8.333099037408828735e-01
5.785787552595138550e-01
7.506423026323318926e-01
3.676698699593544672e-01
6.181571036577223621e-01
5.961828500032424483e-01
5.925985902547834527e-01
9.660874098539352639e-01
1.519581109285354226e-01
8.896583974361418345e-01
6.203771173954010232e-01
6.429841190576552901e-01
4.405930429697036965e-01
1.882161097455536296e-04
8.539468377828598467e-01
2.497195288538932856e-01
1.191365408897400169e+00
3.600508630275726096e-01
1.284607905149458329e+00
9.756195098161700718e-01
8.768442958593368752e-01
3.417732030153273204e-01
5.006493836641310313e-01
1.038553833961487260e+00
5.048936337232590166e-01
9.422156810760500267e-01
2.429523572325706371e-01
2.053741365671157282e-01
6.240971148014070602e-01
1.134286146610975071e-01
2.479602538049220928e-01
2.763964310288430370e-01
6.916922241449356967e-01
1.771159464120865223e+00
7.632979750633240856e-01
3.200433745980263422e-01
3.097123533487320390e-01
1.791218709945679111e+00
2.149109393358229758e-01
1.820362247526645105e-01
1.065273931622504611e+00
5.053022831678390947e-01
4.953760951757431030e-01
3.555045470595358803e-01
1.346444338560104148e+00
4.370955467224121316e-01
2.486692450940609922e-01
1.476978003978729470e-01
5.303666830062867543e-01
1.181215647608041958e-01
2.499576881527901251e-01
9.038412362337112649e-01
5.124871587753295543e+00
6.126142829656600064e-01
4.358844265341760282e-01
4.606832802295685592e-01
7.999344736337661299e-01
6.877274096012115923e-01
4.494561696052551625e+00
4.803113386034964516e-01
2.736616015434265026e-01
4.558509603142737454e-01
7.964169949293136153e-01
2.357561871409415422e-01
4.932951867580412930e-01
1.008625245094299183e+00
4.741344950161874294e-03
5.349088579416274580e-01
1.506446547806262470e-01
5.182855501770973206e-01
1.531371667981147600e-01
1.298419184982776975e-01
4.099197611212730408e-01
3.338463976979255121e-01
4.109106227755546792e-01
3.238821983337402122e-01
4.238103196024894936e-01
7.466709882020949873e-01
7.663378596305847612e-01
5.398615568876267146e-01
1.206788208335637658e-01
1.115784195065498530e+00
6.574458390474319236e-01
1.009135457873344688e+00
8.967616170644759910e-01
5.662614917755127486e+00
4.135854810476303212e-01
6.540390789508819802e-01
1.485775536298752586e+00
4.590128183364868830e-01
5.557643800973891546e-01
1.101704284548759460e+00
3.924323305487631419e-01
3.868934452533722146e-01
6.793868243694305420e-01
2.989595189690589794e-01
3.360888555645942799e-01
4.628081783652305825e-01
2.003000147640704720e-01
5.552070230245590432e-01
5.703087300062178455e-01
3.302045196294783880e-01
2.192441813647746651e-01
5.822519302368163174e-01
6.905413210391997403e-01
1.035317987203597356e+00
8.409786403179166925e-01
8.413886874914169312e-01
4.815087407827377541e-01
1.071305617690086587e+00
6.783704608678817749e-01
5.404975369572639909e-01
1.149993728846311764e-01
5.019397631287574324e-01
1.032986283302307629e-01
1.052026805281639499e+00
1.873943321406840168e-01
1.756228841841220856e-01
6.385279983282089455e-01
5.021122068166732344e-01
1.210530358552933228e+00
4.720221936702728160e-01
3.415735498070717746e-01
6.271277695894241777e-01
2.385819628834725259e-01
4.313057929277420155e-01
3.129753256216645518e-02
6.102801710367202759e-01
6.432981491088867188e-01
9.334289908409119096e-01
1.233152937889098411e+00
4.420034810900688171e-01
2.737010329961776511e-01
1.243974924087523748e+00
2.875939637422562090e-01
4.891513019800186046e-01
5.517722845077515093e-01
2.602896213531493697e-01
4.675241127610207381e-01
8.577919870615007270e-01
6.850253760814668524e-01
2.292948134243488201e-01
4.193575605750083923e-01
9.316554701399581634e-06
1.524244439601896373e+00
7.271622508764266080e-01
1.055368313193320473e+00
3.706441149115563549e-01
1.301103264093398382e+00
1.472100175917147591e-01
8.131635546684264915e-01
1.313772511482238947e+00
4.764011055231094360e-01
3.479925692081451416e-01
6.909493327140807661e-01
5.599733591079711914e-01
1.182301354408263228e+00
5.825477093458176769e-01
1.688624846935271595e+00
7.984380334615708286e-01
7.545949578285217063e-01
1.150653641670942723e-01
4.273355692625046554e-01
3.023147737979889449e+00
3.520772770047186917e-01
4.900553241372109237e-01
1.873890027403831426e-01
7.736559867858887607e-01
7.821554303169250266e-01
3.933669745922089289e-01
3.685036972165106617e-01
7.607493579387665239e-01
4.838898330926896252e-01
8.920226097106935814e-01
9.124171733856201172e-01
1.629470735788345892e-01
7.605648845434188621e-01
9.398949474096298662e-01
6.826480507850647417e-01
2.546136677265168347e-01
6.363734215497971469e-01
3.740117371082306019e-01
3.244534492492676669e-01
1.401254844665525967e+00
5.136939078569410233e-01
8.719751894474029319e-01
5.850337803363799827e-01
8.655655562877655473e-01
1.011406302452087624e+00
7.658395469188690186e-01
2.552904091775417550e-01
9.313118457794192229e-02
4.909898877143860085e-01
1.390687310695647882e+00
6.175912231206893699e-01
2.716942638158797996e-01
3.537039935588836559e-01
5.388717651367187500e-01
1.229726743698121627e+00
6.017647480964660289e+00
2.050064094364643097e-01
6.771177589893341286e-01
1.211290141940116527e+00
3.078146719932555619e+00
3.347996026277542114e-01
6.369550228118896484e-01
5.406284853816032548e-02
8.817697614431381226e-01
9.069550558924674433e-02
2.169125773012638148e-01
6.410305351018905640e-01
6.588532477617262684e-01
2.587330706417559356e-01
5.900375172495843368e-02
8.104180902242660300e-01
